<?xml version="1.0" encoding="UTF-8" standalone="no"?>
<svg xmlns:dc="http://purl.org/dc/elements/1.1/" xmlns:cc="http://creativecommons.org/ns#" xmlns:rdf="http://www.w3.org/1999/02/22-rdf-syntax-ns#" xmlns:svg="http://www.w3.org/2000/svg" xmlns="http://www.w3.org/2000/svg" xmlns:sodipodi="http://sodipodi.sourceforge.net/DTD/sodipodi-0.dtd" xmlns:inkscape="http://www.inkscape.org/namespaces/inkscape" viewBox="0 0 512 512" id="svg2" version="1.1" inkscape:version="0.91 r" sodipodi:docname="cs-user.svg">
<metadata id="metadata34">
<rdf:RDF>
<cc:Work rdf:about="">
<dc:format>image/svg+xml</dc:format>
<dc:type rdf:resource="http://purl.org/dc/dcmitype/StillImage" />
</cc:Work>
</rdf:RDF>
</metadata>
<defs id="defs32" />
<sodipodi:namedview pagecolor="#ffffff" bordercolor="#666666" borderopacity="1" objecttolerance="10" gridtolerance="10" guidetolerance="10" inkscape:pageopacity="0" inkscape:pageshadow="2" inkscape:window-width="707" inkscape:window-height="480" id="namedview30" showgrid="false" inkscape:zoom="0.4609375" inkscape:cx="488.13559" inkscape:cy="256" inkscape:window-x="0" inkscape:window-y="0" inkscape:window-maximized="0" inkscape:current-layer="svg2" />
<text font-size="208.33" y="549.52" x="-1160.48" font-family="Gentium Book Basic" line-height="125%" word-spacing="0" letter-spacing="0" id="text4">
<tspan y="549.52" x="-1160.48" id="tspan6" />
</text>
<text transform="scale(4.0128.2492)" font-size="75.7" y="1642.24" x="28.534" font-family="Arial" text-anchor="middle" id="text8" />
<path style="fill:#DBDBDB;fill-rule:evenodd" inkscape:connector-curvature="0" id="path28" d="m 255.74109,40.324237 c -62.32483,0 -113.00054,52.550734 -113.00054,117.958823 0,65.40097 50.68283,118.59998 113.00054,118.59998 62.32483,0 113.00053,-53.20186 113.00053,-118.59998 0,-65.400965 -50.68283,-117.958823 -113.00053,-117.958823 M 150.37461,307.1457 c -45.53077,11.34565 -83.279303,69.43456 -81.5553,140.67006 l 374.37928,0 c 1.62996,-71.23977 -36.46052,-129.35718 -82.09672,-140.67006 -29.4491,22.9962 -65.91104,36.603 -105.36648,36.603 -39.44832,0 -75.91311,-13.61393 -105.36648,-36.603" />
</svg>
