<?xml version='1.0' encoding='UTF-8'?>
<!-- Created with Inkscape (http://www.inkscape.org/) -->

<svg xmlns:cc='http://creativecommons.org/ns#' xmlns:inkscape='http://www.inkscape.org/namespaces/inkscape' xmlns:svg='http://www.w3.org/2000/svg' id='svg7384' xmlns:sodipodi='http://sodipodi.sourceforge.net/DTD/sodipodi-0.dtd' sodipodi:docname='mail-replied-symbolic.svg' version='1.1' inkscape:version='0.48.0 r9654' height='16' xmlns:dc='http://purl.org/dc/elements/1.1/' xmlns:rdf='http://www.w3.org/1999/02/22-rdf-syntax-ns#' xmlns='http://www.w3.org/2000/svg' width='16'>
  <metadata id='metadata90'>
    <rdf:RDF>
      <cc:Work rdf:about=''>
        <dc:format>image/svg+xml</dc:format>
        <dc:type rdf:resource='http://purl.org/dc/dcmitype/StillImage'/>
        <dc:title>Gnome Symbolic Icon Theme</dc:title>
      </cc:Work>
    </rdf:RDF>
  </metadata>
  <sodipodi:namedview inkscape:cy='-376.32726' pagecolor='#555753' borderopacity='1' showborder='false' inkscape:bbox-paths='false' guidetolerance='10' inkscape:window-width='1310' showguides='true' inkscape:object-nodes='true' inkscape:snap-bbox='true' inkscape:pageshadow='2' inkscape:guide-bbox='true' inkscape:snap-nodes='true' bordercolor='#666666' objecttolerance='10' id='namedview88' showgrid='false' inkscape:window-maximized='0' inkscape:window-x='52' inkscape:snap-global='true' inkscape:window-y='24' gridtolerance='10' inkscape:window-height='690' inkscape:snap-to-guides='true' inkscape:current-layer='layer9' inkscape:zoom='1' inkscape:cx='84.56551' inkscape:snap-grids='true' inkscape:pageopacity='1'>
    <inkscape:grid spacingx='1px' spacingy='1px' id='grid4866' empspacing='2' enabled='true' type='xygrid' snapvisiblegridlinesonly='true' visible='true'/>
  </sodipodi:namedview>
  <title id='title9167'>Gnome Symbolic Icon Theme</title>
  <defs id='defs7386'/>
  <g inkscape:label='status' transform='translate(-80.99995,-297)' inkscape:groupmode='layer' id='layer9' style='display:inline'>

    <g transform='translate(61.0002,1.000001)' id='g35737' style='opacity:0.25'/>
    <path inkscape:connector-curvature='0' d='M 89.000002,301.99999 87.999999,302 c -0.265308,3e-5 -0.530582,0.0931 -0.718754,0.28124 l -2.999999,3.00001 -0.281254,0.28125 2e-6,0.87499 0.281255,0.28126 3.000003,2.99999 c 0.188182,0.18821 0.45347,0.28121 0.718754,0.28121 l 1.000001,10e-6 3e-6,-1 c 3.8e-5,-0.26531 -0.0931,-0.53059 -0.281208,-0.71877 l -2.281257,-2.28124 2.281247,-2.28125 c 0.18815,-0.18817 0.281244,-0.45345 0.281249,-0.71875 l 3e-6,-1 z' id='path3613-6-6' style='font-size:medium;font-style:normal;font-variant:normal;font-weight:normal;font-stretch:normal;text-indent:0;text-align:start;text-decoration:none;line-height:normal;letter-spacing:normal;word-spacing:normal;text-transform:none;direction:ltr;block-progression:tb;writing-mode:lr-tb;text-anchor:start;color:#000000;fill:#DBDBDB;fill-opacity:1;stroke:none;stroke-width:2;marker:none;visibility:visible;display:inline;overflow:visible;enable-background:accumulate;font-family:Bitstream Vera Sans;-inkscape-font-specification:Bitstream Vera Sans'/>
    <path inkscape:connector-curvature='0' d='m 93,301 0,2.5 c 0,0.84027 -0.65973,1.5 -1.5,1.5 l -5.5,0 0,2 5.5,0 c 1.921152,0 3.5,-1.57885 3.5,-3.5 l 0,-2.5 -2,0 z' id='path35770' style='font-size:medium;font-style:normal;font-variant:normal;font-weight:normal;font-stretch:normal;text-indent:0;text-align:start;text-decoration:none;line-height:normal;letter-spacing:normal;word-spacing:normal;text-transform:none;direction:ltr;block-progression:tb;writing-mode:lr-tb;text-anchor:start;baseline-shift:baseline;color:#000000;fill:#DBDBDB;fill-opacity:1;stroke:none;stroke-width:2;marker:none;visibility:visible;display:inline;overflow:visible;enable-background:accumulate;font-family:Sans;-inkscape-font-specification:Sans'/>
  </g>
  <g inkscape:label='devices' transform='translate(-80.99995,-297)' inkscape:groupmode='layer' id='layer10'/>
  <g inkscape:label='apps' transform='translate(-80.99995,-297)' inkscape:groupmode='layer' id='layer11'/>
  <g inkscape:label='actions' transform='translate(-80.99995,-297)' inkscape:groupmode='layer' id='layer12'/>
  <g inkscape:label='places' transform='translate(-80.99995,-297)' inkscape:groupmode='layer' id='layer13'/>
  <g inkscape:label='mimetypes' transform='translate(-80.99995,-297)' inkscape:groupmode='layer' id='layer14'/>
  <g inkscape:label='emblems' transform='translate(-80.99995,-297)' inkscape:groupmode='layer' id='layer15' style='display:inline'/>
</svg>
