<?xml version='1.0' encoding='UTF-8'?>
<!-- Created with Inkscape (http://www.inkscape.org/) -->

<svg xmlns:cc='http://creativecommons.org/ns#' xmlns:inkscape='http://www.inkscape.org/namespaces/inkscape' xmlns:svg='http://www.w3.org/2000/svg' id='svg7384' xmlns:sodipodi='http://sodipodi.sourceforge.net/DTD/sodipodi-0.dtd' sodipodi:docname='printer-error-symbolic.svg' version='1.1' inkscape:version='0.47+devel r9385 custom' height='16' xmlns:dc='http://purl.org/dc/elements/1.1/' xmlns:rdf='http://www.w3.org/1999/02/22-rdf-syntax-ns#' xmlns='http://www.w3.org/2000/svg' width='16'>
  <metadata id='metadata90'>
    <rdf:RDF>
      <cc:Work rdf:about=''>
        <dc:format>image/svg+xml</dc:format>
        <dc:type rdf:resource='http://purl.org/dc/dcmitype/StillImage'/>
        <dc:title>Gnome Symbolic Icon Theme</dc:title>
      </cc:Work>
    </rdf:RDF>
  </metadata>
  <sodipodi:namedview inkscape:cy='-114.96208' pagecolor='#555753' borderopacity='1' showborder='false' inkscape:bbox-paths='false' guidetolerance='10' inkscape:window-width='1310' showguides='true' inkscape:snap-bbox='true' inkscape:pageshadow='2' inkscape:guide-bbox='true' inkscape:snap-nodes='false' bordercolor='#666666' objecttolerance='10' id='namedview88' showgrid='false' inkscape:window-maximized='0' inkscape:window-x='1960' inkscape:snap-global='true' inkscape:window-y='98' gridtolerance='10' inkscape:window-height='859' inkscape:snap-to-guides='true' inkscape:current-layer='layer9' inkscape:zoom='1' inkscape:cx='-9.29244' inkscape:snap-grids='true' inkscape:pageopacity='1'>
    <inkscape:grid spacingx='1px' spacingy='1px' id='grid4866' empspacing='2' enabled='true' type='xygrid' snapvisiblegridlinesonly='true' visible='true'/>
  </sodipodi:namedview>
  <title id='title9167'>Gnome Symbolic Icon Theme</title>
  <defs id='defs7386'/>
  <g inkscape:label='status' transform='translate(-241,-257)' inkscape:groupmode='layer' id='layer9' style='display:inline'>
    <g inkscape:label='accessories-calculator' transform='translate(193,-141)' id='g10938'>

    </g>
    <path inkscape:connector-curvature='0' d='m 243,261 c -0.5,0 -1,0.5 -1,1 l 0,4 c 0,0.5 0.5,1 1,1 l 1,0 0,-2 12,0.004 c 0,0 0,-1.38374 0,-3.00391 0,-0.5 -0.5,-1 -1,-1 z' id='path10944' sodipodi:nodetypes='ssssccccss' style='fill:#DBDBDB;fill-opacity:1;stroke:none'/>
    <path inkscape:connector-curvature='0' d='m 245,258 0,2 8,0 0,-2 -8,0 z' id='path10946' sodipodi:nodetypes='ccccc' style='fill:#DBDBDB;fill-opacity:1;stroke:none'/>
    <path inkscape:connector-curvature='0' d='m 245,266 0,5 4,0 -0.006,-5 z' id='path10948' sodipodi:nodetypes='ccccc' style='fill:#DBDBDB;fill-opacity:1;stroke:none'/>
    <path inkscape:connector-curvature='0' class='error' d='m 253.5,266 c -1.93299,0 -3.5,1.56701 -3.5,3.5 0,1.93299 1.56701,3.5 3.5,3.5 1.93299,0 3.5,-1.56701 3.5,-3.5 0,-1.93299 -1.56701,-3.5 -3.5,-3.5 z m -2.5,2.96875 5,0 0,1.03125 -5,0 0,-1.03125 z' id='path3482-5' style='color:#90A4AE;fill:#ef2929;fill-opacity:1;fill-rule:nonzero;stroke:none;stroke-width:1.90939796;marker:none;visibility:visible;display:inline;overflow:visible;enable-background:accumulate'/>
  </g>
  <g inkscape:label='devices' transform='translate(-241,-257)' inkscape:groupmode='layer' id='layer10'/>
  <g inkscape:label='apps' transform='translate(-241,-257)' inkscape:groupmode='layer' id='layer11'/>
  <g inkscape:label='actions' transform='translate(-241,-257)' inkscape:groupmode='layer' id='layer12'/>
  <g inkscape:label='places' transform='translate(-241,-257)' inkscape:groupmode='layer' id='layer13'/>
  <g inkscape:label='mimetypes' transform='translate(-241,-257)' inkscape:groupmode='layer' id='layer14'/>
  <g inkscape:label='emblems' transform='translate(-241,-257)' inkscape:groupmode='layer' id='layer15'/>
</svg>
