<?xml version="1.0" encoding="UTF-8" standalone="no"?>
<svg
   xmlns:dc="http://purl.org/dc/elements/1.1/"
   xmlns:cc="http://creativecommons.org/ns#"
   xmlns:rdf="http://www.w3.org/1999/02/22-rdf-syntax-ns#"
   xmlns:svg="http://www.w3.org/2000/svg"
   xmlns="http://www.w3.org/2000/svg"
   xmlns:sodipodi="http://sodipodi.sourceforge.net/DTD/sodipodi-0.dtd"
   xmlns:inkscape="http://www.inkscape.org/namespaces/inkscape"
   version="1.1"
   width="512"
   height="512"
   viewBox="0 0 512 512"
   id="svg2"
   inkscape:version="0.91 r"
   sodipodi:docname="applications-libraries.svg">
  <defs
     id="defs42" />
  <sodipodi:namedview
     pagecolor="#ffffff"
     bordercolor="#666666"
     borderopacity="1"
     objecttolerance="10"
     gridtolerance="10"
     guidetolerance="10"
     inkscape:pageopacity="0"
     inkscape:pageshadow="2"
     inkscape:window-width="643"
     inkscape:window-height="480"
     id="namedview40"
     showgrid="false"
     inkscape:zoom="0.4609375"
     inkscape:cx="256"
     inkscape:cy="256"
     inkscape:window-x="0"
     inkscape:window-y="0"
     inkscape:window-maximized="0"
     inkscape:current-layer="svg2" />
  <metadata
     id="metadata78">
    <rdf:RDF>
      <cc:Work
         rdf:about="">
        <dc:format>image/svg+xml</dc:format>
        <dc:type
           rdf:resource="http://purl.org/dc/dcmitype/StillImage" />
      </cc:Work>
    </rdf:RDF>
  </metadata>
  <text
     x="729.64"
     y="231.36"
     id="text20"
     font-family="Gentium Book Basic"
     word-spacing="0"
     line-height="125%"
     letter-spacing="0"
     font-size="129.23">
    <tspan
       x="729.64"
       y="231.36"
       id="tspan22" />
  </text>
  <text
     x="378.91"
     y="579.25"
     transform="scale(4.0128,0.2492)"
     id="text24"
     font-family="Arial"
     text-anchor="middle"
     font-size="46.954" />
  <text
     x="1310.91"
     y="151.36"
     id="text26"
     font-family="Gentium Book Basic"
     word-spacing="0"
     line-height="125%"
     letter-spacing="0"
     font-size="129.23">
    <tspan
       x="1310.91"
       y="151.36"
       id="tspan28" />
  </text>
  <text
     x="523.76"
     y="258.22"
     transform="scale(4.0128,0.2492)"
     id="text30"
     font-family="Arial"
     text-anchor="middle"
     font-size="46.954" />
  <text
     x="239.33"
     y="-29.901"
     id="text32"
     font-family="Gentium Book Basic"
     word-spacing="0"
     line-height="125%"
     letter-spacing="0"
     font-size="129.23">
    <tspan
       x="239.33"
       y="-29.901"
       id="tspan34" />
  </text>
  <text
     x="256.72"
     y="-469.14"
     transform="scale(4.0128,0.2492)"
     id="text36"
     font-family="Arial"
     text-anchor="middle"
     font-size="46.954" />
  <text
     x="1337.38"
     y="-246.37"
     id="text38"
     font-family="Gentium Book Basic"
     word-spacing="0"
     line-height="125%"
     letter-spacing="0"
     font-size="129.23">
    <tspan
       x="1337.38"
       y="-246.37"
       id="tspan40" />
  </text>
  <text
     x="530.36"
     y="-1337.81"
     transform="scale(4.0128,0.2492)"
     id="text42"
     font-family="Arial"
     text-anchor="middle"
     font-size="46.954" />
  <text
     x="1918.65"
     y="-326.38"
     id="text44"
     font-family="Gentium Book Basic"
     word-spacing="0"
     line-height="125%"
     letter-spacing="0"
     font-size="129.23">
    <tspan
       x="1918.65"
       y="-326.38"
       id="tspan46" />
  </text>
  <text
     x="675.21"
     y="-1658.85"
     transform="scale(4.0128,0.2492)"
     id="text48"
     font-family="Arial"
     text-anchor="middle"
     font-size="46.954" />
  <text
     x="1529.53"
     y="-798.78"
     id="text50"
     font-family="Gentium Book Basic"
     word-spacing="0"
     line-height="125%"
     letter-spacing="0"
     font-size="129.23">
    <tspan
       x="1529.53"
       y="-798.78"
       id="tspan52" />
  </text>
  <text
     x="578.24"
     y="-3554.51"
     transform="scale(4.0128,0.2492)"
     id="text54"
     font-family="Arial"
     text-anchor="middle"
     font-size="46.954" />
  <text
     x="2110.79"
     y="-878.78"
     id="text56"
     font-family="Gentium Book Basic"
     word-spacing="0"
     line-height="125%"
     letter-spacing="0"
     font-size="129.23">
    <tspan
       x="2110.79"
       y="-878.78"
       id="tspan58" />
  </text>
  <text
     x="723.09"
     y="-3875.54"
     transform="scale(4.0128,0.2492)"
     id="text60"
     font-family="Arial"
     text-anchor="middle"
     font-size="46.954" />
  <text
     x="277.99"
     y="535.94"
     id="text62"
     font-family="Gentium Book Basic"
     word-spacing="0"
     line-height="125%"
     letter-spacing="0"
     font-size="208.33">
    <tspan
       x="277.99"
       y="535.94"
       id="tspan64" />
  </text>
  <g
     transform="matrix(11.920103,0,0,11.920103,29.512277,29.526174)"
     id="g66"
     style="fill:#DBDBDB">
    <path
       d="m 5.594,4.172 c -0.551,0 -0.992,0.438 -0.992,0.984 l 0,27.699 c 0,0.547 0.441,0.985 0.992,0.985 l 5.613,0 c 0.555,0 0.996,-0.438 0.996,-0.985 l 0,-27.699 c 0,-0.547 -0.441,-0.984 -0.996,-0.984 z m 0.937,2.781 3.742,0 0,11.125 -3.742,0 z m 1.871,16.688 c 1.031,0 1.871,0.832 1.871,1.855 0,1.024 -0.839,1.856 -1.871,1.856 -1.035,0 -1.871,-0.832 -1.871,-1.856 0,-1.023 0.836,-1.855 1.871,-1.855"
       inkscape:connector-curvature="0"
       id="path68" />
    <path
       d="m 14.949,4.172 c -0.551,0 -0.992,0.438 -0.992,0.984 l 0,27.699 c 0,0.547 0.441,0.985 0.992,0.985 l 3.742,0 c 0.555,0 0.997,-0.438 0.997,-0.985 l 0,-27.699 c 0,-0.547 -0.442,-0.984 -0.997,-0.984 z m 0,2.781 3.742,0 0,11.125 -3.742,0 z m 1.871,16.688 c 1.035,0 1.871,0.832 1.871,1.855 0,1.024 -0.836,1.856 -1.871,1.856 -1.031,0 -1.871,-0.832 -1.871,-1.856 0,-1.023 0.84,-1.855 1.871,-1.855"
       inkscape:connector-curvature="0"
       id="path70" />
    <path
       d="m 21.297,5.148 c -0.531,0.145 -0.844,0.68 -0.703,1.207 l 7.234,26.758 c 0.145,0.527 0.688,0.835 1.219,0.695 l 3.613,-0.957 c 0.535,-0.145 0.848,-0.68 0.703,-1.207 L 26.129,4.886 C 25.988,4.358 25.445,4.05 24.914,4.19 Z m 0.726,2.688 3.618,-0.957 2.902,10.746 -3.613,0.961 z m 6.168,15.641 c 0.997,-0.266 2.024,0.324 2.289,1.312 0.27,0.988 -0.324,2.01 -1.32,2.27 -1,0.265 -2.023,-0.321 -2.293,-1.309 -0.265,-0.988 0.324,-2.01 1.324,-2.273"
       inkscape:connector-curvature="0"
       id="path72" />
  </g>
</svg>
