<?xml version="1.0" encoding="UTF-8" standalone="no"?>
<svg
   xmlns:dc="http://purl.org/dc/elements/1.1/"
   xmlns:cc="http://creativecommons.org/ns#"
   xmlns:rdf="http://www.w3.org/1999/02/22-rdf-syntax-ns#"
   xmlns:svg="http://www.w3.org/2000/svg"
   xmlns="http://www.w3.org/2000/svg"
   xmlns:sodipodi="http://sodipodi.sourceforge.net/DTD/sodipodi-0.dtd"
   xmlns:inkscape="http://www.inkscape.org/namespaces/inkscape"
   version="1.1"
   width="512"
   height="512"
   viewBox="0 0 512 512"
   id="svg2"
   inkscape:version="0.91 r"
   sodipodi:docname="applications-education.svg">
  <defs
     id="defs43" />
  <sodipodi:namedview
     pagecolor="#ffffff"
     bordercolor="#666666"
     borderopacity="1"
     objecttolerance="10"
     gridtolerance="10"
     guidetolerance="10"
     inkscape:pageopacity="0"
     inkscape:pageshadow="2"
     inkscape:window-width="640"
     inkscape:window-height="480"
     id="namedview41"
     showgrid="false"
     inkscape:zoom="0.4609375"
     inkscape:cx="256"
     inkscape:cy="256"
     inkscape:window-x="0"
     inkscape:window-y="0"
     inkscape:window-maximized="0"
     inkscape:current-layer="svg2" />
  <metadata
     id="metadata80">
    <rdf:RDF>
      <cc:Work
         rdf:about="">
        <dc:format>image/svg+xml</dc:format>
        <dc:type
           rdf:resource="http://purl.org/dc/dcmitype/StillImage" />
      </cc:Work>
    </rdf:RDF>
  </metadata>
  <text
     x="729.64"
     y="231.36"
     id="text20"
     font-family="Gentium Book Basic"
     word-spacing="0"
     line-height="125%"
     letter-spacing="0"
     font-size="129.23">
    <tspan
       x="729.64"
       y="231.36"
       id="tspan22" />
  </text>
  <text
     x="378.91"
     y="579.25"
     transform="scale(4.0128,0.2492)"
     id="text24"
     font-family="Arial"
     text-anchor="middle"
     font-size="46.954" />
  <text
     x="1310.91"
     y="151.36"
     id="text26"
     font-family="Gentium Book Basic"
     word-spacing="0"
     line-height="125%"
     letter-spacing="0"
     font-size="129.23">
    <tspan
       x="1310.91"
       y="151.36"
       id="tspan28" />
  </text>
  <text
     x="523.76"
     y="258.22"
     transform="scale(4.0128,0.2492)"
     id="text30"
     font-family="Arial"
     text-anchor="middle"
     font-size="46.954" />
  <text
     x="239.33"
     y="-29.901"
     id="text32"
     font-family="Gentium Book Basic"
     word-spacing="0"
     line-height="125%"
     letter-spacing="0"
     font-size="129.23">
    <tspan
       x="239.33"
       y="-29.901"
       id="tspan34" />
  </text>
  <text
     x="256.72"
     y="-469.14"
     transform="scale(4.0128,0.2492)"
     id="text36"
     font-family="Arial"
     text-anchor="middle"
     font-size="46.954" />
  <text
     x="1337.38"
     y="-246.37"
     id="text38"
     font-family="Gentium Book Basic"
     word-spacing="0"
     line-height="125%"
     letter-spacing="0"
     font-size="129.23">
    <tspan
       x="1337.38"
       y="-246.37"
       id="tspan40" />
  </text>
  <text
     x="530.36"
     y="-1337.81"
     transform="scale(4.0128,0.2492)"
     id="text42"
     font-family="Arial"
     text-anchor="middle"
     font-size="46.954" />
  <text
     x="1918.65"
     y="-326.38"
     id="text44"
     font-family="Gentium Book Basic"
     word-spacing="0"
     line-height="125%"
     letter-spacing="0"
     font-size="129.23">
    <tspan
       x="1918.65"
       y="-326.38"
       id="tspan46" />
  </text>
  <text
     x="675.21"
     y="-1658.85"
     transform="scale(4.0128,0.2492)"
     id="text48"
     font-family="Arial"
     text-anchor="middle"
     font-size="46.954" />
  <text
     x="1529.53"
     y="-798.78"
     id="text50"
     font-family="Gentium Book Basic"
     word-spacing="0"
     line-height="125%"
     letter-spacing="0"
     font-size="129.23">
    <tspan
       x="1529.53"
       y="-798.78"
       id="tspan52" />
  </text>
  <text
     x="578.24"
     y="-3554.51"
     transform="scale(4.0128,0.2492)"
     id="text54"
     font-family="Arial"
     text-anchor="middle"
     font-size="46.954" />
  <text
     x="2110.79"
     y="-878.78"
     id="text56"
     font-family="Gentium Book Basic"
     word-spacing="0"
     line-height="125%"
     letter-spacing="0"
     font-size="129.23">
    <tspan
       x="2110.79"
       y="-878.78"
       id="tspan58" />
  </text>
  <text
     x="723.09"
     y="-3875.54"
     transform="scale(4.0128,0.2492)"
     id="text60"
     font-family="Arial"
     text-anchor="middle"
     font-size="46.954" />
  <text
     x="277.99"
     y="535.94"
     id="text62"
     font-family="Gentium Book Basic"
     word-spacing="0"
     line-height="125%"
     letter-spacing="0"
     font-size="208.33">
    <tspan
       x="277.99"
       y="535.94"
       id="tspan64" />
  </text>
  <g
     transform="matrix(7.4508127,0,0,7.4508127,17.574354,26.606588)"
     id="g66"
     style="fill:#DBDBDB">
    <path
       d="m 18.314,22.833 c -0.741,-0.032 -1.69,0.04 -2.85,0.216 -1.159,0.178 -2.278,0.58 -3.356,1.208 -1.08,0.628 -2.01,1.562 -2.802,2.801 -0.788,1.24 -1.183,2.921 -1.183,5.05 0,1.642 0.242,3.02 0.725,4.128 0.483,1.111 1.142,1.997 1.979,2.657 0.837,0.66 1.803,1.111 2.898,1.352 1.095,0.242 2.254,0.314 3.478,0.217 1.031,-0.096 1.996,-0.306 2.898,-0.628 0.901,-0.322 1.803,-0.837 2.704,-1.545 0.321,0.676 0.708,1.224 1.16,1.642 0.45,0.418 0.997,0.628 1.641,0.628 0.322,0 0.668,-0.097 1.038,-0.29 0.371,-0.193 0.718,-0.451 1.039,-0.773 0.322,-0.321 0.571,-0.667 0.749,-1.039 0.177,-0.37 0.248,-0.732 0.218,-1.086 L 28.6,37.275 c -0.258,-1.159 -0.434,-2.149 -0.532,-2.97 -0.096,-0.822 -0.144,-1.715 -0.144,-2.681 0,-0.611 0,-1.271 0,-1.98 0,-0.74 0.016,-1.432 0.048,-2.077 0.032,-0.419 0.048,-0.821 0.048,-1.207 0,-0.418 0,-0.804 0,-1.159 l 0,-0.386 c 0,-0.483 -0.007,-1.086 -0.023,-1.812 -0.018,-0.724 -0.121,-1.473 -0.315,-2.245 -0.193,-0.773 -0.492,-1.529 -0.893,-2.271 -0.403,-0.74 -0.974,-1.4 -1.714,-1.98 -0.741,-0.579 -1.683,-1.039 -2.825,-1.376 -1.144,-0.338 -2.537,-0.458 -4.178,-0.362 -1.128,0.065 -2.191,0.233 -3.188,0.507 -0.998,0.273 -1.9,0.643 -2.704,1.11 -0.806,0.467 -1.482,1.015 -2.029,1.642 -0.548,0.628 -0.902,1.328 -1.062,2.101 0.031,0.451 0.08,0.708 0.145,0.773 0.161,0.354 0.354,0.741 0.579,1.159 0.226,0.418 0.532,0.627 0.918,0.627 l 0.048,0 c 0.194,0.032 0.467,0.041 0.821,0.024 0.355,-0.016 0.645,-0.089 0.87,-0.217 0.128,-0.064 0.256,-0.153 0.386,-0.266 0.128,-0.112 0.257,-0.218 0.387,-0.314 0.386,-0.322 0.908,-0.676 1.569,-1.062 0.659,-0.386 1.714,-0.628 3.164,-0.725 0.901,-0.032 1.633,0.048 2.198,0.241 0.562,0.193 0.997,0.459 1.304,0.797 0.306,0.338 0.514,0.717 0.627,1.135 0.112,0.418 0.169,0.821 0.169,1.207 -0.451,-0.161 -0.99,-0.297 -1.617,-0.41 -0.629,-0.11 -1.41,-0.198 -2.343,-0.262 m 3.912,6.326 c 0.064,0.162 0.112,0.362 0.146,0.604 0.031,0.241 0.048,0.507 0.048,0.797 0,0.515 -0.066,1.07 -0.194,1.667 -0.129,0.596 -0.403,1.167 -0.821,1.714 -0.549,0.419 -1.167,0.773 -1.86,1.062 -0.693,0.29 -1.489,0.435 -2.39,0.435 -1.16,0 -2.069,-0.314 -2.728,-0.942 -0.661,-0.627 -0.991,-1.473 -0.991,-2.535 0,-1.095 0.499,-2.053 1.498,-2.874 0.998,-0.821 2.302,-1.231 3.912,-1.231 0.677,0 1.295,0.129 1.859,0.386 0.563,0.258 1.069,0.563 1.521,0.917"
       inkscape:connector-curvature="0"
       id="path68" />
    <path
       d="m 30.924,28.703 c 0.193,0.129 0.376,0.217 0.549,0.268 0.144,0.176 0.329,0.292 0.553,0.352 0.225,0.058 0.454,0.072 0.695,0.039 0.235,-0.033 0.471,-0.107 0.707,-0.227 0.233,-0.117 0.419,-0.271 0.561,-0.458 0.349,0.714 0.832,1.301 1.448,1.758 0.617,0.457 1.39,0.894 2.318,1.311 1.184,0.53 2.39,0.793 3.619,0.787 1.229,-0.005 2.401,-0.24 3.516,-0.702 1.112,-0.463 2.129,-1.141 3.047,-2.041 0.92,-0.898 1.654,-1.962 2.206,-3.193 l 0.406,-0.905 c 0.562,-1.252 0.857,-2.487 0.886,-3.702 0.028,-1.213 -0.162,-2.343 -0.57,-3.391 -0.407,-1.048 -1.019,-1.969 -1.832,-2.767 -0.814,-0.796 -1.775,-1.388 -2.884,-1.775 -0.774,-0.264 -1.54,-0.39 -2.295,-0.381 -0.758,0.01 -1.396,0.064 -1.916,0.167 0.102,-0.291 0.215,-0.574 0.34,-0.853 0.124,-0.278 0.254,-0.567 0.391,-0.87 L 43.73,9.752 C 43.918,9.334 44.147,8.873 44.415,8.366 44.684,7.86 44.915,7.454 45.107,7.151 45.214,6.976 45.342,6.782 45.493,6.571 45.53,6.364 45.486,6.135 45.362,5.884 45.236,5.634 45.104,5.449 44.963,5.328 44.749,5.123 44.456,4.934 44.085,4.768 43.714,4.602 43.311,4.504 42.878,4.477 c -0.434,-0.026 -0.87,0.057 -1.305,0.251 -0.438,0.195 -0.802,0.56 -1.098,1.097 -0.182,0.281 -0.463,0.796 -0.839,1.547 -0.379,0.75 -0.806,1.625 -1.281,2.623 -0.477,0.999 -0.982,2.078 -1.513,3.232 -0.533,1.157 -1.048,2.291 -1.548,3.404 -0.208,0.466 -0.472,1.022 -0.792,1.674 -0.32,0.652 -0.665,1.327 -1.033,2.026 -0.412,0.792 -0.813,1.579 -1.208,2.363 -0.394,0.786 -0.726,1.48 -0.997,2.084 -0.125,0.278 -0.227,0.518 -0.303,0.722 -0.076,0.203 -0.145,0.402 -0.205,0.597 -0.253,0.5 -0.391,0.92 -0.418,1.256 -0.025,0.338 0.018,0.616 0.129,0.833 0.111,0.216 0.262,0.389 0.457,0.517 m 7.44,-7.263 0.094,-0.21 c 0.239,-0.532 0.498,-1.016 0.775,-1.451 0.278,-0.432 0.579,-0.854 0.904,-1.268 0.78,-0.372 1.542,-0.625 2.282,-0.752 0.741,-0.128 1.448,-0.042 2.121,0.26 0.744,0.332 1.338,0.852 1.791,1.556 0.452,0.704 0.539,1.579 0.265,2.628 0.038,0.1 0.043,0.257 0.019,0.467 -0.026,0.212 -0.075,0.448 -0.149,0.707 -0.074,0.261 -0.175,0.53 -0.299,0.806 -0.126,0.28 -0.24,0.536 -0.345,0.767 -0.66,1.349 -1.563,2.289 -2.707,2.82 -1.145,0.533 -2.308,0.534 -3.493,0.003 -0.604,-0.273 -1.067,-0.681 -1.392,-1.231 -0.326,-0.55 -0.625,-1.111 -0.899,-1.68 l -0.019,-0.049 c 0.169,-1.065 0.522,-2.19 1.052,-3.373"
       inkscape:connector-curvature="0"
       id="path70" />
    <path
       d="m 46.835,40.657 c -1.062,0.291 -2.07,0.763 -3.02,1.421 -0.954,0.658 -1.775,1.484 -2.465,2.477 -0.688,0.992 -1.173,2.02 -1.447,3.078 -0.276,1.06 -0.344,2.1 -0.201,3.117 0.138,1.017 0.488,1.977 1.046,2.879 0.556,0.902 1.333,1.673 2.337,2.314 0.622,0.401 1.303,0.699 2.042,0.895 0.742,0.196 1.459,0.282 2.158,0.261 0.697,-0.023 1.32,-0.167 1.868,-0.433 0.547,-0.266 0.94,-0.662 1.179,-1.184 0.14,-0.288 0.183,-0.608 0.133,-0.959 -0.053,-0.353 -0.226,-0.644 -0.526,-0.878 -0.157,-0.123 -0.319,-0.199 -0.481,-0.228 -0.163,-0.027 -0.409,-0.028 -0.741,-0.003 -0.569,0.037 -1.164,0.018 -1.786,-0.055 -0.622,-0.075 -1.132,-0.24 -1.528,-0.492 -0.506,-0.368 -0.894,-0.798 -1.162,-1.289 -0.269,-0.493 -0.421,-1.023 -0.457,-1.592 -0.041,-0.568 0.043,-1.156 0.247,-1.761 0.204,-0.606 0.533,-1.199 0.987,-1.781 0.384,-0.492 0.84,-0.938 1.364,-1.337 0.522,-0.398 1.057,-0.699 1.595,-0.9 0.54,-0.202 1.065,-0.302 1.576,-0.302 0.508,0.002 0.957,0.152 1.343,0.455 0.353,0.275 0.583,0.625 0.691,1.05 0.108,0.424 0.169,0.882 0.181,1.375 -0.139,0.288 -0.128,0.58 0.037,0.878 0.164,0.298 0.352,0.53 0.565,0.696 0.07,0.055 0.227,0.107 0.47,0.155 0.246,0.05 0.518,0.072 0.821,0.066 0.301,-0.005 0.598,-0.049 0.891,-0.133 0.292,-0.082 0.535,-0.232 0.732,-0.448 0.34,-0.359 0.532,-0.824 0.582,-1.396 0.049,-0.571 -0.036,-1.169 -0.257,-1.795 -0.222,-0.626 -0.558,-1.236 -1.015,-1.833 -0.456,-0.596 -1.01,-1.109 -1.668,-1.538 -0.883,-0.576 -1.853,-0.922 -2.909,-1.039 -1.055,-0.117 -2.117,-0.031 -3.178,0.259"
       inkscape:connector-curvature="0"
       id="path72" />
    <path
       d="m 32.42,40.484 c -0.048,-0.006 -0.101,-0.008 -0.16,-0.008 -0.179,0 -0.358,0 -0.537,0 -0.179,0 -0.349,0.021 -0.51,0.062 -0.161,0.042 -0.304,0.119 -0.429,0.232 -0.125,0.114 -0.224,0.284 -0.294,0.51 -0.06,0.095 -0.105,0.176 -0.135,0.242 -0.03,0.065 -0.033,0.158 -0.009,0.276 0.071,0.287 0.193,0.48 0.367,0.582 0.172,0.102 0.384,0.152 0.634,0.152 0.167,0 0.328,0 0.483,0 0.166,0 0.333,-0.006 0.5,-0.018 0.167,-0.011 0.328,-0.02 0.483,-0.026 0.154,-0.005 0.316,-0.009 0.482,-0.009 l 0.25,0 0,1 c 0,0.035 0,0.083 0,0.142 0,0.049 -0.005,0.102 -0.018,0.161 -0.012,0.096 -0.021,0.194 -0.027,0.295 -0.006,0.101 -0.008,0.217 -0.008,0.349 0,0.321 0.05,0.614 0.151,0.876 0.101,0.263 0.313,0.424 0.635,0.483 0.346,0.036 0.65,-0.045 0.912,-0.242 0.262,-0.197 0.393,-0.474 0.393,-0.832 0,-0.215 -0.003,-0.432 -0.008,-0.653 -0.007,-0.22 -0.016,-0.431 -0.027,-0.634 -0.012,-0.167 -0.019,-0.322 -0.019,-0.465 0,-0.143 0,-0.292 0,-0.448 l 1.431,0 c 0.203,0 0.381,-0.005 0.537,-0.018 0.154,-0.011 0.297,-0.045 0.428,-0.098 0.131,-0.054 0.25,-0.143 0.358,-0.268 0.108,-0.125 0.208,-0.301 0.304,-0.527 l 0.018,-0.018 c 0.095,-0.167 0.144,-0.328 0.144,-0.483 0,-0.107 -0.024,-0.2 -0.072,-0.278 -0.048,-0.077 -0.107,-0.137 -0.179,-0.179 -0.072,-0.042 -0.149,-0.074 -0.233,-0.098 -0.083,-0.024 -0.16,-0.042 -0.232,-0.054 -0.096,-0.012 -0.2,-0.02 -0.313,-0.026 -0.113,-0.006 -0.241,-0.009 -0.384,-0.009 -0.191,0 -0.393,0.003 -0.608,0.009 -0.214,0.006 -0.423,0.015 -0.625,0.026 -0.096,0.013 -0.191,0.018 -0.287,0.018 -0.082,0 -0.167,0 -0.25,0 0.011,-0.095 0.015,-0.13 0.01,-0.107 -0.007,0.024 -0.01,-0.012 -0.01,-0.107 l 0,-1.036 c 0,-0.024 0.003,-0.062 0.01,-0.116 0.005,-0.054 0.008,-0.098 0.008,-0.134 0.012,-0.155 0.015,-0.328 0.009,-0.518 -0.006,-0.191 -0.03,-0.37 -0.071,-0.537 -0.042,-0.167 -0.117,-0.307 -0.224,-0.42 -0.107,-0.113 -0.263,-0.169 -0.465,-0.169 -0.096,-0.037 -0.224,-0.06 -0.385,-0.072 -0.16,-0.012 -0.277,-0.012 -0.348,0 -0.214,0.036 -0.358,0.129 -0.429,0.277 -0.071,0.15 -0.114,0.301 -0.126,0.457 -0.011,0.095 -0.021,0.199 -0.027,0.313 -0.006,0.113 -0.008,0.242 -0.008,0.384 0,0.192 0.003,0.393 0.008,0.608 0.006,0.214 0.016,0.423 0.027,0.625 0,0.06 0.003,0.149 0.01,0.269 0.005,0.119 0.009,0.208 0.009,0.268 l -1,0 c -0.047,-0.002 -0.095,-0.004 -0.143,-0.011"
       inkscape:connector-curvature="0"
       id="path74" />
  </g>
</svg>
