<?xml version="1.0" encoding="UTF-8" standalone="no"?>
<svg
   xmlns:dc="http://purl.org/dc/elements/1.1/"
   xmlns:cc="http://creativecommons.org/ns#"
   xmlns:rdf="http://www.w3.org/1999/02/22-rdf-syntax-ns#"
   xmlns:svg="http://www.w3.org/2000/svg"
   xmlns="http://www.w3.org/2000/svg"
   xmlns:sodipodi="http://sodipodi.sourceforge.net/DTD/sodipodi-0.dtd"
   xmlns:inkscape="http://www.inkscape.org/namespaces/inkscape"
   version="1.1"
   width="512"
   height="512"
   viewBox="0 0 512 512"
   id="svg2"
   inkscape:version="0.91 r"
   sodipodi:docname="applications-education-university.svg">
  <defs
     id="defs48" />
  <sodipodi:namedview
     pagecolor="#ffffff"
     bordercolor="#666666"
     borderopacity="1"
     objecttolerance="10"
     gridtolerance="10"
     guidetolerance="10"
     inkscape:pageopacity="0"
     inkscape:pageshadow="2"
     inkscape:window-width="643"
     inkscape:window-height="480"
     id="namedview46"
     showgrid="false"
     inkscape:zoom="0.4609375"
     inkscape:cx="256"
     inkscape:cy="256"
     inkscape:window-x="0"
     inkscape:window-y="0"
     inkscape:window-maximized="0"
     inkscape:current-layer="svg2" />
  <metadata
     id="metadata90">
    <rdf:RDF>
      <cc:Work
         rdf:about="">
        <dc:format>image/svg+xml</dc:format>
        <dc:type
           rdf:resource="http://purl.org/dc/dcmitype/StillImage" />
      </cc:Work>
    </rdf:RDF>
  </metadata>
  <text
     style="font-size:129.22999573px;line-height:125%;font-family:'Gentium Book Basic';letter-spacing:0;word-spacing:0"
     sodipodi:linespacing="125%"
     font-size="129.23"
     letter-spacing="0"
     line-height="125%"
     word-spacing="0"
     id="text22"
     y="231.35997"
     x="729.64001">
    <tspan
       id="tspan24"
       y="231.35997"
       x="729.64001" />
  </text>
  <text
     style="font-size:46.95399857px;font-family:Arial;text-anchor:middle"
     font-size="46.954"
     id="text26"
     transform="scale(4.0128205,0.24920128)"
     y="579.25812"
     x="378.90805" />
  <text
     style="font-size:129.22999573px;line-height:125%;font-family:'Gentium Book Basic';letter-spacing:0;word-spacing:0"
     sodipodi:linespacing="125%"
     font-size="129.23"
     letter-spacing="0"
     line-height="125%"
     word-spacing="0"
     id="text28"
     y="151.35997"
     x="1310.91">
    <tspan
       id="tspan30"
       y="151.35997"
       x="1310.91" />
  </text>
  <text
     style="font-size:46.95399857px;font-family:Arial;text-anchor:middle"
     font-size="46.954"
     id="text32"
     transform="scale(4.0128205,0.24920128)"
     y="258.21997"
     x="523.75732" />
  <text
     style="font-size:129.22999573px;line-height:125%;font-family:'Gentium Book Basic';letter-spacing:0;word-spacing:0"
     sodipodi:linespacing="125%"
     font-size="129.23"
     letter-spacing="0"
     line-height="125%"
     word-spacing="0"
     id="text34"
     y="-29.900009"
     x="239.33">
    <tspan
       id="tspan36"
       y="-29.900009"
       x="239.33" />
  </text>
  <text
     style="font-size:46.95399857px;font-family:Arial;text-anchor:middle"
     font-size="46.954"
     id="text38"
     transform="scale(4.0128205,0.24920128)"
     y="-469.1264"
     x="256.71869" />
  <text
     style="font-size:129.22999573px;line-height:125%;font-family:'Gentium Book Basic';letter-spacing:0;word-spacing:0"
     sodipodi:linespacing="125%"
     font-size="129.23"
     letter-spacing="0"
     line-height="125%"
     word-spacing="0"
     id="text40"
     y="-246.37001"
     x="1337.38">
    <tspan
       id="tspan42"
       y="-246.37001"
       x="1337.38" />
  </text>
  <text
     style="font-size:46.95399857px;font-family:Arial;text-anchor:middle"
     font-size="46.954"
     id="text44"
     transform="scale(4.0128205,0.24920128)"
     y="-1337.802"
     x="530.3573" />
  <text
     style="font-size:129.22999573px;line-height:125%;font-family:'Gentium Book Basic';letter-spacing:0;word-spacing:0"
     sodipodi:linespacing="125%"
     font-size="129.23"
     letter-spacing="0"
     line-height="125%"
     word-spacing="0"
     id="text46"
     y="-326.37"
     x="1918.65">
    <tspan
       id="tspan48"
       y="-326.37"
       x="1918.65" />
  </text>
  <text
     style="font-size:46.95399857px;font-family:Arial;text-anchor:middle"
     font-size="46.954"
     id="text50"
     transform="scale(4.0128205,0.24920128)"
     y="-1658.8303"
     x="675.20654" />
  <text
     style="font-size:129.22999573px;line-height:125%;font-family:'Gentium Book Basic';letter-spacing:0;word-spacing:0"
     sodipodi:linespacing="125%"
     font-size="129.23"
     letter-spacing="0"
     line-height="125%"
     word-spacing="0"
     id="text52"
     y="-798.77002"
     x="1529.53">
    <tspan
       id="tspan54"
       y="-798.77002"
       x="1529.53" />
  </text>
  <text
     style="font-size:46.95399857px;font-family:Arial;text-anchor:middle"
     font-size="46.954"
     id="text56"
     transform="scale(4.0128205,0.24920128)"
     y="-3554.4807"
     x="578.237" />
  <text
     style="font-size:129.22999573px;line-height:125%;font-family:'Gentium Book Basic';letter-spacing:0;word-spacing:0"
     sodipodi:linespacing="125%"
     font-size="129.23"
     letter-spacing="0"
     line-height="125%"
     word-spacing="0"
     id="text58"
     y="-878.78003"
     x="2110.79">
    <tspan
       id="tspan60"
       y="-878.78003"
       x="2110.79" />
  </text>
  <text
     style="font-size:46.95399857px;font-family:Arial;text-anchor:middle"
     font-size="46.954"
     id="text62"
     transform="scale(4.0128205,0.24920128)"
     y="-3875.519"
     x="723.0863" />
  <text
     style="font-size:208.33000183px;line-height:125%;font-family:'Gentium Book Basic';letter-spacing:0;word-spacing:0"
     sodipodi:linespacing="125%"
     font-size="208.33"
     letter-spacing="0"
     line-height="125%"
     word-spacing="0"
     id="text64"
     y="535.94006"
     x="277.98999">
    <tspan
       id="tspan66"
       y="535.94006"
       x="277.98999" />
  </text>
  <g
     style="fill:#DBDBDB;fill-rule:evenodd"
     id="g68"
     transform="matrix(0.64627958,0,0,0.64627958,-700.23788,-274.20617)">
    <g
       id="g70"
       transform="translate(0,540.36)">
      <path
         id="path72"
         inkscape:connector-curvature="0"
         d="m 1470.5,13.781 -255.78,117.06 0,19.813 39.969,0 c -0.086,0.639 -0.125,1.28 -0.125,1.938 0,10.185 10.564,18.375 23.688,18.375 l 385.03,0 c 13.12,0 23.688,-8.19 23.688,-18.375 0,-0.657 -0.039,-1.298 -0.125,-1.938 l 39.906,0 0,-19.781 -256.25,-117.09" />
      <path
         id="path74"
         inkscape:connector-curvature="0"
         d="m 1278.16,426.44 c -13.06,0 -23.562,7.01 -23.562,15.719 l 0,3.75 0,2.281 0,18.219 433.38,0 0,-18.219 0,-2.281 0,-3.75 c 0,-8.707 -10.505,-15.719 -23.563,-15.719 l -386.25,0" />
    </g>
    <path
       id="path76"
       inkscape:connector-curvature="0"
       d="m 1243.4,1024.8 c -15.407,0 -27.803,7.01 -27.803,15.719 l 0,3.75 0,2.281 0,18.219 511.38,0 0,-18.219 0,-2.281 0,-3.75 c 0,-8.707 -12.396,-15.719 -27.803,-15.719 l -455.77,0" />
    <path
       id="path78"
       transform="translate(0,540.36)"
       inkscape:connector-curvature="0"
       d="m 1293.5,188.5 59.5,0 0,241 -59.5,0 z" />
    <path
       id="path80"
       inkscape:connector-curvature="0"
       d="m 1391.5,728.86 59.5,0 0,241 -59.5,0 z" />
    <path
       id="path82"
       inkscape:connector-curvature="0"
       d="m 1490,728.86 59.5,0 0,241 -59.5,0 z" />
    <path
       id="path84"
       inkscape:connector-curvature="0"
       d="m 1589.5,728.86 59.5,0 0,241 -59.5,0 z" />
  </g>
</svg>
