<?xml version="1.0" encoding="UTF-8" standalone="no"?>
<svg
   xmlns:dc="http://purl.org/dc/elements/1.1/"
   xmlns:cc="http://creativecommons.org/ns#"
   xmlns:rdf="http://www.w3.org/1999/02/22-rdf-syntax-ns#"
   xmlns:svg="http://www.w3.org/2000/svg"
   xmlns="http://www.w3.org/2000/svg"
   xmlns:xlink="http://www.w3.org/1999/xlink"
   xmlns:sodipodi="http://sodipodi.sourceforge.net/DTD/sodipodi-0.dtd"
   xmlns:inkscape="http://www.inkscape.org/namespaces/inkscape"
   height="512"
   viewBox="0 0 512 512"
   width="512"
   version="1.1"
   id="svg2"
   inkscape:version="0.91 r13725"
   sodipodi:docname="preferences-desktop-accessibility-pointing.svg">
  <defs
     id="defs17">
    <linearGradient
       xlink:href="#linearGradient7449"
       id="linearGradient26181"
       gradientUnits="userSpaceOnUse"
       x1="14"
       y1="8"
       x2="6"
       y2="16" />
    <linearGradient
       id="linearGradient7449">
      <stop
         style="stop-color:#ffffff;stop-opacity:1;"
         offset="0"
         id="stop7451" />
      <stop
         id="stop7457"
         offset="0.125"
         style="stop-color:#ffffff;stop-opacity:0" />
      <stop
         style="stop-color:#ffffff;stop-opacity:0;"
         offset="1"
         id="stop7453" />
    </linearGradient>
    <clipPath
       clipPathUnits="userSpaceOnUse"
       id="clipPath7445">
      <path
         inkscape:connector-curvature="0"
         id="path7447"
         d="m 8,2.6855469 0,14.0000001 3.132812,-3.820313 2.066407,4.986328 a 1.0001,1.0001 0 1 0 1.847656,-0.765624 L 12.935547,11.990234 17.314453,12 8,2.6855469 Z"
         style="fill:#333333;fill-opacity:1;fill-rule:evenodd;stroke:none;stroke-width:2;stroke-linecap:butt;stroke-linejoin:miter;stroke-miterlimit:4;stroke-dasharray:none;stroke-opacity:1" />
    </clipPath>
    <linearGradient
       xlink:href="#linearGradient13193"
       id="linearGradient26179"
       gradientUnits="userSpaceOnUse"
       x1="9"
       y1="22"
       x2="9"
       y2="2"
       gradientTransform="matrix(9.8935447,0,0,9.8935447,106.14954,146.38466)" />
    <linearGradient
       id="linearGradient13193">
      <stop
         style="stop-color:#000000;stop-opacity:1"
         offset="0"
         id="stop13195" />
      <stop
         style="stop-color:#333333;stop-opacity:1"
         offset="1"
         id="stop13197" />
    </linearGradient>
  </defs>
  <sodipodi:namedview
     pagecolor="#ffffff"
     bordercolor="#666666"
     borderopacity="1"
     objecttolerance="10"
     gridtolerance="10"
     guidetolerance="10"
     inkscape:pageopacity="0"
     inkscape:pageshadow="2"
     inkscape:window-width="1920"
     inkscape:window-height="1022"
     id="namedview15"
     showgrid="false"
     inkscape:zoom="0.9099002"
     inkscape:cx="-49.534412"
     inkscape:cy="364.51963"
     inkscape:window-x="0"
     inkscape:window-y="0"
     inkscape:window-maximized="1"
     inkscape:current-layer="svg2" />
  <metadata
     id="metadata28">
    <rdf:RDF>
      <cc:Work
         rdf:about="">
        <dc:format>image/svg+xml</dc:format>
        <dc:type
           rdf:resource="http://purl.org/dc/dcmitype/StillImage" />
        <dc:title></dc:title>
      </cc:Work>
    </rdf:RDF>
  </metadata>
  <path
     style="fill:#DBDBDB;fill-opacity:1;fill-rule:evenodd;stroke:none;stroke-width:2.66666651;stroke-linecap:butt;stroke-linejoin:miter;stroke-miterlimit:4;stroke-dasharray:none;stroke-opacity:1"
     d="m 171.12911,70.099967 0,291.527523 65.23588,-79.55186 43.0296,103.83213 a 20.825472,20.825472 0 1 0 38.47444,-15.94285 L 273.90394,263.8551 365.08758,264.05822 171.12911,70.099735 Z"
     id="path7371"
     inkscape:connector-curvature="0" />
</svg>
