<svg height="512" viewBox="0 0 512 512" width="512" xmlns="http://www.w3.org/2000/svg">
 <path d="m164.34 52.875c-3.0586 1.3572-6.0796 2.7899-9.0625 4.2812l99.22 186.78 4.5 8.4375 4.375-8.5 94.156-183.22c-2.9291-1.5943-5.8982-3.1312-8.9062-4.5938l-89.781 174.72-94.5-177.91zm-33.438 18.5c-2.7912 1.8803-5.5522 3.809-8.25 5.8125l81.875 151.53-169.12.5625c-.35691 3.3067-.63579 6.6508-.84375 10l178.34-.59375 8.3438-.0312-3.9688-7.3438-86.375-159.94zm248.16 2.6875l-86.406 157.69-4.0312 7.375 8.4062.0312 174.5.59375c-.20142-3.3592-.46126-6.7145-.8125-10.031l-165.25-.53125 81.719-149.12c-2.6562-2.0627-5.3733-4.0589-8.125-6zm-119.84 185.56l-4.5 8.4375-96.781 182.22c3.0053 1.4517 6.0764 2.8086 9.1562 4.125l91.969-173.19 87.312 169.88c3.0294-1.4304 6.0175-2.9367 8.9688-4.5l-91.75-178.47-4.375-8.5zm211.88 12.625l-173.81.59375-8.4062.0312 4.0312 7.375 84 153.28c2.7746-1.9079 5.5072-3.8445 8.1875-5.875l-79.38-144.83 164.28-.53c.44346-3.323.80113-6.6628 1.0938-10.031zm-436.06.46875c.29898 3.3581.64484 6.6873 1.0938 10l168.62.5625-79.625 147.44c2.7177 1.96 5.5032 3.8512 8.3125 5.6875l84.06-155.71 3.9688-7.3438-8.3438-.0312-178.09-.59375z" fill="#dbdbdb" fill-rule="evenodd"/>
 <path d="m261.41 131.31c-13.724.12133-27.204 1.9172-40.188 5.3125-.9693.25348-1.911.50903-2.875.78125-60.729 17.092-109.79 69.231-123.66 143.19-.05266.28025-.13662.5626-.1875.84375-1.1853 4.7921-2.2092 9.6741-3.0312 14.656l-1.125 6.75 4.875 4.8125c2.1992 2.168 4.4177 4.2364 6.625 6.25.0187.017.0126.0455.0312.0625 55.525 57.632 123.99 77.36 183.81 61.375 59.818-15.988 109.92-67.344 130.59-145.78.0652-.19546.0804-.20886.0312-.0625.0214-.0634.042-.12413.0625-.1875.0518-.19904.10448-.39382.15625-.59375 1.0425-3.1498 2.0343-6.3547 2.9688-9.625l2.1562-7.4688-5.4688-5.4688c-2.7535-2.7615-5.5563-5.4054-8.375-7.9688-.20886-.216-.4465-.40989-.65625-.625-44.523-45.75-96.737-66.683-145.75-66.25z" fill="#dbdbdb"/>
 <path d="m-26.034 124.75a66.169 66.169 0 1 1 -132.34 0 66.169 66.169 0 1 1 132.34 0z" fill="#dbdbdb" transform="matrix(1.2434 0 0 1.2434 370.65 100.89)"/>
 <path d="m-26.034 124.75a66.169 66.169 0 1 1 -132.34 0 66.169 66.169 0 1 1 132.34 0z" fill="#dbdbdb" transform="matrix(.66383 0 0 .66383 317.21 173.19)"/>
</svg>
