<svg height="512" viewBox="0 0 512 512" width="512" xmlns="http://www.w3.org/2000/svg">
 <path d="m148.64 389.48c2.22-5.355 4.375-13.256 6.465-23.705 2.22-10.448 4.571-22.399 7.05-35.851 2.481-13.583 5.159-28.15 8.03-43.687 3-15.542 6.334-30.953 9.991-46.23 3.787-15.411 8.03-30.17 12.734-44.28 4.702-14.236 9.991-26.774 15.868-37.614 6.01-10.971 12.734-19.656 20.18-26.06 7.444-6.53 15.738-9.795 24.88-9.795 7.836 0 15.02 2.351 21.55 7.05 6.661 4.702 12.734 11.167 18.219 19.395 5.485 8.098 10.448 17.632 14.889 28.602 4.571 10.84 8.75 22.464 12.538 34.871 3.918 12.408 7.444 25.27 10.579 38.594 3.134 13.191 6.01 26.19 8.62 38.986 2.743 12.669 5.289 24.815 7.64 36.439 2.481 11.624 4.832 22.01 7.05 31.15 1.175 4.963 2.547 10.122 4.114 15.477 1.698 5.224 3.134 10.775 4.31 16.652-5.747 0-11.493.065-17.24.196s-10.906.065-15.477-.196c-.261-7.836-1.372-16.195-3.33-25.08-1.959-8.881-4.702-17.566-8.228-26.06-3.396-8.62-7.575-16.783-12.538-24.488-4.833-7.706-10.253-14.301-16.26-19.787-5.877-5.616-12.277-9.861-19.2-12.734-6.792-2.873-13.975-3.722-21.55-2.547-5.616.784-11.04 2.482-16.26 5.094-5.224 2.612-9.795 5.943-13.714 9.991-3.788 4.049-6.726 8.751-8.816 14.11-1.959 5.224-2.547 10.971-1.763 17.24.653 5.224 2.22 9.208 4.702 11.95 2.612 2.612 5.551 4.179 8.816 4.702 3.396.522 6.922.131 10.579-1.175s6.857-3.33 9.599-6.073c2.873-2.743 4.963-6.073 6.269-9.991s1.306-8.228 0-12.93c1.437-.131 3.265.131 5.485.784 2.22.522 4.506 1.11 6.857 1.763s4.571 1.241 6.661 1.763 3.787.653 5.094.392c1.567 7.183 1.241 13.583-.98 19.2-2.22 5.485-5.551 10.122-9.991 13.909-4.31 3.788-9.404 6.661-15.281 8.62-5.747 1.959-11.428 2.939-17.04 2.939-8.098 0-14.758-1.371-19.983-4.114-5.224-2.743-9.208-6.4-11.95-10.971-2.743-4.571-4.375-9.73-4.898-15.477-.522-5.877-.065-11.82 1.371-17.828 1.437-6.138 3.722-12.146 6.857-18.02 3.134-5.877 6.922-11.1 11.363-15.673 4.571-4.702 9.73-8.489 15.477-11.363 5.747-3 11.95-4.636 18.611-4.898 3-.13 6.922.065 11.754.588 4.832.392 10.122 1.502 15.868 3.33 5.877 1.829 12.08 4.571 18.611 8.228 6.53 3.526 13.06 8.424 19.591 14.693-1.698-6.138-3.592-14.04-5.681-23.705-2.09-9.665-4.441-19.917-7.05-30.757-2.612-10.971-5.486-21.941-8.62-32.912-3.135-11.1-6.596-21.09-10.383-29.974-3.788-9.01-7.902-16.325-12.342-21.942-4.441-5.746-9.273-8.685-14.497-8.816-6.661-.13-12.865 2.743-18.611 8.62-5.616 5.747-10.84 13.648-15.673 23.705-4.702 9.926-9.01 21.419-12.93 34.48-3.788 13.06-7.183 26.709-10.187 40.945-3 14.236-5.551 28.603-7.64 43.1-2.09 14.367-3.788 27.884-5.094 40.553-1.175 12.669-1.959 23.966-2.351 33.892s-.327 17.501.196 22.725h-32.912" fill="#dbdbdb"/>
</svg>
