<svg width="512" height="512" version="1.1" viewBox="0 0 512 512" xmlns="http://www.w3.org/2000/svg">
 <g transform="matrix(1.2712 0 0 1.2712 -77.162 -42.527)" fill="#dbdbdb" stroke-width=".81679">
  <path d="m258.18 84.61c-8.4521 0-16.903 1.6878-23.158 5.0571l-94.895 51.088c-12.51 6.7353-12.498 18.202 0.01 24.937l94.878 51.088c12.507 6.7353 33.808 6.7353 46.314 0l94.878-51.088c12.51-6.7353 12.498-18.202-0.01-24.937l-94.87-51.088c-6.2535-3.3693-14.705-5.0571-23.158-5.0571z"/>
  <path d="m188.12 199.97-47.992 25.838c-12.51 6.7353-12.498 18.202 0.01 24.938l94.879 51.088c12.507 6.7353 33.808 6.7353 46.314 0l94.879-51.088c12.51-6.7353 12.496-18.202-0.0117-24.938l-47.977-25.836-46.891 25.25c-12.507 6.7353-33.808 6.7353-46.314 0z"/>
  <path d="m188.12 284.98-47.992 25.838c-12.51 6.7353-12.498 18.202 0.01 24.938l94.879 51.088c12.507 6.7353 33.808 6.7353 46.314 0l94.879-51.088c12.51-6.7353 12.496-18.202-0.0117-24.938l-47.977-25.836-46.891 25.25c-12.507 6.7353-33.808 6.7353-46.314 0z"/>
 </g>
</svg>
