<svg height="512" viewBox="0 0 512 512" width="512" xmlns="http://www.w3.org/2000/svg">
 <text x="729.64" y="231.36">
  
 </text>
 <text x="1310.91" y="151.36">
  
 </text>
 <text x="239.33" y="-29.9">
  
 </text>
 <text x="1337.38" y="-246.37">
  
 </text>
 <text x="1918.65" y="-326.37">
  
 </text>
 <text x="1529.53" y="-798.77">
  
 </text>
 <text x="2110.79" y="-878.78">
  
 </text>
 <text x="277.99" y="535.94">
  
 </text>
 <g fill="#dbdbdb" transform="matrix(1.5050195 0 0 1.5050195 -104.38402 -940.36782)">
  <path d="m139.71 676.08c-61.43 0-61.698 66.15-61.698 66.15v75.22c0 14.15 9.712 33.01 19.16 42.44 16.706 16.673 28.26 14.28 28.26 14.28 0 0 .157 4.649 4.882 18.796 4.725 14.15 18.626 23.678 32.802 23.678 14.176 0 19.16-4.882 19.16-4.882v-18.796c0 0-4.83.169-14.28-4.546-9.452-4.716-9.429-14.25-9.429-14.25 0 0 14.08-4.649 28.26-18.796 14.176-14.15 14.311-37.928 14.311-37.928v-70.7c0 0 .006-70.67-61.42-70.67m93.58 9.734l-14.311 37.592h-9.429v18.827h9.429v99.2c0 0 .083 23.343 23.709 23.343 23.626 0 28.29-9.398 28.29-9.398v-18.16c-.443 1.326-2.341 4.211-9.429 4.211-9.451 0-13.975-9.398-13.975-9.398v-89.8h23.404v-18.81h-23.404v-37.592h-14.28m-90.65 13.945c23.631 0 23.709 23.343 23.709 23.343v94.35c0 0-.083 33.05-23.709 33.05-23.631 0-23.709-33.05-23.709-33.05v-89.5c0 0 .083-28.19 23.709-28.19" fill-rule="evenodd"/>
  <text font-family="Sans" font-size="209.28" font-weight="bold" letter-spacing="0" line-height="125%" word-spacing="0" x="296.3" y="870.76">
   <tspan x="296.3" y="870.76">?</tspan>
  </text>
 </g>
</svg>
