<svg xmlns="http://www.w3.org/2000/svg" width="48" height="48">
 <path d="m 24.75,3.0000002 c -9.796587,0 -17.9868544,6.663729 -20.4375,15.6874998 l 3.40625,0 0,-0.90625 0,-4.1875 L 11,16.25 l 5.53125,4.53125 c 1.354117,-3.221359 4.505548,-5.5 8.21875,-5.5 4.943962,0 8.96875,4.024784 8.96875,8.96875 0,4.943962 -4.024788,8.96875 -8.96875,8.96875 -3.78853,0 -7.03474,-2.359201 -8.34375,-5.6875 L 11,31.9375 l -3.28125,2.65625 0,-4.21875 0,-0.90625 -3.5,0 C 6.5494402,38.668292 14.82891,45.5 24.75,45.5 36.47754,45.5 46,35.977536 46,24.25 46,12.522463 36.47754,3.0000002 24.75,3.0000002 z m 0,13.5624998 c -3.318047,0 -6.133911,2.088816 -7.21875,5.03125 l 1.1875,0.96875 0.375,0.28125 c 0.632276,-2.533626 2.925406,-4.40625 5.65625,-4.40625 3.219325,0 5.84375,2.593176 5.84375,5.8125 0,3.219325 -2.624425,5.84375 -5.84375,5.84375 -2.837573,0 -5.167608,-2.03425 -5.6875,-4.71875 l -0.34375,0.28125 -1.28125,1.03125 c 1.021309,3.059525 3.909527,5.25 7.3125,5.25 4.254107,0 7.6875,-3.433392 7.6875,-7.6875 0,-4.254108 -3.433393,-7.6875 -7.6875,-7.6875 z m -15.03125,1.21875 0,2.4375 0,0.46875 -0.46875,0 -5.8125,0 C 2.6395679,20.6875 2,21.358318 2,22.15625 L 2,26 c 0,0.797932 0.6395679,1.46875 1.4375,1.46875 l 5.8125,0 0.46875,0 0,0.46875 0,2.4375 7.71875,-6.28125 -7.71875,-6.3125 z M 22.8125,35.4375 c 0.254393,4e-6 0.525977,0.02541 0.75,0.09375 0.225915,0.06645 0.427555,0.177712 0.625,0.3125 l 0,0.59375 c -0.193647,-0.180351 -0.40478,-0.285768 -0.625,-0.375 -0.218327,-0.08922 -0.471952,-0.156246 -0.71875,-0.15625 -0.486011,4e-6 -0.83556,0.139443 -1.09375,0.4375 -0.258195,0.296165 -0.375001,0.750555 -0.375,1.3125 -1e-6,0.560052 0.116805,0.95194 0.375,1.25 0.25819,0.296163 0.607739,0.468751 1.09375,0.46875 0.246798,10e-7 0.500423,-0.03578 0.71875,-0.125 0.22022,-0.08923 0.431353,-0.225894 0.625,-0.40625 l 0,0.59375 c -0.201242,0.13669 -0.399084,0.244156 -0.625,0.3125 -0.224023,0.06834 -0.499404,0.09375 -0.75,0.09375 -0.643583,0 -1.129799,-0.200763 -1.5,-0.59375 -0.370203,-0.394881 -0.5625,-0.912197 -0.5625,-1.59375 0,-0.683447 0.192297,-1.232013 0.5625,-1.625 0.370201,-0.394879 0.856417,-0.593746 1.5,-0.59375 z m 2.28125,0.0625 1.15625,0 c 0.823934,4e-6 1.427107,0.187631 1.8125,0.53125 0.385386,0.341728 0.593746,0.864739 0.59375,1.59375 -4e-6,0.732812 -0.206465,1.281377 -0.59375,1.625 -0.387292,0.343625 -0.992363,0.53125 -1.8125,0.53125 l -1.15625,0 0,-4.28125 z m 0.5625,0.5 0,3.28125 0.6875,0 c 0.586626,10e-7 1.009766,-0.109214 1.28125,-0.375 0.273377,-0.265785 0.406247,-0.70791 0.40625,-1.28125 -3e-6,-0.56954 -0.132873,-0.986109 -0.40625,-1.25 C 27.353516,36.109218 26.930376,36.000004 26.34375,36 l -0.6875,0 z" fill="#dbdbdb"/>
</svg>
