<svg viewBox="0 0 512 512" xmlns="http://www.w3.org/2000/svg">
 <path d="m343.15 112.63c-4.966-.373-10.09.289-15.13 1.96-6.04 2.01-10.206 4.601-14.852 9.246-6.02 6.02-9.18 12.42-10.648 21.01-.812 4.75-1.397 6.547-2.802 9.525-5.385 11.42-17.13 19.332-28.863 19.332-.975 0-4.086-.177-7.01-.55-11.779-1.545-17.15-1.734-29.423-.55-3.314.317-7.339.55-8.687.55-5.827.004-9.373-2.192-11.769-7-1.49-2.992-2.023-4.491-1.962-9.806.05-4.45.15-4.98-.56-7-1.147-3.269-2.23-4.762-4.764-7.285-3.683-3.668-7.552-5.323-12.61-5.323-3.302.006-5.636.512-8.407 1.963-5.839 3.035-9.483 8.653-9.808 15.13-.226 4.495.638 7.185 3.082 10.928 1.775 2.717 3.915 4.684 7.846 6.724 4.242 2.198 6.502 4.282 8.407 8.125 1.207 2.43 1.121 2.655 1.121 5.322 0 2.518-.002 2.783-.841 4.482-.505 1.025-1.946 2.94-3.082 4.202-10.505 11.666-16.897 24.265-19.616 37.823-1.287 6.409-1.667 9.878-1.401 16.81.127 3.319.298 7.01.28 8.124-.096 6.346-4.619 10.72-14.291 14.01-2.334.792-3.392 1-6.445 1.122-2.37.102-4.256-.003-5.604-.279-1.209-.233-3.686-.279-6.165-.279-4.708 0-6.936.522-10.648 2.24-13.754 6.354-19.795 22.325-13.451 35.862 8.106 17.294 31.09 21.02 44.28 7.284 1.951-2.032 2.929-3.578 5.04-7.284.676-1.183 2.044-2.842 3.082-3.924 4.676-4.867 11.06-7.284 18.495-7.284 5.318 0 8.465 1.125 12.61 4.483 6.891 5.58 16.508 10.438 24.94 12.886 9.335 2.719 14.616 3.142 30.26 2.802 4.594-.102 6.01.149 8.126.55 5.863 1.174 11.587 3.442 16.533 6.725 3.642 2.417 9.639 8.416 12.05 12.05 3.255 4.904 5.664 11.07 6.445 15.968 1.312 8.234 2.872 13.13 5.604 18.491 7.401 14.515 20.622 24.24 36.989 27.18 4.507.801 14.228.634 18.775-.279 15.557-3.176 28.511-12.981 35.588-26.895 3.846-7.562 5.596-14.475 5.604-23.25.022-20.498-11.894-38.672-30.824-46.788-4.342-1.861-7.527-2.631-13.451-3.642-5.886-1.01-9.807-2.293-14.01-4.483-9.838-5.124-17.815-14.548-21.297-24.933-1.929-5.755-2.716-11.414-2.242-18.211.299-4.292.127-18.644-.28-28.576-.261-6.367.668-10.287 3.363-15.69 3.089-6.193 8.207-11.348 14.572-14.567 3.312-1.677 5.693-2.277 10.368-3.083 4.946-.848 8.476-1.941 12.33-3.923 8.884-4.56 15.592-12.332 18.775-21.852 1.355-4.054 1.681-7.4 1.681-12.05 0-4.664-.588-7.941-1.962-12.05-5.03-15.06-18.449-24.922-33.35-26.06zm-103.12 82.37c17.306-1.158 34.688 7.089 44.555 21.852 3.558 5.325 6.391 12.46 7.566 18.772.822 4.415.607 14.367-.28 18.49-2.583 11.999-8.854 22.13-18.214 29.417-7.773 6.05-16.45 9.27-26.621 10.08-2.035.168-4.154.307-4.484.279-3.67-.233-6.515-.634-8.967-1.12-20.489-4.178-35.608-20.28-38.951-41.18-.479-2.979-.481-11.795 0-14.57 1.949-11.244 6.075-19.534 13.731-27.18 4.44-4.434 8.08-7.01 13.17-9.525 4.242-2.101 6.868-3.218 11.209-4.202 2.456-.559 4.814-.956 7.286-1.121m5.324 18.771c-14.541-.857-27.793 8.407-31.665 22.972-.683 2.57-.841 3.196-.841 7.565 0 4.378.154 5.269.841 7.844 1.588 5.951 5.351 11.938 9.808 15.69 3.422 2.876 7.555 5.073 10.648 5.602 8.411 1.463 16.681-4.277 17.934-12.608v-1.12h-5.324c-3.834 0-5.835-.003-7.01-.279-6.824-1.779-11.489-7.949-11.489-14.849 0-4.228 1.427-7.874 4.483-10.927 2.888-2.883 6.774-4.481 10.648-4.481 6.897 0 13.691 5.245 15.13 12.04.323 1.527.276 4.873.28 15.689v13.73h1.681c3.484-.391 7.27-2.127 9.527-4.483 1.339-1.397 2.719-4.361 3.363-6.444.506-1.64.56-2.682.56-10.365 0-11.02-.376-13.573-3.363-19.331-3.743-7.216-11.225-13.09-19.06-15.13-2.104-.55-4.088-.997-6.165-1.119z" fill="#dbdbdb"/>
</svg>
