<svg xmlns="http://www.w3.org/2000/svg" height="512" width="512" version="1.1" viewBox="0 0 512 512">
 <path d="m251.51 46.733c-64.448 1.2892-113.6 34.198-135.69 63.659l139.33 102.47 43.29-161.55c-16.36-3.511-32.05-4.869-46.93-4.571m56.897 40.494-41.286 159.83-154.98 89.288c28.693 57.957 88.452 97.812 157.5 97.812 96.998 0 175.63-78.633 175.63-175.63 0-83.67-58.526-153.63-136.85-171.3m-204.9 47.3c-60.895 73.78-44.997 155.87-17.338 198.84l156.75-96.51-139.42-102.33" fill-rule="evenodd" fill="#dbdbdb"/>
</svg>
