<svg viewBox="0 0 512 512" xmlns="http://www.w3.org/2000/svg">
 <path d="m256 379.14c82.91 0 150.14-44.833 150.14-100.1 0-55.26-67.24-100.08-150.14-100.08-41.8 0-79.63 11.381-106.84 29.779v-75.913h-43.3v146.73c.37 55.02 67.44 99.6 150.12 99.6zm0-175.6c57.946 0 104.92 33.802 104.92 75.5s-46.975 75.52-104.92 75.52c-57.946 0-104.92-33.822-104.92-75.52s46.975-75.5 104.92-75.5" fill="#dbdbdb"/>
</svg>
