<svg height="512" viewBox="0 0 512 512" width="512" xmlns="http://www.w3.org/2000/svg">
 <g fill="#dbdbdb" transform="matrix(1.5151137 0 0 1.5151137 -34.900273 -34.897627)">
  <path d="m336.08 227.3c-6.629 8.105-16.66 12.918-27.28 12.824 0 0-67.906 0-67.906.016l.031-20.11c.008-3.109-1.566-3.676-3.469-1.211-8.793 11.371-31.2 41.699-31.2 55.641 0 13.934 22.402 44.27 31.2 55.637 1.902 2.465 3.477 1.902 3.469-1.211l-.031-20.03h34.609c8.348.059 16.473-4.227 20.938-11.957l40.02-69.35c1.555-2.699 1.59-2.664-.383-.254"/>
  <path d="m294.77 84.28l-17.355 10.06c.012 0-8.684-15.184-12.156-21.2-4.914-8.449-13.949-13.77-23.719-13.742-9.785.012-18.836 5.371-23.637 13.883-.02.016-7.98 13.723-15.984 27.672l16.15 27.973-17.563 9.84c-2.711 1.52-2.43 3.145.656 3.555 14.246 1.926 51.719 6.148 63.797-.824 12.06-6.969 27.13-41.512 32.59-54.813 1.18-2.879-.09-3.969-2.781-2.406"/>
  <path d="m278.22 152.52l-10.695 6.176c-13.48 7.781-18.1 25.02-10.309 38.492l20.594 35.668c16.09 0 31.945.008 31.961.008 9.801.074 18.918-5.164 23.828-13.621 4.879-8.461 4.836-18.996-.129-27.426 0-.012-7.621-13.199-16.746-28.996-7.789-13.477-25.03-18.09-38.504-10.301"/>
  <path d="m49.602 224.97l40.04 69.35c1.555 2.699 1.508 2.699.402-.211-3.691-9.781-2.855-20.887 2.531-30.05l33.961-58.809 17.398 10.09c2.695 1.563 3.969.48 2.785-2.398-5.449-13.301-20.52-47.867-32.586-54.832-12.08-6.965-49.555-2.734-63.797-.809-3.09.418-3.387 2.066-.688 3.613l17.402 9.988-17.324 29.98c-4.234 7.188-4.578 16.363-.125 24.09"/>
  <path d="m114.38 240.87c-8.02 13.93-15.965 27.672-15.977 27.695-4.953 8.418-5.01 18.926-.105 27.402 4.891 8.48 14.02 13.711 23.793 13.637h33.492c15.566 0 28.19-12.617 28.19-28.18v-12.375c0-15.563-12.613-28.18-28.18-28.18"/>
  <path d="m156.04 52.36c-8.926 0-16.453 5.03-20.789 12.13-3.992 6.473-13.781 23.445-22.17 38.08-7.738 13.504-3.043 30.781 10.434 38.566l10.922 6.301c13.48 7.781 30.703 3.156 38.48-10.328 13.887-24.06 33.754-58.49 38.926-67.39 5.332-9.184 14.09-15.27 24.273-16.91 3.078-.496 3.102-.445-.016-.445"/>
 </g>
</svg>
