<svg height="1814.17" viewBox="0 0 512 512" width="1814.17" xmlns="http://www.w3.org/2000/svg">
 <path d="m255.99997-116.02001c-19.799 0-35.738 15.09-35.738 33.823996v126.85h-23.1c-5.196 0-9.361 2.413001-9.361 5.401001v52.859993c0 16.28301 13.803 29.873 32.513 33.588v.0261l6.162 9.05-6.843 11.537 6.765 13.55599-6.765 8.993 72.05-.0522-6.135-10.724 6.765-10.95999-6.24-12.979 5.821-8.207v-.288c18.602-3.774 32.3-17.314 32.3-33.535v-52.860002c0-2.988-4.165-5.400997-9.361-5.400997h-23.1v-126.850001c.01-18.74-15.93-33.829-35.73-33.829zm-2.57 18.248994h5.139c4.288 0 7.735 6.06 7.735 13.582v128.850001h-20.609v-128.850001c0-7.524997 3.447-13.582 7.735-13.582m-25.591 280.970006c6.25 9.1 15.415 14.81401 25.669 14.81401h2.176c10.254 0 19.419-5.71801 25.669-14.81401h-53.51" fill="#dbdbdb" fill-rule="evenodd" transform="translate(0 215.00001)"/>
</svg>
