<svg height="512" viewBox="0 0 512 512" width="512" xmlns="http://www.w3.org/2000/svg">
 <path d="m85.691455 87.230529v62.984811h335.765105v-62.984811zm84.864415 15.270211c8.94416 0 16.22668 7.20264 16.22668 16.14719 0 8.94416-7.28277 16.22668-16.22668 16.22668-8.94416 0-16.22668-7.28278-16.22668-16.22668 0-8.94417 7.28277-16.14719 16.22668-16.14719zm165.99782 0c8.94416 0 16.18693 7.20264 16.18693 16.14719 0 8.94416-7.24277 16.22668-16.18693 16.22668-8.94417 0-16.18694-7.28278-16.18694-16.22668 0-8.94417 7.24277-16.14719 16.18694-16.14719zm-237.681903 64.58747v257.2729h54.890693c37.6037-20.97955 75.18687-41.98987 112.788-62.98481v-27.44534c6.82095 3.41047 13.53933 5.96448 20.23335 7.7328 3.83512.96775 7.65818 1.6219 11.41894 2.04346 12.76761-7.1225 25.57343-14.20475 38.34348-21.31547-.60579-5.23469-3.24598-9.28815-7.85307-12.14026-5.24213-3.34727-13.02391-5.00827-23.31944-5.00827h-14.58427v-23.51946h15.34586c9.15764.00009 15.98948-1.40496 20.47439-4.24706 4.484-2.90506 6.69107-7.26816 6.69119-13.14187-.00007-5.43137-2.09295-9.61241-6.45067-12.58094-4.35784-2.96826-10.55311-4.48733-18.51144-4.48746-5.87371.00014-11.82986.63709-17.82935 1.9632-5.99987 1.32637-12.01307 3.30047-17.94986 5.88986v-26.76453c7.19982-2.0209 14.36245-3.47676 21.43599-4.48747 7.07353-1.01036 14.09321-1.5224 20.91416-1.52253 18.3781.00013 32.05333 3.03224 41.14879 9.0952 9.15764 6 13.78293 15.07917 13.78293 27.20559-.00011 8.2736-2.17309 15.0484-6.53093 20.35386-4.35797 5.24214-10.86621 8.91109-19.39227 11.05841 9.53664 2.46323 16.82929 6.8153 21.75652 12.94185 2.54324 3.09071 4.41016 6.62568 5.64934 10.5776 10.14668 18.17681 20.29746 36.35746 30.45067 54.53042l6.4908-1.76293v-199.25636h-309.391623zm83.459193 55.25226c16.92545.00013 30.03782 3.68613 39.38586 11.13854 9.41035 7.45265 14.14321 17.88576 14.14321 31.21225-.00012 7.70524-2.03115 14.94199-6.01 21.636-3.97897 6.63158-12.32412 15.4651-25.08109 26.64402l-30.20963 26.56452h62.26297v26.80428h-102.77069v-26.80428l51.60587-45.55548c4.61042-4.16822 8.00641-8.28143 10.21706-12.2604 2.2104-3.97885 3.32547-8.04577 3.3256-12.34054-.00009-6.63145-2.24719-12.02461-6.7312-16.06641-4.42105-4.04193-10.32015-6.04988-17.70883-6.05013-5.68421.00014-11.91333 1.2231-18.67042 3.68613-6.75775 2.40015-13.97141 6.01821-21.67575 10.818v-31.05199c8.21039-2.71556 16.33951-4.82069 24.36053-6.2104 8.0209-1.4524 15.85358-2.16347 23.5592-2.1636zm181.62703 93.27521l-194.84582 108.7403h22.55785l202.7053-54.29835-30.4122-54.43939z" fill="#dbdbdb"/>
</svg>
