<svg height="512" viewBox="0 0 512 512" width="512" xmlns="http://www.w3.org/2000/svg">
 <path d="m280.29714 114.76271c-19.147-.49237-38.046 4.9061-43.874 31.991l10.361.18598c0-17.878 27.784-18.491 39.017-10.931-16.764 51.899-91.929 232.33-111.55 231.98l-10.361-.18598-10.361 19.149 20.723.37196c16.798.30151 45.594-55.66 71.883-114.72l55.369.99383c5.8192 49.656 12.554 96.472 17.809 106.66 10.293 19.959 31.084 19.893 51.807 10.597v-38.669c0 9.6674-10.59 16.597-20.723 9.2954-11.705-8.435-31.084-232.57-31.084-242.24-9.0663-.16272-24.125-4.0937-39.017-4.4766zm10.361 52.299c1.9948 22.276 4.857 53.718 8.5806 87.16l-44.684-.80204c14.265-33.002 27.024-64.254 36.103-86.358z" fill="#dbdbdb"/>
</svg>
