<svg height="512" viewBox="0 0 512 512" width="512" xmlns="http://www.w3.org/2000/svg">
 <path d="m126 127.12v85.938h125.22v-85.938zm208.62 11.531c-27.535 0-49.875 22.34-49.875 49.875s22.34 49.844 49.875 49.844 49.844-22.308 49.844-49.844c0-27.535-22.308-49.875-49.844-49.875zm-206.34 104.88v141.34h125.22v-141.34zm159.53 30.906v86.656h98.188v-86.656z" fill="#dbdbdb"/>
</svg>
