<svg xmlns="http://www.w3.org/2000/svg" width="48" height="48">
 <path d="M 6.1306818,2 C 5.7761863,2 5.5,2.2779089 5.5,2.6346154 l 0,42.7307696 C 5.5,45.722091 5.7761863,46 6.1306818,46 L 41.869319,46 C 42.223815,46 42.5,45.722091 42.5,45.365385 l 0,-42.7307696 C 42.5,2.2779089 42.223815,2 41.869319,2 L 6.1306818,2 z m 3.3636367,3.3846154 29.0113635,0 c 0.354496,0 0.630682,0.2779088 0.630682,0.6346154 l 0,8.8846152 c -5.820806,-5.0641708 -10.211138,-1.847704 -13.769886,4.653846 3.667358,-2.118014 8.0365,-2.665673 13.769886,-2.714743 l 0,10.153846 C 25.968264,32.30221 15.298491,29.031069 8.863636,28.61859 l 0,-9.836539 C 12.817518,17.912806 17.479908,17.959408 21.86269,19.099359 17.796613,13.41198 13.513256,11.845445 8.863636,15.996795 l 0,-9.9775642 c 0,-0.3567066 0.2761865,-0.6346154 0.6306825,-0.6346154 z m 29.6420455,28.5224356 0,8.073718 c 0,0.356707 -0.276186,0.634616 -0.630682,0.634616 l -29.0113635,0 c -0.354496,0 -0.6306825,-0.277909 -0.6306825,-0.634616 l 0,-6.804487 c 11.853925,9.375299 22.304716,5.272511 30.272728,-1.269231 z" fill="#dbdbdb"/>
</svg>
