<svg height="512" viewBox="0 0 512 512" width="512" xmlns="http://www.w3.org/2000/svg">
 <path d="m256 68.969c-52.388 0-94.844 42.324-94.844 94.531 0 2.9191.11516 5.7734.375 8.625 12.075-5.5513 25.517-8.625 39.688-8.625 6.6357 0 13.156.67702 19.406 1.9688-.0367-.65509-.0937-1.3046-.0937-1.9688 0-19.519 15.883-35.375 35.469-35.375s35.469 15.856 35.469 35.375c0 .66419-.0571 1.3136-.0937 1.9688 6.2511-1.2917 12.739-1.9688 19.375-1.9688 14.171 0 27.644 3.0737 39.719 8.625.25984-2.8516.375-5.7059.375-8.625 0-52.207-42.456-94.531-94.844-94.531zm-4.84 106.78c-49.283-.38262-89.909 54.119-74.812 101.25 11.602 45.531 67.82 73.445 110.56 52 7.5808-3.5743 16.261-8.7228 20.938-15.094-15.456-14.282.0294.0942-15.719-14.219-30.517 28.07-88.108 10.402-94.75-31.375-6.8344-30.688 14.371-65.305 46.406-69.281 17.582-3.1229 36.51 2.0825 49.438 14.469-6.2992 6.354-12.64 12.606-19.031 18.875 21.334 4.3946 40.467 8.0142 64.156 12.406-12.985-63.067-9.659-45.469-13.469-63.469-6.0132 5.1783-5.1633 3.8195-17.438 16.094-14.29-15.4-35.76-22.14-56.28-21.66zm121.34 47.75c-1.8922 20.784-10.558 39.641-23.75 54.344 11.561 5.8234 19.5 17.74 19.5 31.531 0 19.519-15.851 35.344-35.438 35.344-7.1661 0-13.86-2.1077-19.438-5.75-6.4082 19.41-18.916 36.051-35.312 47.625 15.467 10.913 34.356 17.312 54.75 17.312 52.388 0 94.844-42.324 94.844-94.531 0-38.08-22.599-70.901-55.156-85.875zm-234.22 7.3438c-32.558 14.974-55.156 47.795-55.156 85.875 0 52.207 42.456 94.531 94.844 94.531 20.394 0 39.283-6.399 54.75-17.312-16.396-11.574-28.904-28.215-35.312-47.625-5.5772 3.6423-12.271 5.75-19.438 5.75-19.586 0-35.438-15.825-35.438-35.344 0-13.791 7.9394-25.708 19.5-31.531-13.192-14.702-21.858-33.56-23.75-54.344z" fill="#dbdbdb"/>
</svg>
