<svg xmlns="http://www.w3.org/2000/svg" width="48" height="48">
 <path d="m 24.601562,2.717088 c -0.647612,0.01012 -1.252618,0.1229558 -1.833333,0.3151041 -1.548573,0.5123956 -2.832878,1.600342 -3.867187,2.8932292 -2.06862,2.5857738 -3.294112,6.1372417 -4.153646,8.8515627 -0.38419,0.219781 -0.638643,0.622448 -0.716146,1.088541 L 10.078125,36.748338 4.0911458,35.63115 2,40.24313 l 14.065104,2.979166 2.979167,-4.755208 -6.015625,-1.145833 3.953125,-20.882813 c 0.08893,-0.423871 -7.16e-4,-0.883237 -0.257813,-1.231771 -0.04591,-0.06224 -0.117249,-0.08945 -0.171875,-0.143229 0.838241,-2.615585 2.056004,-5.8642759 3.78125,-8.0208332 0.889433,-1.11179 1.865819,-1.9232795 2.979167,-2.2916667 1.113348,-0.3683871 2.376605,-0.3387534 3.981771,0.3723959 1.222467,0.5415997 1.993112,1.4545716 2.549479,2.4921875 -0.01001,-2.536e-4 -0.01864,2.19e-4 -0.02865,0 -2.230544,-0.048842 -4.431864,0.6907186 -6.1875,1.7473956 -1.755636,1.0566779 -3.099708,2.3808969 -3.523437,3.9244789 -1.410643,5.138772 3.083777,9.191313 7.476562,8.25 1.375912,-0.294837 2.415546,-1.416789 3.236979,-2.864583 0.821434,-1.447796 1.434524,-3.271009 1.690104,-5.184896 0.149043,-1.116075 0.132981,-2.259058 0,-3.380208 0.737813,0.379591 1.427231,0.894141 2.033855,1.690104 1.108361,1.454305 1.943945,3.79652 2.177083,7.247396 l -0.257813,0 c -4.010713,0 -7.247395,3.244145 -7.247395,7.247396 l 0,11.200521 c 1e-6,1.835242 0.174507,3.17341 0.54427,4.268229 0.369764,1.094819 0.993745,1.959373 1.804688,2.434896 1.621886,0.951046 3.330368,0.544271 4.898437,0.54427 l 2.263021,0 c 1.568172,0 3.299195,0.403649 4.927084,-0.54427 0.813947,-0.473959 1.430993,-1.339079 1.804687,-2.434896 C 45.829425,40.665542 46,39.329061 46,37.49313 l 0,-11.200521 c 0,-4.010713 -3.265328,-7.247396 -7.276042,-7.247396 l -0.143229,0 c -0.235366,-3.77198 -1.20028,-6.49045 -2.606771,-8.335938 C 34.892833,9.2907091 33.523851,8.5478101 32.078125,8.1025051 32.041765,7.9915901 32.032735,7.8681971 31.992185,7.7587546 31.324781,5.9572216 30.062779,4.3457717 28.067708,3.4618796 27.103134,3.0345361 26.145467,2.810472 25.260417,2.7457338 25.039153,2.7295492 24.817434,2.7137145 24.601562,2.717088 z m 5.184896,6.6744791 c 0.274262,0.006 0.506317,0.164877 0.773438,0.200521 0.236058,1.1645209 0.310633,2.3844299 0.143229,3.6380209 -0.225354,1.687538 -0.775253,3.346152 -1.460938,4.554687 -0.685685,1.208535 -1.530761,1.897403 -2.033854,2.005209 -3.12323,0.669263 -6.480111,-2.056454 -5.385416,-6.044271 0.202604,-0.738065 1.250933,-1.962329 2.75,-2.864584 1.499066,-0.9022549 3.41765,-1.5289069 5.213541,-1.4895829 z m 6.674479,17.8463539 2.263021,0 c 2.719121,0 4.898438,2.150672 4.898438,4.869792 l 0,2.921875 c -2e-6,1.68148 -0.190005,2.820594 -0.429688,3.523437 -0.136961,0.401626 -0.287777,0.633699 -0.429687,0.802084 l -0.171875,-0.143229 0.229166,-0.429688 0.372396,-0.773437 -0.830729,0.02864 -1.403646,0.02865 -0.05729,-0.02865 -0.716146,-0.515625 0.658854,-0.315104 0.458333,-0.229166 0.315104,0.486979 0.05729,0.114583 0.888021,-0.401042 -0.02865,-0.114583 0,-0.02865 -0.171875,-0.544271 0.458333,-0.229166 0.744792,-0.372396 -0.658854,-0.486979 -1.117188,-0.802084 -0.02865,-0.08594 -0.48698,-1.546875 -0.315104,1.03125 -0.601562,-0.429688 -0.716146,0.658855 0.830729,1.346354 -0.315104,1.03125 -0.229167,0.744791 -0.34375,-0.257812 0.372396,1.002604 -0.716146,0.02865 -0.171875,0.973958 1.489584,0.572917 0.08594,0.229167 c -0.243508,0.0031 -0.551188,0.0019 -0.830729,0 l -0.171875,-0.515625 -1.575521,0.229166 -0.830729,-0.6875 -0.888021,-0.716146 0.05729,1.145834 0.02865,0.486979 -0.34375,0.05729 c -0.222542,0.0012 -0.396713,-0.0015 -0.601563,0 l 0.744792,-0.372396 -0.6875,-0.486979 -1.117188,-0.83073 -0.02865,-0.05729 -0.458333,-1.546875 -0.315104,1.03125 -0.601563,-0.429688 -0.716145,0.658854 0.830729,1.375 -0.143229,0.48698 c -0.07599,-0.02626 -0.141133,-0.05111 -0.200521,-0.08594 -0.279473,-0.163881 -0.564341,-0.384619 -0.802084,-1.088542 -0.237742,-0.703922 -0.401041,-1.840841 -0.401041,-3.523437 l 0,-2.921875 c 0,-2.726581 2.150671,-4.869792 4.869791,-4.869792 z m -0.34375,3.4375 0.14323,1.145834 0.05729,0.486979 -0.6875,0.143229 0.114584,1.002604 0.716145,0.02865 0.05729,0.486979 0.114583,0.830729 0.6875,-0.486979 1.145834,-0.802083 0.05729,0 1.632813,0.05729 -0.888021,-0.630208 0.601563,-0.429687 -0.401042,-0.888021 -1.575521,0.34375 -0.859375,-0.630209 -0.916667,-0.658854 z m -2.778645,1.804688 -0.14323,0.830729 -0.229166,1.375 -0.02865,0.02865 -1.174479,1.145833 1.059896,-0.200521 -0.114584,0.716146 0.916667,0.34375 0.08594,-0.171875 0.744792,-1.174479 1.059896,-0.200521 1.117187,-0.200521 -0.916666,-0.6875 -0.401042,-0.315104 0.286458,-0.429687 0.02865,-0.02865 0.05729,-0.114584 -0.773438,-0.630208 -0.515625,0.515625 -0.401041,-0.315104 -0.658854,-0.486979 z m 5.01302,1.833333 -1.088541,1.174479 -1.03125,0 -1.145834,0 0.773438,0.859375 0.315104,0.34375 -0.458333,0.515625 0.658854,0.773438 0.601562,-0.401042 0.34375,0.372396 0.572917,0.601562 0.257813,-0.773437 0.458333,-1.317708 0.05729,-0.02865 1.375,-0.916667 -1.088542,0 0.229167,-0.6875 -0.83073,-0.515625 z" fill="#dbdbdb"/>
</svg>
