<svg viewBox="0 0 512 512" xmlns="http://www.w3.org/2000/svg">
 <path d="m256.28 105.99c-.443 0-.886.133-1.329.354-1.373.044-2.701.531-3.897 1.284 0 0-.133.133-.177.266-3.543 1.461-5.757 3.809-7.484 5.89-2.524 3.056-4.783 6.599-7.04 10.584-4.783 8.104-9.566 18.378-14.304 28.564-4.871 10.363-9.743 20.77-13.729 28.697-1.949 3.897-3.809 7.219-5.226 9.61-.31.576-.753.93-1.063 1.417-.487.133-.974.399-1.727.487-2.48.576-6.067 1.506-10.319 2.303-8.503 1.461-19.441 2.746-30.11 4.384-10.939 1.771-21.523 3.676-30.38 5.713-4.296.93-8.149 1.904-11.603 3.321-1.86.93-3.543 1.594-5.403 2.967-1.816 1.373-4.296 3.277-5.624 7.617-1.373 4.473-.531 7.617.177 9.92.797 2.391 1.55 3.941 2.48 5.713 1.949 3.321 4.65 6.687 7.573 10.1 5.846 7.086 13.773 15.15 21.478 23.25 8.02 8.06 15.721 15.766 21.877 22.01 2.967 3.277 5.669 6.2 7.219 8.237.487.576.62.93.93 1.506v1.594c-.089 2.746-.487 6.51-1.019 10.894-1.417 8.901-3.366 20.283-5.27 31.576-1.86 11.381-3.543 22.763-4.384 31.974-.443 4.65-.797 8.636-.443 12.754.089 1.904.443 4.119 1.107 6.289.62 2.303 1.594 5.226 5.181 8.02 3.454 2.701 6.643 2.79 8.946 2.701 2.17 0 3.941-.31 5.801-.797 3.72-.93 7.263-2.524 11.47-4.384 8.193-3.764 18.16-8.724 27.944-14.171 9.699-5.314 19.22-10.983 26.881-15.15 3.809-2.037 7.219-3.631 9.566-4.694.62-.31 1.063-.31 1.594-.399.531.089.974.089 1.55.399 2.391 1.019 5.801 2.657 9.61 4.694 7.661 4.163 17.18 9.654 27.01 15.15 9.699 5.27 19.618 10.407 27.811 14.171 4.207 1.86 7.75 3.41 11.47 4.384 1.86.487 3.676.797 5.801.797 2.303.133 5.359 0 8.99-2.701 3.41-2.834 4.384-5.713 5.137-8.02.797-2.303 1.019-4.384 1.107-6.289.354-3.986 0-8.06-.443-12.754-.886-9.344-2.657-20.593-4.384-31.974-1.86-11.381-3.853-22.763-5.226-31.576-.576-4.429-.93-8.149-1.107-10.894v-1.594c.354-.576.487-.93.974-1.506 1.55-2.037 4.207-4.96 7.219-8.237 6.111-6.244 13.906-14.13 21.877-22.01 7.75-8.104 15.588-16.16 21.523-23.25 2.879-3.41 5.536-6.776 7.529-10.1.93-1.771 1.816-3.321 2.48-5.713.841-2.303 1.55-5.359.31-9.92-1.373-4.34-3.809-6.244-5.669-7.617s-3.676-2.17-5.403-2.967c-3.41-1.417-7.263-2.391-11.736-3.321-8.68-2.037-19.397-3.941-30.336-5.713-10.85-1.771-21.788-2.923-30.11-4.384-4.251-.841-7.75-1.594-10.363-2.303-.62-.089-1.24-.354-1.771-.487-.354-.487-.797-.841-1.019-1.417-1.417-2.391-3.277-5.713-5.226-9.61-3.897-8.02-8.724-18.467-13.64-28.697-4.871-10.186-9.61-20.46-14.304-28.564-2.303-3.986-4.65-7.529-7.086-10.584-2.391-3.01-4.207-7.661-12.843-7.661" fill="#dbdbdb"/>
</svg>
