<svg width="512" height="512" version="1.1" viewBox="0 0 512 512" xmlns="http://www.w3.org/2000/svg">
 <path class="ColorScheme-Text" d="m149.63 65.684 0.40934 302.68 102.83 6.4992 25.501 58.177 38.334-17.63-27.858-56.947 70.703-86.908z" fill="#dbdbdb" stroke-width="26.239"/>
</svg>
