<svg height="512" viewBox="0 0 512 512" width="512" xmlns="http://www.w3.org/2000/svg">
 <g fill="#dbdbdb" fill-rule="evenodd" transform="matrix(1.2329988 0 0 1.2329988 -53.793128 -60.003913)">
  <path d="m368.96094 180.48242l-.041.0703-98.27539-56.74023c-7.51971 8.4399-15.31307 18.41714-19.89062 26.3457-5.31786 9.2108-10.33676 18.98245-14.88868 28.90821-11.53552-3.02881-42.73443-8.974-50.82031 12.60937-11.02721 29.43458-1.37695 65.22656-1.37695 65.22656 0 0-.13187 2.35802 2.25781 4.28711 3.05977 2.46595 2.95508-.084 2.95508-.084 0 0 2.2374-13.76875 8.33594-32.61719 2.82963-8.74488 13.56425-7.30121 21.77343-4.70703-4.19718 14.42624-7.57018 32.73226-7.80078 43.53711l63.17774 36.47656c9.24197-5.60213 23.40783-17.67544 33.80273-28.52344 6.35122 5.81228 12.97097 14.38405 6.8125 21.20704-13.27397 14.7057-24.08008 23.52929-24.08008 23.52929 0 0-2.25923 1.18279 1.40625 2.59961 2.86549 1.10497 4.83985-.1875 4.83985-.1875 0 0 35.82134-9.53755 55.79883-33.80469 14.6488-17.79425-6.09945-41.84075-14.49024-50.3164 6.31999-8.90496 12.27394-18.13881 17.5918-27.34961 4.62181-8.00522 9.35194-19.7181 12.91211-30.4668z"/>
  <path d="m348.45312 79.978516c-15.56798.619035-41.14284 9.638069-66.1289 31.859374l91.1914 52.64844c8.99146-43.62634-2.91698-76.56017-13.20507-82.500002-2.57203-1.484958-6.65686-2.214604-11.85743-2.007812z"/>
  <path d="m9.0000002 39c-4.0000002 0-6.5000002-3-7.4000246-5 0 0 4.900027 13 19.4000254 13 14.499998 0 19.400022-13 19.400023-13-.900024 2-3.400024 5-7.400024 5-3.729303 0-7.458605-3.479128-7.946282-8h-1.103209c-.144922 1.791584-.71421 5.500951-2.950509 6.997464-2.236299-1.496513-2.805587-5.20588-2.950509-6.997464h-1.103209c-.487677 4.520872-4.216979 8-7.9462818 8z" transform="matrix(-7.0196881 -4.0528189 -4.0528189 7.0196881 507.72326 167.09501)"/>
 </g>
</svg>
