<svg viewBox="0 0 512 512" xmlns="http://www.w3.org/2000/svg">
 <path d="m157.47 100.52c-5.286 0-9.563 4.142-9.563 9.281v126.09c0 5.14 4.276 9.25 9.563 9.25h197.06c5.286 0 9.563-4.11 9.563-9.25v-126.09c0-5.14-4.276-9.281-9.563-9.281zm23.469 19.437h150.13c3.757 0 6.781 3.02 6.781 6.781v92.19c0 3.757-3.02 6.781-6.781 6.781h-150.12c-3.757 0-6.781-3.02-6.781-6.781v-92.19c0-3.757 3.02-6.781 6.781-6.781m-23.469 146.91c-5.286 0-9.563 4.142-9.563 9.281v126.09c0 5.14 4.276 9.25 9.563 9.25h197.06c5.286 0 9.563-4.11 9.563-9.25v-126.09c0-5.14-4.276-9.281-9.563-9.281zm23.469 19.438h150.13c3.757 0 6.781 3.02 6.781 6.781v92.19c0 3.757-3.02 6.781-6.781 6.781h-150.12c-3.757 0-6.781-3.02-6.781-6.781v-92.19c0-3.757 3.02-6.781 6.781-6.781" fill="#dbdbdb" fill-rule="evenodd"/>
</svg>
