<svg viewBox="0 0 512 512" xmlns="http://www.w3.org/2000/svg">
 <text x="729.64" y="231.36">
  
 </text>
 <text x="1310.91" y="151.36">
  
 </text>
 <text x="239.33" y="-29.9">
  
 </text>
 <text x="1337.38" y="-246.37">
  
 </text>
 <text x="1918.65" y="-326.37">
  
 </text>
 <text x="1529.53" y="-798.77">
  
 </text>
 <text x="2110.79" y="-878.78">
  
 </text>
 <text x="277.99" y="535.94">
  
 </text>
 <path d="m249.49 130.37c-72.37 0-131.05 58.674-131.05 131.05 0 72.38 58.675 131.05 131.05 131.05 72.37 0 131.05-58.674 131.05-131.05 0-1.105-.139-2.175-.166-3.275.042-.562.166-1.093.166-1.662v-104.07c0-12.209-9.829-22.04-22.04-22.04h-104.07c-.569 0-1.104.128-1.662.162-1.099 0-2.169-.162-3.274-.162" fill="#dbdbdb"/>
</svg>
