<svg height="512" viewBox="0 0 512 512" width="512" xmlns="http://www.w3.org/2000/svg">
 <path d="m256 56.563594a199.43641 199.43641 0 0 0 -199.436406 199.436406 199.43641 199.43641 0 0 0 199.436406 199.43641 199.43641 199.43641 0 0 0 199.43641-199.43641 199.43641 199.43641 0 0 0 -199.43641-199.436406zm56.02917 29.999594c5.60915.06547 10.53273.807088 16.29768 1.755972 24.01029 3.95134 48.41008 21.53446 63.19641 47.15892 19.95923 34.5695 15.4875 76.2408-7.29189 99.56551-11.43643 11.71689-14.84866 12.35572-22.32752 17.38837 5.09497-8.0242 6.66865-11.12481 6.65307-17.77789 0-4.17571-1.32438-7.58794-2.07226-9.51997-2.89807-7.3698-8.03979-10.45483-14.05404-14.01507-7.38539-4.3736-15.92375-5.71667-21.28361-5.70576-4.16011.01-6.31029.0232-11.77921 1.40696-25.95789 6.55024-54.2841-3.64439-67.96419-27.3337l.0155.002c-16.36002-28.31997-6.07659-64.87292 23.01308-81.658292 8.56954-4.943836 18.61926-9.685145 27.98343-10.750871 2.57086-.292923 4.92359-.450299 7.15166-.501712.84138-.02018 1.65159-.02486 2.4618-.0155zm-153.50526 66.885992c5.16975.0653 10.26941.71516 15.2039 1.97411 15.86766 4.05105 18.13314 6.69513 26.23835 10.64803-9.50439-.39576-12.98051-.20411-18.73611 3.12867-3.61167 2.09251-5.91143 4.93604-7.19686 6.54868-4.94227 6.19809-5.04201 12.19834-5.1199 19.18172-.0951 8.58201 3.01024 16.64204 5.7042 21.27582 2.08784 3.61478 3.17072 5.45334 7.10803 9.50439 18.65199 19.19574 23.98378 48.83076 10.30681 72.52941v-.0155c-16.34912 28.32621-53.14669 37.69037-82.22856 20.89408-8.56642-4.93917-17.69531-11.28061-23.298233-18.85296-6.159148-8.32024-8.739361-14.72403-11.880488-23.05984-8.588851-22.77937-5.556161-52.69483 9.237972-78.31308 16.841449-29.16756 46.752239-45.8018 74.660889-45.44344zm166.03079 136.82895c32.68889 0 59.20769 27.18879 59.20769 60.76579-.0155 9.8939-.93485 20.97198-4.68987 29.60383-4.12896 9.5044-8.38256 14.92656-14.02287 21.81337-15.42516 18.83738-42.84767 31.16193-72.43593 31.16193-39.91844 0-73.7759-24.69583-82.58537-56.09148-4.42499-15.76795-3.26576-19.03995-3.89524-28.04575 4.40941 8.42931 6.31653 11.34294 12.08148 14.66169 3.61479 2.08784 7.22957 2.64876 9.27068 2.96038 7.83723 1.18415 13.07244-1.72948 19.16459-5.1573 7.47887-4.20687 12.90104-10.92225 15.58097-15.58097 2.07226-3.61479 3.13177-5.46893 4.67429-10.90667 7.29191-25.75534 30.2894-45.18482 57.64958-45.18482z" fill="#dbdbdb"/>
</svg>
