<svg height="512" viewBox="0 0 512 512" width="512" xmlns="http://www.w3.org/2000/svg">
 <path d="m263.02 110.17c-33.469 1.054 89.17 165.34-5.269 154.85 78.75 21.18 96.79-77.53 80.71-125.82-15.932-47.832-24.22-17.99-71.7-28.613-1.417-.317-2.658-.454-3.737-.419m-93.84 22.893c-51.77-.066-25.1 16.813-50.17 57.38-23.95 38.743 189.19-30.647 148.46 56.04 45.08-66.18-46.03-113.35-98.29-113.42m36.431 74.17c-41.42-.096-83.11 45.597-94.76 80.27-16.06 47.79 8.707 28.377 40.689 64.07 30.544 34.09 28.45-184.2 100.76-119.79-14.312-17.462-30.481-24.515-46.689-24.552m179.45 7.735c-25.72-1.945-131.09 129.99-148.47 46.823 3.587 79.28 105.85 65.43 148.17 35.656 41.924-29.495 10.128-27.922 5.86-75.05-.446-4.923-2.403-7.185-5.561-7.424m-151.84 26.28c-76.54 27.811-31.371 117.97 10.868 147.85 41.842 29.603 30.479.729 75.32-17.777 42.827-17.674-171.61-83.19-86.19-130.08" fill="#dbdbdb" fill-rule="evenodd"/>
</svg>
