<svg height="512" viewBox="0 0 512 512" width="512" xmlns="http://www.w3.org/2000/svg">
 <path d="m169.28 414.06c-11.667 0-21.335 12.952-23.219 29.969 14.182 7.9625 29.338 14.392 45.25 19.062 1.0212-4.0327 1.5625-8.4184 1.5625-13 0-19.907-10.576-36.031-23.594-36.031zm23.594 36.031c0 5.1822.94975 10.029 2.5625 14.188 9.2437 2.5156 18.719 4.4273 28.406 5.7188 3.364-5.0594 5.4375-12.117 5.4375-19.906 0-15.383-8.128-27.844-18.188-27.844s-18.219 12.461-18.219 27.844zm149.85-36.03c-13.018 0-23.594 16.124-23.594 36.031 0 3.9509.41991 7.7543 1.1875 11.312 15.95-5.1445 31.102-12.06 45.219-20.531-2.6703-15.432-11.88-26.812-22.812-26.812zm-23.6 36.03c0-15.383-8.1592-27.844-18.219-27.844s-18.188 12.461-18.188 27.844c0 7.4058 1.8848 14.132 4.9688 19.125 10.095-1.6052 19.977-3.9081 29.562-6.8438 1.1955-3.7104 1.875-7.8677 1.875-12.281zm-191.62-27.84c-3.2324 0-6.2427 1.3071-8.875 3.5625 8.3931 6.5398 17.287 12.471 26.594 17.75-1.93-12.22-9.13-21.31-17.72-21.31zm256.97 0c-7.6208 0-14.103 7.1597-16.812 17.312 7.8554-4.8368 15.374-10.146 22.531-15.906-1.7948-.90305-3.7262-1.4062-5.7188-1.4062z" fill="#dbdbdb"/>
 <path d="m110.91016 115.94922c0 0-5.65006 82.50209.83203 120.62109 6.2935 37.009 32.23437 70.46875 71.98437 70.46875 35.482 0 65.57553-26.1232 72.26953-59.4082 6.6949 33.284 36.80802 59.4082 72.29102 59.4082 39.749 0 65.69037-33.45975 71.98437-70.46875 6.4821-38.119.81055-120.62109.81055-120.62109 0 0-74.29162 18.89664-103.14062 42.30664-17.648 13.959-36.71741 33.20211-41.94141 60.41211-5.2238-27.21-24.29341-46.45211-41.94141-60.41211-28.853-23.41-103.13867-42.30664-103.13867-42.30664zm70.05664 85.76953a35.06069 36.489468 0 0 1 34.03711 36.47266 35.06069 36.489468 0 0 1 -70.1211 0 35.06069 36.489468 0 0 1 36.08399-36.47266zm150.32617.00195a35.06026 36.490991 0 0 1 34.03711 36.47461 35.06026 36.490991 0 0 1 -70.1211 0 35.06026 36.490991 0 0 1 36.08399-36.47461z" fill="#dbdbdb"/>
 <path d="m255.41 228.09c0 24.747-19.547 44.934-43.752 46.082l43.752 25.547 45.215-25.276c-27.075-1.7553-45.427-23.359-45.215-46.352zm-37.683 51.798l37.683 42.397 37.683-42.397-37.683 20.589z" fill="#dbdbdb"/>
</svg>
