<svg xmlns="http://www.w3.org/2000/svg" width="48" height="48">
 <path fill="#dbdbdb" d="M 23.960217,2 C 36.101374,2 46,11.781382 46,23.959184 45.999996,36.137542 36.101372,46 23.960217,46 11.817939,45.999998 2,36.137434 2,23.959184 1.999998,11.781378 11.817937,2 23.960217,2 z m 0.397829,1.387756 -2.546112,0.2448974 -2.386978,0.7346942 -0.397831,-0.5714293 -1.113924,0.1632649 -0.477397,0.4897969 -0.954792,0.1632649 -0.79566,0.326532 -0.238697,0.1632649 -0.07957,0.081632 -0.397829,0 -0.318265,0.7346943 -0.477395,-0.8979592 -0.159132,0.4081623 0.07957,0.9795915 -0.716094,0.6530618 -0.477397,1.0612241 0.954792,0 0.238699,-0.4897947 0.716092,0.4897947 0.716095,0 0,-0.6530618 -0.875226,-0.4081623 -0.556961,0.3265298 0.238697,-0.2448973 c 0.377167,-0.2674988 0.729782,-0.5588374 1.113924,-0.8163267 l 0.79566,0.3265298 c 0.582763,0.3970892 1.246772,0.7463753 1.830018,1.1428587 L 18.947559,7.061225 17.913201,6.6530606 17.51537,5.7551015 16.321881,5.5918366 16.719712,5.2653068 17.594938,5.0204094 C 17.839771,4.901012 18.063243,4.8702119 18.31103,4.7755099 l -0.397829,0.4081644 1.989149,1.3877538 0,0.7346943 -0.716094,0.8163267 1.03436,2.1224499 0.636526,-0.4081641 0.954792,-1.3877538 C 23.083549,8.0546822 24.192762,7.610117 25.392406,7.061225 25.451216,7.03425 25.492336,7.007076 25.551537,6.979593 L 26.665461,4.2857152 24.358046,3.387756 z m 1.03436,3.673469 -0.159132,0.4897969 0.636529,0.4081623 1.113923,-0.6530618 -0.55696,-0.5714272 -0.716095,0.3265298 -0.318263,0 z m 8.593128,-0.1632649 -1.511755,0.4081623 -0.954791,0.5714293 0,0.5714294 -1.591321,0.9795916 0.397829,1.4693863 0.79566,-0.65306 0.556963,0.65306 0.636529,0.408164 0.397829,-1.061224 -0.238698,-0.6530614 0.238698,-0.4897969 0.954792,-0.8163267 0.397831,0 -0.397831,0.8979591 0,0.8163267 c 0.368929,-0.1006918 0.73638,-0.1161693 1.113925,-0.1632649 l -1.113925,0.7346941 0,0.489795 -1.19349,0.979594 -1.193491,-0.326532 0,-0.653062 -0.556961,0.326532 0.159132,0.653062 -0.875226,0 -0.477397,0.816326 -0.636526,0.65306 -1.03436,0.244899 0.636529,0.65306 0.159131,0.653062 -0.79566,0 -1.034358,0.489797 0,1.632651 0.477397,0 0.477395,0.571429 0.954792,-0.571429 0.397831,-0.979592 0.716094,-0.408162 0.159132,-0.408164 1.273055,-0.244898 0.636529,0.653062 0.636528,0.408162 -0.397831,0.816327 0.716094,-0.163265 0.2387,-0.816327 -0.79566,-0.897959 0.397829,0 0.79566,0.653062 0.159132,0.897959 0.716094,0.816327 0.159131,-1.224491 0.397832,-0.163265 c 0.396984,0.413327 0.700002,0.922588 1.034357,1.387756 l 1.193489,0.08163 L 37.884267,18 l -0.318263,0.489797 -0.716095,0.653062 -1.034357,0 -1.352623,-0.489797 -0.79566,0.163265 -0.477395,0.571429 -1.511755,-1.551021 -0.954792,-0.244897 -1.59132,0.163265 -1.352623,0.408164 c -0.765915,0.870854 -1.502908,1.70783 -2.227847,2.612243 l -0.954791,2.040818 0.397829,0.489794 -0.636529,1.142859 0.79566,1.87755 c 0.682738,0.774584 1.307409,1.510583 1.989152,2.285713 l 1.034357,-0.816326 0.397829,0.489797 1.113926,-0.653062 0.397829,0.326532 1.034357,0 0.636529,0.816326 -0.318263,1.142857 0.716092,0.897959 -0.07957,1.551021 0.636529,1.061224 -0.397829,0.979592 c -0.03998,0.670675 -0.159132,1.288404 -0.159132,1.959183 0.329056,0.908742 0.644072,1.778608 0.954794,2.693877 l 0.318263,1.469389 0,0.734694 0.556963,0 0.875226,-0.571429 0.954792,0 1.59132,-1.714286 -0.159132,-0.653062 1.03436,-0.897959 -0.716094,-0.816327 0.875226,-0.734692 0.954792,-0.653061 0.318263,-0.408164 -0.238698,-0.979593 0,-2.612245 0.716095,-1.469386 0.954792,-1.061226 0.954791,-2.367346 0,-0.653061 c -0.470369,0.05941 -0.972157,0.129369 -1.432188,0.163265 l 0.954791,-0.979592 1.352623,-0.897959 0.716095,-0.816326 0,-0.89796 c -0.160705,-0.303977 -0.315591,-0.67561 -0.477397,-0.979592 l -0.636527,0.816327 -0.477397,-0.571429 -0.716094,-0.571427 0,-1.142859 0.79566,0.897959 0.954792,-0.08163 c 0.420623,0.382974 0.824566,0.706824 1.193491,1.142859 l 0.636527,-0.653063 c 0,-0.724835 -0.866304,-4.318854 -2.625678,-7.346938 -1.759374,-3.027086 -4.853529,-5.7959188 -4.853525,-5.7959188 l -0.2387,0.4081622 -0.79566,0.8979592 -1.034357,-1.0612241 1.034357,0 0.477397,-0.5714271 -1.909583,-0.326532 -1.034358,-0.4081623 z M 11.547922,7.3877548 11.150091,8.3673464 c 0,0 -0.6281,0.1217633 -0.79566,0.1632649 -2.139732,1.9775237 -6.474782,6.2267207 -7.479205,14.2857137 0.03976,0.186857 0.716094,1.224489 0.716094,1.224489 l 1.670886,1.061224 1.670887,0.408164 0.636528,0.89796 1.113924,0.816326 0.636528,-0.08163 0.477397,0.163265 0,0.244897 -0.636529,1.632654 -0.477396,0.653061 0.159131,0.32653 -0.397829,1.387756 1.432189,2.530613 1.432186,1.306121 0.556963,0.816327 -0.07957,1.87755 0.477395,1.061224 -0.477395,2.040818 c 0,0 -0.05972,-0.04033 0,0.163265 0.06023,0.203728 2.550339,1.584848 2.705244,1.469386 0.154369,-0.117606 0.318263,-0.244897 0.318263,-0.244897 l -0.159131,-0.408162 0.636528,-0.653062 0.159132,-0.571429 1.034357,-0.408162 0.795661,-1.877551 -0.238698,-0.57143 0.556963,-0.816326 1.193489,-0.244898 0.636529,-1.387756 -0.159132,-1.795918 0.875226,-1.306121 0.159132,-1.387756 c -1.279273,-0.636232 -2.54944,-1.222497 -3.81917,-1.877551 l -0.636526,-1.306121 -1.113926,-0.2449 -0.636526,-1.632653 -1.59132,0.163265 -1.352623,-0.979592 -1.352621,1.224489 0,0.244897 C 9.372968,26.61182 8.822815,26.559617 8.444843,26.326527 l -0.238697,-0.897959 0,-0.979592 -1.03436,0.08163 c 0.07804,-0.619463 0.239693,-1.258195 0.318265,-1.877551 l -0.556962,0 -0.556961,0.816327 -0.556963,0.163265 -0.79566,-0.408165 -0.07957,-0.979592 0.159132,-1.061224 1.193489,-0.897959 0.875226,0 0.2387,-0.489797 1.113923,0.2449 0.875226,1.061224 0.159131,-1.714286 1.511755,-1.306123 0.477397,-1.306122 1.113923,-0.408164 0.636529,-0.897959 1.432186,-0.32653 0.716095,-0.979592 -2.148281,0 1.352621,-0.653062 0.875226,0 1.352623,-0.408162 0.159131,-0.571429 -0.477397,-0.408162 -0.55696,-0.2449 0.159131,-0.489795 -0.397831,-0.816326 -0.875226,0.32653 0.159132,-0.65306 -1.113926,-0.6530619 -0.875226,1.4693859 0.07957,0.57143 -0.875226,0.32653 -0.556961,1.142858 L 11.547916,12.122443 10.036161,11.469381 9.797464,10.653054 11.707047,9.5101977 12.582273,8.693871 12.661843,7.7142794 12.184446,7.4693799 11.54792,7.3877469 z m 15.992765,1.7959183 0,0.5714294 0.397831,0.4081625 0,0.897959 -0.2387,1.224491 1.034358,-0.244897 0.636528,-0.653062 -0.636528,-0.653062 C 28.528581,10.185579 28.354984,9.7103505 28.09765,9.1836731 l -0.556963,0 z m -1.034358,1.3877559 -0.556963,0.163265 0.159132,1.061224 0.79566,-0.32653 -0.397829,-0.897959 z m 11.13924,9.632653 0.954792,1.061224 1.034358,2.367348 0.636528,0.65306 -0.238697,0.816326 0.55696,0.734695 c -0.281891,0.01902 -0.585371,0.08163 -0.875226,0.08163 -0.511309,-1.077562 -0.883691,-2.137996 -1.273054,-3.265305 l -0.636529,-0.816324 -0.397829,-1.387756 0.238697,-0.244898 z"/>
</svg>
