<svg xmlns="http://www.w3.org/2000/svg" width="48" height="48">
 <path d="M 2,1.9999952 2,45.969519 c 0,0 13.082699,0.0369 24.894398,0.0295 2.537454,-0.17769 5.137778,-1.41871 6.687607,-3.40495 1.588673,-2.03602 2.170348,-4.82053 0.515565,-8.328117 l -0.72179,-1.532964 1.546693,0.663302 c 3.122239,1.330472 5.805881,0.719276 7.792386,-0.810702 1.986509,-1.529978 3.236774,-4.022523 3.270152,-6.382436 l 0,-0.707521 0.01471,0 C 46.004718,14.001155 45.9408,2.0000152 45.9408,2.0000152 z M 45.690403,31.141044 c -0.595627,0.927177 -1.308613,1.779036 -2.194832,2.461586 -2.032873,1.565691 -4.810406,2.207599 -7.836578,1.341343 1.162357,3.349026 0.596477,6.322376 -1.060589,8.446046 -0.601375,0.77071 -1.348898,1.39163 -2.15064,1.94568 3.7514,-0.86413 6.748471,-2.53759 8.926628,-4.92317 2.232475,-2.44507 3.645948,-5.634158 4.316011,-9.271485 z" fill="#dbdbdb"/>
</svg>
