<svg xmlns="http://www.w3.org/2000/svg" width="48" height="48">
 /&gt;
 <path d="M 29.6875,4.9375 C 25.166122,4.9374993 21.178898,8.2376979 18.875,13.21875 C 17.80171,12.716827 16.670017,12.4375 15.46875,12.4375 C 9.4676368,12.437501 4.5,19.258064 4.5,27.71875 C 4.4999999,36.179436 9.4676363,43 15.46875,43 C 18.493516,43 21.230354,41.271257 23.21875,38.46875 C 25.128258,40.02926 27.331769,40.9375 29.6875,40.9375 C 36.755799,40.9375 42.593752,32.904951 42.59375,22.9375 C 42.59375,12.970048 36.7558,4.9374998 29.6875,4.9375 z M 29.6875,9.5 C 35.106953,9.5 39.406251,15.551726 39.40625,22.9375 C 39.40625,30.323274 35.106954,36.375001 29.6875,36.375 C 27.316489,36.375 25.175818,35.20008 23.5,33.28125 C 23.490329,33.270177 23.478389,33.261124 23.46875,33.25 C 23.275839,33.028473 23.085708,32.803139 22.90625,32.5625 C 22.782555,32.395393 22.67956,32.207216 22.5625,32.03125 C 22.435788,31.841821 22.306032,31.667893 22.1875,31.46875 C 21.985866,31.129233 21.802015,30.772346 21.625,30.40625 C 21.599112,30.352674 21.556583,30.304114 21.53125,30.25 C 21.349874,29.862557 21.183153,29.444803 21.03125,29.03125 C 20.863268,28.573922 20.723377,28.110913 20.59375,27.625 C 20.474974,27.179763 20.365871,26.716409 20.28125,26.25 C 20.269877,26.187317 20.260737,26.125537 20.25,26.0625 C 20.166251,25.570785 20.106337,25.074042 20.0625,24.5625 C 20.016864,24.029959 19.96875,23.488085 19.96875,22.9375 C 19.96875,22.473024 19.998578,22.013012 20.03125,21.5625 C 20.05075,21.295063 20.063097,21.04392 20.09375,20.78125 C 20.123386,20.52729 20.147737,20.280311 20.1875,20.03125 C 20.221034,19.819819 20.271788,19.613741 20.3125,19.40625 C 20.359927,19.165289 20.412019,18.922927 20.46875,18.6875 C 20.501479,18.551706 20.526693,18.415136 20.5625,18.28125 C 20.670106,17.878901 20.802963,17.509269 20.9375,17.125 C 20.940811,17.115542 20.934173,17.103197 20.9375,17.09375 C 22.501542,12.621966 25.805922,9.4999986 29.6875,9.5 z M 15.46875,17 C 16.146559,17 16.781656,17.171605 17.40625,17.40625 C 17.134191,18.582865 16.967858,19.824546 16.875,21.09375 C 16.870493,21.155352 16.879059,21.219464 16.875,21.28125 C 16.830312,21.823558 16.8125,22.378997 16.8125,22.9375 C 16.8125,23.233163 16.833624,23.520381 16.84375,23.8125 C 16.669848,23.770276 16.49501,23.75 16.3125,23.75 C 14.597754,23.75 13.1875,25.66846 13.1875,28.0625 C 13.1875,30.45654 14.597753,32.40625 16.3125,32.40625 C 17.089842,32.40625 17.767496,32.003349 18.3125,31.34375 C 18.898766,32.886015 19.632626,34.295916 20.5,35.53125 C 19.138352,37.212765 17.466202,38.437501 15.46875,38.4375 C 11.128095,38.4375 7.6875,33.61874 7.6875,27.71875 C 7.6875,21.81876 11.128095,17.000002 15.46875,17 z M 29.125,20.1875 C 27.410253,20.1875 26.03125,22.13721 26.03125,24.53125 C 26.03125,26.925289 27.410253,28.84375 29.125,28.84375 C 30.839747,28.843749 32.25,26.92529 32.25,24.53125 C 32.25,22.13721 30.839747,20.1875 29.125,20.1875 z" fill="#dbdbdb"/>
</svg>
