<svg viewBox="0 0 512 512" xmlns="http://www.w3.org/2000/svg">
 <g fill="#dbdbdb">
  <path d="m180.01 300.94c0-.112-.774-.886-1.721-1.721l-1.721-1.517 1.517 1.721c1.418 1.608 1.924 2.01 1.924 1.517"/>
  <path d="m253.56 107.63c-36.505.043-72.7 13.554-100.44 39.469l-8.094 7.656c-3.132-4.129-5.637-9.866-6.094-14.25-.224-2.151-.609-3.906-.875-3.906-.266 0-1.788 1.732-3.375 3.844-5.815 7.736-9.6 18.17-11.281 31-.46 3.51-1.779 17-2.094 20.469-4.617 7.202-8.38 15.938-12.09 27.906-2.119 6.829-5.558 19.749-5.531 20.844.01.407 1.038-1.169 2.281-3.5 2.434-4.563 3.083-5.069 2.063-1.656-1.483 4.961-2.503 16.252-2.781 30.625l-.313 15.313 1.188-4.375c.659-2.409 1.475-5.077 1.813-5.938.778-1.979 1.018-1.318 1.969 5.625 2.419 17.663 9.714 37.953 19.563 54.34 15.952 26.548 46.41 51.35 78.875 64.22 10.253 4.065 28.939 8.722 21.19 5.281-2.995-1.33-6.553-3.697-6.156-4.094.139-.139 2.067.416 4.281 1.25 5.281 1.988 14.621 4.505 20.875 5.625 2.753.493 7.525.907 10.594.938l5.563.063-2.438-2.156-2.469-2.156 7.06-.031c20.768-.077 51.782-6.692 65.38-13.938 4.168-2.221 11.179-9.323 15.5-15.688 2.318-3.415 3.574-4.529 7.469-6.719 18.58-10.447 36.975-32.418 39.469-47.12.742-4.376.45-10.38-.75-15.16-.613-2.439-.402-3.101 4.781-14.969 8.708-19.939 8.997-20.931 9.5-33.844.396-10.172-.257-17.632-2.438-27.781-1.603-7.461-2.074-8.387-2.656-5.281-.37 1.975-3.747 9.653-4.25 9.656-.081 0-.072-4.551.031-10.125.378-20.434-3.569-35.454-13.188-50.09-3.529-5.372-9.147-11.962-13.06-15.375-2.671-2.328-3.03-2.407-3.03-.688 0 1-.782.435-3.5-2.5-3.165-3.419-14.425-12.563-15.469-12.563-.237 0-.438 1.309-.438 2.906 0 .104-.001.184 0 .281-5.328-3.434-23.07-13.871-28.22-16.594-21.469-11.346-45.01-16.84-68.41-16.813m-.844 6.594c15.641-.092 31.442 2.417 46.75 7.656 1.809.619 5.24 1.876 8.5 3.094 6.344 2.371 12.01 5.279 17.5 8.875-7.285-2.925-16.17-6-17.75-6-.56 0 1.247 1.426 4 3.188 11.609 7.428 24.908 19.926 33.25 31.22 7.228 9.785 7.356 10.09 2.75 6.375-5.404-4.354-12.84-8.122-18.25-9.25-2.449-.511-4.599-.776-4.781-.594-.182.182 1.522 2.023 3.781 4.094 7.247 6.641 18.646 23.61 21.344 31.75 2.268 6.844 4.04 18.07 4.5 28.469l.406 8.906-1.844-2.813c-1.016-1.56-2.739-3.84-3.813-5.063-2.02-2.297-6.839-5.942-7.281-5.5-.138.138.459 6.571 1.313 14.313 1.792 16.257 1.678 25.341-.406 35.38-1.746 8.403-1.829 8.549-2.813 5.719-.846-2.436-2.58-4.781-3.531-4.781-.291 0-.531 1.109-.531 2.469 0 5.708-4.73 22.639-8.469 30.375-1.497 3.097-4.056 7.295-5.719 9.344-5.652 6.967-11.463 10.04-10.969 5.813.173-1.479-.006-1.719-1.375-1.719-1 0-2.282.75-3.438 2.031-1.01 1.118-3.044 3.422-4.531 5.094-2.222 2.498-8.06 7.196-8.06 6.5 0-.105.274-1.103.594-2.219.32-1.116.416-2 .219-2-.197 0-2.226.545-4.5 1.219-7.911 2.344-21.07 4.406-28.12 4.406-7.338 0-12.07-.972-16.938-3.438-5.04-2.555-4.731-3.051 1.594-2.656 5.351.334 5.507.293 4.219-.75-1.884-1.525-8.706-3.541-16.906-5-8.777-1.562-10.72-2.366-14.781-6.219-2.765-2.675-5.795-4.516-8.69-7.46 7.532 1.964 14.949 1.782 22.627 1.585 9.186-.23 11.619-.493 15.03-1.656 4.99-1.702 13.934-6.953 21.16-12.406 6.306-4.761 7.603-5.245 12.906-4.75 3.762.351 3.994.302 5.03-1.281 1.358-2.073.954-5.309-1.063-8.313-4.081-6.077-16.908-10.176-26.469-8.438-2.101.382-6.498 2.065-10 3.813-3.441 1.717-7.782 3.448-9.656 3.844-3.945.832-10.53.37-15.656-1.094-4.906-1.401-13.5-5.939-17.563-9.281l-3.438-2.844-5.688-3.625c1.178-7.717 3.588-14.588 6.781-17.781l2.406-2.406-3.625-1.688c-3.098-1.451-4.433-1.688-9.25-1.688-4.996 0-6.1.191-9.719 1.906-7.959 3.772-13.926 10.955-16.625 19.969-1.796 5.999-1.53 15.582.625 21.906 1.859 5.455 4.467 10.499 7.469 14.406 1.453 1.891 1.57 2.196.469 1.25-3.897-3.347-9.355-13.523-11-20.5-1.197-5.079-1.204-14.253 0-18.969 3.25-12.73 13.455-22.521 25.844-24.813 8.07-1.492 16.962 1.588 24.25 8.406 2.224 2.08 4.251 3.593 4.5 3.344.249-.249.469-4.02.469-8.375v-7.938l-1.469-2.188 4.406-3.719 2.906-2.219c1.604-1.217 5.856-3.806 9.469-5.75 12.04-6.477 13.406-7.365 14.781-9.813 2.036-3.624 2.99-8.723 2.125-11.344-1-3.03-3.284-3.509-18.781-4l-12.813-.406-2.938-2.031c-1.168-.806-5.576-4.584-8-6.625 1.437-5.04 3.406-9.899 5.656-13.688 2.511-4.227 10.09-13.726 13.313-16.688.908-.834 1.656-1.747 1.656-2.031 0-.816-7.414-.584-11.938.375-4.779 1.013-11.11 3.74-15.406 6.656-6.707 4.554-17.406 16.234-19.594 21.375-.818 1.923-.073-5.04.969-9.09.763-2.973.741-3.052-.875-3.75-.981-.423-5.422-.688-11.03-.688-7.83.002-10.199.231-14.375 1.406-.941.265-1.867.539-2.781.844-1.423-1.277-3.809-3.383-5.75-5.125 1.653-1.056 3.601-3.125 3.688-3.125.13 0 2.587-2.175 5.469-4.813 26.2-23.977 59.871-36.766 94.28-36.969m108.94 41.34c.164.179.338.353.5.531h-.5z"/>
 </g>
</svg>
