<svg viewBox="0 0 512 512" xmlns="http://www.w3.org/2000/svg">
 <path d="m256 1c-140.83 0-255 114.17-255 255 0 140.83 114.17 255 255 255 140.83 0 255-114.17 255-255 0-140.83-114.17-255-255-255m8.827 44.931c120.9 0 218.9 98 218.9 218.9 0 120.9-98 218.9-218.9 218.9-120.9 0-218.93-98-218.93-218.9 0-120.9 98.03-218.9 218.93-218.9" fill-opacity=".067" fill-rule="evenodd"/>
 <path d="m106.1074 38.315504c-.85598.0017-1.71883.01547-2.57824.05328-40.177494-.271574-73.292345 41.831004-63.802721 80.939393 6.954359 37.30706 49.863065 62.87627 86.095861 50.22402 35.83403-10.70655 57.30557-54.45405 42.0046-89.163965-9.82307-24.668552-35.18775-42.092264-61.71607-42.057888m301.12066 0c-.85941.0017-1.71538.01375-2.57823.05328-40.86159-.266418-74.16723 43.125277-63.4899 82.503519 7.88253 36.6625 50.01776 61.07495 85.8346 48.60832 35.78075-10.65326 56.96181-54.33372 41.9496-88.949103-9.70447-24.594636-35.05884-42.29336-61.71607-42.21945m-150.55173 150.55174c-.85941.002-1.71711.0137-2.57824.0533-40.21703-.30251-73.30781 41.87741-63.80272 80.88783 6.95436 37.30706 49.86307 62.87627 86.09586 50.22401 35.77215-10.68248 57.13369-54.44201 41.9496-89.11067-9.77323-24.5723-35.03993-42.13352-61.66278-42.05789m-150.50017 150.50015c-.85598.002-1.71883.0155-2.57824.0533-40.230778-.33689-73.374849 41.85163-63.871474 80.88783 7.100459 37.40331 49.701495 62.94159 86.095864 50.22402 35.93028-10.75468 57.28838-54.39045 41.9496-89.21725-9.82651-24.59292-35.06743-41.98398-61.6095-41.9496m301.12065 0c-.85425.002-1.71882.0138-2.57823.0533-40.82893-.37986-74.25317 43.10809-63.54318 82.45024 8.02691 37.27784 51.22781 61.74873 87.33857 48.17862 34.99181-11.54018 55.3633-54.54686 40.33907-88.73426-9.79902-24.52932-35.05369-42.02523-61.55623-41.9496" fill="#dbdbdb"/>
</svg>
