<svg xmlns="http://www.w3.org/2000/svg" width="48" height="48">
 <path d="m 22.499868,2.000001 c -0.553988,0 -1.00398,0.449993 -1.00398,1.00398 l 0,5.07827 c -2.587302,0.393237 -4.973393,1.408809 -7.004511,2.883523 l -3.5723,-3.5723 c -0.391729,-0.391728 -1.0208474,-0.391728 -1.4125764,0 l -2.124702,2.113028 c -0.391729,0.391728 -0.391729,1.020848 0,1.412576 l 3.5606274,3.560626 c -1.4943674,2.033184 -2.5125094,4.42985 -2.9185474,7.027859 l -5.0198988,0 C 2.4499922,21.507563 2,21.945881 2,22.499869 l 0,3.000261 c 0,0.55399 0.4499922,1.00398 1.0039798,1.00398 l 5.0198988,0 c 0.405522,2.59472 1.427251,4.98467 2.9185474,7.01619 l -3.5606274,3.56062 c -0.391729,0.39173 -0.391729,1.03252 0,1.42426 l 2.124702,2.11302 c 0.391729,0.39173 1.0208474,0.39173 1.4125764,0 l 3.5723,-3.5723 c 2.031118,1.47471 4.417209,2.49029 7.004511,2.88353 l 0,5.07827 c 0,0.55398 0.449992,0.9923 1.00398,0.9923 l 3.000265,0 c 0.553988,0 1.00398,-0.43832 1.00398,-0.9923 l 0,-5.10162 c 2.563707,-0.41481 4.924036,-1.44095 6.934465,-2.91855 l 3.642346,3.63067 c 0.391728,0.39173 1.020846,0.39173 1.412574,0 l 2.124704,-2.11302 c 0.391728,-0.39174 0.391728,-1.03253 0,-1.42426 l -3.65402,-3.64234 c 1.461345,-2.01425 2.471069,-4.37367 2.871848,-6.93447 l 5.159989,0 C 45.550008,26.50411 46,26.05412 46,25.50013 l 0,-3.000261 c 0,-0.553988 -0.449992,-0.992306 -1.003981,-0.992306 l -5.159989,0 c -0.400779,-2.560801 -1.410503,-4.920215 -2.871848,-6.934466 l 3.65402,-3.654019 c 0.391728,-0.391728 0.391728,-1.020848 0,-1.412576 L 38.493498,7.393474 c -0.391728,-0.391728 -1.020846,-0.391728 -1.412574,0 l -3.642346,3.630671 C 31.428149,9.546541 29.06782,8.520405 26.504113,8.105599 l 0,-5.101618 c 0,-0.553987 -0.449992,-1.00398 -1.00398,-1.00398 l -3.000265,0 z m 1.42425,9.257628 c 7.059419,0 12.759884,5.688789 12.759884,12.748211 0,7.05942 -5.700465,12.74821 -12.759884,12.74821 -7.059422,0 -12.748209,-5.68879 -12.748209,-12.74821 0,-7.059422 5.688787,-12.748211 12.748209,-12.748211 z m -3.642345,7.062882 c -0.928312,0 -1.681083,0.752769 -1.681083,1.681082 0,0.928313 0.752771,1.681083 1.681083,1.681083 0.928312,0 1.681082,-0.75277 1.681082,-1.681083 0,-0.928313 -0.75277,-1.681082 -1.681082,-1.681082 z m 7.284691,0 c -0.927405,0 -1.669409,0.753677 -1.669409,1.681082 0,0.927405 0.742004,1.681083 1.669409,1.681083 0.927404,0 1.681082,-0.753678 1.681082,-1.681083 0,-0.927405 -0.753678,-1.681082 -1.681082,-1.681082 z m -9.51446,8.148579 c -0.152702,0.009 -0.313601,0.0523 -0.466968,0.14009 -0.204494,0.11706 -0.34798,0.29414 -0.408596,0.49032 -0.06061,0.19618 -0.04201,0.40803 0.08172,0.58371 0.724868,1.02921 1.6844,1.89544 2.813479,2.4866 1.258779,0.65162 2.673746,0.95913 4.07429,0.91058 2.507544,-0.0764 4.981171,-1.31416 6.432475,-3.39718 0.124412,-0.17857 0.144824,-0.39968 0.08172,-0.59539 -0.0631,-0.1957 -0.212313,-0.36785 -0.420271,-0.47864 -0.207957,-0.11078 -0.430256,-0.13824 -0.618732,-0.11674 -0.188475,0.0215 -0.35061,0.0971 -0.443619,0.23348 -1.084955,1.5912 -3.105019,2.57541 -5.089944,2.65004 -1.119586,0.0362 -2.243808,-0.2002 -3.222075,-0.71212 -0.873681,-0.45054 -1.642122,-1.14408 -2.218095,-1.96126 -0.09832,-0.13949 -0.252114,-0.21491 -0.443619,-0.23349 -0.04787,-0.005 -0.100865,-0.003 -0.151764,0 z" fill="#dbdbdb"/>
</svg>
