<svg xmlns="http://www.w3.org/2000/svg" width="48" height="48">
 <path d="M 30.0625 9.9375 C 30.00552 9.943 29.951305 9.964687 29.90625 10 L 24.71875 13.84375 C 24.67206 13.88485 24.6393 13.93946 24.625 14 C 24.59651 14.09827 24.6201 14.20429 24.6875 14.28125 C 24.70513 14.30505 24.7262 14.32612 24.75 14.34375 C 24.76955 14.35656 24.79052 14.36705 24.8125 14.375 L 32.0625 16.84375 L 23.75 21.625 C 23.73883 21.6346 23.72838 21.64508 23.71875 21.65625 C 23.593864 21.75389 23.566488 21.931837 23.65625 22.0625 C 23.67388 22.0863 23.69495 22.10737 23.71875 22.125 C 23.75492 22.15538 23.79774 22.1768 23.84375 22.1875 L 28.75 23.25 L 25.15625 25.90625 C 25.06338 25.97367 25.011306 26.074483 25.03125 26.1875 C 25.05119 26.300516 25.139663 26.405936 25.25 26.4375 L 31.53125 28.34375 L 23.15625 32.90625 C 23.13427 32.91415 23.1133 32.92468 23.09375 32.9375 C 22.978883 33.043997 22.965272 33.220938 23.0625 33.34375 C 23.1117 33.39653 23.178261 33.42981 23.25 33.4375 L 30.375 35.0625 L 28.03125 37.5 C 27.934 37.602122 27.920993 37.758189 28 37.875 C 28.05765 37.95531 28.151162 38.002065 28.25 38 L 43.71875 38 C 43.7727 38.0039 43.826685 37.9931 43.875 37.96875 C 43.96726 37.91852 44.026523 37.82369 44.03125 37.71875 L 44.03125 10.25 C 44.02575 10.19302 44.00406 10.138805 43.96875 10.09375 C 43.94058 10.04048 43.89702 9.996918 43.84375 9.96875 C 43.80484 9.949404 43.76219 9.938741 43.71875 9.9375 L 30.09375 9.9375 C 30.08334 9.9369572 30.07291 9.9369572 30.0625 9.9375 z M 4.1875 9.96875 C 4.14965 9.992618 4.117618 10.02465 4.09375 10.0625 C 4.052338 10.11615 4.030309 10.182235 4.03125 10.25 L 4 37.75 C 3.99643 37.83392 4.034354 37.909354 4.09375 37.96875 C 4.153146 38.02815 4.2285771 38.06606 4.3125 38.0625 L 21.53125 38.0625 C 21.56401 38.0573 21.59569 38.04678 21.625 38.03125 C 21.65992 38.01652 21.69173 37.99532 21.71875 37.96875 L 23.53125 36.4375 C 23.646117 36.331003 23.659728 36.154062 23.5625 36.03125 C 23.54487 36.00744 23.5238 35.98638 23.5 35.96875 C 23.47069 35.95322 23.43901 35.94266 23.40625 35.9375 L 14.71875 34.09375 L 24.34375 29.09375 C 24.459331 29.04393 24.538232 28.938169 24.53125 28.8125 C 24.52425 28.686831 24.432885 28.567966 24.3125 28.53125 L 17.96875 26.3125 L 21.03125 24.28125 C 21.0691 24.25738 21.10113 24.22535 21.125 24.1875 C 21.17147 24.11039 21.18653 24.022284 21.15625 23.9375 C 21.12597 23.85272 21.053557 23.780221 20.96875 23.75 L 16.09375 21.8125 L 24.59375 17.65625 C 24.720446 17.59292 24.785589 17.449601 24.75 17.3125 C 24.72889 17.212382 24.65821 17.129925 24.5625 17.09375 L 18.0625 14.8125 L 23.96875 10.5 C 24.093636 10.40236 24.121012 10.224413 24.03125 10.09375 C 23.9736 10.01344 23.880088 9.9666848 23.78125 9.96875 L 4.3125 9.96875 C 4.271295 9.95997 4.228705 9.95997 4.1875 9.96875 z" fill="#dbdbdb"/>
</svg>
