<svg height="512" viewBox="0 0 512 512" width="512" xmlns="http://www.w3.org/2000/svg">
 <path d="m206.98 114.93l-71.968 19.295-19.289 71.989 52.679 52.694 72.005-19.285 19.289-71.989zm136.61 36.604l-72.042 19.275-19.279 71.951 52.706 52.741 72.015-19.322 19.289-71.989-52.689-52.657zm-100.52 101.54l-71.958 19.258-19.299 72.026 52.716 52.704 71.968-19.295 19.299-72.026z" fill="#dbdbdb" fill-rule="evenodd"/>
</svg>
