<svg width="512" height="512" version="1.1" viewBox="0 0 512 512" xmlns="http://www.w3.org/2000/svg">
 <g transform="matrix(1.0672 0 0 1.0672 33.231 -35.712)" fill="#dbdbdb" stroke-width="12.348">
  <g transform="translate(.00045 -.01835)">
   <path d="m206.1 110.66a160.53 160.53 0 0 0-160.53 160.53 160.53 160.53 0 0 0 160.53 160.53 160.53 160.53 0 0 0 160.53-160.53 160.53 160.53 0 0 0-160.53-160.53zm45.799 61.76a49.529 36.853 83.547 0 1 2e-3 0 49.529 36.853 83.547 0 1 39.01 38.094 49.529 36.853 83.547 0 1-24.57 59.359 49.529 36.853 83.547 0 1-46.264-36.812 49.529 36.853 83.547 0 1 24.57-59.359 49.529 36.853 83.547 0 1 7.252-1.2812zm-91.596 6e-3a36.853 49.529 6.4527 0 1 7.2539 1.2812 36.853 49.529 6.4527 0 1 24.57 59.359 36.853 49.529 6.4527 0 1-46.264 36.812 36.853 49.529 6.4527 0 1-24.57-59.359 36.853 49.529 6.4527 0 1 39.01-38.094z"/>
   <circle cx="70.272" cy="209.45" r="37.044"/>
   <circle cx="341.93" cy="209.45" r="37.044"/>
  </g>
  <path d="m206.1 431.71c74.089 0 140.74-12.348 160.53-24.696-35.34-11.41-22.856-49.392-12.311-74.089z"/>
 </g>
</svg>
