<svg height="512" viewBox="0 0 512 512" width="512" xmlns="http://www.w3.org/2000/svg">
 <path d="m153.19 113.8c-1.734.105-3.105 1.407-3.511 3.173-.542 2.353 1.064 4.836 3.511 5.665l168.75 57.11h-154.04c-23.841 0-43.01 20.239-43.01 45.1v128.49c0 24.857 19.17 44.87 43.01 44.87h176.21c23.841 0 43.01-20.01 43.01-44.87v-128.49c0-16.01-7.929-30.13-19.969-38.07-.599-.696-1.496-1.275-2.414-1.586l-.658-.226c-4.101-2.221-8.634-3.784-13.386-4.532l-195.52-66.4c-.612-.207-1.397-.263-1.975-.226m101.38 104.24c40.34 0 72.853 32.13 72.853 72.06 0 39.936-32.51 72.06-72.853 72.06-40.34 0-72.853-32.13-72.853-72.06 0-39.933 32.51-72.06 72.853-72.06" fill="#dbdbdb"/>
</svg>
