<svg xmlns="http://www.w3.org/2000/svg" width="48" height="48">
 id=&quot;defs5492&quot;&gt;
 <path fill="#dbdbdb" d="M 10.875,3 C 9.8236778,3 8.9999997,3.9065588 9,4.96875 l 0,35 c 0,1.00139 0.7540154,1.810726 1.71875,1.90625 L 10.997068,41.88667 11,44.9375 c 0,0.248499 0.142479,0.464428 0.28125,0.59375 0.138771,0.129322 0.299189,0.214637 0.46875,0.28125 0.339122,0.133226 0.739073,0.187501 1.1875,0.1875 l 22.125,0 c 0.448427,0 0.848379,-0.05427 1.1875,-0.1875 0.169561,-0.06661 0.329979,-0.151928 0.46875,-0.28125 C 36.857521,45.401928 37.000002,45.186 37,44.9375 c 1.23e-4,-1.016068 0,-2.033582 0,-3.049107 L 37.28125,41.875 C 38.245985,41.779477 39.000001,40.970142 39,39.96875 l 0,-35 C 39,3.9065582 38.176321,3 37.125,3 l -26.25,0 z m 3.0625,4 20.125,0 C 34.581816,7 35,7.4181842 35,7.9375 l 0,25.125 C 35.000001,33.581817 34.581816,34 34.0625,34 l -20.125,0 C 13.418184,33.999999 13,33.581815 13,33.0625 L 13,7.9375 C 13,7.4181844 13.418185,7 13.9375,7 z M 14.5,37 c 0.833467,0 1.5,0.666534 1.5,1.5 0,0.833467 -0.666533,1.5 -1.5,1.5 -0.833465,2e-6 -1.5,-0.666534 -1.5,-1.5 0,-0.833466 0.666533,-1.5 1.5,-1.5 z m 6,0 c 0.833464,-2e-6 1.5,0.666535 1.5,1.5 C 22,39.333466 21.333467,40 20.5,40 19.666532,40 19,39.333466 19,38.5 19,37.666533 19.666533,37 20.5,37 z m 7,0 c 0.833467,0 1.5,0.666534 1.5,1.5 0,0.833467 -0.666533,1.5 -1.5,1.5 -0.833467,2e-6 -1.5,-0.666534 -1.5,-1.5 0,-0.833466 0.666533,-1.5 1.5,-1.5 z m 6,0 c 0.833468,0 1.5,0.666534 1.5,1.5 0,0.833467 -0.666533,1.5 -1.5,1.5 -0.833464,2e-6 -1.5,-0.666535 -1.5,-1.5 0,-0.833466 0.666533,-1.5 1.5,-1.5 z"/>
</svg>
