<svg xmlns="http://www.w3.org/2000/svg" width="48" height="48">
 id=&quot;defs2385&quot;&gt;
 <path fill="#dbdbdb" d="m 5.0231225,3.4847472 c -1.3646861,0 -2.4725996,1.2363014 -2.4725996,2.7778588 l 0,27.656485 c 0,1.541557 1.1079133,2.777858 2.4725996,2.777858 l 18.0408195,0 0,3.632585 c -0.554802,0.245709 -1.005854,0.696761 -1.251563,1.251563 l -18.7734413,0 c -0.030509,-0.0015 -0.061069,-0.0015 -0.091578,0 -0.539488,0.02529 -0.971592,0.498393 -0.9463036,1.037881 0.025288,0.539488 0.4983934,0.941066 1.0378814,0.915778 l 18.7734415,0 C 22.191797,44.391468 23.04401,45 24.040771,45 c 0.996761,0 1.848975,-0.608532 2.228392,-1.465244 l 18.742916,0 c 0.35228,0.005 0.677131,-0.184135 0.854726,-0.488415 0.177593,-0.30428 0.177593,-0.67255 0,-0.976829 -0.177595,-0.30428 -0.502446,-0.493397 -0.854726,-0.488415 l -18.742916,0 c -0.245708,-0.554802 -0.69676,-1.005854 -1.251562,-1.251563 l 0,-3.632585 18.040819,0 c 1.364686,0 2.4726,-1.236299 2.4726,-2.777858 l 0,-27.656485 c 0,-1.5415573 -1.107915,-2.7778589 -2.4726,-2.7778588 l -38.0352975,0 z m 0.8852518,2.7778588 3.4189031,0 c 0.3315428,2e-7 0.6105185,0.2789757 0.6105185,0.6105184 l 0,3.3883776 c 0,0.331543 -0.2789758,0.610518 -0.6105185,0.610518 l -3.4189031,0 c -0.3315425,0 -0.5799925,-0.278975 -0.5799925,-0.610518 l 0,-3.3883776 C 5.3283816,6.5415818 5.5768316,6.262606 5.9083743,6.262606 z m 8.3946277,2.2283922 19.811323,0 c 0.397453,10e-8 0.732622,0.2407213 0.732622,0.5189407 l 0,5.8609771 5.647296,0 c 0.397452,0 0.732622,0.240725 0.732622,0.51894 l 0,11.75248 c 0,0.278221 -0.335169,0.518941 -0.732622,0.518941 l -19.811323,0 c -0.397455,-10e-7 -0.732622,-0.240724 -0.732622,-0.518941 l 0,-5.860977 -5.647296,0 c -0.397453,0 -0.732622,-0.240725 -0.732622,-0.51894 l 0,-11.7524801 c 0,-0.2782191 0.335169,-0.5189407 0.732622,-0.5189407 z m -8.3946277,4.2125768 3.4189031,0 c 0.3315428,0 0.6105185,0.278976 0.6105185,0.610519 l 0,3.418903 c 0,0.331542 -0.2789758,0.579992 -0.6105185,0.579992 l -3.4189031,0 c -0.3315425,-1e-6 -0.5799925,-0.248449 -0.5799925,-0.579992 l 0,-3.418903 c -2e-7,-0.331544 0.2484498,-0.610519 0.5799925,-0.610519 z m 0.6715702,21.215516 35.2879645,0 c 0.706142,10e-7 1.251563,0.04096 1.251563,0.06105 l 0,0.8242 c 10e-7,0.02009 -0.54542,0.06105 -1.251563,0.06105 l -35.2879645,0 c -0.7061431,0 -1.2515627,-0.04096 -1.2515627,-0.06105 l 0,-0.8242 c -2e-7,-0.02009 0.5454197,-0.06105 1.2515627,-0.06105 z"/>
</svg>
