<svg xmlns="http://www.w3.org/2000/svg" width="48" height="48">
 id=&quot;defs1309&quot;&gt;
 <path d="M 11.40625,3.5 C 10.061289,3.5 8.9375,4.592539 8.9375,5.9375 l 0,7.0625 c 0,1.344961 1.123789,2.4375 2.46875,2.4375 l 7.15625,0 c 0.7767,0 1.459709,-0.370588 1.90625,-0.9375 0.443555,0.607298 1.160099,1 1.96875,1 l 7.15625,0 c 0.781509,0 1.482425,-0.36456 1.9375,-0.9375 0.130118,0.151719 0.274528,0.289413 0.4375,0.40625 -0.618402,0.443342 -1.03125,1.158466 -1.03125,1.96875 l 0,7.0625 c 0,1.344961 1.12379,2.4375 2.46875,2.4375 l 7.15625,0 C 41.907461,26.4375 43.000001,25.344962 43,24 l 0,-7.0625 C 43,16.12885 42.607298,15.412305 42,14.96875 42.607298,14.525195 43.000001,13.808651 43,13 L 43,5.9375 C 43,4.592539 41.907462,3.5 40.5625,3.5 l -7.15625,0 c -0.781509,0 -1.482425,0.3645604 -1.9375,0.9375 -0.455917,-0.5316022 -1.126782,-0.875 -1.875,-0.875 l -7.15625,0 c -0.7767,0 -1.459709,0.3705883 -1.90625,0.9375 -0.443555,-0.6072976 -1.1601,-1 -1.96875,-1 l -7.15625,0 z m 0,1.15625 7.15625,0 c 0.730889,0 1.28125,0.5503602 1.28125,1.28125 l 0,7.0625 c 1e-6,0.73089 -0.55036,1.3125 -1.28125,1.3125 l -7.15625,0 c -0.730889,0 -1.3125,-0.58161 -1.3125,-1.3125 l 0,-7.0625 c 0,-0.7308898 0.58161,-1.28125 1.3125,-1.28125 z m 22,0 7.15625,0 c 0.730892,0 1.28125,0.5503602 1.28125,1.28125 l 0,7.0625 c 10e-7,0.73089 -0.55036,1.3125 -1.28125,1.3125 l -7.15625,0 c -0.730888,0 -1.3125,-0.58161 -1.3125,-1.3125 l 0,-7.0625 c 0,-0.7308898 0.58161,-1.28125 1.3125,-1.28125 z M 22.4375,4.6875 l 7.15625,0 c 0.730889,0 1.3125,0.5816102 1.3125,1.3125 l 0,7.0625 c 1e-6,0.730889 -0.58161,1.28125 -1.3125,1.28125 l -7.15625,0 c -0.730891,0 -1.28125,-0.55036 -1.28125,-1.28125 l 0,-7.0625 c 0,-0.7308898 0.55036,-1.3125 1.28125,-1.3125 z m 10.96875,10.96875 7.15625,0 c 0.730892,0 1.28125,0.55036 1.28125,1.28125 l 0,7.0625 c 10e-7,0.73089 -0.55036,1.3125 -1.28125,1.3125 l -7.15625,0 c -0.730888,0 -1.3125,-0.58161 -1.3125,-1.3125 l 0,-7.0625 c 0,-0.730889 0.58161,-1.28125 1.3125,-1.28125 z M 16.4375,21.5625 C 15.092539,21.5625 14,22.655038 14,24 l 0,7.0625 c 0,0.80865 0.392702,1.525195 1,1.96875 -0.180532,0.131856 -0.330545,0.293291 -0.46875,0.46875 -0.455075,-0.57294 -1.155991,-0.9375 -1.9375,-0.9375 l -7.15625,0 C 4.0925389,32.5625 3,33.655038 3,35 l 0,7.0625 c 0,1.344961 1.0925387,2.437501 2.4375,2.4375 l 7.15625,0 c 0.781509,0 1.482425,-0.364561 1.9375,-0.9375 0.446541,0.566912 1.12955,0.937501 1.90625,0.9375 l 7.15625,0 c 0.781509,0 1.482425,-0.364561 1.9375,-0.9375 0.455917,0.531602 1.126782,0.874999 1.875,0.875 l 7.15625,0 C 35.907461,44.4375 37.000001,43.344961 37,42 l 0,-7.0625 C 37,33.592539 35.907462,32.5 34.5625,32.5 l -7.15625,0 c -0.781509,0 -1.482425,0.36456 -1.9375,0.9375 -0.130118,-0.151719 -0.274528,-0.289413 -0.4375,-0.40625 0.618402,-0.443342 1.03125,-1.158466 1.03125,-1.96875 l 0,-7.0625 c 0,-1.344961 -1.123789,-2.4375 -2.46875,-2.4375 l -7.15625,0 z" fill="#dbdbdb"/>
</svg>
