<svg xmlns="http://www.w3.org/2000/svg" width="48" height="48">
 <path d="M 5.2430683,9.0417026 C 3.4486104,9.0417026 2,10.490314 2,12.284772 L 2,30.04877 c 0.1198358,0.882089 0.1106525,1.195428 0.7105601,2.568948 l 2.3320942,5.338312 c 0.67874,1.554 1.032568,2.40497 3.097313,2.40497 l 34.8538727,0 c 2.972433,0 4.578757,-2.91802 0.78344,-5.174335 l -7.233136,-4.299799 c -1.040156,-0.488572 -1.548656,-1.060385 -1.548656,-2.11346 l 0,-16.488634 c 0,-1.794458 -1.448611,-3.2430694 -3.243068,-3.2430694 l -26.5093517,0 z m 0.838097,4.0993854 24.7238417,0 0,15.850952 -24.7238417,0 0,-15.850952 z" fill="#dbdbdb"/>
</svg>
