<svg viewBox="0 0 512 512" xmlns="http://www.w3.org/2000/svg">
 <path d="m256 88.25v78.28h-78.28l-89.47 89.47h78.28v78.28l89.47 89.47v-78.28h78.28l89.47-89.47h-78.28v-78.28zm0 118.81l13.969 34.969 34.969 13.969-34.969 13.969-13.969 34.969-13.969-34.969-34.969-13.969 34.969-13.969z" fill="#dbdbdb"/>
</svg>
