<svg viewBox="0 0 512 512" xmlns="http://www.w3.org/2000/svg">
 <path d="m369.63 121.59c-23.325 0-42.25 18.925-42.25 42.25 0 10.04 3.526 19.253 9.375 26.5l-77.28 117.19c-3.626-1.014-7.425-1.563-11.375-1.563-11.222 0-21.405 4.361-28.969 11.5l-51.09-28.19c.517-2.641.781-5.364.781-8.156 0-23.325-18.925-42.22-42.25-42.22-23.325 0-42.25 18.893-42.25 42.22 0 6.481 1.485 12.637 4.094 18.13l-38.563 35.31c3.455 8.604 7.431 16.946 11.906 24.969l44.25-41.5c6.086 3.4 13.1 5.344 20.563 5.344 11.219 0 21.406-4.395 28.969-11.531l51.13 28.19c-.517 2.641-.781 5.364-.781 8.156 0 23.325 18.893 42.22 42.22 42.22 23.325 0 42.22-18.893 42.22-42.22 0-10.04-3.489-19.282-9.344-26.531l77.25-117.16c3.629 1.016 7.453 1.563 11.406 1.563 10.198 0 19.514-3.608 26.813-9.625l75.28 47c-.48-11.1-1.77-21.981-3.844-32.594l-57.47-36.03c.941-3.503 1.469-7.169 1.469-10.969 0-23.325-18.925-42.25-42.25-42.25" fill="#dbdbdb"/>
</svg>
