<svg height="512" viewBox="0 0 512 512" width="512" xmlns="http://www.w3.org/2000/svg">
 <path d="m258.35364 50.635158c-59.99448 0-113.80645 26.284836-150.62008 67.958732l65.78056 113.8091c8.77312-38.75622 43.49292-67.84984 84.83952-67.84984l0-.21784 181.00546 0c-32.47214-67.278083-101.27848-113.700181-181.00546-113.700181z" fill="#dbdbdb" overflow="visible"/>
 <path d="m92.813129 137.65282c-22.311688 32.37121-35.395173 71.61786-35.395173 113.91802 0 97.35053 69.179114 178.53225 161.075254 197.01496l65.67168-113.91799c-8.16605 2.54879-16.82375 3.9207-25.81125 3.9207-35.91473 0-66.8953-21.87287-80.15646-53.03832-.0139-.0313.0139-.0782 0-.10863l-85.384051-147.78874z" fill="#dbdbdb" overflow="visible"/>
 <path d="m258.35364 185.79027c-36.32843 0-65.78057 29.45215-65.78057 65.78057 0 36.3284 29.45214 65.78055 65.78057 65.78055 36.3284 0 65.78054-29.45215 65.78054-65.78055 0-36.32842-29.45214-65.78057-65.78054-65.78057z" fill="#dbdbdb" overflow="visible"/>
 <path d="m316.29281 186.77043c17.82886 15.95308 29.07849 39.08537 29.07849 64.80041 0 19.77743-6.67732 38.07088-17.86096 52.71158l.10864.10864-85.16623 147.46172c5.24397.41014 10.5511.65346 15.90058.65346 110.99679 0 200.93568-89.93889 200.93568-200.93568 0-22.69283-3.85196-44.45649-10.78191-64.80038l-132.21457 0z" fill="#dbdbdb" overflow="visible"/>
 <g transform="matrix(2.1488703 0 0 2.1488703 195.70104 240.1418)">
  <path d="m98.179393 68.57833c.16001-.258241 1.23222-1.705226 2.382687-3.215525 1.15048-1.510294 2.09178-3.017897 2.09178-3.350231 0-.554531-1.40169-.604243-17.037357-.604243-9.37054 0-17.1162.07885-17.21257.175221-.28165.281652-36.55931.638545-37.77461.371619l-1.10394-.242469.0946-16.533493.0946-16.533494 40.65675-.08005 40.656747-.08005-.0945 16.734201c-.0613 10.858076-.22224 16.7311-.45829 16.725364-.20008-.0049-2.97783 1.591255-6.17278 3.546924-5.761297 3.526569-6.684127 3.991705-6.123107 3.086235z" fill="#3e3e40"/>
  <path d="m51.011493 53.916977c.69047-.403254 1.62429-1.280588 2.07516-1.949627 1.34602-1.997356.96118-5.453441-.76695-6.887656-.47458-.39387-.42741-.620635.37285-1.792443 1.62027-2.37252.70719-5.515136-2.07587-7.144704-.96575-.565474-2.10079-.741816-5.57117-.865544-3.90181-.139119-4.40904-.08602-4.84256.506843-.37093.50728-.48424 2.682873-.48424 9.297613 0 7.614157.0725 8.707906.61333 9.248705.93716.937153 8.89449.629284 10.67945-.413187z" fill="#dbdbdb"/>
  <path d="m44.357003 51.017521c-.15006-.154155-.27284-1.235216-.27284-2.40237v-2.12209h1.91988c2.46536 0 3.53692.709148 3.53692 2.340703 0 .664444-.23425 1.402492-.52055 1.640104-.62255.516665-4.27517.94248-4.66341.543653z" fill="#3e3e40"/>
  <path d="m44.084163 41.036258v-1.818935h2.10996c2.26783 0 2.98306.403712 2.98306 1.683815 0 1.361485-.9456 1.954054-3.11818 1.954054h-1.97484z" fill="#3e3e40"/>
  <path d="m68.021763 54.626009c.72724-.194788.82274-.420953.72757-1.723024l-.10955-1.498796-4.18355-.181895-4.18355-.181894v-2.18272-2.182724l3.44358-.105636c3.63732-.111582 3.9987-.284076 4.00848-1.913381.009-1.543126-.59886-1.800747-4.25074-1.800747h-3.38322v-1.818934-1.818935h3.66179c4.31537 0 5.0691-.288591 5.0691-1.94087 0-1.960872-.32038-2.060788-6.60812-2.060788-5.38939 0-5.75884.04447-6.12993.737869-.26177.489124-.35807 3.682326-.28564 9.472203.0911 7.285233.19979 8.791485.65493 9.078809.60025.378917 10.23016.480026 11.56885.121463z" fill="#dbdbdb"/>
  <path d="m78.667843 54.48358c.66049-.353491.70365-.833255.70365-7.821422v-7.444835l1.90989-.005c1.05043-.0028 2.26435-.100051 2.69759-.216268.94937-.25466 1.34531-1.566437.85893-2.845709l-.35538-.934697-7.0119.0056c-3.85655.0028-7.23291.145617-7.50302.316792-.49699.314952-.6914 2.799936-.25331 3.238025.13079.130788 1.37494.30205 2.76478.380586l2.52698.142784v7.398509c0 6.662408.0633 7.435394.63663 7.769305.8285.482558 2.14077.489649 3.02516.01634z" fill="#dbdbdb"/>
  <path d="m86.631613 54.50476c.36526-.195488.96185-1.183399 1.32574-2.195364l.66164-1.839937 3.25811.103585 3.2581.103589.58302 1.745474c.64369 1.927099 1.18141 2.42418 2.63139 2.432507 1.3426.0077 2.121527-.341519 2.121527-.951164 0-.8657-6.604717-18.123727-7.045337-18.409358-.69128-.448116-2.69437-.308978-3.22755.224202-.27643.276433-2.02256 4.482646-3.88029 9.347138-3.16112 8.277476-3.33602 8.874991-2.72792 9.319641.76953.562696 2.11487.615639 3.04157.119687z" fill="#dbdbdb"/>
  <path d="m90.205863 46.656361c-.11028-.110274.11454-1.051573.4996-2.091774.38506-1.040198.78981-2.136824.89944-2.43695.1683-.460697 1.92854 3.565652 1.94825 4.456393.007.311629-3.0421.377522-3.34729.07233z" fill="#3e3e40"/>
 </g>
</svg>
