<svg xmlns="http://www.w3.org/2000/svg" width="48" height="48">
 id=&quot;defs2385&quot;&gt;
 <path fill="#dbdbdb" d="M 20.078129,45.700055 C 11.395738,44.050382 4.6015564,37.55234 2.4144438,28.806283 c -0.5370952,-2.147791 -0.5370952,-7.644939 0,-9.792731 1.1061948,-4.42357 3.2549413,-8.131281 6.4643582,-11.1543985 11.051152,-10.4096541 28.966422,-6.8440422 35.250792,7.0158385 1.871285,4.127031 2.414534,9.65835 1.369816,13.947354 -1.652336,6.783533 -5.756778,11.938269 -11.877655,14.917065 -1.285546,0.625628 -3.219228,1.353514 -4.297072,1.617527 -2.584093,0.632963 -6.881732,0.792439 -9.246554,0.343117 z M 39.707198,28.401834 c 1.109663,-0.573828 1.458267,-1.534898 1.563275,-4.309802 0.115732,-3.05827 -0.310462,-5.155873 -1.581694,-7.784615 C 37.481503,11.743045 33.785306,8.5797572 28.863573,7.0429524 27.36934,6.5763808 26.680219,6.5052362 23.791366,6.5192977 c -3.014382,0.014664 -3.524377,0.078251 -5.187484,0.6466811 -2.698708,0.9223877 -4.815376,2.2656778 -6.916647,4.3894782 -2.7093061,2.738354 -4.2327623,5.594661 -4.8604086,9.112715 -0.602685,3.378142 -0.3362445,5.603633 0.776001,6.481689 1.4902192,1.176445 4.5668036,-0.06933 6.5023456,-2.632934 1.750197,-2.318119 2.462314,-5.474789 2.217382,-9.829204 -0.08203,-1.45826 -0.213968,-2.896383 -0.293207,-3.19583 -0.136086,-0.51428 -0.100683,-0.53528 0.638845,-0.378938 1.453733,0.30733 4.183685,1.564253 5.946799,2.738021 2.433051,1.619769 6.145069,5.42 9.067295,9.282768 2.803609,3.705975 4.030339,4.823105 5.928907,5.399206 0.911278,0.276519 1.362284,0.248306 2.096004,-0.131116 z"/>
</svg>
