<svg height="512" viewBox="0 0 512 512" width="512" xmlns="http://www.w3.org/2000/svg">
 <path d="m381.83597 248.55909v61.983l-119.317-61.983v61.983l-119.358-61.983v61.983l-119.346999-61.983v201.278h477.388999v-139.305l-119.368-61.973zm-205.537 175.821h-119.325999v-70.103h119.325999zm145.653 0h-118.876v-70.103h118.866v70.103zm146.095 0h-119.347v-70.103h119.347z" fill="#dbdbdb"/>
 <path d="m337.23997 55.740084h-32.286l-9.329 200.038006 52.224 27.577z" fill="#dbdbdb"/>
 <path d="m218.75297 18.773085h-33.126l-9.328 237.005005 52.194 27.577z" fill="#dbdbdb"/>
</svg>
