<svg height="512" viewBox="0 0 512 512" width="512" xmlns="http://www.w3.org/2000/svg">
 <path d="m257.79542 88.924153c-26.18053 0-50.6258 9.184819-67.84772 26.402967-17.22138 17.22355-26.40243 41.66719-26.40243 67.84718h53.85722c0-14.21292 4.28166-23.42951 10.62389-29.7685 6.34115-6.339 15.55666-10.62441 29.76904-10.62441 14.21238 0 23.42735 4.30856 29.7685 10.62441 6.34115 6.33899 10.62441 15.55558 10.62441 29.7685 0 12.34408-2.43433 17.64686-5.68031 22.30012-3.24759 4.63173-8.59346 8.96885-16.51478 14.51613-7.92186 5.54192-18.36586 11.91054-28.08601 23.24748-9.72015 11.34234-17.04043 28.57988-17.04043 47.65071v13.46431h53.85722v-13.46431c0-7.85237 1.09331-9.23489 3.99622-12.6225 2.90289-3.39302 9.28875-7.85886 18.19781-14.09553 8.90853-6.23667 20.39304-14.53767 29.7685-27.98044 9.37548-13.43738 15.35794-31.69929 15.35794-53.01597 0-26.17999-9.18105-50.62363-26.40297-67.84718-17.22138-17.218148-41.66665-26.402967-67.84718-26.402967zm-26.92862 269.286117v53.85724h53.85722v-53.85724z" fill="#dbdbdb"/>
</svg>
