<svg height="512" viewBox="0 0 512 512" width="512" xmlns="http://www.w3.org/2000/svg">
 <path d="m197.69747 4.1110429c-41.91607 116.0667771-82.67594 232.3602071-124.571925 348.4542371 2.673907.81193 5.321993.50925 8.069059.53794 15.27168-.0732 30.587826.0602 45.859506 0 2.08003-.0143 1.81751-2.97659 2.68969-4.3035 18.40319-51.88584 37.12484-103.51347 55.58685-155.37062 1.10743-3.21615 2.28803-6.63026 3.76556-9.68287 9.57098.16209 19.03007-.14776 28.60105 0-20.07152 56.21803-40.06126 112.70861-60.42111 168.82623 2.12736.85496 4.2246.49203 6.45524.53793 16.04058-.14919 31.97069.22092 48.01126 0 18.12203-51.07822 36.88098-102.12201 55.05609-153.17584 3.88319-10.44315 4.0209-22.73394-2.15175-32.36661-5.39085-8.52523-15.61022-13.09554-25.37343-13.4929-13.35232-.39736-26.53106.23526-39.89773 0 18.37164-52.07233 37.31133-103.786028 55.54238-155.9157349-57.1275 5.9689518-46.01873 4.7008544-57.20066 5.9617793m119.24993 148.8723456c-.41313.85496-.6656 2.92494-1.07587 3.76556-41.56318 116.58176-83.43048 233.00573-125.16007 349.53011 52.67769 7.64158 14.69214 2.39418 52.8527 7.57559 18.21096-51.16715 36.67584-102.09331 55.05608-153.21887 19.99692-.36867 39.84896-.16927 59.84588-.53794 12.76274-.44326 25.48101-8.09775 29.67692-20.48608 16.91132-47.55366 33.78246-94.65831 50.16301-142.4171 2.68825-7.21553 4.29346-15.08663 2.15175-22.63784-2.89769-9.57241-11.6051-16.87401-21.02402-19.41021-8.18239-2.53763-16.37051-1.46606-24.78959-1.61381-25.67036-.0746-52.02929-.2869-77.69248-.53794m47.02432 30.03555c1.21215-.0115 2.47882.30842 3.67662.13484 7.41493.13341 14.68497-.16209 22.0999 0-17.27137 49.21768-34.78661 98.52142-51.77108 147.83951-9.59967.67852-19.52354.0588-29.13899 0 17.53102-48.90208 34.78661-97.81851 52.31476-146.7206.39736-.45043 1.13326-.96541 1.65828-1.12034.39305-.11619.76172-.13054 1.16625-.13484" fill="#dbdbdb"/>
</svg>
