<svg height="512" viewBox="0 0 512 512" width="512" xmlns="http://www.w3.org/2000/svg">
 <path d="m187.66197 254.34654h43.58945l1.45992-82.2104h-30.86713v-50.97043h51.51481c-9.73312-14.66055-22.03825-31.787724-36.91547-51.381501l44.21519-25.074133c17.24088 18.908718 31.97931 37.269036 44.2152 55.080953l-36.0813 21.374681h96.9815l-28.36449-17.67524c15.01611-18.360008 29.33746-37.953471 42.96383-58.780394l46.71795 26.718362c-12.65319 17.401476-25.65361 33.980562-39.00114 49.737272h56.52033v50.97043h-39.2097v82.2104h50.88918v50.97041h-50.88918v145.5124h-55.89469v-145.5124h-66.94842c-8.48188 60.01364-28.99045 110.57299-61.52595 151.67824-12.79198-13.15374-28.22549-27.54052-46.30076-43.16046 26.13962-29.73284 43.2417-65.90528 51.30627-108.51778h-38.3754zm100.52698-82.2104l-1.45993 82.2104h62.77721v-82.2104zm-243.183603-51.7926h45.049493v-70.700866h54.6433v70.700866h38.7925v51.38152h-38.7925v63.09651l38.37541-7.19339c-2.50287 18.08643-4.31043 36.58373-5.4226 55.49203l-32.95281 5.75465v106.46245c-.0001 16.71609-3.61523 29.39025-10.8453 38.02239-7.09118 8.63202-17.51928 13.29063-31.28434 13.97571-13.62604.82195-29.198663 1.43862-46.717945 1.84971-2.502758-15.89403-6.39588-34.25435-11.679381-55.08096 10.567106 1.09616 21.273308 1.64425 32.118516 1.64425 8.898639 0 13.486943-5.89175 13.76515-17.67526v-78.30536l-43.798106 9.6597-3.336947-58.7804c15.711615-2.05511 31.423334-4.3159 47.135053-6.78242v-72.13961h-45.049493z" fill="#dbdbdb"/>
</svg>
