<svg xmlns="http://www.w3.org/2000/svg" width="48" height="48">
 <path d="m 2,6.5751361 0,23.3760259 19.698764,0 c -0.373989,-0.994771 -0.579375,-2.072973 -0.579375,-3.192477 0,-0.949526 0.15262,-1.868306 0.425664,-2.731341 C 17.539338,22.44977 13.552674,20.031965 7.037019,23.18784 5.548738,23.908693 4.670048,24.894681 4.151966,25.682702 l 0,-16.4471679 27.159701,0 0,8.4541519 c 0.735329,0.08625 1.443417,0.268139 2.116494,0.520255 l 0,-11.6348049 -31.428161,0 z m 21.815258,5.7819309 c -1.507028,0 -2.719517,1.212488 -2.719517,2.719517 0,1.507029 1.212489,2.731342 2.719517,2.731342 1.507029,0 2.731342,-1.224313 2.731342,-2.731342 0,-1.507029 -1.224313,-2.719517 -2.731342,-2.719517 z m 6.43225,6.455898 c -4.371323,0 -7.94572,3.574393 -7.94572,7.94572 0,4.371328 3.574397,7.957544 7.94572,7.957544 1.730837,0 3.336578,-0.564664 4.646828,-1.51347 l 1.537118,1.537118 c -0.363346,0.674393 -0.263393,1.533853 0.307424,2.104673 l 4.954251,4.95425 c 0.697592,0.6976 1.820909,0.6976 2.518509,0 l 1.265166,-1.26517 c 0.697595,-0.69759 0.697595,-1.82091 0,-2.51851 l -4.95425,-4.954249 c -0.570818,-0.57082 -1.430278,-0.670773 -2.10467,-0.307424 l -1.57259,-1.57259 c 0.85354,-1.26575 1.359758,-2.790106 1.359758,-4.422172 0,-4.371327 -3.586217,-7.94572 -7.957544,-7.94572 z m 0,3.109709 c 2.688845,0 4.836012,2.147168 4.836012,4.836011 0,2.688843 -2.147167,4.836011 -4.836012,4.836011 -2.688841,0 -4.836011,-2.147168 -4.836011,-4.836011 0,-2.688843 2.14717,-4.836011 4.836011,-4.836011 z" fill="#dbdbdb"/>
</svg>
