<svg xmlns="http://www.w3.org/2000/svg" width="48" height="48">
 <path d="M 9.90625,5.51255 C 9.3604986,5.5480433 8.855557,5.6865267 8.3125,6.07505 7.726798,6.494083 7.554988,7.92985 8.5,8.6688 l 11.78125,9.1875 c 0.478529,0.37419 1.095744,0.5625 1.71875,0.5625 0.623006,0 1.27147,-0.18831 1.75,-0.5625 L 35.53125,8.6688 c 0.945011,-0.73895 0.773202,-2.174717 0.1875,-2.59375 -0.724076,-0.51803 -1.361003,-0.585827 -2.15625,-0.5625 -8.070883,0.23674 -14.653442,0.04101 -23.09375,0 -0.198894,-9.75e-4 -0.380583,-0.011831 -0.5625,0 z m 29.625,4.78125 -15.125,11.84375 c -1.327775,1.03825 -3.484725,1.03825 -4.8125,0 L 4.46875,10.32505 C 3.050975,10.58522 2,11.82983 2,13.32505 l 0,16.875 c 0,1.68551 1.345741,3.03125 3.03125,3.03125 l 19.09375,0 c -0.03205,-3.043249 1.096848,-6.096852 3.40625,-8.40625 2.277119,-2.277121 5.257228,-3.40625 8.25,-3.40625 2.24458,0 4.489436,0.627849 6.4375,1.90625 l 0,-10 c 0,-1.568291 -1.16636,-2.860269 -2.6875,-3.03125 z m -3.75,12.625 c -2.610343,0 -5.196202,0.97745 -7.1875,2.96875 -3.982607,3.9826 -3.982607,10.4549 0,14.4375 3.982599,3.9826 10.423654,3.9826 14.40625,0 3.982608,-3.9826 3.982608,-10.4549 0,-14.4375 -1.991298,-1.9913 -4.608405,-2.96875 -7.21875,-2.96875 z m -1.84375,4.03125 3.71875,0 0,4.28125 4.28125,0 0,3.75 -4.28125,0 0,4.28125 -3.71875,0 0,-4.28125 -4.28125,0 0,-3.75 4.28125,0 0,-4.28125 z" fill="#dbdbdb"/>
</svg>
