<svg width="512" height="512" version="1.1" viewBox="0 0 512 512" xmlns="http://www.w3.org/2000/svg">
 <path d="m76.701 113.95v274.44h377.35v-274.44zm163.15 17.153v0.0329c12.693 0.60032 25.538 1.0636 37.75 3.2762 14.957 3.2589 21.647 8.7143 22.745 25.661 0 6.5693-3.2239 12.658-9.6731 18.284 6.4492 3.0188 10.684 5.4381 12.726 7.2048 8.0101 8.7476 8.7126 18.713 3.7213 32.058-2.367 4.8026-7.8365 8.851-16.447 12.196-16.723 4.9055-32.625 3.5671-49.211 2.5037-2.4699-0.12011-3.9622-0.24101-4.4939-0.34388-0.54887-0.10286-1.1312-0.25816-1.783-0.46398-1.5094-0.53172-2.2823-1.0972-2.2823-1.7146v-13.774c-1.5265-23.447-2.1425-47.168-3.3775-71.798 0-7.5984 1.989-11.817 5.9683-12.657 1.2864-0.30875 2.745-0.46398 4.3573-0.46398zm165.26 0.63357-0.18842 0.0188 16.621 0.46163c8.5933 0 13.345 2.0257 14.202 6.0908 0.13722 5.2657-0.49847 10.169 0.63357 15.469 0 1.355-0.61664 2.042-1.9031 2.042-1.6123-1.4236-3.7906-2.7097-5.1628-4.5622-2.144-1.2521-4.5283-1.9728-7.1012-2.1786-15.557 0.6175-28.714 1.2176-39.863 13.91-2.59 5.9518-4.3718 11.441-5.3323 16.449-0.85762 5.0085-1.2695 8.2842-1.2695 9.8451 0.73754 4.7855 2.9488 8.9183 4.5268 13.138 1.2693 2.0754 2.7797 4.0659 3.8603 5.6268 1.3036 0.84046 2.8116 1.613 4.5268 2.3506 3.5505 1.355 6.5195 2.0397 8.8865 2.0397 11.698-0.90907 22.846-0.34318 34.029-4.8542 1.1835-0.51457 1.9901-0.77018 2.4189-0.77018 0.53172 0 0.90991 0.25561 1.1329 0.77018 0.0344 0.8233-0.0188 1.6656-0.0188 2.506v3.4128c0.15436 5.3858 1.082 11.303 1.7853 16.586-1e-5 2.1955-0.1381 3.5169-0.464 3.9286-1.7152-0.41166-3.5496-0.63592-5.4878-0.63592-6.0204 0.65178-12.677-0.39283-17.926-0.77017-22.246-0.24013-39.706-5.353-50.323-27.531l-6.9292-17.358c-0.85761-1.8868-1.3048-4.3226-1.3048-7.3414 0-6.1576 2.5382-13.617 7.5981-22.382 6.0204-10.206 14.288-17.771 24.82-22.677 5.3858-2.4013 11.457-3.5847 18.232-3.5847zm-274.74 0.5158c1.9039 0.10287 4.254 0.87487 5.7634 0.24024 8.3874 0.20583 12.83 0.8238 13.361 1.8701 9.4509 31.766 23.377 68.024 34.835 94.765-0.54887 0.94337-2.3159 1.5441-5.3347 1.75-3.0188 0.10298-5.95 0.1366-8.8488 0.1366-2.7958 0-4.9582-0.10274-6.4676-0.30854-1.4065-0.20582-2.3841-0.8238-2.9158-1.8701-1.7152-3.3447-3.3785-6.2762-4.9908-8.7805-1.6123-2.5042-3.1227-5.3173-4.5292-8.439l-18.557-1.2365c-5.4716 0-8.9716 1.0305-10.481 3.1231-0.7547 1.0463-1.2851 2.3678-1.611 3.9286-1.1835 6.6722-4.8203 11.629-9.52 16.277-3.8764-1.1492-8.9034-1.75-15.147-1.75-0.53172 0-1.0456-0.15524-1.4744-0.46399-0.42881-0.4288-0.63357-0.9771-0.63357-1.7146s0.27378-1.732 0.8055-2.9841c4.0479-8.2845 7.2204-17.051 9.6731-24.683 7.2211-22.264 15.01-43.788 22.917-65.863-0.24013-3.4648 1.2168-4.0662 3.1207-3.9804zm133.88 20.856c-3.3857-7.9e-4 -6.5955 0.19783-10.403 0.5323-0.53172 0-1.0126 1.5606-1.4414 4.6823-0.4288 3.1217-0.63357 5.0093-0.63357 5.6268 0 0.61748 0.27379 1.0973 0.80551 1.4061 6.4664 4.2194 16.159 1.183 22.248-1.0811 1.6123-1.2521 2.4165-3.0363 2.4165-5.3347 0-1.1492-3.1713-3.0863-9.5177-5.7963v0.0329c-1.1964-0.0472-2.3455-0.068-3.474-0.0683zm-126.39 13.67c-3.1903 8.3703-5.2647 13.346-9.7414 21.407h17.323c-2.0926-6.6036-5.1124-15.644-7.5652-21.407zm131.01 24.047-0.13896 0.17192-8.7122 0.0188c-2.3498 0.46311-3.3108 1.2342-6.1237 1.2342-0.7547 0-1.2184 0.29092-1.4414 0.8055 0.0344 0.41165-0.0165 1.5432-0.0165 3.4128-0.34304 3.6706 0.32678 7.7699 0.46398 11.115 0.63465 4.168 1.7652 6.5873 3.3775 7.2048 9.1421 2.144 17.375 5.0762 26.294-0.46399 3.7563-2.71 5.6597-6.6203 5.6597-11.732-1.7324-4.6997-4.2181-7.8556-7.4427-9.4164-3.1217-1.5608-7.0831-2.3506-11.92-2.3506zm-26.235 77.661c10.656 0.0997 21.574 1.2323 31.518 1.9784 8.4046 1.1492 13.617 5.0426 16.379 9.4164 4.4596 5.2314 6.1249 11.422 5.7304 17.391 0 6.5693-3.1747 12.66-9.5554 18.286 6.3806 3.0188 10.567 5.4358 12.591 7.2024 4.2538 3.6534 6.3969 7.6499 6.3969 12.024 0.87476 7.1353-0.29246 13.928-2.7109 20.034-2.3327 4.8026-7.7698 8.851-16.277 12.196-19.845 4.8541-37.099 3.224-54.937 1.7146-1.4922-0.53172-2.247-1.0972-2.247-1.7146v-13.774c-0.29158-24.922-3.3102-51.953-3.3445-71.798 0-7.5984 1.9879-11.819 5.9329-12.66 3.4476-0.24871 6.9715-0.33 10.523-0.29677zm-95.66 0.54407c4.2178 8e-3 8.595 0.24712 13.406 0.38862 8.5075 0 13.208 2.0233 14.066 6.0884-0.75469 5.3172 0.34198 10.258 0.63357 15.472 0 1.355-0.63381 2.0397-1.9031 2.0397-2.0068-1.0463-3.243-2.8984-5.1298-4.5622-11.595-4.6311-22.263-1.6294-33.36 1.578-16.5 6.8266-19.435 22.814-19.641 36.45 6.6036 28.764 33.447 22.812 55.248 18.284 1.1835-0.51457 1.9547-0.77254 2.3835-0.77254 0.53172 0 0.92708 0.25797 1.1329 0.77254-0.66894 7.5298 0.61751 15.161 1.578 22.519 0 2.1955-0.1381 3.5169-0.46399 3.9286-15.488-0.44595-32.949-2.9506-46.637-5.4548-9.8454-2.0411-15.298-8.2505-21.713-14.871-6.5007-10.154-12.298-20.016-12.761-33.292 0-6.1576 2.5025-13.617 7.511-22.382 5.969-10.206 14.168-17.771 24.596-22.677 5.9518-2.2984 11.355-3.1555 16.878-3.4128v-0.0165c1.3808-0.06 2.77-0.083 4.1759-0.0801zm242.15 0.47341c8.3017 0.20583 12.726 0.82381 13.258 1.8701 7.324 29.691 19.349 57.906 30.155 84.286 2.1269 4.3738 3.5844 7.8738 4.3219 10.481-0.53172 0.94338-2.2819 1.5418-5.2664 1.7476-5.3344 0.58321-9.9826 0.0692-15.18-0.0165-1.3893-0.20583-2.3488-0.8238-2.8805-1.8701-3.3447-5.7288-6.5177-11.834-9.4164-17.151l-18.352-1.2342c-5.4201 0-8.8851 1.0282-10.377 3.1207-1.9382 5.6945-4.992 11.355-7.5133 16.277-1.5952 2.6072-2.7789 3.9286-3.5164 3.9286-3.825-1.1492-8.833-1.75-15.008-1.75-0.53172 0-1.0126-0.15525-1.4414-0.464-0.4288-0.42881-0.63357-0.97709-0.63357-1.7146 9.468-25.197 18.248-52.588 27.305-77.253 3.2932-9.4852 5.2316-14.922 5.7634-16.277 0.72039-5.6946 5.764-2.4703 8.7828-3.7567zm-131.67 21.122c-2.4219 0.0156-4.8702 0.12066-7.16 0.19784-2.0412 3.1903-1.2712 6.3462-2.0774 10.326 0 0.61748 0.27614 1.0974 0.80786 1.4061 10.308 5.0771 25.145 2.162 24.424-6.3969-1.711-4.8112-8.7289-5.5792-15.995-5.5325zm133.41 13.394c-3.4396 6.8198-5.1532 14.102-7.1577 21.384h14.664c-2.9812-6.9562-5.3299-14.239-7.5063-21.384zm-127.41 24.024v0.0165c-4.4767 0.17153-8.8674 0.9625-13.001 1.4085-0.73755 0-1.2356 0.29093-1.4414 0.8055-0.60033 4.511 0.29378 9.9299 0.3109 14.544 0.63463 4.168 1.7493 6.5873 3.3445 7.2048 1.9382 0.94336 3.6194 1.252 5.7634 2.0067 8.0272 1.2521 13.188-0.27453 20.272-2.4872 3.722-2.7101 5.5938-6.6203 5.5938-11.732-1.7152-4.6997-4.1511-7.8556-7.3414-9.4164-4.4424-2.0926-9.0237-2.3677-13.5-2.3506z" fill="#dbdbdb" stroke-width="17.152"/>
</svg>
