<svg width="512" height="512" version="1.1" viewBox="0 0 512 512" xmlns="http://www.w3.org/2000/svg">
 <path d="m415.89 344.15a180.68 180.68 0 0 1-203.26 84.182 180.68 180.68 0 0 1-133.91-174.52 180.68 180.68 0 0 1 133.91-174.52 180.68 180.68 0 0 1 203.26 84.182l-156.5 90.339" fill="#dbdbdb" stroke-width="13.898"/>
</svg>
