<svg xmlns="http://www.w3.org/2000/svg" width="48" height="48">
 <path d="m 32.420286,2 c -7.501237,0 -13.579698,6.204426 -13.579698,13.86114 0,1.30363 -0.194208,2.584656 0.04469,3.784459 L 8.119796,7.927473 2.134011,7.836193 2.268021,15.997849 12.363451,26.576084 2.134011,36.698364 2,45.90872 11.470051,46 l 1.876141,-4.87875 5.092384,0.364756 1.652794,-4.513994 1.474113,-0.592746 8.934004,9.347146 6.387823,-0.182389 0.178675,-7.021742 -8.934004,-9.301548 c 1.370901,0.359636 2.945483,0.501548 4.288321,0.501548 C 39.921539,29.722281 46,23.51783 46,15.86114 46,8.204426 39.921539,2 32.420302,2 z m 2.501525,7.204131 c 2.198044,0 3.975632,1.814453 3.975632,4.05804 0,2.243594 -1.777588,4.103617 -3.975632,4.103617 -2.198039,0 -3.975639,-1.860023 -3.975639,-4.103617 0,-2.243587 1.7776,-4.05804 3.975639,-4.05804 z" fill="#dbdbdb"/>
</svg>
