<svg xmlns="http://www.w3.org/2000/svg" width="48" height="48">
 id=&quot;defs4&quot;&gt;
 <path fill="#dbdbdb" d="m 17.861507,3.0831639 -5.526137,0.9558723 0,4.4209097 L 8.3326544,6.3988461 5.0169721,9.774271 4.8377461,14.732858 5.7936184,15.628989 3.1948405,15.987441 2,21.842159 l 0.8363883,5.496266 4.5403937,0 0.7169043,1.881874 -2.0013577,5.406653 5.0183294,5.257298 4.480652,-2.598778 2.270197,1.105227 0.806517,5.496266 6.392397,1.613035 3.196198,-4.271555 1.941616,-0.05974 2.807875,3.255941 3.345553,-1.403938 L 41.340122,37.4647 40.68296,36.807536 44.775288,33.193143 46,28.533266 41.8778,25.337067 45.283095,22.559063 42.923286,17.092668 39.308893,16.286151 37.606246,14.135438 39.189409,11.954854 34.410047,8.1612358 31.811269,9.1768499 29.75017,8.2209778 29.451459,5.2637477 23.596741,3.381874 22.461643,5.92091 20.460285,6.040394 17.861507,3.0831639 z m -0.179226,0.9558723 2.120842,2.7182621 3.345553,0.119484 1.015614,-2.3299389 4.659878,1.4935506 c 0,0 -0.0093,0.8906103 0.119484,2.628649 1.158699,0.1931149 3.076713,1.613035 3.076714,1.613035 l 2.329939,-1.0753571 3.793619,2.8974881 c 0,0 -0.514089,0.828777 -1.672777,2.180584 1.094321,0.965577 2.180583,2.837746 2.180584,2.837746 l 4.062457,0.896131 1.732519,4.241683 c 0,0 -1.540609,0.24569 -3.793618,0.567549 0.450598,1.029949 -0.05974,2.837746 -0.05974,2.837746 l 4.510522,3.22607 -1.045485,3.345553 c 0,0 -3.016084,-1.34375 -4.689749,-2.180584 -0.514976,1.287436 -2.449422,2.568907 -2.449423,2.568907 l 2.509165,4.749491 -3.524779,1.76239 c 0,0 -2.513351,-3.436813 -3.285811,-4.659878 -1.609298,0.514976 -5.018331,0.32858 -5.01833,0.328581 l -0.776647,5.078072 -4.719619,-0.955872 c 0,0 -0.238968,-3.277754 -0.238968,-5.466396 -2.124264,-0.579346 -4.570264,-2.628649 -4.570265,-2.628649 L 12.843179,33.521724 9.4378838,30.44501 c 0,0 1.9432692,-2.655537 3.1663272,-3.942973 C 10.737428,25.150229 9.8262049,21.872031 9.826205,21.87203 L 4.4792939,21.692804 3.9117447,16.674474 c 0,0 2.3100855,-0.07572 5.078072,-0.268839 -0.1287465,-1.995526 0.8961303,-3.55465 0.8961303,-3.55465 L 5.9728445,10.162594 8.3923964,7.4443315 c 0,0 2.1472906,0.7896453 4.2715546,2.2701975 0.579354,-0.9655779 2.300068,-2.0013585 2.300068,-2.0013584 l -1.46368,-3.0767141 4.181942,-0.5974203 z m 6.989817,4.8689749 C 14.436989,8.7148962 13.235907,17.084167 13.589952,20.10964 c 0.354046,3.025474 7.643413,10.6871 14.338086,10.365241 6.694662,-0.321859 9.080788,-5.448634 9.080787,-8.602851 0,-3.154218 -2.101609,-12.7709031 -12.336727,-12.9640189 z"/>
</svg>
