<svg width="512" height="512" version="1.1" viewBox="0 0 512 512" xmlns="http://www.w3.org/2000/svg">
 <g transform="matrix(15.039 0 0 15.039 -107.16 -117.87)" fill="#dbdbdb" fill-rule="evenodd">
  <path d="m35.547 13-0.045 0.703c-0.348 5.624-0.919 9.48-1.629 11.959s-1.555 3.468-2.193 3.703c-0.319 0.118-0.648 0.109-1.084-0.047-0.436-0.155-0.954-0.472-1.504-0.912-1.099-0.881-2.321-2.241-3.555-3.623-1.233-1.382-2.477-2.784-3.734-3.787-0.629-0.501-1.264-0.909-1.938-1.145-0.674-0.235-1.414-0.284-2.105-0.02-1.383 0.528-2.336 2.057-3.094 4.74s-1.322 6.723-1.666 12.428h1.498c0.341-5.647 0.906-9.522 1.611-12.02 0.705-2.497 1.549-3.505 2.186-3.748 0.318-0.121 0.643-0.114 1.076 0.037s0.948 0.461 1.496 0.898c1.096 0.874 2.318 2.232 3.551 3.613 1.233 1.382 2.478 2.789 3.736 3.797 0.629 0.504 1.264 0.912 1.938 1.152s1.413 0.297 2.107 0.041c1.388-0.512 2.351-2.03 3.115-4.697s1.334-7.393 1.686-13.07c-1.01 0.015-1 0-1.453 0z" solid-color="#000000" style="isolation:auto;mix-blend-mode:normal;white-space:normal" isolation="auto" mix-blend-mode="normal"/>
  <path d="m34.547 12-0.045 0.703c-0.348 5.624-0.919 9.48-1.629 11.959s-1.555 3.468-2.193 3.703c-0.319 0.118-0.648 0.109-1.084-0.047-0.436-0.155-0.954-0.472-1.504-0.912-1.099-0.881-2.321-2.241-3.555-3.623-1.233-1.382-2.477-2.784-3.734-3.787-0.629-0.501-1.264-0.909-1.938-1.145-0.674-0.235-1.414-0.284-2.105-0.02-1.383 0.528-2.336 2.057-3.094 4.74s-1.322 6.723-1.666 12.428h1.498c0.341-5.647 0.906-9.522 1.611-12.02 0.705-2.497 1.549-3.505 2.186-3.748 0.318-0.121 0.643-0.114 1.076 0.037s0.948 0.461 1.496 0.898c1.096 0.874 2.318 2.232 3.551 3.613 1.233 1.382 2.478 2.789 3.736 3.797 0.629 0.504 1.264 0.912 1.938 1.152s1.413 0.297 2.107 0.041c1.388-0.512 2.351-2.03 3.115-4.697s1.334-7.393 1.686-13.07c-1.01 0.015-1 0-1.453 0z" solid-color="#000000" style="isolation:auto;mix-blend-mode:normal;white-space:normal" isolation="auto" mix-blend-mode="normal"/>
 </g>
</svg>
