<svg height="512" viewBox="0 0 512 512" width="512" xmlns="http://www.w3.org/2000/svg">
 <path d="m396.79 115.36v120.18h-72.16v5h28.433l9.615 9.639.193 3.962h-91.56l.362-4.131 5.29-9.47h32.3v-5h-72.16v-120.18h159.68m-121.9 142.5v120.18h-72.16v5h28.433l9.614 9.615.193 3.986h-91.56l.362-4.131 5.29-9.47h32.3v-5h-72.16v-120.18h159.68" fill="#dbdbdb" fill-rule="evenodd"/>
</svg>
