<svg height="512" viewBox="0 0 512 512" width="512" xmlns="http://www.w3.org/2000/svg">
 <path d="m407.72 98.13l-68.31 72.69c-.515.549-1.01 1.112-1.469 1.688-2.785-.516-5.665-.786-8.594-.781-15.436.027-32.28 7.656-44.41 26.813-17.84 28.19-8.29 71.16-42.22 98.09 0 0 59.4 3.429 94.53-21.22 26.448-18.553 39.41-41.32 36.13-63.813 2.635-1.406 5.084-3.259 7.219-5.531l60.75-64.66c-9.395-15.813-20.686-30.363-33.625-43.28m-193.16 26c-.628-.022-1.261.078-1.781.25-.529.175-.953.407-1.406.75-.357.27-.701.581-1.031.938-.301.319-.77.561-1.063.938-.137.18-.207.372-.344.563-.902 1.227-1.788 2.778-2.906 4.281-1.431 1.924-1.723 3.968-1.438 6.06.285 2.095 1.228 4.081 2.281 5.969 2.107 3.777 4.822 6.878 4.313 7.563 1.613-1.03 2.962-1.936 4.03-2.844 3.305-2.645 4.701-4.862 6.375-8.563.496-1.095.84-4.095.875-6.969s-.291-5.666-1.406-6.375c-.693-.44-1.204-.708-1.813-1.031-.082-.044-.107-.146-.188-.188-.559-.289-1.131-.492-1.625-.688-.438-.17-.857-.211-1.25-.313-.574-.152-1.135-.327-1.625-.344m-46.813 57.19c-.949.044-1.904.226-2.875.563-1.792.622-3.61 1.972-5.438 3.781-5.713 8.492-19.697 1.01-24.969 10.563-.102.444-.091.776-.156 1.188-.115.72-.271 1.374-.281 2-.004.262.05.473.063.719.029.581.067 1.159.188 1.656.15.621.316 1.156.594 1.656.285.514.628.944 1.031 1.344.261.258.571.629.875.844.133.094.328.133.469.219.345.209.582.428.969.594.191.085.456.081.656.156 1.128.406 2.395.636 3.75.781 1.217.131 2.439.199 3.75.188.625-.004 1.242-.068 1.875-.094.898-.038 1.828.064 2.719 0 3.054-.214 5.985-.587 8.281-.594 10.68-1.201 17.18 5.839 23.75 11 1.146-.127 2.185-.372 3.063-.688.359-.127.652-.376.969-.531.112-.055.237-.066.344-.125.79-.42 1.247-.981 1.781-1.563.447-.487.902-.952 1.188-1.531.348-.706.615-1.531.75-2.344.009-.052-.07-.103-.063-.156.094-.714.199-1.577.156-2.344-.009-.193.017-.367 0-.563-.081-.934-.352-1.845-.594-2.813-.202-.779-.372-1.63-.656-2.406-.08-.225-.132-.464-.219-.688-.303-.768-.639-1.541-1-2.281-.111-.228-.29-.401-.406-.625-1.142-2.213-2.468-4.352-3.781-5.875-4.096-5.982-10.135-12.338-16.781-12.03m65.13 7.344c-2.054 1.657-3.102 3.57-3.656 5.688-.281 1.072-.534 2.256-.563 3.406-.037 1.268.223 2.578.375 3.906.308 2.46.709 5 1.094 7.5-.014.057.014.132 0 .188.982 6.502.993 12.724-6.75 16.75-12.358 8.912-30.542 1.252-40.563 14.813-5.958 8.097-12.992 5.242-19.719 2.5-.566-.231-1.061-.495-1.625-.719-1.143-.451-2.351-.92-3.469-1.25-1.713-.506-3.32-.83-4.938-.719-1.337.092-2.599.486-3.844 1.25.532.646 1.031 1.191 1.656 1.781.581.556 1.164 1.077 1.813 1.594 1.121.889 2.396 1.689 3.656 2.5.188.121.372.255.563.375.188.118.342.226.531.344 2.802 1.738 5.8 3.375 8.594 5.188.365.238.736.443 1.094.688.326.222.588.491.906.719 1.097.788 2.126 1.802 3.094 2.688.095.088.281.099.375.188.657.618 1.272 1.101 1.844 1.781.138.165.211.363.344.531.411.524.742 1.028 1.094 1.594.111.176.27.351.375.531.341.597.638 1.32.906 1.969.216.516.398 1.041.563 1.594.107.359.26.718.344 1.094.013.058-.013.098 0 .156.189.89.326 1.887.375 2.875.052 1.049-.066 2.02-.188 3.188 2.155 14.328-9.292 25.739-11.875 38.719-.012.058.012.129 0 .188-.494 2.564-.532 5.111-.156 7.844.422 1.547.906 3.046 1.625 4.625.296.656.579 1.31.906 1.969 1.262 2.534 2.76 5.121 4.03 7.656.179.357.392.706.563 1.063.083.174.075.389.156.563.693 1.483 1.395 2.978 1.844 4.438.495 1.622.712 3.241.719 4.813.001.232.013.488 0 .719-.075 1.5-.376 3.03-1.094 4.469-.225.451-.605.807-.906 1.25-.194.284-.336.595-.563.875-.368.46-.819.8-1.281 1.25-.253.247-.436.475-.719.719-.778.679-1.537 1.317-2.563 1.969-6.237 5.562-4.788 10.718-.906 8.563.647-.359 1.242-.828 2-1.625s1.555-1.89 2.375-3.188c3.992-12.37 24.265-20.594 27.781-5.719.234.992.266 2.204.344 3.406 1.278 4.506-.44 11.145-1.281 17.09-.841 5.949-.731 11.199 3.844 12.844 1.307-15.04 1.922-33.938 16.438-42.625.968-.579 1.999-1.11 3.094-1.594 13.687-7.145 22.11 11.345 34.875 9.813.851-.102 1.67-.425 2.563-.719 16.403-6.891 21.857 10.653 32.875 17.469 9.358.365 12.979-5.51 14.625-13.531.235-1.146.364-2.379.531-3.594 1.338-9.717.747-21.256 4.188-28 8.715-8.262 11.761-18.752 14.09-29.75-35.14 15.279-75.56 14.707-113.37 11.656 8.712-8.998 19.532-15.74 28.469-24.375 12.365-12.505 16.17-29.27 19.656-46.03-4.513-1.981-8.577-5.13-11.844-9.563-13.529-8.875-5.853-25.442-12.406-36.938-.513-1.58-1.779-1.26-2.906-1.406m36.531 3.375c-2.3.017-4.563 1.203-6.938 3.563-1.2 1.193-1.984 2.541-2.563 3.906-.353.834-.577 1.655-.719 2.5-.305 1.708-.121 3.498.344 5 .168.501.318.986.563 1.438.204.388.461.719.719 1.063.102.133.266.218.375.344.482.565.995 1.049 1.625 1.438.186.115.365.277.563.375.385.187.853.23 1.281.344.391.107.757.247 1.156.313 1.678-6.618 4.403-13 7.969-18.906-1.511-.926-2.935-1.386-4.375-1.375m-138.84 68.13c-2.028.079-3.728.428-4.281 1.25-.458.681-.755 1.182-1.094 1.781-.046.081-.144.108-.188.188-.304.552-.511 1.105-.719 1.594-.182.433-.263.86-.375 1.25-.167.569-.345 1.136-.375 1.625-.038.627.029 1.257.188 1.781.161.533.419.944.75 1.406.261.364.559.754.906 1.094.311.31.537.76.906 1.063.176.142.376.202.563.344 1.203.934 2.715 1.873 4.188 3.03 1.885 1.482 3.93 1.854 6.03 1.625 2.102-.229 4.116-1.153 6.03-2.156 3.831-2.01 6.986-4.621 7.656-4.094-.987-1.64-1.871-3-2.75-4.094-2.557-3.374-4.72-4.853-8.375-6.625-1.082-.524-4.066-.952-6.938-1.063-.718-.028-1.449-.026-2.125 0m233.41 8.219c-2.963 3.165-6.114 6.15-9.438 8.938 6.496.834 12.838 1.534 17.844-1.094-.209-1.899-.783-3.52-1.656-4.656-.051-.066-.103-.092-.156-.156-.419-.511-.931-.875-1.469-1.25-.068-.048-.118-.142-.188-.188-.163-.106-.391-.092-.563-.188-.485-.272-.883-.525-1.438-.719-.897-.313-1.892-.538-2.938-.688m-224.87 29.531c-.306 0-.616.021-.875.063-.685.111-1.201.365-1.625.719-.038.034.036.151 0 .188-.299.299-.577.658-.75 1.063-.22.497-.299.973-.344 1.594-.027.365-.024.7 0 1.094.034.794.13 1.649.344 2.5.916 3.642 1.725 4.461 2.75 4.281.512-.09 1.026-.475 1.656-.906.631-.431 1.378-.887 2.188-1.25 4.542-2.036 2.646-2.455 0-8.75-1.304-.41-2.424-.595-3.344-.594m186 25.781c-1.118.193.223 3.738 4 10.594 3.387 6.147 6.838 13.341 7.688 15.719 2.171 6.077 7.02 6.699 9.656 1.406.537-1.077.882-1.92 1-2.688.065-.421-.025-.775-.125-1.188-.079-.323-.18-.744-.375-1.094-.034-.061-.056-.157-.094-.219-.765-1.262-2.282-2.654-4.906-5.125-1.376-1.295-2.822-2.907-4.313-4.5-.058-.062-.067-.188-.125-.25-.425-.455-.868-.801-1.281-1.25-.722-.799-1.047-1.432-1.688-2.188-1.197-1.353-2.283-2.386-3-3.406-2.091-2.974-4.887-5.583-6.188-5.813-.097-.017-.175-.013-.25 0" fill="#dbdbdb"/>
</svg>
