<svg width="512" height="512" version="1.1" viewBox="0 0 512 512" xmlns="http://www.w3.org/2000/svg">
 <g transform="matrix(17.572 0 0 15.765 -158.49 -110.65)" fill="#dbdbdb">
  <path d="m21.261 13.906c0.754-1.089 1.586-2.209 2.737-2.906 1.137 0.678 1.914 1.782 2.659 2.848 1.75 2.642 2.819 5.815 2.604 9.01 0.563 0.476 1.145 0.933 1.703 1.41 0.801 0.732 1.176 1.883 0.98 2.945-0.266 1.341-0.523 2.677-0.809 4.03-0.16 0.685-1.094 1-1.648 0.561l-2.714-2.01c-0.688 0.663-1.602 1.209-2.774 1.209s-1.994-0.443-2.801-1.191l-2.831 2.075c-0.566 0.244-1.297-0.12-1.426-0.724-0.293-1.302-0.598-2.616-0.883-3.925-0.23-1.1 0.18-2.317 1.035-3.061 0.496-0.415 1-0.821 1.508-1.217 0.141-0.073 0.07-0.244 0.078-0.372-0.152-3.08 0.902-6.118 2.577-8.671"/>
  <path d="m21 32.23c-8e-3 -0.391 0.414-0.641 0.742-0.43 1.395 0.82 3.11 0.832 4.473-0.023 0.313-0.195 0.773 0.039 0.785 0.418 4e-3 0.828 4e-3 1.984 0 2.809 8e-3 0.406-0.516 0.539-0.824 0.289-0.238-0.211-0.453-0.422-0.684-0.641-0.359 0.707-0.699 1.399-1.066 2.102-0.172 0.336-0.723 0.336-0.898 8e-3 -0.363-0.703-0.703-1.399-1.074-2.106-0.223 0.223-0.438 0.43-0.676 0.641-0.313 0.254-0.782 0.109-0.778-0.293"/>
  <path d="m24 16c1 0 2.513 3 2.5 6-0.598 2.026-4.306 2.161-5 0 2e-3 -3 1.5-6 2.5-6"/>
 </g>
</svg>
