<svg viewBox="0 0 512 512" xmlns="http://www.w3.org/2000/svg">
 <path d="m250.87051 1.3515258c-135.42 0-245.1900018 109.7800042-245.1900018 245.1900042 0 135.42 109.7800018 245.19 245.1900018 245.19 135.42 0 245.19-109.78 245.19-245.19 0-135.42-109.78-245.1900042-245.19-245.1900042m0 26.2970002c120.9 0 218.9 98.000004 218.9 218.900004 0 120.9-98 218.9-218.9 218.9-120.9 0-218.929999-98-218.929999-218.9 0-120.9 98.029999-218.900004 218.929999-218.900004z" fill="#dbdbdb" fill-rule="evenodd" stroke="#000000" stroke-opacity=".31" stroke-width="4.904"/>
 <path d="m254.71 94.56c-13.325.675-23.928 11.724-23.928 25.22 0 11.163 7.261 20.608 17.31 23.928v95.71c-7.563 2.497-13.559 8.493-16.06 16.06h-95.71c-3.319-10.05-12.765-17.31-23.928-17.31-13.928 0-25.22 11.288-25.22 25.22 0 13.928 11.288 25.22 25.22 25.22 11.163 0 20.608-7.261 23.928-17.31h95.71c3.319 10.05 12.799 17.31 23.963 17.31 11.164 0 20.644-7.258 23.963-17.31h95.71c3.319 10.05 12.765 17.31 23.928 17.31 13.928 0 25.22-11.288 25.22-25.22 0-13.928-11.288-25.22-25.22-25.22-11.163 0-20.608 7.261-23.928 17.31h-95.71c-2.497-7.563-8.493-13.559-16.06-16.06v-95.71c10.05-3.319 17.31-12.765 17.31-23.928 0-13.928-11.288-25.22-25.22-25.22-.435 0-.859-.022-1.289 0" fill="#dbdbdb"/>
</svg>
