<svg width="512" height="512" version="1.1" viewBox="0 0 512 512" xmlns="http://www.w3.org/2000/svg">
 <g transform="matrix(15.102 0 0 15.102 -105.55 -113.43)" fill="#dbdbdb">
  <g fill="#dbdbdb">
   <g fill="#dbdbdb">
    <rect x="13" y="13" width="6" height="6" rx="1"/>
    <rect x="21" y="13" width="6" height="6" rx="1"/>
    <rect x="29" y="13" width="6" height="6" rx="1"/>
    <rect x="13" y="21" width="6" height="6" rx="1"/>
    <rect x="21" y="21" width="6" height="6" rx="1"/>
    <rect x="29" y="21" width="6" height="6" rx="1"/>
    <rect x="13" y="29" width="6" height="6" rx="1"/>
    <rect x="21" y="29" width="6" height="6" rx="1"/>
    <rect x="29" y="29" width="6" height="6" rx="1"/>
   </g>
  </g>
 </g>
</svg>
