<svg height="512" viewBox="0 0 512 512" width="512" xmlns="http://www.w3.org/2000/svg">
 <path d="m232.08 95.36c-35.912 0-65.09 29.16-65.09 65.09 0 35.912 29.16 65.09 65.09 65.09 35.912 0 65.09-29.16 65.09-65.09 0-35.912-29.16-65.09-65.09-65.09m-54.999 146.45c-32.661 3.104-60.868 48.2-51.07 100.45l7.29 40.4h182.94v-37.599h-51.627v-78.557h51.627v-9.534c-17.291-17.704-41.21-21.87-62.29-2.801-21.08 19.09-23.25 19.09-44.34 0-10.648-9.642-21.658-13.377-32.553-12.353m114.47 51.623v24.689h48.27c-.252-8.762-1.221-16.932-3.376-24.689z" fill="#dbdbdb" fill-rule="evenodd"/>
 <path d="m277.94 331.33l.308-51.575 51.23.013v-51.24h51.627l.109 51.22 51.32.013.289 51.658-51.43-.064.128 51.627-51.996-.372v-51.28z" fill="#dbdbdb"/>
</svg>
