<svg xmlns="http://www.w3.org/2000/svg" width="48" height="48">
 <path d="M 7.470248,2.003019 C 6.460927,2.104909 5.676,2.962372 5.676,3.999436 l 0,17.563413 c 0,1.106201 0.890215,1.996417 1.996417,1.996417 l 31.942667,0 c 1.106203,0 1.996417,-0.890216 1.996417,-1.996417 l 0,-17.563413 c 0,-1.106202 -0.890214,-1.996417 -1.996417,-1.996417 l -31.942667,0 c -0.06914,0 -0.134881,-0.0068 -0.202169,0 z m 21.303535,2.565016 c 0.16651,6e-6 0.323728,0.02282 0.480151,0.06318 0.118574,0.03028 0.260571,0.08101 0.429608,0.164262 0.171556,0.08074 0.298311,0.126361 0.366431,0.126356 0.06559,5e-6 0.11378,-0.02281 0.151627,-0.06318 0.03784,-0.04036 0.06828,-0.136715 0.101084,-0.290618 l 0.113721,0 0.05054,1.7058 -0.164263,0 C 30.229511,5.844944 30.046961,5.510219 29.759354,5.250355 29.474262,4.987978 29.169979,4.846022 28.836958,4.846018 c -0.257339,4e-6 -0.455134,0.07605 -0.606507,0.214804 -0.148853,0.136241 -0.22744,0.288393 -0.22744,0.467515 -1e-6,0.113535 0.02283,0.214956 0.07581,0.303253 0.07316,0.118581 0.192328,0.237746 0.353795,0.353796 0.118575,0.08326 0.392415,0.230323 0.821312,0.442244 0.600448,0.295183 1.003608,0.571566 1.213013,0.833946 0.206874,0.262385 0.315884,0.571692 0.315888,0.90976 -4e-6,0.428895 -0.169879,0.788976 -0.505422,1.099293 -0.333027,0.307794 -0.76152,0.467515 -1.27619,0.467515 -0.161468,0 -0.311076,-0.01774 -0.45488,-0.05054 -0.143807,-0.0328 -0.32636,-0.09871 -0.543329,-0.189534 -0.1211,-0.05046 -0.212408,-0.07581 -0.290617,-0.07581 -0.0656,0 -0.141641,0.02536 -0.214805,0.07581 -0.07316,0.05046 -0.131486,0.136637 -0.176897,0.240076 l -0.138991,0 0,-1.945875 0.138991,0 c 0.111007,0.544949 0.329048,0.963309 0.644413,1.25092 0.317885,0.285088 0.657656,0.429608 1.023479,0.429608 0.282563,0 0.50317,-0.07354 0.669684,-0.22744 0.169032,-0.153897 0.252708,-0.338972 0.252711,-0.543328 -3e-6,-0.121099 -0.03549,-0.240264 -0.101084,-0.353796 C 29.746822,8.434706 29.650462,8.333264 29.519273,8.232347 29.38808,8.128909 29.15734,7.992 28.824318,7.828009 28.357579,7.598427 28.017828,7.408242 27.813474,7.246774 27.609118,7.085311 27.456966,6.902758 27.34596,6.703445 27.237473,6.504139 27.181696,6.286076 27.181698,6.046397 c -2e-6,-0.408707 0.154652,-0.761135 0.454878,-1.048751 0.300225,-0.287606 0.680553,-0.429603 1.1372,-0.429609 z m -20.419047,0.11372 1.832155,0 2.527109,3.184159 0,-2.211221 C 12.713995,5.346902 12.663311,5.144041 12.575009,5.035551 12.453906,4.889227 12.253588,4.815706 11.968502,4.820746 l 0,-0.138991 1.693164,0 0,0.138991 c -0.216974,0.02776 -0.353925,0.06831 -0.429609,0.11372 -0.07317,0.04289 -0.134012,0.113893 -0.176897,0.214805 -0.04037,0.0984 -0.06318,0.263227 -0.06318,0.505422 l 0,4.283451 -0.126356,0 -3.474776,-4.283451 0,3.272607 c -10e-7,0.29518 0.06845,0.490432 0.202169,0.593871 0.136236,0.103439 0.293433,0.151626 0.467516,0.151626 l 0.126355,0 0,0.138991 -1.832155,0 0,-0.138991 C 8.6373,9.670297 8.837597,9.609427 8.948605,9.4959 9.059612,9.382369 9.112867,9.199774 9.112867,8.9273 l 0,-3.626403 L 9.011783,5.161906 C 8.903297,5.025674 8.804421,4.939454 8.721165,4.89656 8.637905,4.85368 8.511154,4.8258 8.354734,4.82075 l 0,-0.138991 z m 5.64809,0 4.296087,0 0,1.516266 -0.138991,0 C 18.086753,5.827158 17.977744,5.563452 17.844033,5.401982 17.712838,5.24052 17.530264,5.123878 17.28807,5.048186 17.146783,5.002776 16.880555,4.985016 16.492029,4.985006 l -0.530692,0 0,2.084865 0.101084,0 c 0.325452,3e-6 0.56126,-0.09889 0.707591,-0.303253 0.146325,-0.204352 0.237611,-0.511137 0.277982,-0.90976 l 0.151627,0 0,2.691372 -0.151627,0 C 17.017714,8.255575 16.956853,8.014701 16.85846,7.828004 16.76259,7.641311 16.645966,7.512013 16.5173,7.448938 16.388629,7.383348 16.206057,7.347856 15.961337,7.347853 l 0,1.453088 c -3e-6,0.282567 0.0152,0.454986 0.03791,0.518058 0.02523,0.06307 0.07339,0.11126 0.138991,0.151627 0.06559,0.04036 0.169557,0.06318 0.315888,0.06318 l 0.303254,0 c 0.479348,10e-7 0.86222,-0.106508 1.149835,-0.328524 0.29013,-0.222015 0.505627,-0.569355 0.631776,-1.02348 l 0.138992,0 -0.240076,1.629986 -4.435077,0 0,-0.138991 0.176897,0 c 0.148851,0 0.26297,-0.02283 0.353795,-0.07581 0.06559,-0.03532 0.116306,-0.09112 0.151627,-0.176898 0.02775,-0.06055 0.05054,-0.222814 0.05054,-0.480151 l 0,-3.373691 c -1e-6,-0.232103 -0.01266,-0.376623 -0.02527,-0.429609 -0.02523,-0.0883 -0.07087,-0.154229 -0.138991,-0.202169 -0.09587,-0.07064 -0.225191,-0.113715 -0.391702,-0.11372 l -0.176898,0 0,-0.138991 z m 5.092126,0 2.223857,0 0,0.138991 c -0.179129,0.0051 -0.293248,0.038 -0.353795,0.08845 -0.05803,0.04794 -0.08845,0.103738 -0.08845,0.176898 -2e-6,0.09588 0.06591,0.296193 0.189533,0.606506 L 22.064305,8.194439 22.87298,6.248564 22.658176,5.6926 C 22.542119,5.394902 22.455899,5.197127 22.392831,5.098729 22.329751,4.997818 22.261279,4.926819 22.178025,4.883925 c -0.08074,-0.04288 -0.20749,-0.06317 -0.366431,-0.06318 l 0,-0.138991 2.489205,0 0,0.138991 c -0.174086,0.0025 -0.303385,0.02532 -0.379067,0.05054 -0.05299,0.01767 -0.09609,0.04556 -0.126355,0.08845 -0.03028,0.04037 -0.03791,0.08602 -0.03791,0.138991 -6e-6,0.05803 0.05073,0.232995 0.164262,0.530694 l 0.935031,2.426025 0.833946,-2.198586 c 0.0883,-0.227057 0.144072,-0.371619 0.164262,-0.454879 0.02018,-0.08325 0.0379,-0.16943 0.03791,-0.240076 -7e-6,-0.103434 -0.04309,-0.182043 -0.11372,-0.240075 -0.07065,-0.06055 -0.205035,-0.09603 -0.404338,-0.101085 l 0,-0.138991 1.339368,0 0,0.138991 c -0.09588,0.0076 -0.174487,0.04304 -0.240075,0.08845 -0.0656,0.04542 -0.126447,0.108826 -0.176898,0.202169 -0.01515,0.03028 -0.09628,0.220464 -0.240076,0.581235 l -1.604714,4.245545 -0.151626,0 -1.276192,-3.310514 -1.38991,3.310514 -0.151627,0 -1.680528,-4.195003 c -0.171558,-0.42132 -0.298313,-0.669826 -0.36643,-0.758132 -0.06812,-0.0883 -0.179695,-0.14912 -0.34116,-0.164263 l 0,-0.138991 z m -10.740216,6.646299 11.18246,0 0,9.792551 -11.18246,0 0,-9.792551 z m 13.393682,0.404338 17.171711,0 0,1.592079 -17.17171,0 0,-1.592079 z m 0,3.891749 17.171711,0 0,1.592079 -17.17171,0 0,-1.592079 z m 0,3.891749 17.171711,0 0,1.604715 -17.17171,0 0,-1.604715 z m -1.895333,5.294295 c -0.589811,0 -1.04875,0.48421 -1.04875,1.074022 l 0,4.485623 -4.814144,0 L 23.011973,46 32.02112,30.36983 l -4.814144,0 0,-4.485623 c 0,-0.589812 -0.471574,-1.074022 -1.061386,-1.074022 l -6.292504,0 z" fill="#dbdbdb"/>
</svg>
