<svg xmlns="http://www.w3.org/2000/svg" width="48" height="48">
 <path d="M 22.790124,3.5088733 C 11.834197,4.0671203 3.0401236,13.200509 3.0401236,24.290124 c 0,11.447346 9.3651554,20.78125 20.8125004,20.78125 11.447343,-10e-7 20.781252,-9.333902 20.78125,-20.78125 -2e-6,-11.447345 -9.333905,-20.7812507 -20.78125,-20.7812507 -0.35773,0 -0.709083,-0.01801 -1.0625,0 z m 1.0625,5.5625 c 8.425051,0 15.1875,6.7936977 15.1875,15.2187507 1e-6,8.425053 -6.762447,15.1875 -15.1875,15.1875 -8.425055,1e-6 -15.2187504,-6.762446 -15.2187504,-15.1875 -10e-7,-8.425053 6.7936974,-15.2187507 15.2187504,-15.2187507 z m -2.9375,3.8750007 0,20.09375 5.5625,0 0,-20.09375 -5.5625,0 z m 7.9375,8.03125 0,11.84375 5.625,0 0,-11.84375 -5.625,0 z m -16.0625,0.0625 0,11.78125 5.84375,0 0,-11.78125 -5.84375,0 z" fill="#dbdbdb"/>
</svg>
