<svg viewBox="0 0 512 512" xmlns="http://www.w3.org/2000/svg">
 <path d="m125.34 116.2v129.47h14.89v-129.47zm246.45 0v129.47h14.879v-129.47zm-115.75 16.786c-24.08 0-43.612 19.527-43.612 43.612 0 19.573 12.895 36.13 30.652 41.646l-45.954 168.35-.012.059-.165.565a6.7414 6.7414 0 0 0 11.029 6.8154l.483-.447a6.7414 6.7414 0 0 0 .35314-.35313l49.46-52.32 46.696 52.19a6.7414 6.7414 0 0 0 .63564.6121l.471.412a6.7414 6.7414 0 0 0 10.853-7.0509l-.177-.577v-.012l-49.909-167.63c18.853-4.811 32.794-21.907 32.794-42.26 0-24.08-19.516-43.612-43.6-43.612m-101.53 3.437v89.02h14.89v-89.02zm188.09 0v89.02h14.879v-89.02zm-159.2 15.02v58.973h14.89v-58.973zm130.31 0v58.973h14.89v-58.973z" fill="#dbdbdb"/>
</svg>
