<svg height="512" viewBox="0 0 512 512" width="512" xmlns="http://www.w3.org/2000/svg">
 <path d="m345.31296 219.03479c-1.47991.0497-3.09918.40293-4.89452 1.11372-14.151 5.26719-2.60335 36.65216-1.6884 40.71166.84474 3.73651-6.31825 3.32819-7.66314 1.6884-3.00196-3.6663-12.91738-36.39399-24.60869-30.54887-16.39788 9.04043-.98301 37.26357-4.25395 38.17529-6.0752 3.39516-5.69604 11.7086-10.56571 18.46111-8.03043 11.50876-68.14084-5.44435-87.56336-6.6164-14.22013-.83934-27.81481 10.8671-29.0992 9.38503-17.31607-17.33768-54.24046-42.89935-92.359574-57.5546-15.673572-5.12363-47.301266-19.91753-28.045524-9.99107 7.008887 3.51003 13.150462 6.47381 28.120783 14.96131 23.934815 11.33843 89.442955 54.67255 85.370485 61.00053-12.20226 17.18644-20.09838 39.49306-15.13149 74.6988.89551 6.19727-18.38549 16.94555-16.98011 26.29709 1.17204 7.11547 21.53868-7.05065 23.76503-4.25394 1.36217 5.0209-10.88871 30.45165-5.94126 32.27184 3.62201 1.0759 35.48552-30.22913 37.33595-29.7063 52.51209 15.87505 120.8128 3.91259 122.13068 3.4092-.12422-.27545 49.18715 23.15795 53.47133 20.35584 10.80229-11.70104-20.50814-28.18317-15.29172-34.77257 2.28685-3.44917 38.09968 12.9163 39.86693 8.43983 2.5677-7.74956-16.62364-23.97028-19.50893-28.79458-2.51154-4.44515-3.03221-11.67836 3.4092-16.16995 6.44356-4.49159 72.33645-29.64796 69.57754-49.15041-4.77677-35.43583-83.59891-37.79613-84.86278-40.77865-.55092-1.29195 2.88421-43.21995-14.58309-42.63555zm82.06391 23.49498c-1.3114.56604-6.60884 27.82129-4.05086 29.06464 2.2674 1.69596 6.18863-27.52315 4.11891-29.03115-.0335-.0389-.0248-.0519-.0681-.0335zm19.44412 3.71383c-2.97387-.054-18.84351 25.27951-15.18802 27.98441 2.2674 1.69596 16.39895-26.9582 15.42675-27.91744-.0681-.0562-.14043-.0659-.23657-.068z" fill="#dbdbdb" fill-rule="evenodd" stroke="#dbdbdb" stroke-width="3.051"/>
 <g fill="#dbdbdb" fill-rule="evenodd" transform="matrix(1.4754342 .56322386 -.56322386 1.4754342 -19.848458 -165.18445)">
  <path d="m233.26664 82.196556l-57.65575 57.655754-7.08672 7.08672-1.80328 1.80328-14.38391 45.08484a5.8685216 6.5382457 45 0 0 1.88803 6.49364 5.8685216 6.5382457 45 0 0 5.26618.71119l45.7191-14.42967 1.48987-1.48986 6.88597-6.88598 57.86165-57.86164-38.17542-38.175424m-38.09935 76.758044a1.637707 1.637707 0 0 1 .55879 1.30388l-.63483 13.65642 2.49759 2.4976a1.637707 1.637707 0 0 1 -.73658 2.73471l-21.56443 5.76501a1.637707 1.637707 0 0 1 -1.58326-.41486l-4.18249-4.18249a1.637707 1.637707 0 0 1 -.42332-1.60865l6.2906-22.15694a1.637707 1.637707 0 0 1 2.73472-.71966l3.3612 3.36121 12.52173-.63484a1.637707 1.637707 0 0 1 1.15992.39793"/>
  <path d="m267.87954 51.135309c-2.18075-.04804-4.04351.532462-5.36466 1.810714l-.0675.06749-8.93575 8.952341 38.17942 38.179416 8.81737-8.833951.13554-.11839c.02-.02.0309-.0475.0509-.0675 4.14989-4.27457.97857-14.20147-7.15878-22.33939l-8.66466-8.664663c-5.62145-5.62145-12.11337-8.879134-16.99132-8.986084"/>
  <path d="m248.55991 66.908998l38.18 38.179992-9.45507 9.45507-38.17999-38.179994z"/>
 </g>
</svg>
