<svg viewBox="0 0 512 512" xmlns="http://www.w3.org/2000/svg">
 <path d="m257.74 81.04c-.297-.003-4.802 9.06-10.4 20.601 2.746-.143 5.528-.199 8.31-.199 4.047 0 8.07.146 12.04.448-5.371-11.657-9.655-20.847-9.952-20.85m-2.09 33.34c-4.983 0-9.927.25-14.779.746-2.34 4.858-4.426 9.165-6.768 14.03 7.01-1.165 14.205-1.791 21.547-1.791 8.494 0 16.79.839 24.831 2.389-2.252-4.933-4.264-9.302-6.519-14.232-5.995-.764-12.11-1.144-18.312-1.144m-122.16 16.67c-.207.203 2.911 9.366 6.967 21.05 4.419-4.812 9.147-9.357 14.13-13.585-11.721-4.317-20.891-7.668-21.1-7.464m247.46 2.438c-.207-.211-9.701 3.035-21.746 7.215 5.03 4.449 9.765 9.176 14.182 14.232 4.382-11.87 7.769-21.237 7.564-21.447m-125.3 7.663c-10.04 0-19.811 1.294-29.11 3.682-4.625 9.56-8.219 16.921-8.459 17.02-.243.098-8.07-2.779-18.16-6.519-17.977 9.801-33.07 24.19-43.74 41.6 3.648 10.444 6.478 18.708 6.469 19.21 15.923-35.523 51.55-60.31 93-60.31 56.28 0 101.91 45.627 101.91 101.91 0 13.2-2.548 25.844-7.116 37.42 2.516-1.27 9.488-4.533 18.16-8.509 2.356-9.242 3.633-18.938 3.633-28.911 0-10.642-1.459-20.957-4.13-30.752-10.01-4.839-17.864-8.66-17.964-8.907-.098-.244 2.833-8.201 6.618-18.412-10.301-17.899-25.24-32.755-43.14-43.04-9.959 3.465-17.627 6.072-17.864 5.971s-3.623-7.415-8.01-16.969c-10.194-2.912-20.967-4.478-32.1-4.478m-86.93 2.588c-8.601 6.569-16.425 14.08-23.338 22.392 1.768 5.04 3.287 9.492 5.076 14.58 9.05-12.333 20.19-23.05 32.942-31.548-5.099-1.903-9.606-3.537-14.679-5.424m176.3 1.891c-5.114 1.79-9.656 3.379-14.779 5.175 12.681 8.862 23.716 19.937 32.544 32.643 1.886-5.05 3.55-9.497 5.424-14.53-6.813-8.621-14.601-16.434-23.19-23.288m-89.37 22.293c-49.606 0-89.82 40.21-89.82 89.82 0 49.606 40.21 89.87 89.82 89.87 49.606 0 89.82-40.26 89.82-89.87 0-49.606-40.21-89.82-89.82-89.82m-93.1 48.37c-.398.375-8.574 4.141-18.859 8.857-3 10.342-4.628 21.283-4.628 32.593 0 9.07 1.075 17.896 3.035 26.373 8.158 3.936 14.803 7.157 17.814 8.708-4-10.926-6.17-22.769-6.17-35.08 0-14.772 3.154-28.78 8.808-41.45m-34.882 16.17c-4.99 2.277-9.28 4.274-14.182 6.519-.802 6.138-1.194 12.403-1.194 18.76 0 4.135.155 8.245.498 12.291 4.761 2.295 8.924 4.282 13.784 6.618-.897-6.174-1.344-12.487-1.344-18.909 0-8.651.831-17.1 2.438-25.279m256.32 2.189c1.338 7.492 2.04 15.211 2.04 23.09 0 7.429-.649 14.706-1.841 21.795 4.912-2.242 9.144-4.209 13.983-6.419.538-5.05.846-10.186.846-15.376 0-5.499-.343-10.934-.945-16.272-4.872-2.348-9.153-4.447-14.08-6.817m-284.19 10.599c-10.625 4.909-18.757 8.728-18.76 9.01-.003.277 7.953 4.245 18.362 9.305-.071-1.931-.1-3.874-.1-5.822 0-4.201.172-8.373.498-12.49m311.85 2.737c.198 3.221.299 6.482.299 9.753 0 3.085-.073 6.165-.249 9.206 10.868-4.999 19.255-8.923 19.258-9.206.003-.285-8.407-4.46-19.307-9.753m-250.45 48.07c-1.125 3.284-3.736 10.473-6.967 19.16 9.626 16.958 23.346 31.31 39.859 41.6 8.23-2.872 15.14-5.23 18.909-6.469-23.44-10.818-42.06-30.27-51.801-54.29m188.49.995c-10.07 24.08-29.11 43.47-52.946 53.991 3.579 1.248 10.44 3.793 18.71 6.867 16.867-10.11 30.922-24.417 40.854-41.4-3.205-9.173-5.756-16.662-6.618-19.457m-201.58 34.435c-1.928 5.161-3.553 9.555-5.424 14.58 6.152 7.859 13.12 15.08 20.75 21.497 5.01-1.749 9.377-3.271 14.53-5.076-11.585-8.605-21.674-19.09-29.857-31m214.02 1.493c-8.434 11.922-18.832 22.352-30.703 30.852 5.105 1.905 9.451 3.52 14.431 5.374 7.874-6.385 15.03-13.606 21.397-21.497-1.777-5.076-3.303-9.539-5.125-14.729m-144.36 19.407c1.73 3.603 4.799 10.268 8.459 18.262 9.387 2.439 19.259 3.732 29.409 3.732 9.619 0 18.975-1.186 27.916-3.384 3.886-8.07 7.112-14.772 8.857-18.213-11.415 4.422-23.797 6.867-36.773 6.867-13.39 0-26.16-2.571-37.868-7.265m-80.31 7.763c-3.803 10.327-6.607 18.12-6.419 18.312.187.191 8.03-2.436 18.412-6.02-4.196-3.887-8.243-7.969-11.992-12.291m234.77 1.692c-3.929 4.4-8.092 8.609-12.49 12.54 10.534 3.885 18.566 6.758 18.76 6.568.195-.191-2.551-8.37-6.27-19.11m-138.88 24.433c2.271 4.976 4.211 9.161 6.419 13.983 5.209.574 10.512.896 15.874.896 4.61 0 9.186-.221 13.684-.647 2.312-4.803 4.34-8.98 6.718-13.933-6.649 1.045-13.459 1.592-20.402 1.592-7.6 0-15.05-.643-22.293-1.891m12.639 27.518c4.542 9.818 7.996 17.16 8.26 17.17.265.003 3.877-7.275 8.609-17.02-2.388.108-4.801.149-7.215.149-3.238 0-6.465-.104-9.654-.299" fill="#dbdbdb"/>
</svg>
