<svg height="512" viewBox="0 0 512 512" width="512" xmlns="http://www.w3.org/2000/svg">
 <path d="m254.29 115.21c-11.526.054-22.527 1.034-32.21 2.747-19.289 3.408-27.873 9.346-31.427 18.839-.729 1.946-1.246 4.02-1.598 6.28-.234 1.498-.401 3.097-.505 4.738-.052.822-.088 1.665-.112 2.523-.025.878-.056 1.746-.056 2.663v25.68h67.42v8.579h-92.736c-19.594 0-36.742 11.77-42.11 34.17-6.19 25.68-6.465 41.703 0 68.52 4.792 19.96 16.235 34.17 35.829 34.17h23.18v-30.782c0-22.253 19.245-41.884 42.11-41.884h67.34c18.745 0 33.726-15.433 33.726-34.26v-47.35h.028v-6.112c1.993-.703 4.341-1.578 5.803-3.168 2.107 2.02 3.78 3.432 6.756 4.093 7.294-.149 10.173-1.734 12.504-8.467.598-3.058 1.105-5.878-4.57-5.971 0 0 .645-9.143.645-9.588.358-3.291-.746-6.132-3.869-4.177-3.744 1.943-6.837 6.068-9.98 9.812-3.24-4.562-4.716-5.895-9.672-5.411 0 0-.051.079-.056.084-.219-.526-.455-1.057-.701-1.57-.094-.196-.183-.395-.28-.589-.163-.322-.332-.637-.505-.953-.082-.151-.168-.299-.252-.449-.199-.35-.405-.694-.617-1.037-.253-.41-.515-.807-.785-1.206-.057-.084-.111-.169-.168-.252-6.111-8.856-16.485-15.01-28.01-16.933-11.582-1.928-23.602-2.801-35.13-2.747m-27.474 24.811c2.22 2.319 3.617 5.396 3.617 8.859 0 .862-.064 1.709-.224 2.523-.005.028-.022.056-.028.084-.086.42-.211.83-.336 1.234s-.258.792-.421 1.177c-.141.323-.283.645-.449.953-.029.056-.054.113-.084.168-.006.011-.022.017-.028.028-.165.294-.346.59-.533.869-.143.221-.292.434-.449.645-.129.174-.255.366-.392.533-.192.233-.409.454-.617.673-.073.077-.149.149-.224.224-.111.111-.222.229-.336.336-.083.077-.167.149-.252.224-.307.272-.622.543-.953.785-.117.085-.244.171-.364.252-.31.209-.653.407-.981.589-.03.016-.054.04-.084.056-.202.11-.408.209-.617.308-.168.08-.333.152-.505.224-.074.031-.15.054-.224.084-.315.126-.627.235-.953.336-.184.057-.373.119-.561.168-.223.058-.445.122-.673.168-.038.008-.074.021-.112.028-.265.052-.542.077-.813.112-.228.029-.469.067-.701.084-.046.004-.094-.003-.14 0-.28.018-.557.028-.841.028-4.052 0-7.613-1.875-9.98-4.794.127-.11.238-.199.364-.308 7.304-6.312 13.974-12.207 18.896-16.653m105.21 47.856v30.782c0 22.253-19.245 41.884-42.11 41.884h-67.34c-18.745 0-33.726 15.433-33.726 34.26v47.35h-.028v6.112c-1.993.703-4.341 1.578-5.803 3.168-2.107-2.02-3.78-3.432-6.756-4.093-7.294.149-10.173 1.734-12.504 8.467-.598 3.058-1.105 5.878 4.57 5.971 0 0-.645 9.143-.645 9.588-.358 3.291.746 6.132 3.869 4.177 3.744-1.943 6.837-6.068 9.98-9.812 3.24 4.562 4.688 5.895 9.644 5.411l.084-.084c.392.943.839 1.877 1.318 2.775.1.188.205.374.308.561.041.073.071.151.112.224.199.351.405.694.617 1.037.253.41.515.807.785 1.205.056.083.111.17.168.252 6.111 8.856 16.485 15.01 28.01 16.933 11.582 1.928 23.574 2.801 35.1 2.747s22.555-1.034 32.24-2.747c28.53-5.04 33.698-15.588 33.698-35.04v-25.68h-67.42v-8.579h92.735c19.594 0 36.742-11.77 42.11-34.17 6.19-25.68 6.465-41.703 0-68.52-4.793-19.96-16.235-34.17-35.829-34.17h-23.18m-37.567 162.35c4.052 0 7.613 1.875 9.98 4.794-.127.11-.238.199-.364.308-7.304 6.312-13.974 12.207-18.896 16.653-2.22-2.319-3.617-5.396-3.617-8.859 0-.862.064-1.709.224-2.523.006-.029.022-.055.028-.084.244-1.197.655-2.314 1.205-3.364.01-.019.018-.038.028-.056.055-.104.11-.206.168-.308.157-.278.328-.548.505-.813.019-.028.037-.056.056-.084.17-.251.346-.491.533-.729.044-.056.095-.113.14-.168.021-.026.035-.059.056-.084.347-.421.724-.804 1.121-1.177.2-.188.405-.386.617-.561.01-.008.018-.02.028-.028.258-.212.511-.397.785-.589.427-.3.883-.566 1.346-.813.011-.006.017-.022.028-.028.516-.273 1.044-.498 1.598-.701.193-.07.391-.135.589-.196.084-.026.168-.06.252-.084.284-.082.577-.162.869-.224s.598-.098.897-.14c.598-.085 1.2-.14 1.822-.14" fill="#dbdbdb"/>
</svg>
