<svg xmlns="http://www.w3.org/2000/svg" width="48" height="48">
 <path d="m 24,27.496355 c -3.731145,0 -7.097809,1.538352 -9.543243,3.983784 -0.09263,0.08962 -0.148649,0.198135 -0.148649,0.327027 0,0.128892 0.05602,0.267133 0.148649,0.356757 l 3.062162,3.032432 c 0.183444,0.17364 0.47061,0.17364 0.654054,0 1.48883,-1.488828 3.555009,-2.408108 5.827027,-2.408108 2.272017,0 4.338197,0.919278 5.827027,2.408108 0.183444,0.17364 0.47061,0.17364 0.654054,0 l 3.062162,-3.032432 c 0.09263,-0.08962 0.148649,-0.227865 0.148649,-0.356757 0,-0.128892 -0.05602,-0.237403 -0.148649,-0.327027 C 31.097807,29.034706 27.731145,27.496355 24,27.496355 z m 0,8.710811 c -1.333472,-2e-6 -2.521333,0.559167 -3.389189,1.427027 -0.17364,0.183445 -0.17364,0.47061 0,0.654054 l 3.062162,3.062162 c 0.183444,0.17364 0.47061,0.17364 0.654054,0 l 3.062162,-3.062162 c 0.17364,-0.183444 0.17364,-0.470609 0,-0.654054 C 26.521332,36.766336 25.333472,36.207165 24,36.207166 z" fill="#dbdbdb"/>
</svg>
