<svg xmlns="http://www.w3.org/2000/svg" width="48" height="48">
 <path d="M 41.146967,6.2555864 C 40.982756,6.126268 40.773482,6.0691818 40.567619,6.105364 C 40.361757,6.1415447 40.178803,6.2675712 40.06853,6.445133 L 36.767929,11.655916 L 34.599683,12.359395 L 32.821778,11.192801 L 32.476261,9.0046256 L 35.745562,3.7602661 C 35.878614,3.5548435 35.898272,3.3051597 35.80188,3.0801918 C 35.705491,2.855221 35.505714,2.6845249 35.265205,2.6391576 C 31.878753,2.1443745 28.225898,3.8520685 26.416986,6.7460729 C 24.608074,9.6400773 24.829393,12.672208 26.148089,15.343465 L 10.820769,39.359966 C 9.4945755,41.481692 10.136227,44.287556 12.257954,45.61375 C 14.37968,46.939944 17.219118,46.266988 18.545314,44.145265 L 33.805482,20.191366 C 36.797401,20.219055 39.782373,18.891405 41.48136,16.173268 C 43.407312,13.092015 43.231953,9.2508031 41.303475,6.4234666 C 41.260424,6.3596513 41.207611,6.3030013 41.146967,6.2555864 z" fill="#dbdbdb"/>
</svg>
