<svg width="512" height="512" version="1.1" viewBox="0 0 512 512" xmlns="http://www.w3.org/2000/svg">
 <defs>
  <clipPath id="clipPath-498582375">
   <g transform="translate(0 -1004.4)">
    <path transform="matrix(15.333 0 0 11.5 415 878.86)" d="m-24 13c0 1.105-0.672 2-1.5 2s-1.5-0.895-1.5-2 0.672-2 1.5-2 1.5 0.895 1.5 2z" fill="#1890d0"/>
   </g>
  </clipPath>
 </defs>
 <g transform="matrix(15.176 0 0 15.176 -105.1 -118.14)" fill="#dbdbdb">
  <g clip-path="url(#clipPath-498582375)" fill="#dbdbdb">
   <g fill="#dbdbdb">
    <path d="m22.648 31.961-1.328-2.121 1.258-2.07c0.695-1.141 1.297-2.137 1.34-2.211 0.051-0.094 0.527 0.602 1.41 2.051 0.73 1.203 1.328 2.207 1.328 2.234 0 0.063-2.508 4.066-2.613 4.164-0.035 0.039-0.668-0.883-1.398-2.047m-6.941 1.109-1.648-0.809 0.688-1.281c0.379-0.707 0.648-1.316 0.605-1.355-0.051-0.039-0.457-0.34-0.906-0.66-4.883-3.547-4.516-9.32 0.797-12.66 4.414-2.766 11.316-3.07 16.207-0.707 2.406 1.164 4.03 2.664 4.926 4.57 0.457 0.973 0.625 1.68 0.637 2.68 0.012 2.551-1.461 4.93-4.148 6.684l-0.262 0.168 0.633 1.195c0.348 0.656 0.648 1.23 0.66 1.273 0.035 0.078-3.246 1.719-3.438 1.719-0.047 0-1.504-2.652-3.227-5.898-1.73-3.246-3.172-5.898-3.211-5.898-0.035 0-1.48 2.641-3.207 5.875-1.832 3.434-3.207 5.883-3.297 5.895-0.086 0.023-0.898-0.34-1.813-0.785m4.445-11.965c1.613-2.957 2.91-5.395 2.891-5.418-0.02-0.02-0.477 0.023-1.02 0.082-7.086 0.875-10.668 5.48-7.086 9.148 0.707 0.723 2.113 1.715 2.25 1.59 0.016-0.02 1.352-2.449 2.965-5.402m12.07 4.578c1.188-0.844 2.02-2.059 2.207-3.215 0.496-3.105-2.965-5.938-8.137-6.66-0.664-0.09-1.23-0.145-1.262-0.117-0.047 0.043 4.238 8.02 5.496 10.23l0.363 0.641 0.336-0.199c0.184-0.105 0.633-0.418 0.996-0.68" fill="#dbdbdb"/>
   </g>
  </g>
 </g>
</svg>
