<svg width="512" height="512" version="1.1" viewBox="0 0 512 512" xmlns="http://www.w3.org/2000/svg">
 <path d="m88.794 386.01c-12.422-14.688-8.1901-28.215 4.4909-41.087 15.438-14.415 30.085-20.352 44.964-28.761v-11.057c0.84632-2.184 2.1158-4.4772 9.4459-8.4085l17.991-0.4368c3.9858-5.2553 7.6577-9.0364 13.486-8.4085 10.347 0.88725 36.801 46.315 76.891 46.015 16.08-1.679 27.956-3.3033 39.572-11.057l-81.382-86.706c-11.166 9.8691-21.472 21.458-34.18 28.31-16.967-12.954-32.665-27.683-45.414-46.451l77.792-68.524 64.756-3.9858 13.036 13.268c-11.534 13.418-23.082 25.362-34.617 36.282l81.833 86.269c8.6952-6.3337 10.702-25.758 10.743-44.104-2.6618-60.921-70.38-118.87-116.27-168.81 54.464 12.79 171.5 74.148 177.03 186.82-3.6582 25.348-7.4393 50.683-25.185 75.212l23.833 24.338-44.063 41.087-20.68-18.578c-24.584 7.0708-36.282 19.929-79.594 18.578-20.421-0.70981-64.238-7.6714-97.571-52.649-11.316 18.046-24.802 33.702-40.923 46.451-10.347 5.8969-20.926 10.811-35.968-3.5354z" fill="#dbdbdb" stroke-width="13.65"/>
</svg>
