<svg xmlns="http://www.w3.org/2000/svg" width="48" height="48">
 <path fill="#dbdbdb" d="M 24.369561,4.0039316 C 18.969487,3.8918986 13.510285,6.1773461 10.101521,10.425197 5.8620678,15.284304 4.9541771,22.171758 5.9118259,28.356946 6.9951658,35.918373 13.195449,42.603884 20.840801,43.706693 26.300851,44.606156 32.240193,43.47786 36.458108,39.753569 40.737309,36.177993 43.043801,30.64837 43.143553,25.127812 43.452489,19.09276 41.621527,12.655446 36.987421,8.5476106 33.596231,5.4086439 28.937215,3.9621601 24.369561,4.0039316 z m 0,5.201065 c 3.273509,-0.140261 6.697075,1.3155844 8.345197,4.2517284 2.429437,4.253148 2.481503,9.382506 2.095235,14.139486 -0.39044,3.893135 -1.794124,8.326776 -5.563021,10.177992 -3.040011,1.349225 -6.721657,1.349983 -9.761312,-5.42e-4 -3.899015,-1.932098 -5.251973,-6.574088 -5.598855,-10.596697 -0.321833,-4.713542 -0.239211,-9.811883 2.291241,-13.9622 1.705325,-2.820698 4.992826,-4.1196274 8.191515,-4.0097674 z"/>
</svg>
