<?xml version="1.0" encoding="UTF-8" standalone="no"?>
<svg xmlns="http://www.w3.org/2000/svg" height="512" viewBox="0 0 512 512" width="512" version="1.1">
 <clipPath id="clipPath-615109420">
  <g transform="translate(0,-1004.3622)">
   <path d="m -24,13 c 0,1.105 -0.672,2 -1.5,2 -0.828,0 -1.5,-0.895 -1.5,-2 0,-1.105 0.672,-2 1.5,-2 0.828,0 1.5,0.895 1.5,2 z" transform="matrix(15.333333,0,0,11.5,414.99999,878.8622)" style="fill:#1890d0"/>
  </g>
 </clipPath>
 <g transform="matrix(15.467238,0,0,15.467238,-121.35584,-131.82614)" style="fill:#dbdbdb">
  <g clip-path="url(#clipPath-615109420)" style="fill:#dbdbdb">
   <g style="fill:#dbdbdb">
    <path d="m 31.13,20.06 c 1.086,0.348 0.133,1.965 1.691,2.754 1.777,0.902 2.664,-1.379 3.73,0.25 1.066,1.629 -1.477,1.379 -1.406,3.297 0.074,1.918 2.59,1.508 1.645,3.203 -0.941,1.691 -1.988,-0.527 -3.699,0.484 -1.707,1.016 -0.074,2.887 -2.086,2.953 -2.01,0.063 -0.516,-1.906 -2.297,-2.813 -1.777,-0.902 -2.664,1.379 -3.73,-0.25 -1.066,-1.629 1.473,-1.379 1.402,-3.297 -0.07,-1.914 -2.586,-1.508 -1.645,-3.203 0.945,-1.691 1.992,0.531 3.699,-0.484 1.711,-1.012 0.078,-2.887 2.09,-2.949 0.25,-0.008 0.449,0.004 0.605,0.055 m -0.023,4.883 c -0.895,-0.184 -1.777,0.363 -1.969,1.23 -0.191,0.855 0.383,1.707 1.281,1.887 0.895,0.184 1.777,-0.363 1.969,-1.23 0.191,-0.852 -0.383,-1.707 -1.281,-1.887 m 0,0" style="fill:#dbdbdb;fill-opacity:1"/>
    <path d="m 22.484,12.06 c 1.09,0.348 0.137,1.961 1.691,2.754 1.777,0.902 2.664,-1.379 3.73,0.25 1.066,1.629 -1.473,1.379 -1.402,3.297 0.07,1.914 2.586,1.508 1.645,3.203 -0.941,1.691 -1.992,-0.531 -3.699,0.484 -1.707,1.012 -0.074,2.887 -2.086,2.949 -2.02,0.066 -0.52,-1.906 -2.297,-2.809 -1.781,-0.902 -2.664,1.379 -3.73,-0.25 -1.066,-1.629 1.473,-1.379 1.402,-3.297 -0.07,-1.918 -2.586,-1.508 -1.645,-3.203 0.941,-1.691 1.992,0.527 3.699,-0.484 1.707,-1.016 0.074,-2.887 2.086,-2.953 0.254,-0.008 0.449,0.008 0.605,0.059 m -0.02,4.883 c -0.898,-0.184 -1.777,0.363 -1.977,1.23 -0.188,0.855 0.391,1.707 1.277,1.887 0.898,0.184 1.777,-0.363 1.969,-1.23 0.191,-0.852 -0.383,-1.707 -1.27,-1.887 m 0,0" style="fill:#dbdbdb;fill-opacity:1"/>
    <path d="m 19.605,23.05 c 1.086,0.348 0.133,1.965 1.691,2.754 1.777,0.906 2.664,-1.379 3.73,0.254 1.066,1.629 -1.477,1.375 -1.402,3.293 0.07,1.918 2.586,1.512 1.641,3.203 -0.941,1.695 -1.988,-0.527 -3.699,0.484 -1.707,1.016 -0.074,2.891 -2.086,2.953 -2.01,0.063 -0.516,-1.906 -2.297,-2.809 -1.777,-0.906 -2.664,1.379 -3.73,-0.254 -1.066,-1.629 1.477,-1.375 1.402,-3.293 -0.07,-1.918 -2.586,-1.52 -1.641,-3.203 0.941,-1.695 1.988,0.527 3.699,-0.484 1.707,-1.016 0.074,-2.891 2.086,-2.953 0.25,-0.008 0.449,0.008 0.605,0.055 m -0.023,4.883 c -0.895,-0.184 -1.777,0.367 -1.969,1.227 -0.191,0.863 0.383,1.707 1.281,1.891 0.895,0.184 1.777,-0.367 1.969,-1.227 0.191,-0.863 -0.383,-1.707 -1.281,-1.891 m 0,0" style="fill:#dbdbdb;fill-opacity:1"/>
   </g>
  </g>
 </g>
</svg>
