<svg height="512" viewBox="0 0 135.47 135.47" width="512" xmlns="http://www.w3.org/2000/svg">
 <g fill="#dbdbdb" transform="translate(0 -161.53335)">
  <path d="m32.297505 186.60726c-9.686354 0-17.641454 9.17938-17.641454 20.35581v44.60775c0 11.17643 7.9551 20.3558 17.641454 20.3558h70.892965c9.68636 0 17.64082-9.17937 17.64082-20.3558v-44.60775c0-11.17643-7.95446-20.35581-17.64082-20.35581zm25.686256 8.05703c15.103816-.005 30.211088.0475 45.311699.013l-.003.001c5.06001-.20475 8.63229 4.51527 9.31113 8.90749.41661 16.00785.0704 32.04673.18309 48.06755.38352 5.00996-2.27313 10.98634-7.73238 12.18583-24.000368.33747-48.043293.0543-72.060054.14688-5.275689.54887-9.360534-4.27444-9.997422-8.97536-.403171-16.10266-.0876-32.2328-.174135-48.34589-.369082-4.96256 2.481573-10.88423 7.9795-11.89886 9.057913-.0756 18.118842-.0989 27.181132-.10183z"/>
  <path d="m38.164716 199.47103c-5.772283.35359-9.415278 6.28717-9.079954 11.45449.29435 15.49597-.275011 30.2462.137341 43.68195 19.201607-17.81847 41.733502-38.66725 58.876624-55.14909-16.64325.002-33.289778-.007-49.934667.01"/>
 </g>
</svg>
