<svg xmlns="http://www.w3.org/2000/svg" version="1.1" viewBox="0 0 512 512">
 <g fill-rule="evenodd">
  <path d="m471.95 253.05c0 120.9-98.01 218.9-218.9 218.9-120.9 0-218.9-98.01-218.9-218.9 0-120.9 98.01-218.9 218.9-218.9 120.9 0 218.9 98.01 218.9 218.9" fill="#d1a944"/>
  <path d="m256 1c-140.83 0-255 114.17-255 255s114.17 255 255 255 255-114.17 255-255-114.17-255-255-255m8.827 44.931c120.9 0 218.9 98 218.9 218.9s-98 218.9-218.9 218.9-218.93-98-218.93-218.9 98.03-218.9 218.93-218.9" fill-opacity=".067"/>
  <g fill-opacity=".129">
   <path d="m256 4.433c-138.94 0-251.57 112.63-251.57 251.57s112.63 251.57 251.57 251.57 251.57-112.63 251.57-251.57-112.63-251.57-251.57-251.57m5.885 38.556c120.9 0 218.9 98 218.9 218.9s-98 218.9-218.9 218.9-218.93-98-218.93-218.9 98.03-218.9 218.93-218.9"/>
   <path d="m256 8.356c-136.77 0-247.64 110.87-247.64 247.64s110.87 247.64 247.64 247.64 247.64-110.87 247.64-247.64-110.87-247.64-247.64-247.64m2.942 31.691c120.9 0 218.9 98 218.9 218.9s-98 218.9-218.9 218.9-218.93-98-218.93-218.9 98.03-218.9 218.93-218.9"/>
  </g>
 </g>
 <path opacity=".25" d="m253.27 108.65-32.548 293.34 83.905 63.898c115.11-28.274 183.39-146.9 165.61-254.68l-199.68-115.09"/>
 <path d="m253.04 7.859c-135.42 0-245.19 109.78-245.19 245.19 0 135.42 109.78 245.19 245.19 245.19 135.42 0 245.19-109.78 245.19-245.19 0-135.42-109.78-245.19-245.19-245.19zm0 26.297c120.9 0 218.9 98 218.9 218.9s-98 218.9-218.9 218.9-218.93-98-218.93-218.9 98.03-218.9 218.93-218.9z" stroke-opacity=".31" fill-rule="evenodd" stroke="#000000" stroke-width="4.904" fill="#dbdbdb"/>
 <g fill="#dbdbdb" transform="matrix(13.44 0 0 13.44 -66.55 -67.004)">
  <g fill="#dbdbdb">
   <g fill="#dbdbdb">
    <path d="m23.625 12c-0.906 0-1.625 0.762-1.625 1.719v16.563c0 0.957 0.719 1.719 1.625 1.719h0.75c0.906 0 1.625-0.762 1.625-1.719v-4.281h-2v-1h2v-2h-2v-1h2v-2h-2v-1h2v-2h-2v-1h2v-2.281c0-0.957-0.719-1.719-1.625-1.719m-0.75 0"/>
    <path d="m28 32c0.023 1.445-0.73 2.789-1.98 3.52-1.246 0.73-2.793 0.73-4.04 0-1.25-0.73-2-2.074-1.98-3.52-0.023-1.445 0.73-2.793 1.98-3.523 1.246-0.73 2.793-0.73 4.04 0 1.25 0.73 2 2.078 1.98 3.523"/>
   </g>
  </g>
 </g>
</svg>
