<svg xmlns="http://www.w3.org/2000/svg" width="48" height="48">
 <path d="m 4.2812652,2.435118 c -1.1743192,0 -2.1236911,0.949372 -2.1236911,2.123692 l 0,11.633109 c 0.078422,0.577251 0.067545,0.776505 0.4601331,1.675356 l 1.5337769,3.492292 c 0.4441769,1.016966 0.6781061,1.580971 2.029305,1.580971 l 22.8060839,0 c 1.945202,0 2.991036,-1.909545 0.507327,-3.386108 l -4.731113,-2.81979 c -0.680693,-0.319729 -1.014652,-0.691252 -1.014652,-1.3804 l 0,-10.79543 c 0,-1.17432 -0.949372,-2.123692 -2.123691,-2.123692 l -17.3434788,0 z m 26.1449988,1.345005 -5.545194,6.146906 6.076117,5.627782 -0.165176,-3.64567 c 2.337317,-0.649102 4.95196,-0.137804 6.901996,1.592769 2.817529,2.500431 3.273894,6.667601 1.203425,9.69819 1.454598,0.531076 2.782496,1.32618 3.917031,2.33606 C 45.981738,20.663044 45.193027,14.066816 40.714368,10.092205 37.844768,7.545562 34.090966,6.640906 30.59144,7.296012 L 30.426264,3.780123 z m -25.6022777,1.345004 16.1872467,0 0,10.370693 -16.1872467,0 0,-10.370693 z M 3.1368317,21.949482 C 0.93274247,26.62392 1.95531,32.3743 6.0156131,35.97764 c 2.8696004,2.54665 6.6234029,3.4631 10.1229279,2.80799 l 0.165176,3.51589 5.545194,-6.1469 -6.076117,-5.62779 0.153378,3.64567 c -2.337316,0.6491 -4.940161,0.13781 -6.8901975,-1.59276 -2.559537,-2.27148 -3.1606058,-5.91602 -1.698953,-8.836919 l -1.970314,0 c -1.4567794,0 -1.7037985,-0.602524 -2.1826826,-1.698953 l -0.047193,-0.09439 z M 34.72084,23.353477 c -6.223743,0 -11.267362,5.043623 -11.267362,11.267363 0,6.22374 5.043619,11.27916 11.267362,11.27916 C 40.94458,45.9 46,40.84458 46,34.62084 46,28.3971 40.94458,23.353477 34.72084,23.353477 z m 0,9.072883 c 1.215801,0 2.206279,0.97868 2.206279,2.19448 0,1.2158 -0.990478,2.20628 -2.206279,2.20628 -1.215801,0 -2.194481,-0.99048 -2.194481,-2.20628 0,-1.2158 0.97868,-2.19448 2.194481,-2.19448 z" fill="#dbdbdb"/>
</svg>
