<svg width="512" height="512" version="1.1" viewBox="0 0 512 512" xmlns="http://www.w3.org/2000/svg" xmlns:xlink="http://www.w3.org/1999/xlink">
 <g transform="matrix(-11.723 0 0 -11.723 531.45 569.68)" fill="#dbdbdb">
  <path d="m16.484 20.5a0.5 0.5 0 0 0-0.193 0.047l-6.5 3a0.5 0.5 0 0 0 0 0.906l6.084 2.807-2.346 6.572a0.5 0.5 0 0 0 0.639 0.639l6.57-2.346 2.809 6.084a0.5 0.5 0 0 0 0.906 0l2.809-6.084 6.57 2.346a0.5 0.5 0 0 0 0.639-0.639l-2.5-7a0.5 0.5 0 0 0-0.821-0.186l-4.357 4.354h-5.583l-4.21-4.207v-5.793a0.5 0.5 0 0 0-0.516-0.5m-0.484 1.281v4.439l-4.809-2.22 4.809-2.219m0.705 6.131 3.383 3.383-5.262 1.879zm14.59 0 1.879 5.262-5.262-1.879zm-9.514 4.088h4.439l-2.22 4.809-2.219-4.809" fill-rule="evenodd" solid-color="#000000" style="isolation:auto;mix-blend-mode:normal;white-space:normal" isolation="auto" mix-blend-mode="normal"/>
  <circle cx="16.5" cy="27" r="1.5"/>
  <circle cx="10" cy="24" r="1.5"/>
  <circle transform="rotate(-45)" cx="-13.999" cy="33.941" r="1.5"/>
  <circle transform="rotate(-90)" cx="-31.5" cy="21" r="1.5"/>
  <circle transform="rotate(-90)" cx="-31.5" cy="27" r="1.5"/>
  <path d="m21.6 9-0.465 3.873a11.5 11.5 0 0 0-2.975 1.234l-3.07-2.41-3.393 3.393 2.41 3.07 0.699 0.891 2.217 2.217a7.5 7.5 0 0 1 6.977-4.768 7.5 7.5 0 0 1 7.5 7.5 7.5 7.5 0 0 1-0.631 3h3.131l1.123-0.135 3.877-0.465v-4.801l-3.873-0.465a11.5 11.5 0 0 0-1.234-2.975l2.41-3.07-3.393-3.393-3.07 2.41a11.5 11.5 0 0 0-2.975-1.23l-0.465-3.877h-4.801" fill="#dbdbdb"/>
  <circle cx="16.5" cy="21" r="1.5"/>
  <circle transform="rotate(-90)" cx="-38" cy="24" r="1.5"/>
  <circle transform="rotate(225)" cx="-47.94" r="1.5"/>
  <circle transform="scale(-1)" cx="-31.5" cy="-27" r="1.5"/>
 </g>
</svg>
