<svg viewBox="0 0 512 512" xmlns="http://www.w3.org/2000/svg">
 <path d="m124.79 163.33c-10.839 0-19.569 8.73-19.569 19.569s8.73 19.569 19.569 19.569 19.539-8.73 19.539-19.569-8.7-19.569-19.539-19.569m65.828 0c-11.806 0-21.304 8.816-21.304 19.778s9.499 19.808 21.304 19.808h194.82c11.806 0 21.334-8.846 21.334-19.808s-9.529-19.778-21.334-19.778zm-65.828 72.89c-10.839 0-19.569 8.73-19.569 19.569s8.73 19.539 19.569 19.539 19.539-8.7 19.539-19.539-8.7-19.569-19.539-19.569m65.828 0c-11.806 0-21.304 8.816-21.304 19.778s9.499 19.778 21.304 19.778h194.82c11.806 0 21.334-8.817 21.334-19.778 0-10.962-9.529-19.778-21.334-19.778zm-65.828 72.86c-10.839 0-19.569 8.73-19.569 19.569s8.73 19.569 19.569 19.569 19.539-8.73 19.539-19.569-8.7-19.569-19.539-19.569m65.828 0c-11.806 0-21.304 8.846-21.304 19.808s9.499 19.778 21.304 19.778h194.82c11.806 0 21.334-8.817 21.334-19.778 0-10.962-9.529-19.808-21.334-19.808z" fill="#dbdbdb" fill-rule="evenodd"/>
</svg>
