<svg height="512" viewBox="0 0 512 512" width="512" xmlns="http://www.w3.org/2000/svg">
 <path d="m237.3123 74.759044c64.60631 0 130.4334 73.734196 162.28941 125.266686l16.23091-69.71286c.25694-.14938.57362-.16332.84649-.27486 3.62299-3.84806 11.39878-1.51572 12.40859 3.68473l25.95247 151.34492c.91819 4.2504-3.00355 8.84735-7.33361 8.78759l-40.75155-9.88392c-14.10158 85.86424-80.29492 153.29573-169.64271 153.29573-99.35036 0-180.49218-81.26131-180.49218-181.10961 0-99.84631 81.14381-181.388445 180.49218-181.388445zm-21.9889 54.962266c-9.47872.12547-19.64451 1.31057-29.89613 5.10087-55.02486 20.34419-93.632053 58.78444-93.632053 121.32133 0 80.95259 66.662193 146.2341 147.208473 146.2341 73.54527 0 157.88961-47.3668 167.86826-118.45825l-104.70199-27.79178c-5.24826-.16334-8.77962-7.39138-5.64062-11.61986l61.00222-9.68197c-.70309-2.7506-41.50675-51.60471-63.50824-72.00557-24.49865-22.71634-47.42806-30.95543-78.71585-33.11679" fill="#dbdbdb"/>
</svg>
