<svg xmlns="http://www.w3.org/2000/svg" width="48" height="48">
 <path d="M 2,2 2,6.167969 C 24.023697,6.167969 41.832032,23.976307 41.832032,46 L 46,46 C 46.000009,21.744428 26.255577,2 2,2 z m 1.332031,8.550782 c -0.492673,0 -0.936034,0.109216 -1.332031,0.34375 l 0,4.554688 c 0.3971,0.229889 0.837303,0.386718 1.332031,0.386718 1.470668,0 2.664063,-1.160416 2.664063,-2.621093 0,-1.460675 -1.193395,-2.664063 -2.664063,-2.664063 z m 21.011721,10.484376 c -1.446844,0 -2.621094,1.203386 -2.621094,2.664063 0,0.214537 0.03813,0.401783 0.08594,0.601562 L 2.000002,36.9336 l 0,9.0664 9.066407,0 12.589845,-19.765623 c 0.220581,0.0609 0.447866,0.08594 0.6875,0.08594 1.446844,0 2.621093,-1.160419 2.621094,-2.621094 0,-0.644712 -0.221569,-1.259538 -0.601563,-1.71875 l 0.601563,-0.945313 -0.988281,0.601563 C 25.527009,21.271001 24.965618,21.03516 24.343754,21.03516 z M 34.828128,41.96094 c -1.446844,0 -2.621093,1.16042 -2.621094,2.6211 0,0.52627 0.166995,1.00274 0.429688,1.41796 l 4.425781,0 c 0.262693,-0.41522 0.386719,-0.89169 0.386719,-1.41796 0,-1.46068 -1.17425,-2.6211 -2.621094,-2.6211 z" fill="#dbdbdb"/>
</svg>
