<svg height="512" viewBox="0 0 512 512" width="512" xmlns="http://www.w3.org/2000/svg">
 <path d="m277.945 101.3067c-1.57175.13097-3.26258.6549-4.83433 1.11928-12.62165 3.67933-19.68263 16.76536-16.0033 29.39892l10.04969 34.23323h-.36913l-68.46648 20.09938-10.04969-34.23323c-3.67933-12.62165-16.76536-20.05176-29.39892-16.37243-12.62164 3.67933-20.05175 16.76536-16.37242 29.39891l10.0497 34.60238-34.23325 10.04969c-12.62166 3.67933-19.682632 16.76536-16.0033 29.39891 3.67933 12.62165 16.76536 19.68262 29.39891 16.00329l34.23325-10.04969 20.09938 68.83561-34.23325 10.04971c-12.62165 3.67932-20.05175 16.76535-16.37242 29.3989 3.67932 12.62166 16.76537 20.05176 29.39892 16.37243l34.60237-10.04969 10.04968 34.23325c3.67933 12.62164 16.76536 19.68262 29.39892 16.00328 12.62165-3.67932 19.68263-16.76536 16.0033-29.39891l-10.04969-34.23324 68.83561-20.09938 10.04969 34.23324c3.67933 12.62165 16.76536 20.05176 29.39892 16.37243 12.62165-3.67933 20.05175-16.76536 16.37242-29.39892l-10.0497-34.60237 34.23325-10.04969c12.62165-3.67933 19.68263-16.76536 16.0033-29.39892-3.67933-12.62165-16.76536-19.68262-29.39891-16.00329l-34.23325 10.04969-20.09938-68.83561 34.23325-10.0497c12.62165-3.67933 20.05174-16.76536 16.37241-29.3989-3.67932-12.62166-16.76536-20.05176-29.39891-16.37243l-34.60237 10.04969-10.04968-34.23325c-3.21495-11.04989-13.51469-18.02752-24.56459-17.12257zm2.23856 110.51087h.36911l19.71836 68.46648v.36913l-68.4665 19.71835h-.36911l-19.71836-68.46649v-.36913z" fill="#dbdbdb"/>
</svg>
