<svg viewBox="0 0 512 512" xmlns="http://www.w3.org/2000/svg">
 <path d="m290.15 255.43l94.98 106.28h-258.27l94.98-106.28 34.16 29.888m127.57-135.03h-255.14l127.57 111.63m47.42-18.08l93.53 104.67v-186.51m-281.9 0v186.51l93.52-104.68" fill="#dbdbdb"/>
</svg>
