<svg height="512" viewBox="0 0 512 512" width="512" xmlns="http://www.w3.org/2000/svg">
 <path d="m339.57759 84.697821l-132.84423 129.369679-79.99742-60.89747-30.419322 15.2979-.02941 159.69943 30.276288 15.18827 79.93193-60.84666 133.17041 129.25069 76.04696-30.3899-.0281-266.16305-76.10713-30.508889zm-7.57475 106.525109l.0294 114.09986-76.04696-57.27185zm-197.70955 22.90874l38.02349 33.94468-37.97803 34.40588-.0455-68.35056z" fill="#dbdbdb" fill-rule="evenodd"/>
</svg>
