<svg width="512" height="512" version="1.1" viewBox="0 0 512 512" xmlns="http://www.w3.org/2000/svg">
 <path d="m99.831 75.297c-1.0694 0.22386-1.8976 0.70527-2.6568 1.4492l-13.042 12.801c-3.0371 2.975-1.877 8.9259 2.6567 13.525l42.267 42.75c0.0481 1.3219 0.18213 3.1498 0.24151 4.589l-20.771 20.288-2.6568 2.8983 1.9322 3.1398 24.877 38.161 3.8644 6.0382c4.6168 27.348 11.958 56.672 23.67 82.36 2.4383 5.3486 5.0184 10.439 7.7288 15.458l-33.331 33.814-0.72453 0.48302-0.2415 0.72452-16.424 38.644-4.3475 10.144 9.9025-4.3475 39.127-16.907 0.72451-0.48303 0.48303-0.483 26.809-27.292c31.247 42.176 65.454 65.937 65.454 65.937s38.231-24.708 70.043-68.11l29.225 29.466 0.72452 0.483 0.72453 0.48303 38.886 16.907 10.144 4.3475-4.3474-10.144-16.424-38.644-0.48302-0.72452-0.48302-0.48302-36.47-36.953c2.1662-4.3279 4.1326-8.7239 6.0382-13.284 11.772-28.171 18.913-60.208 23.428-89.123l0.48303 0.96603 3.3814 8.2119 4.8305-7.4873 24.877-38.161 2.1737-3.1398-2.8983-2.8983-22.703-22.22 44.441-45.407c4.5338-4.5996 5.9353-10.551 2.8982-13.525l-13.042-12.801c-3.037-2.975-9.2332-1.7012-13.767 2.8983l-44.682 45.407-22.462-21.979-2.6568-2.6568-3.1398 2.1737-27.775 18.356c-18.221-4.0435-36.837-9.9855-52.17-18.839-14.005 8.0868-29.746 13.603-45.165 17.39l-25.119-16.907-3.3814-2.1737-2.6567 2.6568-22.462 21.979-44.441-45.407c-3.4004-3.4496-7.9022-5.019-11.11-4.3475zm82.119 37.195 14.25 9.661c-10.107 1.9187-19.474 3.0868-28.259 3.8643zm154.09 0 15.941 15.216c-9.631-0.84752-20.69-2.0551-32.364-4.1059zm-81.153 28.258c20.214 11.672 48.368 17.693 67.869 20.771 0.22466 0.0321 0.50229-0.0321 0.72453 0 0.81141 0.1292 1.3977 0.35543 2.1738 0.483 3.0706 0.45976 5.4934 0.89872 7.9703 1.2076 3.5806 0.44691 4.5655 0.53838 6.5212 0.72453 1.677 0.15726 4.0755 0.43406 4.589 0.48301l0.48302 0.48301c-1.6e-4 0.0242 3e-4 0.67398 0 0.72453-0.0642 1.0102-0.22867 2.372-0.24151 3.1398-0.0481 2.798-0.22066 6.8563-0.72453 15.458-0.24232 4.0823-0.53838 8.5128-0.96611 13.525-2.2341 26.373-7.1521 63.603-19.081 94.678-0.15486 0.40278-0.32577 0.80708-0.48303 1.2076-1.0089 2.5756-2.2656 5.0106-3.3814 7.4873-3.3236 7.3712-6.864 14.563-10.869 21.013l-0.24152-0.24152c-1.6148 2.6035-3.1524 5.282-4.8306 7.7289-22.206 32.289-48.788 50.72-48.788 50.72s-23.354-17.503-44.924-48.305c-1.6536-2.3584-3.2096-4.7302-4.8305-7.2458-4.1256-6.4099-8.1796-13.137-11.835-20.53-1.3215-2.6715-2.6382-5.4169-3.8644-8.2118-0.24874-0.56647-0.48061-1.1195-0.72453-1.6907-14.334-33.545-19.517-75.561-21.254-102.89-0.0242-0.36826 0.016-0.60576 0-0.96609-0.28644-4.6413-0.35543-8.6897-0.48302-12.318-0.0722-2.0883 0.0402-2.6573 0-4.3475-0.0401-2.0105 0.0402-2.1929 0-3.8644l7.2458-7.2458c1.2565-0.0803 1.2724-0.1124 2.8983-0.24153 0.37147-0.0321 0.81951 0.0321 1.2077 0 1.4035-0.12032 2.7371-0.0722 4.3474-0.2415 0.89173-0.0948 1.7074-0.37069 2.6568-0.48302 2.6024-0.38111 5.2337-0.74137 8.2119-1.2076 17.368-2.6866 40.364-8.1074 60.623-19.805zm127.77 17.148 17.39 16.907-18.114 27.534-3.1398-7.2458c1.7713-14.181 3.1629-26.712 3.8644-37.195zm-252.64 5.3136c0.66033 10.315 1.7703 22.571 3.3814 35.504l-15.458-23.911zm212.54 160.37 34.055 34.538 11.835 27.775-28.017-12.076-29.949-30.432c4.2448-6.2265 8.2717-12.908 12.076-19.805zm-170.28 2.8983c4.0131 6.8778 8.2469 13.386 12.559 19.564l-27.051 27.534-28.5 12.318 12.076-28.017 0.24151-0.48302z" fill="#dbdbdb" stroke-width="8.0235"/>
</svg>
