<svg height="512" viewBox="0 0 512 512" width="512" xmlns="http://www.w3.org/2000/svg">
 <g>
  <g fill="none">
   <g stroke-width="1.457">
    <path d="m118.09 149.81h129.29v96.53h-129.29z"/>
    <path d="m264.62 149.81v96.53h129.29v-96.53zm8.619 9.653h112.05v77.23h-112.05z"/>
    <path d="m118.09 265.65h129.29v96.53h-129.29z"/>
    <path d="m264.62 265.65h129.29v96.53h-129.29z"/>
   </g>
   <path d="m269.06 154.61h120.25v86.994h-120.25z"/>
  </g>
  <g fill="#dbdbdb" stroke-width="9.194">
   <path d="m269.06 270.56h120.25v86.995h-120.25z"/>
   <path d="m122.41 154.61h120.25v86.994h-120.25z"/>
   <path d="m122.41 270.56h120.25v86.995h-120.25z"/>
  </g>
 </g>
</svg>
