<svg height="512" viewBox="0 0 512 512" width="512" xmlns="http://www.w3.org/2000/svg">
 <path d="m129.84 162.47c-26.594 0-48.12 21.562-48.12 48.16 0 26.594 21.531 48.16 48.13 48.16 26.594 0 48.16-21.562 48.16-48.16 0-26.594-21.562-48.16-48.16-48.16m123.19 0c-26.594 0-48.16 21.562-48.16 48.16 0 26.594 21.562 48.16 48.16 48.16 26.594 0 48.16-21.562 48.16-48.16 0-26.594-21.562-48.16-48.16-48.16m123.19 0c-26.594 0-48.16 21.562-48.16 48.16 0 26.594 21.562 48.16 48.16 48.16 26.594 0 48.16-21.562 48.16-48.16 0-26.594-21.562-48.16-48.16-48.16m-142.53 162.41v38.28l-38.25-.031-.219 38.5 38.469.031v38.28l38.813.313-.063-38.563 38.438.063-.219-38.594h-38.31l-.094-38.25-38.563-.031" fill="#dbdbdb"/>
</svg>
