<svg xmlns="http://www.w3.org/2000/svg" height="512" viewBox="0 0 512 512" width="512">
 <g fill="#dbdbdb">
  <path d="M69.344 91.14h106.893V289.66H69.344zM191.508 182.763h152.704V350.74H191.508zM191.508 366.01h244.328v61.082H191.508zM191.508 91.14h152.704v76.354H191.508zM359.483 182.763h76.353V350.74h-76.353z"/>
  <path fill-rule="evenodd" d="M69.344 304.928h106.893v122.164H69.344z"/>
  <path d="M359.483 91.14h76.353v76.354h-76.353z"/>
 </g>
</svg>
