<svg height="512" viewBox="0 0 512 512" width="512" xmlns="http://www.w3.org/2000/svg">
 <path d="m106.09373 120.83966c-26.260963 0-47.392604 60.30726-47.392604 135.18524 0 74.87798 21.13308 135.13344 47.392604 135.13344h299.80254c26.26096 0 47.3926-60.25546 47.3926-135.13344 0-74.87798-21.13308-135.18524-47.3926-135.18524zm106.16466 51.04715c43.09778 27.5976 85.95961 55.71749 129.13077 83.19855-43.00426 28.3501-86.06464 56.89731-129.13077 85.07763v-168.28193z" fill="#dbdbdb"/>
</svg>
