<svg viewBox="0 0 512 512" xmlns="http://www.w3.org/2000/svg">
 <path d="m121.55243 51.23344c-3.30374.53782-7.27336 1.69028-12.01128 3.99522-9.57829 4.25133-20.46272 17.05653-20.00174 34.4204v345.74053c0 25.61041 25.61041 25.61041 25.61041 25.61041h307.32492v-358.54574h-25.61041v-25.61041h25.61041v-25.61041h-294.51971c-.53782.0256-3.09886-.53782-6.4026 0m3.99522 25.61041c1.51101-.25611 2.38178.0768 2.40738 0h243.29889v25.61041h-243.29889c-.15366 0-1.17808-.58904-2.40738-.79392-2.25372-.35855-5.35257-1.58784-7.19652-3.20131-1.74151-1.7159-2.99642-2.40737-3.20131-8.80997.40978-8.29778 2.33055-9.01487 5.60868-11.21737 1.63908-.84514 3.32936-1.35735 4.81477-1.61345m143.26463 67.22732c34.36917 0 61.61865 27.24948 61.61865 61.61865 0 34.36918-27.24948 62.43818-61.61865 62.43818-34.36918 0-62.41258-28.069-62.41258-62.43818 0-34.36917 28.06902-61.61865 62.41258-61.61865m-52.80867 140.06333c10.42344-.99879 21.02615 2.79154 31.2191 12.01129 20.15538 18.23461 22.25544 18.23461 42.41083 0 40.74616-36.87899 92.53041 17.41508 80.03253 84.02775l-7.19652 38.41562h-93.63166-94.42559l-7.19652-38.41562c-9.37341-49.9659 17.59435-93.06822 48.81344-96.03904" fill="#dbdbdb"/>
</svg>
