<svg xmlns="http://www.w3.org/2000/svg" width="48" height="48">
 <path d="M 8.875 2 C 5.9305409 2 3.46875 4.3969799 3.46875 7.25 L 3.46875 40.75 C 3.46875 43.60302 5.930541 46 8.875 46 L 38.875 46 C 41.819459 46 44.25 43.603021 44.25 40.75 L 44.25 7.25 C 44.25 4.3969799 41.81946 2 38.875 2 L 8.875 2 z M 8.875 5.84375 L 38.875 5.84375 C 39.70534 5.84375 40.28125 6.4468714 40.28125 7.25 L 40.28125 40.75 C 40.28125 41.553132 39.705336 42.15625 38.875 42.15625 L 8.875 42.15625 C 8.0446634 42.15625 7.4375 41.553129 7.4375 40.75 L 7.4375 7.25 C 7.4375 6.4468714 8.0446634 5.84375 8.875 5.84375 z M 26.71875 6.46875 L 26.71875 10.46875 L 28.71875 10.46875 L 28.71875 6.46875 L 26.71875 6.46875 z M 11.9375 6.59375 L 11.9375 10.59375 L 13.9375 10.59375 L 13.9375 6.59375 L 11.9375 6.59375 z M 26.71875 12.46875 L 26.71875 16.46875 L 28.71875 16.46875 L 28.71875 12.46875 L 26.71875 12.46875 z M 11.90625 12.59375 L 11.875 16.59375 L 13.875 16.59375 L 13.90625 12.59375 L 11.90625 12.59375 z M 26.71875 18.46875 L 26.71875 22.46875 L 28.71875 22.46875 L 28.71875 18.46875 L 26.71875 18.46875 z M 11.875 18.59375 L 11.84375 22.59375 L 13.84375 22.59375 L 13.875 18.59375 L 11.875 18.59375 z M 20.375 22.4375 L 19.59375 23.34375 L 18.3125 24.875 L 19.8125 26.1875 L 20.375 25.53125 L 20.875 26.15625 L 22.40625 24.90625 L 21.15625 23.375 L 20.375 22.4375 z M 26.71875 24.46875 L 26.71875 28.46875 L 28.71875 28.46875 L 28.71875 24.46875 L 26.71875 24.46875 z M 11.84375 24.59375 L 11.8125 28.59375 L 13.8125 28.59375 L 13.84375 24.59375 L 11.84375 24.59375 z M 17 26.40625 L 14.40625 29.46875 L 15.9375 30.75 L 18.53125 27.71875 L 17 26.40625 z M 23.6875 26.4375 L 22.125 27.71875 L 24.6875 30.78125 L 26.21875 29.53125 L 23.6875 26.4375 z M 12.65625 30.40625 C 12.215176 30.465176 11.8125 30.59375 11.8125 30.59375 L 11.78125 32.90625 L 11.78125 35.65625 L 13.5625 33.5625 L 14.65625 32.28125 L 13.8125 31.5625 C 13.8125 31.5625 14.040837 30.822087 13.8125 30.59375 C 13.576798 30.358047 13.097324 30.347324 12.65625 30.40625 z M 26.71875 30.46875 L 26.71875 31.71875 L 25.96875 32.34375 L 26.96875 33.53125 L 28.71875 35.6875 L 28.71875 32.90625 L 28.71875 30.46875 L 26.71875 30.46875 z" fill="#dbdbdb"/>
</svg>
