<svg viewBox="0 0 512 512" xmlns="http://www.w3.org/2000/svg">
 <path d="m122.55417 122.99536c-17.664 0-27.46182 13.63544-27.46182 30.26595 0 16.02623 10.30982 28.84722 27.46182 28.84722 16.89601 0 27.46182-13.21508 27.46182-29.55657 0-16.65678-9.79781-29.55659-27.46182-29.55659m-.62836 14.42362h.62836c8.23855 0 12.77673 7.46139 12.77673 15.13297 0 8.27584-4.53818 14.42361-12.77673 14.42361-7.95927 0-13.40509-6.62068-13.40509-13.68798 0-7.96058 4.51491-15.8686 12.77673-15.8686m251.60148 0l27.46183 44.68955h24.27345l26.81019-44.68955h-23.62182l-14.6851 25.22161h-.62836l-15.33673-25.22163h-24.27346m-271.40657 59.11318l-55.55201 192.47248h32.55855l14.68509-54.77819h54.92364l15.9651 54.77819h33.83855l-56.20365-192.47248h-40.23855m121.32075 0v95.86843l-19.8051 15.8686v25.22163l19.8051-16.57795v72.09177h102.81892v-29.55658h-70.88874v-65.60248l33.21019-25.22162v-25.95725l-33.21019 25.95724v-72.09179zm199.8662 0c-52.73601 0-91.95056 37.54344-91.95056 98.75842 0 56.53847 33.34983 93.71406 88.13383 93.71406 20.736 0 36.63127-4.51886 44.05528-8.64364l-5.12-26.66663c-8.192 4.1248-21.03855 6.48933-33.83855 6.48933-37.88801 0-60.67201-26.21998-60.67201-67.04747 0-44.66329 25.60001-68.49247 60.67201-68.49247 14.336 0 25.64655 3.33661 33.83854 7.19867l7.02836-26.6666c-6.4-3.57307-21.41091-8.64367-42.14691-8.64367m-302.77822 28.1116h.62837c2.56 11.11328 5.60872 24.38091 8.93673 36.04591l13.40509 47.57952h-44.05527l12.77672-47.57954c3.072-11.376 5.74836-24.93262 8.30836-36.0459" fill="#dbdbdb"/>
</svg>
