<svg xmlns="http://www.w3.org/2000/svg" width="48" height="48">
 <path d="M 9.9891835,2.0089299 30.396913,1.9999999 42.077538,13.640058 42.035258,43.600365 C 42.035258,44.929767 40.965021,46 39.635619,46 L 9.9891885,46 C 8.6597895,46 7.5895521,44.929767 7.5895521,43.600365 l 0,-39.1918013 c 0,-1.3293971 1.0702374,-2.3996352 2.3996364,-2.3996352 z m 11.5017915,11.6868251 0,6.961679 -6.96168,0 0,5.77134 6.96168,0 0,6.96168 5.77134,0 0,-6.96168 6.961679,0 0,-5.77134 -6.961679,0 0,-6.961679 -5.77134,0 z" fill="#dbdbdb"/>
</svg>
