<svg viewBox="0 0 512 512" xmlns="http://www.w3.org/2000/svg">
 <path d="m184.18707 109.40625c-83.84128 0-135.15625 33.08357-135.15625 70.15625 0 25.66569 36.51468 35.9375 51.34375 35.9375 12.54767 0 18.81221-9.12413 23.375-22.8125 15.96977-48.47965 34.21773-57.03125 50.1875-57.03125 16.54011 0 33.09375 9.70887 33.09375 42.21875v30.21875c-19.96221 13.68838-67.89608 27.95233-104.96875 40.5-45.05756 15.39942-60.4375 38.77137-60.4375 71.28125 0 42.77616 28.51977 82.71875 86.125 82.71875 36.50232 0 61.60029-19.97572 81.5625-33.09375 7.41453 17.68082 17.09201 33.09375 44.46875 33.09375 29.65814 0 65.58474-9.71047 84.40625-17.125l-1.6875-18.8125c-7.41454.57035-18.85102-.0233-27.40625-2.875-7.41454-2.28139-18.25-9.09942-18.25-42.75v-131.75c0-35.36163-5.70452-79.875-106.65625-79.875zm22.84375 127.1875v82.71875c-1.1407 30.79884-19.97558 38.78125-35.375 38.78125-22.2436 0-42.21875-17.67776-42.21875-47.90625 0-26.80639 9.13953-39.92907 26.25-49.625 17.68081-9.69593 37.65538-17.69491 51.34375-23.96875zm211.75 72.0625c-34.20554 0-55.53125 15.96355-55.53125 44.28125 0 20.46725 16.5459 33.93518 41.21875 43.1875 14.29903 5.04672 28.0625 13.16708 28.0625 26.625 0 10.65418-7.03857 17.125-19.375 17.125-18.50463 0-33.33529-19.35314-40.625-42.34375h-10.65625l3.34375 41.78125c10.65418 9.81306 31.70535 13.4375 47.40625 13.4375 34.20553 0 57.75-15.40719 57.75-45.6875 0-24.1121-15.14316-35.59319-40.9375-45.40625-16.26165-5.88784-28.3125-12.62882-28.3125-23.84375 0-8.69157 6.16094-16.25 17.65625-16.25 14.29903 0 26.36041 12.87914 31.6875 34.1875h10.375v-37.28125c-11.49531-7.00933-27.4831-9.8125-42.0625-9.8125z" fill="#dbdbdb"/>
</svg>
