<svg xmlns="http://www.w3.org/2000/svg" width="48" height="48">
 <path d="M 12,4 L 12,11 L 36,11 L 36,4 L 12,4 z M 5,20 L 5,27 L 43,27 L 43,20 L 5,20 z M 12,36 L 12,43 L 36,43 L 36,36 L 12,36 z" fill="#dbdbdb"/>
</svg>
