<svg version="1.1" viewBox="0 0 48 48" xmlns="http://www.w3.org/2000/svg">
 <path d="m10.4 4.6038 15.2-0.00376c3.8 0 3.8 0 3.8 3.85v23.1c0 3.85 0 3.85-3.8 3.85h-15.2c-3.8 0-3.8 0-3.8-3.85v-23.096c0-3.85 0-3.85 3.8-3.85z" fill="#dbdbdb" fill-rule="evenodd"/>
 <path d="m22 12.004h16c4 0 4 0 4 4v23.996c0 4 0 4-4 4h-16c-4 0-4 0-4-4v-23.996c0-4 0-4 4-4z" fill="#dbdbdb" fill-rule="evenodd"/>
</svg>
