<svg xmlns="http://www.w3.org/2000/svg" width="48" height="48">
 <path d="M 45.550079,3.0370214 C 42.292955,2.9736694 22.228799,13.901357 22.112448,13.845047 c -1.977342,-0.345243 -5.120238,-0.979754 -7.984582,1.457262 -2.864342,2.437015 -5.9504861,2.45913 -5.9504861,2.45913 4e-7,1e-6 9.2991941,5.113581 12.7814021,2.064455 2.857453,-2.502073 2.466949,-3.642073 2.610928,-4.09855 C 24.071251,15.412069 46.855812,4.8932506 45.975114,3.2191792 45.918086,3.1107777 45.767221,3.041245 45.550079,3.0370214 z M 24.267981,21.100998 c -1.785499,-0.0044 -3.618886,0.212906 -5.100417,0.425035 -3.646845,0.522163 -21.6500476,5.323091 -16.1209609,15.45305 5.5290872,10.129958 16.3451149,9.297236 25.1681299,7.104152 8.823015,-2.193084 10.102129,-8.582186 8.92573,-11.506298 -1.176405,-2.924112 -2.815956,-1.252164 -6.345162,-4.280708 -1.058762,-1.566486 1.191566,-2.910985 -0.455394,-5.312934 -0.977884,-1.426157 -3.462347,-1.87588 -6.071926,-1.882297 z m -10.018676,4.432505 c 1.882244,0.26108 2.237115,2.346255 1.943016,3.703875 -0.294099,1.357624 -2.846286,1.197322 -5.434373,-0.212517 -2.1827933,-2.229259 1.916892,-3.346479 3.491357,-3.491358 z m 8.014941,0.758991 c 1.972311,-0.04385 3.292213,1.089229 6.52732,2.884165 3.235103,1.794933 -6.266263,4.534681 -9.229327,2.307331 -2.963062,-2.227351 0.729695,-5.147642 2.702007,-5.191496 z M 6.8415563,29.783851 C 7.8118342,29.757771 10.641595,31.400693 10.211474,32.33406 9.6820885,33.482817 8.212463,34.524803 7.4183892,34.368155 6.6243196,34.211504 4.8557778,32.231191 4.6556633,31.332192 4.4542065,30.427164 5.8712787,29.809928 6.8415563,29.783851 z m 24.1662617,3.24848 c 1.608505,-0.02601 3.212119,1.843104 2.732367,2.884165 -0.52938,1.148759 -2.029373,1.70499 -2.823446,1.548341 -0.794072,-0.156652 -3.815235,-2.337563 -3.643155,-2.884165 0.16772,-0.532753 2.12573,-1.522335 3.734234,-1.548341 z M 9.4221246,35.370022 c 1.7337474,-0.01183 3.7227804,1.622382 3.3091984,2.519849 -0.52938,1.148763 -2.8756703,2.372905 -4.4932238,2.216253 -1.5594379,-0.151018 -2.5330878,-3.16716 -1.062587,-4.159269 0.3216723,-0.217023 1.7611641,-0.573518 2.2466124,-0.576833 z m 16.0602414,2.094815 c 1.28238,-0.02435 4.705285,1.320117 4.250348,2.307331 -0.454938,0.987214 -2.216011,2.82326 -3.886032,2.45913 -1.670021,-0.36413 -2.665396,-1.756103 -2.853805,-2.793086 -0.188408,-1.036984 1.207108,-1.949026 2.489489,-1.973375 z m -7.923862,1.244744 c 0.970279,-0.02607 2.878161,2.268137 2.39841,3.309199 -0.47975,1.041065 -2.861256,1.095665 -4.978978,0.941149 -2.117723,-0.154517 -1.023716,-2.498027 -0.151798,-3.127042 0.871916,-0.629014 1.762086,-1.097228 2.732366,-1.123306 z" fill="#dbdbdb"/>
</svg>
