<svg viewBox="0 0 512 512" xmlns="http://www.w3.org/2000/svg">
 <path d="m191.45 55.73387c-50.01 0-90.65 40.612-90.65 90.65 0 50.01 40.612 90.65 90.65 90.65 50.01 0 90.65-40.612 90.65-90.65 0-50.01-40.612-90.65-90.65-90.65m135.64 185.43v71.37h-71.37l-.435 71.803h71.847v71.41l72.41.522-.174-71.89 71.63.087-.435-71.934-71.46-.043-.131-71.32h-71.89m-206.58 18.277c-1.9-.032-3.804.083-5.701.261l.043-.043c-45.48 4.322-84.75 67.15-71.11 139.91l10.139 56.27h137.51 117.24v-52.39h-53.13-18.756v-19.496-71.15-18.712h18.756 53.13v-13.316c-24.08-24.654-57.37-30.428-86.73-3.873-29.355 26.584-32.382 26.584-61.751 0-12.974-11.749-26.343-17.227-39.644-17.45" fill="#dbdbdb" fill-rule="evenodd"/>
</svg>
