<svg viewBox="0 0 512 512" xmlns="http://www.w3.org/2000/svg">
 <path d="m92.61644 63.5v106.80809l-47.49152 35.63457v204.72349l129.82077-124.62538-58.61537-45.99347v-152.80154h166.15656v71.20538h71.20541v71.2054c4.21308-.46237 8.28778-.73309 12.6219-.73309 21.47746 0 41.14911 6.23123 58.58349 16.31924v-39.33191l-47.45964-35.60269v-35.6027l-71.20539-71.20539zm-.0319 136.48231v21.51462l-14.08809-11.12385zm284.85348 0l14.08809 10.39077-14.08809 11.12385zm-11.44259 46.75843c-55.61865 0-100.87963 45.27185-100.87963 100.87964 0 55.61867 45.25826 100.87963 100.87963 100.87963 55.61867 0 100.87963-45.25826 100.87963-100.87963 0-55.61867-45.27184-100.87964-100.87963-100.87964zm-130.9682 14.82118l-189.90234 181.74271h251.45004c-29.43036-21.6529-48.95768-56.56433-48.95768-95.68424 0-21.48293 6.23122-41.18099 16.31923-58.61538zm151.74974 33.37156l63.04577 52.6869-63.04577 52.65501v-31.90537c-41.90779-10.48103-73.17121-5.40812-104.60884 20.78153 20.95661-52.38473 57.45985-62.3127 104.60884-62.3127z" fill="#dbdbdb"/>
</svg>
