<svg viewBox="0 0 512 512" xmlns="http://www.w3.org/2000/svg">
 <path d="m99.8799 81.09018l177.21734 155.72446 177.97553-155.72446zm373.58708 16.81191v.0659c.0122-.0109.0207-.022.033-.033l-.033-.033zm0 .0659c-88.95806 79.53316-99.83003 83.88712-196.36974 171.81115l-47.56782-42.1946-6.16437 6.88959c25.65417 22.53639 42.22757 55.44217 42.22757 92.06994 0 17.50375-4.10195 33.98628-10.7794 49.0842h218.65376zm-392.77244-.033v.033 123.48515c18.36298-10.97361 39.30717-17.66899 62.13815-17.66899 22.21724 0 42.57794 6.47729 60.62178 16.9108l7.68074-9.23007-130.44067-113.52983zm62.13815 124.30933c-57.51936 0-104.33276 46.8134-104.33276 104.33275 0 57.51934 46.8134 104.33275 104.33276 104.33275 57.51934 0 104.33275-46.81341 104.33275-104.33275 0-57.51935-46.81341-104.33275-104.33275-104.33275zm-21.49287 49.84237v32.9975c48.75519 0 86.51244 10.26505 108.1896 64.44567-32.50347-27.10259-64.83529-32.31919-108.1896-21.49288v32.9975l-65.20386-54.45741z" fill="#dbdbdb" fill-rule="evenodd"/>
</svg>
