<svg viewBox="0 0 512 512" xmlns="http://www.w3.org/2000/svg">
 <path d="m92.65846 63.49998v106.76044l-47.42431 35.57619v204.57107l129.69226-124.5326-58.53987-45.95922v-152.68781h166.03285v71.15239h71.15239v71.15239c4.20995-.4566 8.24977-.73254 12.58065-.73254 21.46149 0 41.15034 6.23202 58.57173 16.30708v-39.27076l-47.45615-35.60805v-35.57618l-71.15239-71.1524zm0 136.38072v21.4986l-14.0776-11.11557zm284.64139 0l14.0776 10.38303-14.0776 11.11557zm-11.30667 47.01026c-55.57725 0-100.80451 45.22456-100.80451 100.80452 0 55.57726 45.23814 100.80453 100.80451 100.80453 55.57726 0 100.80453-45.23814 100.80453-100.80453 0-55.57726-45.22455-100.80452-100.80453-100.80452zm-131.02995 14.5235l-189.76093 181.60739h251.29469c-29.40847-21.63678-48.92125-56.52222-48.92125-95.61301 0-21.46692 6.22658-41.11848 16.30708-58.53988zm130.2974 14.3961c23.86678 0 38.53823 16.0521 38.53823 30.38468v35.57619h14.84199v77.80899h-105.26348v-77.80899h14.0776v-34.84366c0-19.06569 18.98865-31.11721 37.80566-31.11721zm0 17.03962c-8.71613.0476-20.76604 6.08271-20.76604 17.77217v31.14908h41.5321v-31.14908c0-10.7817-10.63255-17.82653-20.76606-17.77217zm0 65.96087c-5.79716 0-10.38301 4.58586-10.38301 10.38303 0 3.52505 1.79003 6.98088 4.45896 8.88608l-4.45896 22.99554h20.76604l-3.72641-22.99554c2.57924-1.91608 3.72641-5.42491 3.72641-8.88608 0-5.79717-4.58585-10.38303-10.38303-10.38303z" fill="#dbdbdb"/>
</svg>
