<svg viewBox="0 0 512 512" xmlns="http://www.w3.org/2000/svg">
 <path d="m117.42488 62.9996v106.76043l-47.4243 35.57619v204.57108l129.69225-124.53261-58.53987-45.95921v-152.6878h166.03286v71.15238h71.15239v71.15239c4.20995-.4566 8.24978-.73255 12.58066-.73255 21.46148 0 41.15033 6.23203 58.57172 16.30708v-39.27076l-47.45615-35.60804v-35.57619l-71.15239-71.15239zm0 136.38071v21.49861l-14.0776-11.11558zm284.6414 0l14.0776 10.38303-14.0776 11.11558zm-11.30667 47.01026c-55.57725 0-100.80451 45.22456-100.80451 100.80453 0 55.57725 45.23814 100.80452 100.80451 100.80452 55.57726 0 100.80453-45.23814 100.80453-100.80452 0-55.57726-45.22455-100.80453-100.80453-100.80453zm-131.02996 14.52351l-189.76092 181.60738h251.29469c-29.40847-21.63677-48.92125-56.52222-48.92125-95.613 0-21.46693 6.22657-41.11849 16.30708-58.53989zm131.02996 7.70764c19.5984 0 35.5762 15.98323 35.5762 35.57619 0 19.59296-15.9778 35.5762-35.5762 35.5762-19.59838 0-35.57619-15.98324-35.57619-35.5762 0-19.59839 15.98323-35.57619 35.57619-35.57619zm27.61375 79.94292c18.78282-.2685 35.79278 25.29615 30.22544 54.9727l-4.45897 22.23115h-107.49297l-3.69457-22.23115c-5.34601-28.48983 9.60716-53.16024 27.42264-54.8453 5.93443-.56802 12.72854 1.40164 18.53658 6.6566 11.49784 10.40935 12.23022 10.40935 23.72808 0 5.08321-4.59957 10.47458-6.70882 15.73377-6.784z" fill="#dbdbdb"/>
</svg>
