<svg viewBox="0 0 512 512" xmlns="http://www.w3.org/2000/svg">
 <path d="m435.66118 256.00566c0 15.99545-151.99137 103.7099-165.84133 111.7105-13.85281 7.99487-165.81266 95.77088-179.66262 87.76886-13.85282-8.0006-13.81844-183.48676-13.81844-199.48511 0-15.99546-.0387-191.47876 13.81844-199.48509 13.85282-8.0006 165.81269 79.77543 179.66262 87.76887 13.85282 8.0006 165.84133 95.71502 165.84133 111.7105" fill="#dbdbdb" fill-rule="evenodd"/>
</svg>
