<svg viewBox="0 0 512 512" xmlns="http://www.w3.org/2000/svg">
 <path d="m255.907 71.30427c-112.98925.52454-204.907 92.88779-204.907 205.86798 0 34.31234 8.59403 68.12484 24.86164 98.08257v-54.40421c0-10.03188 3.56853-19.33393 9.82686-27.3106-.51776-5.42856-.775-10.88945-.775-16.36776 0-94.37249 76.77701-171.5136 170.9935-171.95448 94.377.43636 171.1485 77.58199 171.1485 171.95448 0 6.06616-.32567 12.10541-.96099 18.10374 5.43987 7.57874 8.52488 16.26851 8.52488 25.57462v57.16317c17.25337-30.64732 26.3806-65.50659 26.3806-100.87253 0-112.98472-91.95001-205.31696-205.09299-205.83698zm-105.64646 206.58097c-30.43027 0-55.81994 14.6562-61.78209 34.1615-.86593 2.83751-1.30198 5.79001-1.30198 8.80387v52.45124 24.42764c0 23.72425 28.22684 42.93437 63.08407 42.93437h26.59761v-162.77862zm183.33131 0v162.80962h26.59762c34.85722 0 63.11507-19.24111 63.11507-42.96537v-25.26463-51.61425c0-1.85172-.19237-3.66523-.52699-5.45592-3.94538-21.14449-30.45305-37.50945-62.58808-37.50945z" fill="#dbdbdb"/>
</svg>
