<svg viewBox="0 0 512 512" xmlns="http://www.w3.org/2000/svg">
 <path d="m164.84993 164.88c-50.2 50.21-50.2 132.05 0 182.26 50.21 50.2 132.05 50.2 182.26 0 50.2-50.21 50.2-132.05 0-182.26-50.21-50.2-132.05-50.2-182.26 0m-95.779997 143.68c-36.98 36.98-37.643 98.06-.669 135.04 36.979997 36.98 98.059997 36.31 135.039997-.669 8.294-8.287 14.06-17.82 18.63-27.93-29.773-6.338-58.02-20.779-81.15-43.905-23.13-23.13-37.564-51.39-43.904997-81.15-10.115 4.571-19.65 10.332-27.93 18.63m239.479997-239.48c-8.294 8.287-14.1 17.874-18.63 27.93 29.773 6.338 58.02 20.779 81.15 43.905 23.13 23.13 37.564 51.39 43.905 81.15 10.06-4.523 19.649-10.332 27.93-18.63 36.98-36.98 37.643-98.06.669-135.04-36.98-36.98-98.06-36.31-135.04.669" fill="#dbdbdb" fill-rule="evenodd"/>
</svg>
