<svg viewBox="0 0 512 512" xmlns="http://www.w3.org/2000/svg">
 <path d="m255.99976 41c-118.74 0-215 96.26-215 215 0 118.74 96.26 215 215 215 118.74 0 215-96.26 215-215 0-118.74-96.26-215-215-215m0 71.875c79.03 0 143.09 64.09 143.09 143.13 0 79.03-64.06 143.13-143.09 143.13-79.03 0-143.09-64.09-143.09-143.12 0-79.03 64.06-143.12 143.09-143.12m-57.44 107.28c-19.852 0-35.844 15.992-35.844 35.844 0 19.852 15.992 35.844 35.844 35.844h114.84c19.852 0 35.844-15.992 35.844-35.844 0-19.852-15.992-35.844-35.844-35.844z" fill="#dbdbdb" fill-rule="evenodd"/>
</svg>
