<svg viewBox="0 0 512 512" xmlns="http://www.w3.org/2000/svg" xmlns:xlink="http://www.w3.org/1999/xlink">
 <path id="a" d="m300.43966 41c-.356.019-.74.105-1.125.156-2.13.277-4.404 1.243-5.094 2.188-.952 1.302-1.281 8.393-1.281 29.375 0 10.1-.023 19.485-.063 28.563h-192.69c-20.731002 0-37.409997 16.707-37.409997 37.438v8.313c0 20.731 16.674995 37.438 37.409997 37.438h192.34c.05 9.285.168 17.97.406 26.19 0 22.897.323 30.405 1.281 31.719.69.945 3.061 1.952 5.281 2.25 3.36.451 4.977.04 9.719-2.656 46.08-30.881 81.34-54.41 131.03-87.62 6.992-3.929 8.969-6.481 8.969-11.5 0-5.962-1.158-7.03-20.969-19.5l-119.41-79.66c-3.923-2.109-5.91-2.792-8.406-2.656v-.031" fill="#dbdbdb"/>
 <path d="m210.21966 259.77c.356.019.74.105 1.125.156 2.13.277 4.404 1.243 5.094 2.188.952 1.302 1.281 8.393 1.281 29.375 0 10.1.023 19.485.063 28.563h192.69c20.731 0 37.41 16.707 37.41 37.438v8.313c0 20.731-16.675 37.438-37.41 37.438h-192.34c-.05 9.285-.168 17.97-.406 26.19 0 22.897-.323 30.405-1.281 31.719-.69.945-3.061 1.952-5.281 2.25-3.36.451-4.977.039-9.719-2.656-46.08-30.881-81.34-54.41-131.029997-87.62-6.992-3.929-8.969-6.481-8.969-11.5 0-5.962 1.158-7.03 20.968995-19.5l119.410002-79.66c3.923-2.109 5.91-2.792 8.406-2.656v-.031" fill="#dbdbdb"/>
 <use height="1" width="1" xlink:href="#a"/>
</svg>
