<svg viewBox="0 0 512 512" xmlns="http://www.w3.org/2000/svg">
 <path d="m117.423 80.03041c-12.93991 0-20.30029 11.77227-22.80076 25.3998l-43.62267 236.39533c27.10921.5001 54.45879.71228 82.04726.64977l31.27719-171.27143c2.47962-13.62755 10.48108-25.3998 23.42098-25.3998h130.89756l-7.82669-40.37387c-2.60464-13.58586-10.51059-25.3998-23.4505-25.3998zm104.58219 89.28325c-12.9399 0-20.59564 11.52729-23.0961 25.13399l-43.59314 236.95649c97.39312 1.81284 196.91339-1.49829 305.68362.50208l-45.63103-237.45857c-2.60465-13.58587-10.67912-25.13399-23.59819-25.13399z" fill="#dbdbdb"/>
</svg>
