<svg viewBox="0 0 512 512" xmlns="http://www.w3.org/2000/svg">
 <path d="m456 78.24137v355.51725h-261.09195v-355.51725zm-296.49425 0v355.51725h-6.95403-63.18965-31.95402-1.40805v-355.51725h1.40805 31.95402 63.18965zm211.35057 85.43103l-45.77586 45.8046-45.77586-45.8046-45.8046 45.77587 45.8046 45.77586-45.8046 45.80459 45.8046 47.32759 46.52299-46.55172 45.02873 46.55172 46.55173-46.55172-45.77587-45.8046 45.77587-45.77586z" fill="#dbdbdb"/>
</svg>
