<?xml version="1.0" encoding="UTF-8" standalone="no"?>
<svg
   xmlns:dc="http://purl.org/dc/elements/1.1/"
   xmlns:cc="http://creativecommons.org/ns#"
   xmlns:rdf="http://www.w3.org/1999/02/22-rdf-syntax-ns#"
   xmlns:svg="http://www.w3.org/2000/svg"
   xmlns="http://www.w3.org/2000/svg"
   xmlns:sodipodi="http://sodipodi.sourceforge.net/DTD/sodipodi-0.dtd"
   xmlns:inkscape="http://www.inkscape.org/namespaces/inkscape"
   height="512"
   viewBox="0 0 512 512"
   width="512"
   version="1.1"
   id="svg2"
   inkscape:version="0.91 r13725"
   sodipodi:docname="67EF_addoninstaller.0.svg">
  <defs
     id="defs46" />
  <sodipodi:namedview
     pagecolor="#ffffff"
     bordercolor="#666666"
     borderopacity="1"
     objecttolerance="10"
     gridtolerance="10"
     guidetolerance="10"
     inkscape:pageopacity="0"
     inkscape:pageshadow="2"
     inkscape:window-width="1680"
     inkscape:window-height="1019"
     id="namedview44"
     showgrid="false"
     inkscape:zoom="1.5106506"
     inkscape:cx="144.12767"
     inkscape:cy="256"
     inkscape:window-x="1680"
     inkscape:window-y="0"
     inkscape:window-maximized="1"
     inkscape:current-layer="svg2" />
  <metadata
     id="metadata86">
    <rdf:RDF>
      <cc:Work
         rdf:about="">
        <dc:format>image/svg+xml</dc:format>
        <dc:type
           rdf:resource="http://purl.org/dc/dcmitype/StillImage" />
      </cc:Work>
    </rdf:RDF>
  </metadata>
  <text
     id="text4"
     font-size="208.33"
     line-height="125%"
     y="549.52"
     x="-164.02"
     font-family="Gentium Book Basic"
     word-spacing="0"
     letter-spacing="0"
     style="fill:#DBDBDB;fill-opacity:1;">
    <tspan
       id="tspan6"
       y="549.52"
       x="-164.02"
       style="fill:#DBDBDB;fill-opacity:1;" />
  </text>
  <text
     id="text8"
     font-size="75.7"
     transform="scale(4.0128 .2492)"
     y="1642.24"
     x="276.85"
     font-family="Arial"
     text-anchor="middle"
     style="fill:#DBDBDB;fill-opacity:1;" />
  <g
     style="fill:#DBDBDB;fill-opacity:1;fill-rule:evenodd"
     transform="matrix(1.0339579,0,0,1.0339579,-1003.8314,-15.529341)"
     id="g16">
    <path
       inkscape:connector-curvature="0"
       d="m 1291.6,87.67 c -46.563,18.646 -69.19,71.51 -50.55,118.07 18.645,46.563 71.51,69.19 118.07,50.55 46.562,-18.645 69.19,-71.51 50.55,-118.07 -18.645,-46.563 -71.51,-69.19 -118.07,-50.55 m 14.818,37 c 26.11,-10.457 55.745,2.266 66.2,28.379 10.457,26.11 -2.222,55.727 -28.335,66.18 -26.11,10.457 -55.772,-2.204 -66.23,-28.317 -10.457,-26.11 2.249,-55.79 28.362,-66.25"
       id="path18"
       style="fill:#DBDBDB;fill-opacity:1" />
    <path
       inkscape:connector-curvature="0"
       d="m 1210.1,309.31 c -33.43,13.387 -49.687,51.36 -36.3,84.79 13.387,33.43 51.34,49.642 84.77,36.26 33.429,-13.386 49.705,-51.32 36.32,-84.75 -13.387,-33.43 -51.36,-49.687 -84.79,-36.3 m 5.302,13.242 c 26.11,-10.457 55.789,2.249 66.25,28.362 10.457,26.11 -2.266,55.745 -28.379,66.2 -26.11,10.457 -55.727,-2.222 -66.18,-28.335 -10.457,-26.11 2.204,-55.772 28.317,-66.23"
       id="path20"
       style="fill:#DBDBDB;fill-opacity:1" />
    <path
       inkscape:connector-curvature="0"
       d="m 1212.3,309.63 30.06,-110.47 112.61,57.877 -58.47,94.52 -12.31,-6.13 c -13.265,-17.429 -30.16,-30.425 -58.672,-29.22 z"
       id="path22"
       style="fill:#DBDBDB;fill-opacity:1" />
    <path
       inkscape:connector-curvature="0"
       d="m 1014.1,331.66 c 8.937,28.18 22.733,54.19 40.41,77.06 l 172.56,1 c 21.285,0.122 38.534,-16.903 38.656,-38.19 0.122,-21.285 -16.934,-38.534 -38.22,-38.656 l -213.41,-1.219"
       id="path24"
       style="fill:#DBDBDB;fill-opacity:1" />
  </g>
  <text
     id="text36"
     font-size="129.23"
     line-height="125%"
     y="231.36"
     x="729.64"
     font-family="Gentium Book Basic"
     word-spacing="0"
     letter-spacing="0"
     style="fill:#DBDBDB;fill-opacity:1;">
    <tspan
       id="tspan38"
       y="231.36"
       x="729.64"
       style="fill:#DBDBDB;fill-opacity:1;" />
  </text>
  <text
     id="text40"
     font-size="46.954"
     transform="scale(4.0128 .2492)"
     y="579.25"
     x="378.91"
     font-family="Arial"
     text-anchor="middle"
     style="fill:#DBDBDB;fill-opacity:1;" />
  <text
     id="text42"
     font-size="129.23"
     line-height="125%"
     y="151.36"
     x="1310.91"
     font-family="Gentium Book Basic"
     word-spacing="0"
     letter-spacing="0"
     style="fill:#DBDBDB;fill-opacity:1;">
    <tspan
       id="tspan44"
       y="151.36"
       x="1310.91"
       style="fill:#DBDBDB;fill-opacity:1;" />
  </text>
  <text
     id="text46"
     font-size="46.954"
     transform="scale(4.0128 .2492)"
     y="258.22"
     x="523.76"
     font-family="Arial"
     text-anchor="middle"
     style="fill:#DBDBDB;fill-opacity:1;" />
  <text
     id="text48"
     font-size="129.23"
     line-height="125%"
     y="-29.901"
     x="239.33"
     font-family="Gentium Book Basic"
     word-spacing="0"
     letter-spacing="0"
     style="fill:#DBDBDB;fill-opacity:1;">
    <tspan
       id="tspan50"
       y="-29.901"
       x="239.33"
       style="fill:#DBDBDB;fill-opacity:1;" />
  </text>
  <text
     id="text52"
     font-size="46.954"
     transform="scale(4.0128 .2492)"
     y="-469.14"
     x="256.72"
     font-family="Arial"
     text-anchor="middle"
     style="fill:#DBDBDB;fill-opacity:1;" />
  <text
     id="text54"
     font-size="129.23"
     line-height="125%"
     y="-246.37"
     x="1337.38"
     font-family="Gentium Book Basic"
     word-spacing="0"
     letter-spacing="0"
     style="fill:#DBDBDB;fill-opacity:1;">
    <tspan
       id="tspan56"
       y="-246.37"
       x="1337.38"
       style="fill:#DBDBDB;fill-opacity:1;" />
  </text>
  <text
     id="text58"
     font-size="46.954"
     transform="scale(4.0128 .2492)"
     y="-1337.81"
     x="530.36"
     font-family="Arial"
     text-anchor="middle"
     style="fill:#DBDBDB;fill-opacity:1;" />
  <text
     id="text60"
     font-size="129.23"
     line-height="125%"
     y="-326.38"
     x="1918.65"
     font-family="Gentium Book Basic"
     word-spacing="0"
     letter-spacing="0"
     style="fill:#DBDBDB;fill-opacity:1;">
    <tspan
       id="tspan62"
       y="-326.38"
       x="1918.65"
       style="fill:#DBDBDB;fill-opacity:1;" />
  </text>
  <text
     id="text64"
     font-size="46.954"
     transform="scale(4.0128 .2492)"
     y="-1658.85"
     x="675.21"
     font-family="Arial"
     text-anchor="middle"
     style="fill:#DBDBDB;fill-opacity:1;" />
  <text
     id="text66"
     font-size="129.23"
     line-height="125%"
     y="-798.78"
     x="1529.53"
     font-family="Gentium Book Basic"
     word-spacing="0"
     letter-spacing="0"
     style="fill:#DBDBDB;fill-opacity:1;">
    <tspan
       id="tspan68"
       y="-798.78"
       x="1529.53"
       style="fill:#DBDBDB;fill-opacity:1;" />
  </text>
  <text
     id="text70"
     font-size="46.954"
     transform="scale(4.0128 .2492)"
     y="-3554.51"
     x="578.24"
     font-family="Arial"
     text-anchor="middle"
     style="fill:#DBDBDB;fill-opacity:1;" />
  <text
     id="text72"
     font-size="129.23"
     line-height="125%"
     y="-878.78"
     x="2110.79"
     font-family="Gentium Book Basic"
     word-spacing="0"
     letter-spacing="0"
     style="fill:#DBDBDB;fill-opacity:1;">
    <tspan
       id="tspan74"
       y="-878.78"
       x="2110.79"
       style="fill:#DBDBDB;fill-opacity:1;" />
  </text>
  <text
     id="text76"
     font-size="46.954"
     transform="scale(4.0128 .2492)"
     y="-3875.54"
     x="723.09"
     font-family="Arial"
     text-anchor="middle"
     style="fill:#DBDBDB;fill-opacity:1;" />
  <text
     id="text78"
     font-size="208.33"
     line-height="125%"
     y="535.94"
     x="277.99"
     font-family="Gentium Book Basic"
     word-spacing="0"
     letter-spacing="0"
     style="fill:#DBDBDB;fill-opacity:1;">
    <tspan
       id="tspan80"
       y="535.94"
       x="277.99"
       style="fill:#DBDBDB;fill-opacity:1;" />
  </text>
</svg>
