<?xml version="1.0" encoding="UTF-8" standalone="no"?>
<svg
   xmlns:dc="http://purl.org/dc/elements/1.1/"
   xmlns:cc="http://creativecommons.org/ns#"
   xmlns:rdf="http://www.w3.org/1999/02/22-rdf-syntax-ns#"
   xmlns:svg="http://www.w3.org/2000/svg"
   xmlns="http://www.w3.org/2000/svg"
   xmlns:sodipodi="http://sodipodi.sourceforge.net/DTD/sodipodi-0.dtd"
   xmlns:inkscape="http://www.inkscape.org/namespaces/inkscape"
   height="512"
   viewBox="0 0 512 512"
   width="512"
   version="1.1"
   id="svg2"
   inkscape:version="0.91 r"
   sodipodi:docname="aptik.svg">
  <defs
     id="defs14" />
  <sodipodi:namedview
     pagecolor="#ffffff"
     bordercolor="#666666"
     borderopacity="1"
     objecttolerance="10"
     gridtolerance="10"
     guidetolerance="10"
     inkscape:pageopacity="0"
     inkscape:pageshadow="2"
     inkscape:window-width="1920"
     inkscape:window-height="1028"
     id="namedview12"
     showgrid="false"
     inkscape:zoom="0.4609375"
     inkscape:cx="256"
     inkscape:cy="256"
     inkscape:window-x="0"
     inkscape:window-y="0"
     inkscape:window-maximized="1"
     inkscape:current-layer="svg2" />
  <metadata
     id="metadata70">
    <rdf:RDF>
      <cc:Work
         rdf:about="">
        <dc:format>image/svg+xml</dc:format>
        <dc:type
           rdf:resource="http://purl.org/dc/dcmitype/StillImage" />
      </cc:Work>
    </rdf:RDF>
  </metadata>
  <path
     id="path3391"
     fill="#DBDBDB"
     d="m397.03 136.75c-4.7696 0.0137-14.875 3.6127-22.623 8.0559-7.7022 4.4168-23.662 17.751-35.466 29.632s-27.94 30.522-35.856 41.424l-14.393 19.822-16.887-7.6556c-9.288-4.2114-25.759-9.9267-36.6-12.7-10.842-2.7729-27.504-5.0364-37.026-5.0285-9.5221 0.008-21.856 1.2796-27.411 2.8221-5.5549 1.5424-14.279 6.6341-19.385 11.314-7.6795 7.0377-9.5033 10.784-10.55 21.674-0.96224 10.015 0.0553 15.758 4.2537 23.988 3.0359 5.9508 9.3756 13.7 14.085 17.225 4.7094 3.5254 12.237 8.273 16.733 10.544 4.4958 2.2716 16.318 6.0609 26.271 8.4253 9.9535 2.3644 19.754 4.8146 21.777 5.4442 2.7932 0.86946 2.1615 2.7994-2.6271 8.02-3.4675 3.7803-13.344 11.468-21.946 17.087s-22.106 12.096-30.007 14.393c-11.925 3.4667-16.7 3.6545-28.124 1.0981-7.5687-1.6938-16.823-5.9159-20.566-9.3848-3.7925-3.5148-6.809-9.1871-6.809-12.812 0-3.5781 1.86-8.3662 4.1306-10.637 2.7094-2.7094 8.8045-4.1068 17.733-4.069 7.6939 0.0326 18.436 2.2497 24.727 5.1055 10.095 4.5827 11.507 4.6713 15.239 0.939 2.2621-2.2621 3.7422-6.0414 3.289-8.3945-0.46573-2.4182-7.6643-7.048-16.553-10.652-11.397-4.6212-20.79-6.3899-34.117-6.4191-12.195-0.0267-21.189 1.4425-26.697 4.3563-4.5684 2.4168-10.886 7.6658-14.044 11.668-4.5305 5.7414-5.4779 9.6675-4.4795 18.606 0.77633 6.9501 3.6682 13.906 7.4812 17.995 3.4184 3.6654 12.125 9.7273 19.35 13.469 10.715 5.5498 17.735 7.0033 38.094 7.8866 20.586 0.89313 27.949 0.0862 42.034-4.6129 9.392-3.1333 24.761-10.238 34.153-15.783 9.392-5.5452 23.944-16.103 32.336-23.465 14.5-12.719 16.002-13.385 30.212-13.423 8.2243-0.0221 16.549-1.0538 18.498-2.2885 1.9483-1.2347 3.1169-4.4669 2.6015-7.1836-0.68209-3.5952-3.6105-5.1585-10.765-5.752-5.4064-0.44845-9.8313-1.3004-9.8313-1.8934s3.7765-6.4373 8.3894-12.982c4.613-6.5444 9.0463-11.866 9.8518-11.827 0.80556 0.0389 5.4281 3.36 10.272 7.3786 8.7084 7.2238 8.8115 7.571 9.2617 30.797 0.35806 18.47 1.6808 25.811 6.1882 34.338 3.153 5.965 11.321 15.766 18.149 21.777 6.8282 6.0105 14.239 10.573 16.466 10.144 2.2267-0.42883 5.5369-3.7226 7.3581-7.3221s3.3296-11.321 3.3506-17.159c0.021-5.8374-1.7664-17.538-3.9715-26.005-2.2052-8.4661-7.0511-20.834-10.77-27.482l-6.7629-12.084 20.129-51.229c11.072-28.176 23.221-59.585 27-69.794 3.7793-10.209 6.1064-20.553 5.1721-22.987-1.1182-2.9143-4.6429-4.4183-10.319-4.4025zm-36.39 48.053c0.0783-0.0454 0.12085-0.0326 0.12315 0.0411 0.0353 1.1787-1.3252 4.7253-3.0223 7.8814-1.6972 3.1561-8.1131 20.489-14.254 38.514-6.1413 18.025-12.138 33.058-13.331 33.404-1.1924 0.34621-4.8305-1.5909-8.0815-4.2999-3.2511-2.709-5.9071-5.919-5.906-7.1323 0-1.2133 10.019-17.57 22.264-36.354 11.48-17.61 21.03-31.374 22.208-32.054zm-154.82 45.436c9.392 0.0633 23.579 2.2664 31.526 4.8951 7.9471 2.6287 20.065 7.59 26.928 11.027 6.8634 3.4369 12.479 6.9154 12.479 7.7326 0 0.81729-7.2411 10.849-16.091 22.29-13.025 16.837-17.405 20.77-22.988 20.648-3.793-0.0834-14.581-2.158-23.973-4.6129s-22.797-7.8229-29.791-11.925c-8.627-5.059-13.968-10.444-16.599-16.743-3.0836-7.38-3.2532-10.793-0.83125-16.64 1.7197-4.1516 7.2302-9.4123 12.653-12.074 6.362-3.122 15.381-4.6737 26.687-4.5975zm143.85 83.576c0.16078-0.003 0.32748 0.0437 0.49772 0.1488 1.3614 0.84142 3.2827 6.9126 4.2691 13.49 1.0392 6.9298 0.70264 13.049-0.80048 14.552-1.707 1.707-3.1669-0.26671-4.2691-5.7777-0.92113-4.6057-1.678-11.847-1.678-16.086 0-3.7095 0.85541-6.3003 1.9807-6.3267z" />
</svg>
