<?xml version="1.0" encoding="UTF-8" standalone="no"?>
<svg
   xmlns:dc="http://purl.org/dc/elements/1.1/"
   xmlns:cc="http://creativecommons.org/ns#"
   xmlns:rdf="http://www.w3.org/1999/02/22-rdf-syntax-ns#"
   xmlns:svg="http://www.w3.org/2000/svg"
   xmlns="http://www.w3.org/2000/svg"
   xmlns:sodipodi="http://sodipodi.sourceforge.net/DTD/sodipodi-0.dtd"
   xmlns:inkscape="http://www.inkscape.org/namespaces/inkscape"
   height="512"
   viewBox="0 0 512 512"
   width="512"
   version="1.1"
   id="svg2"
   inkscape:version="0.91 r"
   sodipodi:docname="ardis-builder.svg">
  <sodipodi:namedview
     pagecolor="#ffffff"
     bordercolor="#666666"
     borderopacity="1"
     objecttolerance="10"
     gridtolerance="10"
     guidetolerance="10"
     inkscape:pageopacity="0"
     inkscape:pageshadow="2"
     inkscape:window-width="640"
     inkscape:window-height="480"
     id="namedview23"
     showgrid="false"
     inkscape:zoom="0.4609375"
     inkscape:cx="256"
     inkscape:cy="256"
     inkscape:window-x="0"
     inkscape:window-y="0"
     inkscape:window-maximized="0"
     inkscape:current-layer="svg2" />
  <metadata
     id="metadata70">
    <rdf:RDF>
      <cc:Work
         rdf:about="">
        <dc:format>image/svg+xml</dc:format>
        <dc:type
           rdf:resource="http://purl.org/dc/dcmitype/StillImage" />
      </cc:Work>
    </rdf:RDF>
  </metadata>
  <defs
     id="defs68">
    <linearGradient
       id="linearGradient5808"
       y2="573.44"
       gradientUnits="userSpaceOnUse"
       y1="794.92"
       x2="0">
      <stop
         id="stop5788"
         stop-color="#fff" />
      <stop
         id="stop5790"
         offset="1" />
    </linearGradient>
    <linearGradient
       id="linearGradient5806"
       y2="1010.5"
       gradientUnits="userSpaceOnUse"
       y1="794.04"
       x2="0">
      <stop
         id="stop5796" />
      <stop
         id="stop5798"
         stop-color="#fff"
         offset="1" />
    </linearGradient>
  </defs>
  <path
     id="path4130"
     fill="#DBDBDB"
     d="m176.73 139.06-82.219 233.88h53.219l16.875-55.438h84.938l16.875 55.438h53.219l-82.531-233.88h-60.375zm79.656 0.46875c15.446 43.817 30.916 87.625 46.375 131.44h22c27.615 0.0001 41.437 9.6697 41.438 29-0.00015 10.727-3.24 18.702-9.7188 23.906-6.479 5.2044-16.53 7.8125-30.125 7.8125h-2.1875c4.7794 13.542 9.564 27.083 14.344 40.625 23.238-0.92629 41.882-6.8044 55.875-17.688 15.4-11.896 23.094-28.477 23.094-49.719-0.0002-14.976-3.2901-26.972-9.875-36-6.479-9.0278-17.081-15.176-31.844-18.469v-1.5938c10.833-1.8055 19.458-7.1719 25.938-16.094 6.5849-8.9216 9.9061-20.336 9.9062-34.25-0.00018-20.498-7.4932-35.434-22.469-44.781-14.87-9.4525-38.844-14.187-71.875-14.188h-60.875zm-49.219 35.688c0.84957 3.8238 2.2131 9.0401 4.125 15.625 2.0179 6.5852 10.824 34.981 26.438 85.219h-60.688c16.569-53.636 26.62-87.249 30.125-100.84zm87 4.7812h25.969c14.126 0.00019 24.427 1.9766 30.906 5.9062 6.5849 3.8238 9.8748 10.203 9.875 19.125-0.00015 9.5591-3.0086 16.389-9.0625 20.531-5.9479 4.1424-15.618 6.2189-29 6.2188h-28.688v-51.781z" />
</svg>
