<svg xmlns="http://www.w3.org/2000/svg" width="48" height="48">
<defs>
  <path
     d="m 13.200195,1.6027398 a 1.6782941,1.6782941 0 0 0 -0.98505,0.5198878 L 7.1804414,7.1573305 a 1.6782941,1.6782941 0 1 0 2.3805389,2.3531763 l 2.1890017,-2.1890012 0,16.8826724 a 1.6782941,1.6782941 0 0 0 0,0.136812 1.6782941,1.6782941 0 0 0 0.10945,0.656701 c 0.365213,3.7607 3.628821,6.813266 7.442604,6.813266 4.042184,0 7.524692,-3.400796 7.524692,-7.469967 0,-2.034587 -0.938162,-3.870892 -2.298451,-5.253603 -1.360289,-1.382711 -3.17816,-2.353176 -5.226241,-2.353176 -1.591202,0 -2.999473,0.677492 -4.213827,1.587026 l 0,-15.0493838 a 1.6782941,1.6782941 0 0 0 -1.696476,-1.6691134 1.6782941,1.6782941 0 0 0 -0.191538,0 z m 6.074479,10.0967682 c -0.330923,-0.0011 -0.680134,8.85e-4 -1.012413,0.02736 a 1.6780478,1.6780478 0 0 0 -0.136813,0 1.6952622,1.6952622 0 1 0 0.410438,3.36559 c 3.698422,-0.294707 7.642906,2.033498 9.166443,5.417778 l 0.10945,0.164175 c 1.46209,3.481405 0.387081,8.083959 -2.462627,10.561931 -2.849707,2.477973 -7.536206,2.916447 -10.780831,0.985051 -3.244625,-1.931394 -5.1157297,-6.273755 -4.295915,-9.959956 A 1.6780478,1.6780478 0 1 0 7.0162664,21.550014 c -1.1578451,5.206124 1.2455359,10.816559 5.8282156,13.544445 l 0.10945,0.05472 c 4.566985,2.6394 10.598461,2.070343 14.584221,-1.395488 4.024422,-3.499451 5.430632,-9.448219 3.36559,-14.365321 -1.935981,-4.60978 -6.665246,-7.671871 -11.629069,-7.688862 z m 0.02736,8.37293 c 0.943018,0 2.017046,0.498447 2.845702,1.340763 0.828655,0.842316 1.313401,1.971275 1.313401,2.927789 0,1.913022 -2.219091,4.104378 -4.159103,4.104378 -1.940013,0 -4.213827,-2.191356 -4.213827,-4.104378 0,-0.956514 0.512136,-2.085598 1.340763,-2.927789 0.828626,-0.842191 1.929954,-1.340763 2.873064,-1.340763 z"
     id="path-main" />
</defs>

<use id="1" style="fill:#DBDBDB" xlink:href="#path-main" />



</svg>
