<svg xmlns="http://www.w3.org/2000/svg" width="48" height="48">
<defs>
<defs
     id="defs3">
  </defs>
  <path
     id="path-main"
     d="M 24,2 C 11.836726,2 2,11.829904 2,24 2,36.170096 11.836726,46 24,46 36.163275,45.999999 46,36.170097 46,24 46.000001,11.829904 36.163274,2 24,2 z m 0,2.7464239 c 4.187192,0 8.052317,1.3090304 11.2,3.5474641 7.114464,14.700107 -18.777004,12.040628 -8.542857,-3.1755525 -5.475989,4.0052725 -8.754718,5.9515815 -7.828572,10.1560465 6.32112,1.294415 14.195773,3.19664 13.342858,8.582575 -0.243508,1.537679 -1.657408,4.490259 -5.142858,7.895969 C 18.601167,33.998672 12.93745,26.436654 18.8,15.331599 c -2.210781,1.752168 -5.663253,3.697374 -6.6,6.46554 -0.06598,0.05095 -0.135419,0.09156 -0.2,0.143043 0.09534,0.642444 0.327911,3.022133 0.742857,3.518856 2.60933,2.983406 6.321864,8.246066 1.085714,8.6684 -2.115016,-1.50445 -3.581179,-3.917276 -3.457142,-5.664499 0.08456,-1.191212 0.822922,-4.790245 1.571428,-6.436931 C 9.7859769,23.767622 8.4097115,25.788665 7.7714286,27.919376 7.5299811,26.258297 7.56171,24.581816 7.6857143,23.342003 6.2928023,25.254338 5.5857454,27.165516 5.4,29.006502 4.9769398,27.411588 4.7428571,25.734846 4.7428571,24 4.7428571,13.303544 13.305797,4.7464239 24,4.7464239 z M 11.942857,22.026008 c 0.02576,-0.02081 0.03115,-0.06511 0.05714,-0.08583 -0.0023,-0.01511 0.0021,-0.07272 0,-0.08583 -0.02343,0.04752 -0.03374,0.120154 -0.05714,0.171652 z m 28.2,-8.525358 c 1.898655,2.926957 3.049822,6.396379 3.114286,10.156047 -0.21577,-1.036744 -0.535683,-2.09243 -0.971429,-3.146944 0.128297,1.282728 0.687917,2.647585 0.971429,3.976593 -0.02737,1.126794 -0.161478,2.221099 -0.371429,3.289987 -0.31146,0.476202 -0.783877,0.932714 -1.457143,1.344603 -1.794336,-1.858044 -3.494342,-5.492666 -2.685714,-6.837451 -3.773127,3.982826 3.302895,8.435444 -2.2,9.326398 -0.654212,1e-6 -2.198347,-0.218419 -2.542857,-4.262679 -0.344512,-4.044261 1.214179,-7.427069 5.142857,-11.157347 0.740457,-0.886386 1.029053,-1.801872 1,-2.689207 z M 24,17.677503 c -3.464505,0 -6.314285,2.85457 -6.314286,6.322497 0,3.467928 2.849781,6.322498 6.314286,6.322497 3.464506,0 6.314287,-2.85457 6.314286,-6.322497 0,-3.467926 -2.84978,-6.322496 -6.314286,-6.322497 z m 0,2.746424 c 1.955311,0 3.571429,1.622034 3.571429,3.576073 0,1.954039 -1.61612,3.576073 -3.571429,3.576073 -1.955307,0 -3.571429,-1.622034 -3.571429,-3.576073 0,-1.954039 1.616121,-3.576073 3.571429,-3.576073 z" />
</defs>

<use id="1" style="fill:#DBDBDB" xlink:href="#path-main" />



</svg>
