<?xml version="1.0" encoding="UTF-8" standalone="no"?>
<svg
   xmlns:dc="http://purl.org/dc/elements/1.1/"
   xmlns:cc="http://creativecommons.org/ns#"
   xmlns:rdf="http://www.w3.org/1999/02/22-rdf-syntax-ns#"
   xmlns:svg="http://www.w3.org/2000/svg"
   xmlns="http://www.w3.org/2000/svg"
   xmlns:sodipodi="http://sodipodi.sourceforge.net/DTD/sodipodi-0.dtd"
   xmlns:inkscape="http://www.inkscape.org/namespaces/inkscape"
   sodipodi:docname="accessories-camera.svg"
   inkscape:version="0.91 r13725"
   id="svg2"
   version="1.1"
   width="512"
   viewBox="0 0 512 512"
   height="512">
  <defs
     id="defs17" />
  <sodipodi:namedview
     inkscape:current-layer="svg2"
     inkscape:window-maximized="1"
     inkscape:window-y="0"
     inkscape:window-x="1920"
     inkscape:cy="206.22998"
     inkscape:cx="149.97042"
     inkscape:zoom="1.5070222"
     showgrid="false"
     id="namedview15"
     inkscape:window-height="1021"
     inkscape:window-width="1680"
     inkscape:pageshadow="2"
     inkscape:pageopacity="0"
     guidetolerance="10"
     gridtolerance="10"
     objecttolerance="10"
     borderopacity="1"
     bordercolor="#666666"
     pagecolor="#ffffff" />
  <metadata
     id="metadata28">
    <rdf:RDF>
      <cc:Work
         rdf:about="">
        <dc:format>image/svg+xml</dc:format>
        <dc:type
           rdf:resource="http://purl.org/dc/dcmitype/StillImage" />
        <dc:title></dc:title>
      </cc:Work>
    </rdf:RDF>
  </metadata>
  <g
     id="g4762"
     transform="matrix(1.5370907,0,0,1.5370907,-135.16564,-69.694923)">
    <circle
       cx="254.13126"
       cy="208.47159"
       r="33.962856"
       id="circle8"
       style="fill:#DBDBDB;fill-opacity:1" />
    <path
       d="m 254.13126,90.533453 c -65.27091,0 -118.47447,49.230277 -121.02649,116.271057 l 72.41745,0 c 2.44922,-26.81631 23.31232,-43.99216 48.60904,-43.99216 25.29225,0 46.15981,17.17585 48.60456,43.99216 l 72.42639,0 C 372.61019,139.76373 319.39769,90.533453 254.13126,90.533453 Z m -0.004,42.222287 c -6.56553,0 -11.88857,-5.32751 -11.88857,-11.89751 0,-6.56999 5.32304,-11.8975 11.88857,-11.8975 6.57893,0 11.90197,5.32751 11.90197,11.8975 0,6.57 -5.32751,11.89751 -11.90197,11.89751 z"
       id="path10"
       inkscape:connector-curvature="0"
       style="fill:#DBDBDB;fill-opacity:1" />
    <path
       d="m 254.13126,257.32644 c -25.29672,0 -46.15982,-19.33009 -48.60904,-43.99216 l -72.41745,0 c 0.38464,9.72597 1.91559,19.15723 4.46152,28.16232 14.37599,50.84867 61.11417,88.10874 116.56497,88.10874 65.26643,0 118.47893,-51.62587 121.03095,-116.27106 l -72.43086,0 c -2.44475,24.66207 -23.30784,43.99216 -48.60009,43.99216 z"
       id="path12-6"
       inkscape:connector-curvature="0"
       style="fill:#DBDBDB;fill-opacity:1"
       sodipodi:nodetypes="sccssccs" />
  </g>
</svg>
