<?xml version="1.0" encoding="UTF-8" standalone="no"?>
<svg
   xmlns:dc="http://purl.org/dc/elements/1.1/"
   xmlns:cc="http://creativecommons.org/ns#"
   xmlns:rdf="http://www.w3.org/1999/02/22-rdf-syntax-ns#"
   xmlns:svg="http://www.w3.org/2000/svg"
   xmlns="http://www.w3.org/2000/svg"
   xmlns:sodipodi="http://sodipodi.sourceforge.net/DTD/sodipodi-0.dtd"
   xmlns:inkscape="http://www.inkscape.org/namespaces/inkscape"
   height="512"
   viewBox="0 0 512 512"
   width="512"
   version="1.1"
   id="svg2"
   inkscape:version="0.91 r13725"
   sodipodi:docname="chrome-jmlelgnlpdinbjemiclfmgcpbpdjlhff-Default.svg">
  <defs
     id="defs17" />
  <sodipodi:namedview
     pagecolor="#ffffff"
     bordercolor="#666666"
     borderopacity="1"
     objecttolerance="10"
     gridtolerance="10"
     guidetolerance="10"
     inkscape:pageopacity="0"
     inkscape:pageshadow="2"
     inkscape:window-width="1920"
     inkscape:window-height="1027"
     id="namedview15"
     showgrid="false"
     inkscape:zoom="0.9099002"
     inkscape:cx="-232.1786"
     inkscape:cy="193.28564"
     inkscape:window-x="0"
     inkscape:window-y="0"
     inkscape:window-maximized="1"
     inkscape:current-layer="svg2" />
  <metadata
     id="metadata28">
    <rdf:RDF>
      <cc:Work
         rdf:about="">
        <dc:format>image/svg+xml</dc:format>
        <dc:type
           rdf:resource="http://purl.org/dc/dcmitype/StillImage" />
        <dc:title></dc:title>
      </cc:Work>
    </rdf:RDF>
  </metadata>
  <g
     style="fill-opacity:0.12900002;fill-rule:evenodd"
     id="g10" />
  <path
     inkscape:connector-curvature="0"
     d="M 256,81.159828 A 174.84018,174.84018 0 0 0 81.159817,256 174.84018,174.84018 0 0 0 256,430.84018 l 0,-53.79699 A 121.0432,121.0432 0 0 1 134.9568,256 121.0432,121.0432 0 0 1 256,134.95682 121.0432,121.0432 0 0 1 377.0432,256 l 53.79698,0 A 174.84018,174.84018 0 0 0 256,81.159828 m 0,80.695472 A 94.144707,94.144707 0 0 0 161.85531,256 94.144707,94.144707 0 0 0 256,350.14469 l 0,-40.3477 A 53.796976,53.796976 0 0 1 202.20301,256 53.796976,53.796976 0 0 1 256,202.20301 53.796976,53.796976 0 0 1 309.79699,256 l 40.3477,0 A 94.144707,94.144707 0 0 0 256,161.8553 Z"
     style="opacity:1;fill:#DBDBDB;fill-opacity:1;stroke:none"
     id="path22" />
</svg>
