<?xml version="1.0" encoding="UTF-8" standalone="no"?>
<svg xmlns:dc="http://purl.org/dc/elements/1.1/" xmlns:cc="http://creativecommons.org/ns#" xmlns:rdf="http://www.w3.org/1999/02/22-rdf-syntax-ns#" xmlns:svg="http://www.w3.org/2000/svg" xmlns="http://www.w3.org/2000/svg" xmlns:sodipodi="http://sodipodi.sourceforge.net/DTD/sodipodi-0.dtd" xmlns:inkscape="http://www.inkscape.org/namespaces/inkscape" height="512" viewBox="0 0 512 512" width="512" version="1.1" id="svg2" inkscape:version="0.91 r" sodipodi:docname="feedly.svg">
<defs id="defs18" />
<sodipodi:namedview pagecolor="#ffffff" bordercolor="#666666" borderopacity="1" objecttolerance="10" gridtolerance="10" guidetolerance="10" inkscape:pageopacity="0" inkscape:pageshadow="2" inkscape:window-width="640" inkscape:window-height="480" id="namedview16" showgrid="false" inkscape:zoom="0.4609375" inkscape:cx="218.0339" inkscape:cy="256" inkscape:window-x="0" inkscape:window-y="0" inkscape:window-maximized="0" inkscape:current-layer="svg2" />
<metadata id="metadata78">
<rdf:RDF>
<cc:Work rdf:about="">
<dc:format>image/svg+xml</dc:format>
<dc:type rdf:resource="http://purl.org/dc/dcmitype/StillImage" />
</cc:Work>
</rdf:RDF>
</metadata>
<g id="g66" transform="matrix(15.880192,0,0,15.676451,-183.72645,-80.312055)" style="fill:#DBDBDB">
<path id="path68" d="m 17.333,21.13 c -0.578,0.586 -0.578,1.529 0,2.115 l 1.066,1.079 3.436,0 12.549,-12.711 c 0.578,-0.586 0.578,-1.529 0,-2.115 L 32.644,7.736 C 32.066,7.15 31.135,7.15 30.556,7.736 L 17.333,21.13" inkscape:connector-curvature="0" />
<path id="path70" d="m 22.9,26.773 c -0.578,0.586 -0.578,1.529 0,2.115 l 1.066,1.079 3.436,0 7.677,-7.777 c 0.578,-0.586 0.578,-1.529 0,-2.115 l -1.74,-1.762 c -0.578,-0.586 -1.509,-0.586 -2.088,0 L 22.9,26.772" inkscape:connector-curvature="0" />
<path id="path72" d="m 28.468,32.413 c -0.578,0.586 -0.578,1.529 0,2.115 l 1.066,1.079 3.436,0 1.066,-1.079 c 0.578,-0.586 0.578,-1.529 0,-2.115 l -1.74,-1.762 c -0.578,-0.586 -1.509,-0.586 -2.088,0 l -1.74,1.762" inkscape:connector-curvature="0" />
</g>
</svg>
