<?xml version="1.0" encoding="UTF-8" standalone="no"?>
<svg
   xmlns:dc="http://purl.org/dc/elements/1.1/"
   xmlns:cc="http://creativecommons.org/ns#"
   xmlns:rdf="http://www.w3.org/1999/02/22-rdf-syntax-ns#"
   xmlns:svg="http://www.w3.org/2000/svg"
   xmlns="http://www.w3.org/2000/svg"
   xmlns:sodipodi="http://sodipodi.sourceforge.net/DTD/sodipodi-0.dtd"
   xmlns:inkscape="http://www.inkscape.org/namespaces/inkscape"
   height="512"
   viewBox="0 0 144.49778 144.49778"
   width="512"
   version="1.1"
   id="svg2"
   inkscape:version="0.91 r13725"
   sodipodi:docname="gnome-clocks.svg">
  <defs
     id="defs44" />
  <sodipodi:namedview
     pagecolor="#ffffff"
     bordercolor="#666666"
     borderopacity="1"
     objecttolerance="10"
     gridtolerance="10"
     guidetolerance="10"
     inkscape:pageopacity="0"
     inkscape:pageshadow="2"
     inkscape:window-width="1920"
     inkscape:window-height="1012"
     id="namedview42"
     showgrid="false"
     inkscape:zoom="1.2495323"
     inkscape:cx="245.27544"
     inkscape:cy="315.41175"
     inkscape:window-x="0"
     inkscape:window-y="13"
     inkscape:window-maximized="1"
     inkscape:current-layer="svg2" />
  <metadata
     id="metadata82">
    <rdf:RDF>
      <cc:Work
         rdf:about="">
        <dc:format>image/svg+xml</dc:format>
        <dc:type
           rdf:resource="http://purl.org/dc/dcmitype/StillImage" />
        <dc:title></dc:title>
      </cc:Work>
    </rdf:RDF>
  </metadata>
  <rect
     style="fill:#DBDBDB"
     x="-98.238449"
     y="-9.1193018"
     width="53.182697"
     height="6.4645004"
     transform="matrix(-0.74940374,-0.66211331,0.66211331,-0.74940374,0,0)"
     rx="3.2322502"
     id="rect70" />
  <rect
     style="fill:#DBDBDB"
     x="-2.3058918"
     y="95.403557"
     width="64.837364"
     height="7.065856"
     transform="matrix(0.70710678,-0.70710678,0.70710678,0.70710678,0,0)"
     rx="3.5323279"
     id="rect72" />
  <rect
     id="rect74"
     rx="1.6911415"
     transform="matrix(0.47720198,-0.87879365,0.85224045,0.52315028,0,0)"
     height="3.3822954"
     width="55.787266"
     y="95.71479"
     x="-83.843094"
     style="fill:#DBDBDB" />
  <path
     id="path76"
     d="m 78.341735,70.742 a 7.0712572,7.0712572 0 0 1 -14.142514,0 7.0712572,7.0712572 0 1 1 14.142514,0"
     style="fill:#DBDBDB"
     inkscape:connector-curvature="0" />
</svg>
