<?xml version="1.0" encoding="UTF-8" standalone="no"?>
<svg
   xmlns:dc="http://purl.org/dc/elements/1.1/"
   xmlns:cc="http://creativecommons.org/ns#"
   xmlns:rdf="http://www.w3.org/1999/02/22-rdf-syntax-ns#"
   xmlns:svg="http://www.w3.org/2000/svg"
   xmlns="http://www.w3.org/2000/svg"
   xmlns:sodipodi="http://sodipodi.sourceforge.net/DTD/sodipodi-0.dtd"
   xmlns:inkscape="http://www.inkscape.org/namespaces/inkscape"
   height="512"
   viewBox="0 0 512 512"
   width="512"
   version="1.1"
   id="svg2"
   inkscape:version="0.91 r13725"
   sodipodi:docname="distributor-logo-nixos.svg">
  <defs
     id="defs23" />
  <sodipodi:namedview
     pagecolor="#ffffff"
     bordercolor="#666666"
     borderopacity="1"
     objecttolerance="10"
     gridtolerance="10"
     guidetolerance="10"
     inkscape:pageopacity="0"
     inkscape:pageshadow="2"
     inkscape:window-width="1920"
     inkscape:window-height="1019"
     id="namedview21"
     showgrid="false"
     inkscape:zoom="1.7797453"
     inkscape:cx="427.9949"
     inkscape:cy="179.95743"
     inkscape:window-x="0"
     inkscape:window-y="13"
     inkscape:window-maximized="1"
     inkscape:current-layer="svg2" />
  <metadata
     id="metadata86">
    <rdf:RDF>
      <cc:Work
         rdf:about="">
        <dc:format>image/svg+xml</dc:format>
        <dc:type
           rdf:resource="http://purl.org/dc/dcmitype/StillImage" />
        <dc:title></dc:title>
      </cc:Work>
    </rdf:RDF>
  </metadata>
  <path
     inkscape:connector-curvature="0"
     id="path4845"
     d="m 156.19847,416.16947 c -0.34824,-0.67941 -2.74044,-4.86703 -5.31603,-9.30584 -4.09985,-7.0658 -4.64419,-8.17308 -4.37222,-8.89407 0.17085,-0.45293 8.277,-14.5263 18.01368,-31.27413 9.73668,-16.74782 17.64109,-30.68187 17.56537,-30.96454 -0.0757,-0.28268 -5.79945,-10.36166 -12.71936,-22.39775 -6.91992,-12.03609 -12.53786,-22.13171 -12.48432,-22.43472 0.18063,-1.02219 21.15026,-37.22025 21.49597,-37.10662 0.26488,0.0871 50.9551,87.65765 90.0847,155.62709 l 4.6001,7.99052 -21.91082,-0.0847 -21.91082,-0.0847 -12.28514,-21.41167 c -6.75683,-11.77641 -12.47382,-21.41165 -12.70442,-21.41165 -0.38306,0 -24.54259,41.08258 -24.94105,42.41155 -0.16017,0.53428 -0.98946,0.57647 -11.32765,0.57647 l -11.15484,0 -0.63315,-1.23529 z m 173.3508,0.7385 c 0.11927,-0.31079 -6.67701,-12.49724 -17.63856,-31.62779 l -17.83261,-31.12216 -10.4067,-0.0472 c -5.72367,-0.0259 -17.4251,-0.13715 -26.00314,-0.24706 l -15.59646,-0.19985 -10.33832,-17.78814 c -5.68608,-9.78349 -10.34115,-17.89934 -10.3446,-18.0352 -0.003,-0.13589 42.01823,-0.24706 93.3815,-0.24706 51.36328,0 93.38776,0.0685 93.38776,0.1524 0,0.0838 -4.62144,8.33183 -10.26987,18.32895 l -10.26986,18.17655 -25.07606,-0.24193 c -22.47798,-0.21685 -25.12011,-0.18883 -25.50132,0.27052 -0.34861,0.42004 -0.34175,0.67798 0.0381,1.43052 0.25484,0.50495 5.85194,10.31431 12.438,21.79858 6.58606,11.4843 11.97136,21.04542 11.96737,21.24697 -0.003,0.20154 -2.20237,4.14642 -4.88529,8.76639 -2.68292,4.61997 -4.90306,8.69643 -4.93366,9.05879 -0.0543,0.64284 -0.3253,0.66092 -11.18293,0.74557 -9.89107,0.0772 -11.10576,0.0305 -10.93329,-0.41884 z M 117.19169,347.52649 c -1.25448,-1.98496 -20.080739,-34.03937 -20.387453,-34.71255 -0.308369,-0.67681 1.056602,-3.17903 12.225643,-22.41168 6.91501,-11.90739 12.52674,-21.88934 12.47047,-22.1821 -0.0928,-0.48271 -2.45635,-0.54927 -25.370313,-0.71455 -13.897397,-0.10022 -25.333926,-0.24846 -25.414473,-0.32939 -0.173121,-0.17397 -9.290033,-15.90555 -9.925334,-17.12655 -0.412654,-0.79309 -0.15542,-1.32581 4.771967,-9.88231 l 5.208137,-9.04401 36.307336,-0.16471 36.30733,-0.16471 12.89306,-22.30186 12.89305,-22.30187 21.01148,-0.0156 21.01149,-0.0156 -0.39104,0.74117 c -0.35311,0.66928 -90.59003,157.10486 -92.36933,160.13236 l -0.74894,1.27434 -0.49308,-0.78022 z m 179.29644,-35.54595 c 0,-0.32076 91.67782,-159.41945 93.45104,-162.17599 0.4501,-0.69966 0.94192,-1.14436 1.09294,-0.98823 0.15104,0.15614 5.10614,8.47679 11.01131,18.49033 l 10.73665,18.20639 -0.54975,1.06409 c -0.30236,0.58524 -5.88557,10.24916 -12.40717,21.47537 -6.5216,11.22621 -11.92669,20.67617 -12.01135,20.99989 -0.14458,0.55288 0.35326,0.59146 8.20212,0.63564 4.59579,0.0259 15.98078,0.13705 25.29991,0.24706 l 16.94394,0.20002 5.23134,9.05878 c 2.87722,4.98232 5.25827,9.14487 5.29123,9.25007 0.033,0.10523 -2.38462,4.44108 -5.37241,9.63525 l -5.43239,9.44395 -36.15095,0 -36.15099,0 -0.79557,1.23528 c -0.43756,0.67941 -6.24375,10.64818 -12.90266,22.15283 -6.6589,11.50466 -12.26946,21.02645 -12.46787,21.15957 -0.59159,0.39685 -43.01937,0.30779 -43.01937,-0.0903 z M 283.5296,162.30315 c -25.66559,-44.478 -46.66471,-80.949408 -46.66471,-81.047587 0,-0.09824 4.18762,-0.212253 9.30583,-0.253494 l 9.30585,-0.07493 -9.88231,-0.179472 -9.8823,-0.179484 10.73441,-0.07493 c 5.90392,-0.04125 15.67559,-0.173564 21.71483,-0.294071 9.68769,-0.193304 10.95809,-0.160885 10.79068,0.275344 -0.29169,0.760154 24.52816,43.894824 25.32698,44.016044 0.51973,0.0788 2.88937,-3.7914 13.26378,-21.66323 l 12.631,-21.759243 10.5511,0.08682 10.5511,0.08682 5.07125,8.72937 c 2.78919,4.801159 5.14438,8.892109 5.23375,9.091007 0.0894,0.198898 -7.92349,14.268542 -17.80636,31.265882 -9.88287,16.99733 -17.96885,31.20126 -17.96885,31.56427 0,0.36301 5.53738,10.30736 12.30528,22.09856 6.76792,11.79118 12.47851,21.76897 12.69022,22.17286 0.34618,0.66041 -0.64741,2.53394 -9.87028,18.61168 -5.64037,9.83253 -10.36352,17.99422 -10.49586,18.13709 -0.13238,0.14288 -21.2398,-36.13131 -46.90539,-80.6093 z M 99.376137,180.29418 c -0.181349,-0.29345 20.420513,-36.96562 21.004833,-37.38944 0.20176,-0.14637 11.55856,-0.22048 25.23733,-0.16471 l 24.87045,0.10138 -0.0193,-0.67774 c -0.0105,-0.37277 -5.28908,-9.85977 -11.72987,-21.08224 -6.44077,-11.22249 -11.94424,-20.8604 -12.22992,-21.417606 l -0.51941,-1.013112 5.33164,-9.273753 5.33168,-9.273753 11.06588,-0.007 11.0659,-0.007 17.55968,30.717488 c 9.65782,16.89463 17.79693,30.96789 18.0869,31.27392 0.48184,0.50851 2.75143,0.57941 26.36277,0.82352 l 25.83556,0.26711 10.63283,18.28226 c 5.84806,10.05525 10.63904,18.46756 10.64662,18.69403 0.0105,0.32848 -19.03684,0.41175 -94.17807,0.41175 -51.80551,0 -94.265477,-0.11911 -94.355463,-0.2647 z M 335.11147,80.50113 c 3.03467,-0.0543 8.00054,-0.0543 11.03523,0 3.03468,0.0543 0.55176,0.09882 -5.51762,0.09882 -6.06938,0 -8.55231,-0.04452 -5.51761,-0.09882 z"
     style="fill:#DBDBDB;fill-opacity:1;stroke:none" />
</svg>
