<?xml version="1.0" encoding="UTF-8" standalone="no"?>
<svg xmlns:dc="http://purl.org/dc/elements/1.1/" xmlns:cc="http://creativecommons.org/ns#" xmlns:rdf="http://www.w3.org/1999/02/22-rdf-syntax-ns#" xmlns:svg="http://www.w3.org/2000/svg" xmlns="http://www.w3.org/2000/svg" xmlns:sodipodi="http://sodipodi.sourceforge.net/DTD/sodipodi-0.dtd" xmlns:inkscape="http://www.inkscape.org/namespaces/inkscape" height="512" viewBox="0 0 512 512" width="512" version="1.1" id="svg2" inkscape:version="0.91 r" sodipodi:docname="document-save.svg">
<defs id="defs17" />
<sodipodi:namedview pagecolor="#ffffff" bordercolor="#666666" borderopacity="1" objecttolerance="10" gridtolerance="10" guidetolerance="10" inkscape:pageopacity="0" inkscape:pageshadow="2" inkscape:window-width="1680" inkscape:window-height="994" id="namedview15" showgrid="false" inkscape:zoom="1.3037281" inkscape:cx="40.167185" inkscape:cy="244.919" inkscape:window-x="0" inkscape:window-y="0" inkscape:window-maximized="1" inkscape:current-layer="svg2" />
<metadata id="metadata28">
<rdf:RDF>
<cc:Work rdf:about="">
<dc:format>image/svg+xml</dc:format>
<dc:type rdf:resource="http://purl.org/dc/dcmitype/StillImage" />
<dc:title />
</cc:Work>
</rdf:RDF>
</metadata>
<path inkscape:connector-curvature="0" style="fill:#DBDBDB" d="m 221.51682,36.829711 c -11.72919,0 -9.7191,7.780851 -9.7191,7.780851 l 0,159.971458 -51.22869,0 c -15.00603,0 -1.17585,13.05312 -1.17585,13.05312 l 90.93053,109.8893 c 0,0 7.4319,8.73092 15.21275,0.92074 10.79672,-10.76446 88.15951,-113.47989 88.15951,-113.47989 0,0 13.72755,-13.68796 -4.47761,-13.68796 l -47.32728,0 0,-157.874875 c 0,0 0.19793,-6.57421 -8.25735,-6.57421 l -72.11984,0 M 94.692043,349.9829 c -26.373079,0 -46.909421,21.36912 -46.909421,47.73487 l 0,7.11375 c 0,26.37308 20.54074,46.94607 46.909421,46.94607 l 322.845897,0 c 26.37308,0 46.94608,-20.57006 46.94608,-46.94607 l 0,-7.11375 c 0,-26.36135 -20.57007,-47.73487 -46.94608,-47.73487 l -322.845897,0 m 299.812707,18.19784 c 17.95592,0 32.68045,14.72013 32.68045,32.68045 0,17.95592 -14.72013,32.68045 -32.68045,32.68045 -17.95592,0 -32.61741,-14.72013 -32.61741,-32.68045 0,-17.95592 14.66002,-32.68045 32.61741,-32.68045" id="path1522" />
</svg>
