<svg xmlns="http://www.w3.org/2000/svg" width="48" height="48">
<defs>
<defs
     id="defs6">
  </defs>
  <path
     d="M 23.34375,2.0625 C 21.48936,2.0628545 19.643743,2.2290491 18.0625,2.40625 17.517932,2.4672767 17.117087,2.8639376 16.90625,3.3125 16.695413,3.7610624 16.596554,4.2824266 16.5625,4.84375 16.50438,5.8017294 16.61497,6.8320184 16.65625,7.75 l -6.21875,0 c -0.4669912,0 -0.906216,0.2149285 -1.25,0.53125 -0.343784,0.3163215 -0.6146415,0.750743 -0.84375,1.25 -0.4582171,0.998514 -0.71875,2.299781 -0.71875,3.75 l 0,22.53125 c 0,1.450219 0.2605329,2.751486 0.71875,3.75 0.2291085,0.499257 0.499966,0.933678 0.84375,1.25 0.343784,0.316322 0.7830088,0.53125 1.25,0.53125 l 10.15625,0 c 1.556862,1.931069 3.176513,3.639376 4.625,4.5 L 25.5,46 25.75,45.8125 c 2.00447,-1.475325 3.361894,-2.968225 4.40625,-4.46875 l 5.75,0 c 0.466991,0 0.906216,-0.214928 1.25,-0.53125 0.343784,-0.316322 0.614641,-0.750743 0.84375,-1.25 0.458217,-0.998514 0.71875,-2.299781 0.71875,-3.75 l 0,-11 c 0.112948,-0.138756 0.236019,-0.256959 0.34375,-0.375 l -0.03125,-0.03125 c 0.781537,-0.695646 1.553903,-1.799657 2.25,-2.96875 0.70894,-1.190663 1.335375,-2.409233 1.8125,-3.15625 L 42.375,17.625 c -0.03246,0.02635 -0.06133,0.06716 -0.09375,0.09375 -1.226446,1.005895 -2.401529,2.2533 -3.5625,3.53125 l 0,-7.96875 c 0,-1.450219 -0.260533,-2.751486 -0.71875,-3.75 C 37.770891,9.031993 37.500034,8.5975715 37.15625,8.28125 36.812466,7.9649285 36.373241,7.75 35.90625,7.75 l -6.34375,0 C 29.57437,7.1332054 29.61324,6.3002136 29.59375,5.375 29.58195,4.8150162 29.57005,4.2678261 29.46875,3.8125 29.4181,3.5848369 29.330192,3.3815814 29.21875,3.1875 29.107308,2.9934186 28.955439,2.7974879 28.6875,2.71875 27.080861,2.2466158 25.199471,2.0621452 23.34375,2.0625 z m -11.625,9 2.9375,0 c -0.04813,0.109904 -0.122828,0.185742 -0.15625,0.3125 -0.109642,0.415829 -0.02547,0.936178 0.3125,1.40625 L 14.96875,13 l 0.25,0 c 5.43402,0.04659 11.247369,0.08583 16.6875,0 l 0.46875,0 0.03125,-0.46875 c 0.03819,-0.424892 -0.0269,-0.951307 -0.09375,-1.46875 l 2.3125,0 0,15.0625 c -0.616415,0.819013 -1.192228,1.651562 -1.78125,2.46875 l 0,-1.375 0,-0.5 -0.5,0 -7.9375,0 -0.5,0 0,0.5 0,4.15625 0,0.5 0.5,0 6.0625,0 c -1.266472,1.788217 -2.527847,3.527857 -3.6875,5 l -0.09375,0 C 26.517053,36.735879 26.28283,36.481755 25.96875,36.09375 25.61547,35.657319 25.189382,35.118589 24.75,34.53125 23.918842,33.420209 22.982535,32.181353 22.03125,31.25 l 0,-5.21875 0,-0.5 0,-0.5 -0.5,0 -0.5,0 -7.09375,0 -0.5,0 -0.5,0 0,0.5 0,0.5 0,7.15625 0,0.5 0,0.5 0.5,0 0.5,0 1.75,0 c 0.475401,0.814059 1.07188,1.74722 1.6875,2.6875 l -5.65625,0 0,-25.8125 z m 1.3125,3.4375 0,0.5 0,0.5 0,7.125 0,0.5 0,0.5 0.5,0 0.5,0 7.0625,0 0.5,0 0.5,0 0,-0.5 0,-0.5 0,-7.125 0,-0.5 0,-0.5 -0.5,0 -0.5,0 -7.0625,0 -0.5,0 -0.5,0 z m 2,2 5.0625,0 0,5.125 -5.0625,0 0,-5.125 z M 24,16.53125 l 0,0.5 0,4.15625 0,0.5 0.5,0 7.9375,0 0.5,0 0,-0.5 0,-4.15625 0,-0.5 -0.5,0 -7.9375,0 -0.5,0 z m -9.0625,10.5 5.09375,0 0,3.09375 c -0.943608,0.05226 -1.76238,0.377878 -2.5,0.78125 -0.823908,0.450559 -1.569508,0.940545 -2.34375,1.15625 l -0.25,0.0625 0,-5.09375 z M 34.625,31.5 l 0,5.375 -2.15625,0 C 33.149088,35.128409 33.828014,33.345649 34.625,31.5 z"
     id="path-main" />
</defs>

<use id="1" style="fill:#DBDBDB" xlink:href="#path-main" />



</svg>
