<?xml version="1.0" encoding="UTF-8" standalone="no"?>
<svg
   xmlns:dc="http://purl.org/dc/elements/1.1/"
   xmlns:cc="http://creativecommons.org/ns#"
   xmlns:rdf="http://www.w3.org/1999/02/22-rdf-syntax-ns#"
   xmlns:svg="http://www.w3.org/2000/svg"
   xmlns="http://www.w3.org/2000/svg"
   xmlns:sodipodi="http://sodipodi.sourceforge.net/DTD/sodipodi-0.dtd"
   xmlns:inkscape="http://www.inkscape.org/namespaces/inkscape"
   viewBox="0 0 512 512"
   id="svg2"
   version="1.1"
   inkscape:version="0.91 r"
   sodipodi:docname="ffmulticonverter.svg">
  <metadata
     id="metadata192">
    <rdf:RDF>
      <cc:Work
         rdf:about="">
        <dc:format>image/svg+xml</dc:format>
        <dc:type
           rdf:resource="http://purl.org/dc/dcmitype/StillImage" />
      </cc:Work>
    </rdf:RDF>
  </metadata>
  <defs
     id="defs190" />
  <sodipodi:namedview
     pagecolor="#ffffff"
     bordercolor="#666666"
     borderopacity="1"
     objecttolerance="10"
     gridtolerance="10"
     guidetolerance="10"
     inkscape:pageopacity="0"
     inkscape:pageshadow="2"
     inkscape:window-width="640"
     inkscape:window-height="480"
     id="namedview188"
     showgrid="false"
     inkscape:zoom="0.4609375"
     inkscape:cx="256"
     inkscape:cy="256"
     inkscape:window-x="0"
     inkscape:window-y="0"
     inkscape:window-maximized="0"
     inkscape:current-layer="svg2" />
  <text
     font-size="129.23"
     y="231.36"
     x="729.64"
     font-family="'Gentium Book Basic'"
     line-height="125%"
     word-spacing="0"
     letter-spacing="0"
     id="text20">
    <tspan
       y="231.36"
       x="729.64"
       id="tspan22" />
  </text>
  <text
     transform="scale(4.0128.2492)"
     font-size="46.954"
     y="579.25"
     x="378.91"
     font-family="Arial"
     text-anchor="middle"
     id="text24" />
  <text
     font-size="129.23"
     y="151.36"
     x="1310.91"
     font-family="'Gentium Book Basic'"
     line-height="125%"
     word-spacing="0"
     letter-spacing="0"
     id="text26">
    <tspan
       y="151.36"
       x="1310.91"
       id="tspan28" />
  </text>
  <text
     transform="scale(4.0128.2492)"
     font-size="46.954"
     y="258.22"
     x="523.76"
     font-family="Arial"
     text-anchor="middle"
     id="text30" />
  <text
     font-size="129.23"
     y="-29.901"
     x="239.33"
     font-family="'Gentium Book Basic'"
     line-height="125%"
     word-spacing="0"
     letter-spacing="0"
     id="text32">
    <tspan
       y="-29.901"
       x="239.33"
       id="tspan34" />
  </text>
  <text
     transform="scale(4.0128.2492)"
     font-size="46.954"
     y="-469.14"
     x="256.72"
     font-family="Arial"
     text-anchor="middle"
     id="text36" />
  <text
     font-size="129.23"
     y="-246.37"
     x="1337.38"
     font-family="'Gentium Book Basic'"
     line-height="125%"
     word-spacing="0"
     letter-spacing="0"
     id="text38">
    <tspan
       y="-246.37"
       x="1337.38"
       id="tspan40" />
  </text>
  <text
     transform="scale(4.0128.2492)"
     font-size="46.954"
     y="-1337.8"
     x="530.36"
     font-family="Arial"
     text-anchor="middle"
     id="text42" />
  <text
     font-size="129.23"
     y="-326.38"
     x="1918.65"
     font-family="'Gentium Book Basic'"
     line-height="125%"
     word-spacing="0"
     letter-spacing="0"
     id="text44">
    <tspan
       y="-326.38"
       x="1918.65"
       id="tspan46" />
  </text>
  <text
     transform="scale(4.0128.2492)"
     font-size="46.954"
     y="-1658.84"
     x="675.21"
     font-family="Arial"
     text-anchor="middle"
     id="text48" />
  <text
     font-size="129.23"
     y="-798.78"
     x="1529.53"
     font-family="'Gentium Book Basic'"
     line-height="125%"
     word-spacing="0"
     letter-spacing="0"
     id="text50">
    <tspan
       y="-798.78"
       x="1529.53"
       id="tspan52" />
  </text>
  <text
     transform="scale(4.0128.2492)"
     font-size="46.954"
     y="-3554.49"
     x="578.24"
     font-family="Arial"
     text-anchor="middle"
     id="text54" />
  <text
     font-size="129.23"
     y="-878.78"
     x="2110.79"
     font-family="'Gentium Book Basic'"
     line-height="125%"
     word-spacing="0"
     letter-spacing="0"
     id="text56">
    <tspan
       y="-878.78"
       x="2110.79"
       id="tspan58" />
  </text>
  <text
     transform="scale(4.0128.2492)"
     font-size="46.954"
     y="-3875.52"
     x="723.09"
     font-family="Arial"
     text-anchor="middle"
     id="text60" />
  <g
     font-family="'Gentium Book Basic'"
     line-height="125%"
     word-spacing="0"
     letter-spacing="0"
     id="g62">
    <text
       y="535.94"
       x="277.99"
       font-size="208.33"
       id="text64">
      <tspan
         y="535.94"
         x="277.99"
         id="tspan66" />
    </text>
    <text
       y="1377.33"
       x="-26569.5"
       font-size="4848.4"
       id="text68">
      <tspan
         y="1377.33"
         x="-26569.5"
         id="tspan70" />
    </text>
  </g>
  <text
     transform="scale(4.0128.2492)"
     font-size="1761.7"
     y="-7573.02"
     x="773.15"
     font-family="Arial"
     text-anchor="middle"
     id="text72" />
  <text
     font-size="4848.4"
     y="2289.39"
     x="-26704.25"
     font-family="'Gentium Book Basic'"
     line-height="125%"
     word-spacing="0"
     letter-spacing="0"
     id="text74">
    <tspan
       y="2289.39"
       x="-26704.25"
       id="tspan76" />
  </text>
  <text
     transform="scale(4.0128.2492)"
     font-size="1761.7"
     y="-3913.17"
     x="739.61"
     font-family="Arial"
     text-anchor="middle"
     id="text78" />
  <g
     fill="#555753"
     id="g80">
    <text
       transform="scale(1.05082.95163)"
       font-size="2976.1"
       y="-4757.27"
       x="-12267.45"
       font-family="'Gentium Book Basic'"
       line-height="125%"
       word-spacing="0"
       letter-spacing="0"
       id="text82">
      <tspan
         y="-4757.27"
         x="-12267.45"
         id="tspan84" />
    </text>
    <text
       transform="scale(4.21677.23715)"
       font-size="1081.5"
       y="-27131.37"
       x="1481.85"
       font-family="Arial"
       text-anchor="middle"
       id="text86" />
    <text
       transform="scale(1.05082.95163)"
       font-size="1593.2"
       y="-5582.29"
       x="-2864.61"
       font-family="'Gentium Book Basic'"
       line-height="125%"
       word-spacing="0"
       letter-spacing="0"
       id="text88">
      <tspan
         y="-5582.29"
         x="-2864.61"
         id="tspan90" />
    </text>
    <text
       transform="scale(4.21677.23715)"
       font-size="578.89"
       y="-26705.24"
       x="1715.95"
       font-family="Arial"
       text-anchor="middle"
       id="text92" />
    <text
       font-size="4654.6"
       y="-1736.32"
       x="-38904.05"
       font-family="'Gentium Book Basic'"
       line-height="125%"
       word-spacing="0"
       letter-spacing="0"
       id="text94">
      <tspan
         y="-1736.32"
         x="-38904.05"
         id="tspan96" />
    </text>
    <text
       transform="scale(4.0128.2492)"
       font-size="1691.2"
       y="-19543.06"
       x="-2596.26"
       font-family="Arial"
       text-anchor="middle"
       id="text98" />
  </g>
  <text
     stroke-width="23.273"
     font-size="4848.4"
     stroke="#cd1d31"
     y="-13962.89"
     x="-24720.95"
     font-family="'Gentium Book Basic'"
     line-height="125%"
     word-spacing="0"
     letter-spacing="0"
     id="text100">
    <tspan
       y="-13962.89"
       x="-24720.95"
       id="tspan102" />
  </text>
  <text
     transform="scale(4.0128.2492)"
     font-size="1761.7"
     y="-69130.72"
     x="1233.94"
     font-family="Arial"
     text-anchor="middle"
     id="text104" />
  <text
     stroke-width="23.273"
     font-size="4848.4"
     stroke="#cd1d31"
     y="-13050.83"
     x="-24855.93"
     font-family="'Gentium Book Basic'"
     line-height="125%"
     word-spacing="0"
     letter-spacing="0"
     id="text106">
    <tspan
       y="-13050.83"
       x="-24855.93"
       id="tspan108" />
  </text>
  <text
     transform="scale(4.0128.2492)"
     font-size="1761.7"
     y="-65470.63"
     x="1200.27"
     font-family="Arial"
     text-anchor="middle"
     id="text110" />
  <g
     fill="#555753"
     id="g112">
    <g
       stroke="#cd1d31"
       stroke-width="23.273"
       id="g114">
      <text
         transform="scale(1.05082.95163)"
         font-size="2976.1"
         y="-20877.06"
         x="-10508.27"
         font-family="'Gentium Book Basic'"
         line-height="125%"
         word-spacing="0"
         letter-spacing="0"
         id="text116">
        <tspan
           y="-20877.06"
           x="-10508.27"
           id="tspan118" />
      </text>
      <text
         transform="scale(4.21677.23715)"
         font-size="1081.5"
         y="-91818.3"
         x="1920.29"
         font-family="Arial"
         text-anchor="middle"
         id="text120" />
      <text
         transform="scale(1.05082.95163)"
         font-size="1593.2"
         y="-21702.08"
         x="-1105.66"
         font-family="'Gentium Book Basic'"
         line-height="125%"
         word-spacing="0"
         letter-spacing="0"
         id="text122">
        <tspan
           y="-21702.08"
           x="-1105.66"
           id="tspan124" />
      </text>
      <text
         transform="scale(4.21677.23715)"
         font-size="578.89"
         y="-91392.18"
         x="2154.18"
         font-family="Arial"
         text-anchor="middle"
         id="text126" />
      <text
         font-size="4654.6"
         y="-17076.54"
         x="-37055.5"
         font-family="'Gentium Book Basic'"
         line-height="125%"
         word-spacing="0"
         letter-spacing="0"
         id="text128">
        <tspan
           y="-17076.54"
           x="-37055.5"
           id="tspan130" />
      </text>
    </g>
    <text
       transform="scale(4.0128.2492)"
       font-size="1691.2"
       y="-81100.75"
       x="-2135.7"
       font-family="Arial"
       text-anchor="middle"
       id="text132" />
  </g>
  <text
     stroke-width="23.273"
     font-size="4654.6"
     stroke="#cd1d31"
     y="-20652.4"
     x="-7745.12"
     font-family="'Gentium Book Basic'"
     line-height="125%"
     word-spacing="0"
     letter-spacing="0"
     id="text134">
    <tspan
       y="-20652.4"
       x="-7745.12"
       id="tspan136" />
  </text>
  <text
     transform="scale(4.0128.2492)"
     font-size="1691.2"
     y="-95449.94"
     x="5168.41"
     font-family="Arial"
     text-anchor="middle"
     id="text138" />
  <text
     stroke-width="23.273"
     font-size="4654.6"
     stroke="#cd1d31"
     y="-23534.03"
     x="13191.49"
     font-family="'Gentium Book Basic'"
     line-height="125%"
     word-spacing="0"
     letter-spacing="0"
     id="text140">
    <tspan
       y="-23534.03"
       x="13191.49"
       id="tspan142" />
  </text>
  <text
     transform="scale(4.0128.2492)"
     font-size="1691.2"
     y="-107013.17"
     x="10385.9"
     font-family="Arial"
     text-anchor="middle"
     id="text144" />
  <g
     fill="#555753"
     id="g146">
    <text
       stroke-width="23.273"
       font-size="4654.6"
       stroke="#555753"
       y="-506.69"
       x="2674.54"
       font-family="'Gentium Book Basic'"
       line-height="125%"
       word-spacing="0"
       letter-spacing="0"
       id="text148">
      <tspan
         y="-506.69"
         x="2674.54"
         id="tspan150" />
    </text>
    <text
       transform="scale(4.0128.2492)"
       font-size="1691.2"
       y="-14609.03"
       x="7764.94"
       font-family="Arial"
       text-anchor="middle"
       id="text152" />
    <text
       stroke-width="23.273"
       font-size="4654.6"
       stroke="#555753"
       y="730.1"
       x="20021.57"
       font-family="'Gentium Book Basic'"
       line-height="125%"
       word-spacing="0"
       letter-spacing="0"
       id="text154">
      <tspan
         y="730.1"
         x="20021.57"
         id="tspan156" />
    </text>
    <text
       transform="scale(4.0128.2492)"
       font-size="1691.2"
       y="-9646.15"
       x="12087.82"
       font-family="Arial"
       text-anchor="middle"
       id="text158" />
    <text
       stroke-width="23.273"
       font-size="4654.6"
       stroke="#555753"
       y="-2151.51"
       x="40957.95"
       font-family="'Gentium Book Basic'"
       line-height="125%"
       word-spacing="0"
       letter-spacing="0"
       id="text160">
      <tspan
         y="-2151.51"
         x="40957.95"
         id="tspan162" />
    </text>
    <text
       transform="scale(4.0128.2492)"
       font-size="1691.2"
       y="-21209.38"
       x="17305.31"
       font-family="Arial"
       text-anchor="middle"
       id="text164" />
    <text
       stroke-width="23.273"
       font-size="4654.6"
       stroke="#555753"
       y="-3376.59"
       x="20660.64"
       font-family="'Gentium Book Basic'"
       line-height="125%"
       word-spacing="0"
       letter-spacing="0"
       id="text166">
      <tspan
         y="-3376.59"
         x="20660.64"
         id="tspan168" />
    </text>
    <text
       transform="scale(4.0128.2492)"
       font-size="1691.2"
       y="-26125.02"
       x="12247.24"
       font-family="Arial"
       text-anchor="middle"
       id="text170" />
    <text
       stroke-width="23.273"
       font-size="4654.6"
       stroke="#555753"
       y="-6257.98"
       x="41597.25"
       font-family="'Gentium Book Basic'"
       line-height="125%"
       word-spacing="0"
       letter-spacing="0"
       id="text172">
      <tspan
         y="-6257.98"
         x="41597.25"
         id="tspan174" />
    </text>
    <text
       transform="scale(4.0128.2492)"
       font-size="1691.2"
       y="-37688.25"
       x="17464.5"
       font-family="Arial"
       text-anchor="middle"
       id="text176" />
    <text
       stroke-width="23.273"
       font-size="4654.6"
       stroke="#555753"
       y="7140.13"
       x="-49389.81"
       font-family="'Gentium Book Basic'"
       line-height="125%"
       word-spacing="0"
       letter-spacing="0"
       id="text178">
      <tspan
         y="7140.13"
         x="-49389.81"
         id="tspan180" />
    </text>
    <text
       transform="scale(4.0128.2492)"
       font-size="1691.2"
       y="16075.9"
       x="-5209.31"
       font-family="Arial"
       text-anchor="middle"
       id="text182" />
  </g>
  <path
     d="m277.75 102.63c-103.8 26.889-270.52 136.49-105.25 275.75-70.14-89.52-63.45-124.2 65.63-125.31-157.53-25.369-22.978-91.35 45.41-103.41l-5.781-47.03m61.75 30.969c70.14 89.58 63.45 124.22-65.62 125.28 157.53 25.416 23.03 91.38-45.41 103.44l5.781 47.06c103.8-26.937 270.52-136.54 105.25-275.78"
     fill="#DBDBDB"
     id="path186" />
</svg>
