<svg xmlns="http://www.w3.org/2000/svg" width="48" height="48">
<defs>
  <path
     d="M 8.7214274,4.4681808 C 6.3476664,6.3444089 5.8999983,9.6106246 6.1246885,12.443879 2.8524624,15.442152 2,24.319503 2,24.319503 c 0,0 1.1769888,-3.343139 1.4246224,-3.485393 -0.1089893,5.510422 0.5597296,7.008458 1.9307114,9.811861 1.7720763,3.623568 5.5006882,8.793677 12.4973352,11.145065 5.479729,1.767118 11.685031,1.161159 16.804543,-1.430588 5.897279,-3.038641 8.95379,-7.545952 10.569834,-11.543057 2.203807,-9.058901 -0.02229,-20.6137414 -10.357299,-24.5775 5.986518,7.778784 8.189453,14.804927 4.519216,23.24866 0.473323,-3.994649 -0.865193,-9.224249 -2.363211,-14.123438 -0.959257,12.435449 -2.566628,18.035058 -7.671968,18.579623 -5.10534,0.544564 -8.653389,-1.308898 -11.049154,-3.085758 1.831063,-0.07439 3.738562,0.162765 5.504193,-0.357323 1.669939,-0.950882 3.426891,-2.210809 5.099157,-2.79586 -0.829401,-2.269439 -3.450516,-1.773689 -5.107605,-0.811646 -2.277197,0.90955 -5.449695,0.536149 -6.596614,-1.894261 -1.578662,-1.898905 0.740674,-3.989785 2.739288,-3.013101 0.125812,-1.580086 -1.189135,-3.210016 1.062295,-3.711092 0.861758,-0.615196 3.765839,-2.227259 2.339296,-3.004991 -1.864935,0.09088 -4.612554,-0.111315 -5.101837,-2.341589 -0.399236,-1.4157584 1.94831,-3.2964144 1.722716,-3.5715466 -1.750892,-0.00154 -3.12131,1.5862932 -4.47086,2.0890502 C 13.854937,8.6594176 11.97162,9.4839686 10.31454,9.1743476 9.6145025,7.6796506 9.0835082,6.090337 8.7214274,4.4681808 z"
     id="path-main"/>
</defs>

<use id="1" style="fill:#DBDBDB" xlink:href="#path-main" />



</svg>
