<?xml version="1.0" encoding="UTF-8" standalone="no"?>
<svg
   xmlns:dc="http://purl.org/dc/elements/1.1/"
   xmlns:cc="http://creativecommons.org/ns#"
   xmlns:rdf="http://www.w3.org/1999/02/22-rdf-syntax-ns#"
   xmlns:svg="http://www.w3.org/2000/svg"
   xmlns="http://www.w3.org/2000/svg"
   xmlns:sodipodi="http://sodipodi.sourceforge.net/DTD/sodipodi-0.dtd"
   xmlns:inkscape="http://www.inkscape.org/namespaces/inkscape"
   height="512"
   viewBox="0 0 512 512"
   width="512"
   version="1.1"
   id="svg2"
   inkscape:version="0.91 r"
   sodipodi:docname="get-hot-new-stuff.svg">
  <defs
     id="defs17" />
  <sodipodi:namedview
     pagecolor="#ffffff"
     bordercolor="#666666"
     borderopacity="1"
     objecttolerance="10"
     gridtolerance="10"
     guidetolerance="10"
     inkscape:pageopacity="0"
     inkscape:pageshadow="2"
     inkscape:window-width="647"
     inkscape:window-height="480"
     id="namedview15"
     showgrid="false"
     inkscape:zoom="0.4609375"
     inkscape:cx="256"
     inkscape:cy="256"
     inkscape:window-x="0"
     inkscape:window-y="0"
     inkscape:window-maximized="0"
     inkscape:current-layer="svg2" />
  <metadata
     id="metadata74">
    <rdf:RDF>
      <cc:Work
         rdf:about="">
        <dc:format>image/svg+xml</dc:format>
        <dc:type
           rdf:resource="http://purl.org/dc/dcmitype/StillImage" />
      </cc:Work>
    </rdf:RDF>
  </metadata>
  <path
     style="fill:#DBDBDB;fill-rule:evenodd"
     inkscape:connector-curvature="0"
     d="m 419,205.25 c 0.681,2.098 -70.42,82.26 -71.09,84.36 -0.681,2.098 9.737,108.74 7.952,110.04 -1.786,1.293 -100,-41.55 -102.2,-41.55 -2.209,-0.004 -100.41,42.866 -102.19,41.571 -1.786,-1.297 8.614,-107.94 7.929,-110.04 -0.681,-2.094 -71.796,-82.24 -71.11,-84.34 0.681,-2.098 105.32,-25.16 107.1,-26.459 1.782,-1.297 56.04,-93.7 58.24,-93.7 2.209,0.004 56.47,92.39 58.26,93.68 1.786,1.297 106.42,24.338 107.11,26.437"
     id="path68" />
</svg>
