<svg xmlns="http://www.w3.org/2000/svg" width="48" height="48">
<defs>
  <path
     d="M 11.916667,8.2566929 2,37.753355 l 3.8750001,0 L 8.5,29.879247 l 10.583334,0 2.583332,7.874108 5.458334,0 -9.875,-29.4966621 -5.333333,0 z m 1.875,5.9159981 3.958334,11.790333 -7.958334,0 4,-11.790333 z m 22.958336,1.208196 c -2.234269,2.2e-5 -4.429701,0.490558 -6.583336,1.49983 l 0,4.082871 c 2.10757,-1.301439 4.015353,-1.958092 5.708333,-1.958111 2.003917,1.9e-5 2.999986,1.103724 2.999999,3.374618 l 0,1.999773 -1.374998,0 c -6.011781,1.4e-5 -9.000002,2.519094 -9.000001,7.499153 -2e-6,1.899071 0.505149,3.41416 1.541667,4.582815 1.036511,1.181934 2.394758,1.791459 4.041667,1.791463 1.900264,0 3.490256,-0.97561 4.791665,-2.874675 l 0.208334,0 c 0.667963,1.899065 2.026214,2.874671 4.041668,2.874675 0.806154,0 1.757852,-0.211423 2.874999,-0.583267 l -0.124995,-3.291295 c -0.253383,0.05312 -0.489534,0.08333 -0.708332,0.08333 -0.932874,0 -1.375015,-0.869896 -1.375001,-2.583041 l 0,-9.665573 c -1.9e-5,-4.555083 -2.354337,-6.832541 -7.041669,-6.832561 z m 0.916664,12.415262 1.208332,0 0,4.416167 c -0.829222,1.341301 -1.829693,1.999774 -2.958332,1.999774 -0.737085,0 -1.319482,-0.275469 -1.791667,-0.83324 -0.483714,-0.544483 -0.750004,-1.204776 -0.75,-2.041435 -5e-6,-2.363864 1.447006,-3.541254 4.291667,-3.541266 z"
     id="path-main"
      />
</defs>

<use id="1" style="fill:#DBDBDB" xlink:href="#path-main" />



</svg>
