<svg xmlns="http://www.w3.org/2000/svg" width="48" height="48">
<defs>
<defs
     id="defs4">
  </defs>
  <path
     id="path-main"
     d="m 3.1336735,10.275386 0,16.185714 c 1.3871792,-0.57798 2.6875264,-0.998623 3.8948979,-1.268367 1.207355,-0.282561 2.3461576,-0.426517 3.4122446,-0.426531 1.798189,1.4e-5 3.204074,0.439867 4.231633,1.313266 1.040371,0.873424 1.560188,2.064996 1.560204,3.580612 -1.6e-5,1.502791 -0.519833,2.694362 -1.560204,3.580612 -1.027559,0.873418 -2.433444,1.313269 -4.231633,1.313265 -1.2459065,4e-6 -2.5830536,-0.223914 -3.995918,-0.673469 C 5.0448632,33.430944 3.5669998,32.759187 2,31.86008 l 0,5.836735 c 1.5798443,0.642224 3.166485,1.117248 4.7591837,1.42551 1.6055284,0.321106 3.2177426,0.482653 4.8489803,0.482653 3.776208,0 6.725569,-0.889314 8.844898,-2.64898 2.132129,-1.759669 3.198954,-4.187592 3.198979,-7.295918 -2.5e-5,-3.133996 -0.977282,-5.571528 -2.929592,-7.318367 -1.952352,-1.75965 -4.676177,-2.637736 -8.182653,-2.637756 -0.616539,2e-5 -1.217937,0.0448 -1.795918,0.134694 -0.565161,0.07709 -1.1297599,0.182623 -1.6948984,0.336735 l 0,-4.444898 12.5265314,0 0,-5.455102 -18.4418375,0 z m 31.0693885,5.241837 0,8.12653 -8.092858,0 0,3.659184 8.092858,0 0,8.137755 3.692857,0 0,-8.137755 8.104081,0 0,-3.659184 -8.104081,0 0,-8.12653 -3.692857,0 z" />
</defs>

<use id="1" style="fill:#DBDBDB" xlink:href="#path-main" />



</svg>
