<?xml version="1.0" encoding="UTF-8" standalone="no"?>
<svg xmlns:dc="http://purl.org/dc/elements/1.1/" xmlns:cc="http://creativecommons.org/ns#" xmlns:rdf="http://www.w3.org/1999/02/22-rdf-syntax-ns#" xmlns:svg="http://www.w3.org/2000/svg" xmlns="http://www.w3.org/2000/svg" xmlns:sodipodi="http://sodipodi.sourceforge.net/DTD/sodipodi-0.dtd" xmlns:inkscape="http://www.inkscape.org/namespaces/inkscape" height="512" viewBox="0 0 512 512" width="512" version="1.1" id="svg2" inkscape:version="0.91 r" sodipodi:docname="gmail.svg">
<defs id="defs17" />
<sodipodi:namedview pagecolor="#ffffff" bordercolor="#666666" borderopacity="1" objecttolerance="10" gridtolerance="10" guidetolerance="10" inkscape:pageopacity="0" inkscape:pageshadow="2" inkscape:window-width="1680" inkscape:window-height="994" id="namedview15" showgrid="false" inkscape:zoom="1.3037281" inkscape:cx="40.167185" inkscape:cy="244.919" inkscape:window-x="0" inkscape:window-y="0" inkscape:window-maximized="1" inkscape:current-layer="svg2" />
<metadata id="metadata28">
<rdf:RDF>
<cc:Work rdf:about="">
<dc:format>image/svg+xml</dc:format>
<dc:type rdf:resource="http://purl.org/dc/dcmitype/StillImage" />
<dc:title />
</cc:Work>
</rdf:RDF>
</metadata>
<g id="g3341" transform="matrix(1.3015678,0,0,1.3015678,-76.373894,-78.442794)">
<path id="path3628" d="m 135.83297,163.81551 c -8.07,0 -14.562,6.489 -14.562,14.562 l 0,164.91 c 0,8.07 6.489,14.594 14.562,14.594 8.07,0 14.562,-6.52 14.562,-14.594 l 0,-164.91 c 0,-8.07 -6.489,-14.562 -14.562,-14.562 m 235.09,0 c -8.07,0 -14.562,6.489 -14.562,14.562 l 0,164.91 c 0,8.07 6.489,14.594 14.562,14.594 8.07,0 14.594,-6.52 14.594,-14.594 l 0,-164.91 c 0,-8.07 -6.52,-14.562 -14.594,-14.562" style="fill:#DBDBDB" inkscape:connector-curvature="0" />
<path id="path3632" d="m 135.55726,162.35168 c -8.07,0 -14.562,6.489 -14.562,14.562 l 0,14.438 13.656,9.844 15.469,11.188 84.03,60.63 c 10.514,7.588 27.454,7.588 37.969,0 l 83.969,-60.59 8.813,-6.375 20.344,-14.688 0,-14.438 c 0,-8.07 -6.52,-14.562 -14.594,-14.562 -2.043,0 -3.989,0.408 -5.75,1.156 l 0,-0.406 -2.156,1.563 c -0.019,0.013 -0.043,0.019 -0.062,0.031 l -0.188,0.125 c -0.387,0.261 -0.766,0.548 -1.125,0.844 l -89.25,64.41 c -10.514,7.588 -27.454,7.588 -37.969,0 l -89.19,-64.34 0,0.063 c -0.404,-0.342 -0.81,-0.672 -1.25,-0.969 -2.323,-1.566 -5.129,-2.469 -8.156,-2.469" style="fill:#DBDBDB" inkscape:connector-curvature="0" />
</g>
</svg>
