<svg xmlns="http://www.w3.org/2000/svg" width="48" height="48">
<defs>
  <path
     d="m 23.951018,4.777101 c -0.603964,0.01317 -1.203671,0.419356 -1.646103,1.186162 L 2.3701241,40.51932 C 1.4723938,42.07524 2.2764421,43.4 4.0404346,43.4 l 39.9058904,0 c 2.022851,0 2.499106,-1.42508 1.658207,-2.88068 L 25.645537,5.963263 C 25.172122,5.143778 24.554982,4.763931 23.951018,4.777101 z m -0.217867,8.327344 c 1.021907,2.5e-5 1.827998,0.316539 2.408638,0.931984 0.592237,0.615494 0.883558,1.435653 0.88357,2.469155 -1.2e-5,1.416763 -0.265162,3.346932 -0.810948,5.785567 -0.615478,2.810273 -0.972723,4.727848 -1.077231,5.761361 -0.02323,0.650317 -0.04891,1.310991 -0.06052,1.972898 -0.06968,0.88257 -0.295087,1.42498 -0.689911,1.634 -0.15097,0.0929 -0.336135,0.14525 -0.55677,0.14525 -0.534186,0 -0.863786,-0.42267 -0.968296,-1.25879 -0.01162,-0.0813 -0.01211,-0.7022 -0.0121,-1.851862 -3e-6,-2.113489 -0.449832,-5.142056 -1.355614,-9.101981 -0.348381,-1.544461 -0.520461,-2.56238 -0.520459,-3.050132 -2e-6,-0.882538 0.225403,-1.661966 0.689911,-2.32391 0.522566,-0.743184 1.210393,-1.113515 2.069732,-1.11354 z m 0.02421,20.527875 c 0.719978,0 1.341394,0.21183 1.863969,0.64149 0.557399,0.46451 0.835149,1.04667 0.835157,1.75504 -8e-6,0.77805 -0.251095,1.42514 -0.750429,1.92449 -0.487739,0.49934 -1.122241,0.73832 -1.900282,0.73832 -0.650313,0 -1.218895,-0.23849 -1.706622,-0.72622 -0.487734,-0.48773 -0.726224,-1.05631 -0.726222,-1.70662 -2e-6,-0.69676 0.224912,-1.30509 0.677807,-1.82766 0.45289,-0.53418 1.021472,-0.79884 1.706622,-0.79884 z"
     id="path-main"
      />
</defs>

<use id="1" style="fill:#DBDBDB" xlink:href="#path-main" />



</svg>
