<svg xmlns="http://www.w3.org/2000/svg" width="48" height="48">
<defs>
<defs
     id="defs2385">
  </defs>
  <path
     id="path-main"
     d="M 11.19801,2.0252243 C 9.1500393,2.1914083 7.1572079,3.2148841 5.4318237,5.407899 -8.3893059,22.974984 24,46 24,46 24,46 56.389307,22.974984 42.568176,5.407899 35.666636,-3.3641634 24.21751,6.9443002 24,13.283188 23.836866,8.5290226 17.341919,1.526672 11.19801,2.0252243 z" />
</defs>

<use id="1" style="fill:#DBDBDB" xlink:href="#path-main" />



</svg>
