<svg xmlns="http://www.w3.org/2000/svg" width="48" height="48">
<defs>
  <path
     d="m 42.876012,5.1239885 c -3.476542,-3.476543 -6.844733,-3.493161 -8.799475,-2.694074 -1.523253,0.622696 -2.846429,2.104595 -2.317953,4.434726 0.483435,2.131541 0.648186,2.757294 -0.533567,3.4900505 -1.124183,0.697059 -2.072753,0.346653 -2.781544,-0.332386 L 22.171877,4.0131205 4.0131159,22.171881 10.022302,28.443476 c 0.679038,0.708792 1.029444,1.657361 0.332386,2.781541 -0.7327561,1.18176 -1.3672571,1.02575 -3.4987981,0.54232 -2.330132,-0.52848 -3.803283,0.78595 -4.425979,2.3092 -0.799087,1.95474 -0.782469,5.32294 2.694074,8.79948 3.476543,3.47654 6.8447351,3.49316 8.7994771,2.69407 1.523253,-0.62269 2.837681,-2.09584 2.309206,-4.42597 -0.483434,-2.13155 -0.639439,-2.76605 0.542314,-3.4988 1.124182,-0.69706 2.072752,-0.34665 2.781544,0.33238 l 6.271595,6.00919 18.158759,-18.158763 -6.009185,-6.271595 c -0.679036,-0.708792 -1.029443,-1.657361 -0.332384,-2.781544 0.732756,-1.181753 1.358511,-1.017002 3.49005,-0.533567 2.330132,0.528475 3.812031,-0.7947 4.434728,-2.317953 0.799088,-1.954742 0.782468,-5.3229335 -2.694077,-8.7994765 z"
     id="path-main"
      />
</defs>

<use id="1" style="fill:#DBDBDB" xlink:href="#path-main" />



</svg>
