<?xml version="1.0" encoding="UTF-8" standalone="no"?>
<svg
   xmlns:dc="http://purl.org/dc/elements/1.1/"
   xmlns:cc="http://creativecommons.org/ns#"
   xmlns:rdf="http://www.w3.org/1999/02/22-rdf-syntax-ns#"
   xmlns:svg="http://www.w3.org/2000/svg"
   xmlns="http://www.w3.org/2000/svg"
   xmlns:sodipodi="http://sodipodi.sourceforge.net/DTD/sodipodi-0.dtd"
   xmlns:inkscape="http://www.inkscape.org/namespaces/inkscape"
   version="1.1"
   viewBox="0 0 512 512"
   id="svg2"
   inkscape:version="0.91 r"
   sodipodi:docname="gcr-gnupg.svg">
  <defs
     id="defs16" />
  <sodipodi:namedview
     pagecolor="#ffffff"
     bordercolor="#666666"
     borderopacity="1"
     objecttolerance="10"
     gridtolerance="10"
     guidetolerance="10"
     inkscape:pageopacity="0"
     inkscape:pageshadow="2"
     inkscape:window-width="1920"
     inkscape:window-height="1028"
     id="namedview14"
     showgrid="false"
     inkscape:zoom="0.4609375"
     inkscape:cx="256"
     inkscape:cy="950.23729"
     inkscape:window-x="0"
     inkscape:window-y="0"
     inkscape:window-maximized="1"
     inkscape:current-layer="svg2" />
  <metadata
     id="metadata6074">
    <rdf:RDF>
      <cc:Work
         rdf:about="">
        <dc:format>image/svg+xml</dc:format>
        <dc:type
           rdf:resource="http://purl.org/dc/dcmitype/StillImage" />
      </cc:Work>
    </rdf:RDF>
  </metadata>
  <path
     inkscape:connector-curvature="0"
     id="path6068"
     d="m 256,103.08 c -55.799,0 -100.72,44.92 -100.72,100.72 l 0,49.16 -15.438,0 0,75.41 10.781,-10.125 c 12.08,-11.332 26.2,-21.278 34.844,-24.563 9.126,-3.468 23.968,-6.107 48.41,-8.625 26,-2.679 49.704,-5.878 62.5,-8.406 16.316,-3.224 22.937,-5.542 44.22,-16.688 0.008,-0.004 0.024,0.004 0.031,0 16.06,-8.505 0.405,-0.126 16.03,-8.531 0.061,-0.033 10e-4,0.002 0.063,-0.031 l 0,-47.594 c 0,-55.799 -44.92,-100.72 -100.72,-100.72 m 0,46.06 c 27.854,0 50.28,22.427 50.28,50.28 l 0,53.53 -100.56,0 0,-53.53 c 0,-27.854 22.427,-50.28 50.28,-50.28 z m 116.16,123.69 -8.03,6.75 c -21.734,18.254 -59.19,35.1 -102.59,46.16 -3.558,0.907 -3.159,1.084 4.875,1.875 16.778,1.652 41.753,-1.837 59.06,-8.219 4.785,-1.764 16.469,-7.06 26,-11.781 9.531,-4.723 17.58,-8.358 17.875,-8.06 1.32,1.32 -8.461,15.499 -16,23.19 -24.17,24.652 -67.36,40.493 -116.69,42.75 -15.14,0.693 -15.397,0.719 -10.531,2.156 7.935,2.344 28.999,4.781 41.5,4.781 21.344,0 47.33,-4.639 66.16,-11.781 4.141,-1.572 7.768,-2.607 8.06,-2.313 0.863,0.863 -10.329,12.548 -15.969,16.688 -22.468,16.493 -63.38,26.16 -110.87,26.16 -15.466,0 -19.653,0.358 -25.531,2.219 -3.866,1.224 -8.01,2.97 -9.188,3.875 -1.906,1.461 8.776,1.656 94.88,1.656 l 97,0 0,-136.09"
     fill="#DBDBDB" />
</svg>
