<?xml version="1.0" encoding="UTF-8" standalone="no"?>
<svg
   xmlns:dc="http://purl.org/dc/elements/1.1/"
   xmlns:cc="http://creativecommons.org/ns#"
   xmlns:rdf="http://www.w3.org/1999/02/22-rdf-syntax-ns#"
   xmlns:svg="http://www.w3.org/2000/svg"
   xmlns="http://www.w3.org/2000/svg"
   xmlns:sodipodi="http://sodipodi.sourceforge.net/DTD/sodipodi-0.dtd"
   xmlns:inkscape="http://www.inkscape.org/namespaces/inkscape"
   viewBox="0 0 512 512"
   id="svg2"
   version="1.1"
   inkscape:version="0.91 r"
   sodipodi:docname="google-forms.svg">
  <metadata
     id="metadata26">
    <rdf:RDF>
      <cc:Work
         rdf:about="">
        <dc:format>image/svg+xml</dc:format>
        <dc:type
           rdf:resource="http://purl.org/dc/dcmitype/StillImage" />
      </cc:Work>
    </rdf:RDF>
  </metadata>
  <defs
     id="defs24" />
  <sodipodi:namedview
     pagecolor="#ffffff"
     bordercolor="#666666"
     borderopacity="1"
     objecttolerance="10"
     gridtolerance="10"
     guidetolerance="10"
     inkscape:pageopacity="0"
     inkscape:pageshadow="2"
     inkscape:window-width="647"
     inkscape:window-height="480"
     id="namedview22"
     showgrid="false"
     inkscape:zoom="0.4609375"
     inkscape:cx="256"
     inkscape:cy="256"
     inkscape:window-x="0"
     inkscape:window-y="0"
     inkscape:window-maximized="0"
     inkscape:current-layer="svg2" />
  <path
     d="m148.19 147.36c-13.556 0-24.531 11.01-24.531 24.563 0 13.556 10.975 24.531 24.531 24.531s24.563-10.975 24.563-24.531-11.01-24.563-24.563-24.563m45.09 7.688v33.75h195.06v-33.75h-195.06m-45.09 76.41c-13.556 0-24.531 11.01-24.531 24.563 0 13.556 10.975 24.531 24.531 24.531s24.563-10.975 24.563-24.531-11.01-24.563-24.563-24.563m45.09 7.688v33.75h195.06v-33.75h-195.06m-45.09 76.41c-13.556 0-24.531 11.01-24.531 24.563 0 13.556 10.975 24.531 24.531 24.531s24.563-10.975 24.563-24.531-11.01-24.563-24.563-24.563m45.09 7.688v33.75h195.06v-33.75h-195.06"
     fill="#DBDBDB"
     id="path20" />
</svg>
