<?xml version="1.0" encoding="UTF-8" standalone="no"?>
<svg
   xmlns:dc="http://purl.org/dc/elements/1.1/"
   xmlns:cc="http://creativecommons.org/ns#"
   xmlns:rdf="http://www.w3.org/1999/02/22-rdf-syntax-ns#"
   xmlns:svg="http://www.w3.org/2000/svg"
   xmlns="http://www.w3.org/2000/svg"
   xmlns:sodipodi="http://sodipodi.sourceforge.net/DTD/sodipodi-0.dtd"
   xmlns:inkscape="http://www.inkscape.org/namespaces/inkscape"
   viewBox="0 0 512 512"
   id="svg2"
   version="1.1"
   inkscape:version="0.91 r"
   sodipodi:docname="google-news.svg">
  <metadata
     id="metadata122">
    <rdf:RDF>
      <cc:Work
         rdf:about="">
        <dc:format>image/svg+xml</dc:format>
        <dc:type
           rdf:resource="http://purl.org/dc/dcmitype/StillImage" />
      </cc:Work>
    </rdf:RDF>
  </metadata>
  <defs
     id="defs120" />
  <sodipodi:namedview
     pagecolor="#ffffff"
     bordercolor="#666666"
     borderopacity="1"
     objecttolerance="10"
     gridtolerance="10"
     guidetolerance="10"
     inkscape:pageopacity="0"
     inkscape:pageshadow="2"
     inkscape:window-width="647"
     inkscape:window-height="480"
     id="namedview118"
     showgrid="false"
     inkscape:zoom="0.4609375"
     inkscape:cx="256"
     inkscape:cy="256"
     inkscape:window-x="0"
     inkscape:window-y="0"
     inkscape:window-maximized="0"
     inkscape:current-layer="svg2" />
  <text
     font-size="129.23"
     y="231.36"
     x="729.64"
     font-family="'Gentium Book Basic'"
     line-height="125%"
     word-spacing="0"
     letter-spacing="0"
     id="text18">
    <tspan
       y="231.36"
       x="729.64"
       id="tspan20" />
  </text>
  <text
     transform="scale(4.0128.2492)"
     font-size="46.954"
     y="579.26"
     x="378.91"
     font-family="Arial"
     text-anchor="middle"
     id="text22" />
  <text
     font-size="129.23"
     y="151.36"
     x="1310.91"
     font-family="'Gentium Book Basic'"
     line-height="125%"
     word-spacing="0"
     letter-spacing="0"
     id="text24">
    <tspan
       y="151.36"
       x="1310.91"
       id="tspan26" />
  </text>
  <text
     transform="scale(4.0128.2492)"
     font-size="46.954"
     y="258.22"
     x="523.76"
     font-family="Arial"
     text-anchor="middle"
     id="text28" />
  <text
     font-size="129.23"
     y="-29.9"
     x="239.33"
     font-family="'Gentium Book Basic'"
     line-height="125%"
     word-spacing="0"
     letter-spacing="0"
     id="text30">
    <tspan
       y="-29.9"
       x="239.33"
       id="tspan32" />
  </text>
  <text
     transform="scale(4.0128.2492)"
     font-size="46.954"
     y="-469.13"
     x="256.72"
     font-family="Arial"
     text-anchor="middle"
     id="text34" />
  <text
     font-size="129.23"
     y="-246.37"
     x="1337.38"
     font-family="'Gentium Book Basic'"
     line-height="125%"
     word-spacing="0"
     letter-spacing="0"
     id="text36">
    <tspan
       y="-246.37"
       x="1337.38"
       id="tspan38" />
  </text>
  <text
     transform="scale(4.0128.2492)"
     font-size="46.954"
     y="-1337.8"
     x="530.36"
     font-family="Arial"
     text-anchor="middle"
     id="text40" />
  <text
     font-size="129.23"
     y="-326.37"
     x="1918.65"
     font-family="'Gentium Book Basic'"
     line-height="125%"
     word-spacing="0"
     letter-spacing="0"
     id="text42">
    <tspan
       y="-326.37"
       x="1918.65"
       id="tspan44" />
  </text>
  <text
     transform="scale(4.0128.2492)"
     font-size="46.954"
     y="-1658.83"
     x="675.21"
     font-family="Arial"
     text-anchor="middle"
     id="text46" />
  <text
     font-size="129.23"
     y="-798.77"
     x="1529.53"
     font-family="'Gentium Book Basic'"
     line-height="125%"
     word-spacing="0"
     letter-spacing="0"
     id="text48">
    <tspan
       y="-798.77"
       x="1529.53"
       id="tspan50" />
  </text>
  <text
     transform="scale(4.0128.2492)"
     font-size="46.954"
     y="-3554.48"
     x="578.24"
     font-family="Arial"
     text-anchor="middle"
     id="text52" />
  <text
     font-size="129.23"
     y="-878.78"
     x="2110.79"
     font-family="'Gentium Book Basic'"
     line-height="125%"
     word-spacing="0"
     letter-spacing="0"
     id="text54">
    <tspan
       y="-878.78"
       x="2110.79"
       id="tspan56" />
  </text>
  <text
     transform="scale(4.0128.2492)"
     font-size="46.954"
     y="-3875.52"
     x="723.09"
     font-family="Arial"
     text-anchor="middle"
     id="text58" />
  <g
     font-family="'Gentium Book Basic'"
     line-height="125%"
     word-spacing="0"
     letter-spacing="0"
     id="g60">
    <text
       y="535.94"
       x="277.99"
       font-size="208.33"
       id="text62">
      <tspan
         y="535.94"
         x="277.99"
         id="tspan64" />
    </text>
    <text
       y="129.39"
       x="221.98"
       font-size="129.23"
       id="text66">
      <tspan
         y="129.39"
         x="221.98"
         id="tspan68" />
    </text>
  </g>
  <text
     transform="scale(4.0128.2492)"
     font-size="46.954"
     y="170.08"
     x="252.4"
     font-family="Arial"
     text-anchor="middle"
     id="text70" />
  <text
     font-size="129.23"
     y="49.39"
     x="803.25"
     font-family="'Gentium Book Basic'"
     line-height="125%"
     word-spacing="0"
     letter-spacing="0"
     id="text72">
    <tspan
       y="49.39"
       x="803.25"
       id="tspan74" />
  </text>
  <text
     transform="scale(4.0128.2492)"
     font-size="46.954"
     y="-150.95"
     x="397.25"
     font-family="Arial"
     text-anchor="middle"
     id="text76" />
  <text
     font-size="129.23"
     y="-131.87"
     x="-268.33"
     font-family="'Gentium Book Basic'"
     line-height="125%"
     word-spacing="0"
     letter-spacing="0"
     id="text78">
    <tspan
       y="-131.87"
       x="-268.33"
       id="tspan80" />
  </text>
  <text
     transform="scale(4.0128.2492)"
     font-size="46.954"
     y="-878.31"
     x="130.21"
     font-family="Arial"
     text-anchor="middle"
     id="text82" />
  <text
     font-size="129.23"
     y="-348.34"
     x="829.72"
     font-family="'Gentium Book Basic'"
     line-height="125%"
     word-spacing="0"
     letter-spacing="0"
     id="text84">
    <tspan
       y="-348.34"
       x="829.72"
       id="tspan86" />
  </text>
  <text
     transform="scale(4.0128.2492)"
     font-size="46.954"
     y="-1746.97"
     x="403.85"
     font-family="Arial"
     text-anchor="middle"
     id="text88" />
  <text
     font-size="129.23"
     y="-428.35"
     x="1410.99"
     font-family="'Gentium Book Basic'"
     line-height="125%"
     word-spacing="0"
     letter-spacing="0"
     id="text90">
    <tspan
       y="-428.35"
       x="1410.99"
       id="tspan92" />
  </text>
  <text
     transform="scale(4.0128.2492)"
     font-size="46.954"
     y="-2068.01"
     x="548.7"
     font-family="Arial"
     text-anchor="middle"
     id="text94" />
  <text
     font-size="129.23"
     y="-900.75"
     x="1021.87"
     font-family="'Gentium Book Basic'"
     line-height="125%"
     word-spacing="0"
     letter-spacing="0"
     id="text96">
    <tspan
       y="-900.75"
       x="1021.87"
       id="tspan98" />
  </text>
  <text
     transform="scale(4.0128.2492)"
     font-size="46.954"
     y="-3963.66"
     x="451.73"
     font-family="Arial"
     text-anchor="middle"
     id="text100" />
  <text
     font-size="129.23"
     y="-980.75"
     x="1603.13"
     font-family="'Gentium Book Basic'"
     line-height="125%"
     word-spacing="0"
     letter-spacing="0"
     id="text102">
    <tspan
       y="-980.75"
       x="1603.13"
       id="tspan104" />
  </text>
  <text
     transform="scale(4.0128.2492)"
     font-size="46.954"
     y="-4284.69"
     x="596.58"
     font-family="Arial"
     text-anchor="middle"
     id="text106" />
  <text
     font-size="208.33"
     y="433.97"
     x="-229.67"
     font-family="'Gentium Book Basic'"
     line-height="125%"
     word-spacing="0"
     letter-spacing="0"
     id="text108">
    <tspan
       y="433.97"
       x="-229.67"
       id="tspan110" />
  </text>
  <path
     style="fill:#DBDBDB;fill-rule:evenodd"
     inkscape:connector-curvature="0"
     id="path116"
     d="m 103.02,143.59 0,182.31 143.56,0 0,-182.31 -143.56,0 m 175.22,0.25 0,17.844 130.75,0 0,-17.844 -130.75,0 m -97.84,20.719 0.875,0 39.41,0.094 -11.688,6.844 -10.313,0 c 0.111,0.339 6.01,4.824 9.438,11.719 1.845,3.71 2.938,8.1 2.938,12.719 0,2.136 0.136,4.44 -0.594,6.656 -1.211,3.679 -2.071,6.151 -3.25,7.844 -3.935,5.649 -5.612,4.706 -12.12,12.25 -3.57,4.135 -4.613,6.62 -4.688,8.656 -0.051,1.458 0.188,3.398 1.625,4.906 1.521,1.597 3.887,3.035 7.281,5.813 5.463,4.468 11.06,9.05 14.313,14.375 3.349,5.476 4.246,11.723 3.438,18.406 -1.605,13.297 -20.01,30.911 -49.75,30.06 -29.611,-0.846 -36.469,-17.563 -36.469,-17.563 0,0 -7.094,-12.788 6,-26.688 13.09,-13.897 40.75,-13.188 40.75,-13.188 0,0 1.104,-0.05 -0.406,-1.813 -6.328,-7.384 -3.188,-17.844 -3.188,-17.844 0,0 -7.903,0.952 -15.344,-1.125 -2.475,-0.689 -8.469,-4.188 -8.469,-4.188 0,0 -17.12,-9.289 -10.469,-32.656 4.298,-15.11 19.481,-22.356 30.469,-24.344 4.649,-0.844 8.557,-0.938 10.219,-0.938 m -8.469,6.406 c -3.609,-0.024 -6.125,1.063 -6.125,1.063 -3.978,2.495 -14.14,3.845 -9.969,29.09 4.096,24.786 26.375,21.375 26.375,21.375 0,0 19.446,-4.256 10.156,-32.12 -5.411,-16.242 -14.424,-19.361 -20.438,-19.406 m 106.31,14.219 0,17.844 130.75,0 0,-17.844 -130.75,0 m 0,41.38 0,17.813 130.75,0 0,-17.813 -130.75,0 m -94,26.5 c -3.849,0.26 -7.777,0.056 -10.719,0.313 -8.844,0.771 -13.534,2.261 -18.313,5.469 -2.245,1.508 -4.663,2.823 -6.844,5.781 -8.67,11.763 3.048,24.91 5.156,26 4.056,2.097 12.258,6.295 23.13,6.25 4.421,-0.018 11.437,-0.271 15.438,-2.375 13.552,-7.129 13.433,-13.628 11.563,-22.563 -1.669,-7.975 -19.406,-18.875 -19.406,-18.875 m 94,14.844 0,17.813 130.75,0 0,-17.813 -130.75,0 m 0,41.34 0,17.813 130.75,0 0,-17.813 -130.75,0 m -168.16,41.34 0,17.813 298.91,0 0,-17.813 -298.91,0" />
</svg>
