<svg xmlns="http://www.w3.org/2000/svg" width="48" height="48">
<defs>
<defs
   id="defs31">
</defs>
	<path
   d="m 24.625,9.03125 c -9.023126,10e-8 -10.75,12.59375 -10.75,12.59375 l -10.71875,0 0,4.75 10.5625,0 c 0,0 1.695623,12.59375 10.71875,12.59375 9.023126,0 9.03125,0 9.03125,0 l 0,-4.59375 8.53125,0 c 1.105122,0 2,-0.894878 2,-2 0,-1.105122 -0.894878,-2 -2,-2 l -8.53125,0 0,-12.75 8.53125,0 c 1.105122,0 2,-0.894878 2,-2 0,-1.105122 -0.894878,-2 -2,-2 l -8.53125,0 0,-4.59375 c -0.0027,10e-8 0.02273,0 -8.84375,0 z"
   id="path-main"
    />	
</defs>

<use id="1" style="fill:#DBDBDB" xlink:href="#path-main" />



</svg>
