<svg xmlns="http://www.w3.org/2000/svg" width="48" height="48">
<defs>
<defs
     id="defs2385" />
  <g
     id="layer1">
    <path
       d="M 19.73396,31.412698 C 17.001327,32.192212 12.569197,33.320719 10.422125,38.192677 C 8.275055,43.064631 4.3712891,45.013416 4.3712891,45.013416 C 4.3712891,45.013416 19.38132,45.784713 21.938235,39.751702 C 24.036406,34.801092 22.832225,33.583221 22.734181,32.912742 C 23.178858,32.201679 45.701624,4.7454728 43.546931,3.1553536 C 41.314561,1.50791 19.929151,31.412698 19.73396,31.412698 z"
       id="path-main"
        />
  </g>
</defs>

<use id="1" style="fill:#DBDBDB" xlink:href="#path-main" />



</svg>
