<?xml version="1.0" encoding="UTF-8" standalone="no"?>
<svg
   xmlns:dc="http://purl.org/dc/elements/1.1/"
   xmlns:cc="http://creativecommons.org/ns#"
   xmlns:rdf="http://www.w3.org/1999/02/22-rdf-syntax-ns#"
   xmlns:svg="http://www.w3.org/2000/svg"
   xmlns="http://www.w3.org/2000/svg"
   xmlns:sodipodi="http://sodipodi.sourceforge.net/DTD/sodipodi-0.dtd"
   xmlns:inkscape="http://www.inkscape.org/namespaces/inkscape"
   height="512"
   viewBox="0 0 512 512"
   width="512"
   version="1.1"
   id="svg2"
   inkscape:version="0.91 r13725"
   sodipodi:docname="gtk-find.svg">
  <defs
     id="defs18" />
  <sodipodi:namedview
     pagecolor="#ffffff"
     bordercolor="#666666"
     borderopacity="1"
     objecttolerance="10"
     gridtolerance="10"
     guidetolerance="10"
     inkscape:pageopacity="0"
     inkscape:pageshadow="2"
     inkscape:window-width="640"
     inkscape:window-height="480"
     id="namedview16"
     showgrid="false"
     inkscape:zoom="0.4609375"
     inkscape:cx="256"
     inkscape:cy="256"
     inkscape:window-x="0"
     inkscape:window-y="31"
     inkscape:window-maximized="0"
     inkscape:current-layer="svg2" />
  <metadata
     id="metadata76">
    <rdf:RDF>
      <cc:Work
         rdf:about="">
        <dc:format>image/svg+xml</dc:format>
        <dc:type
           rdf:resource="http://purl.org/dc/dcmitype/StillImage" />
      </cc:Work>
    </rdf:RDF>
  </metadata>
  <g
     id="g66"
     transform="matrix(1.5807643,0,0,1.5807643,-51.077575,-51.818251)"
     style="fill:#DBDBDB">
    <path
       id="path68"
       d="m 58.22,278.64 66.24,-55.21 c 9.379,14.422 21.684,26.73 36.09,36.11 l -55.19,66.24 c -6.137,7.363 -16.723,7.859 -23.508,1.074 l -24.699,-24.69 c -6.785,-6.785 -6.289,-17.371 1.074,-23.508"
       inkscape:connector-curvature="0" />
    <path
       id="path70"
       d="m 122.18,157.09 c 0,-57.836 46.891,-104.73 104.73,-104.73 57.836,0 104.73,46.895 104.73,104.73 0,57.836 -46.895,104.73 -104.73,104.73 -57.836,0 -104.73,-46.891 -104.73,-104.73 m 104.73,78.55 c 43.31,0 78.55,-35.23 78.55,-78.55 0,-43.31 -35.23,-78.55 -78.55,-78.55 -43.31,0 -78.55,35.23 -78.55,78.55 0,43.31 35.23,78.55 78.55,78.55"
       inkscape:connector-curvature="0" />
  </g>
</svg>
