<svg xmlns="http://www.w3.org/2000/svg" width="48" height="48">
<defs>
  <path
     d="m 2,2.000001 0,8.792516 A 35.19611,35.19611 0 0 1 37.207482,46 L 46,46 A 43.995137,43.995137 0 0 0 2,2.000001 z m 0,14.816326 0,8.568027 A 20.614865,20.614865 0 0 1 22.615646,46 l 8.530611,0 A 29.162492,29.162492 0 0 0 2,16.816327 z M 8.023809,33.91497 C 4.691534,33.91497 2,36.6065 2,39.93878 2,43.27105 4.691534,46 8.023809,46 c 3.332277,0 6.061225,-2.72895 6.061225,-6.06122 0,-3.33228 -2.728948,-6.02381 -6.061225,-6.02381 z"
     id="path-main"
      />
</defs>

<use id="1" style="fill:#DBDBDB" xlink:href="#path-main" />



</svg>
