<svg xmlns="http://www.w3.org/2000/svg" width="48" height="48">
<defs>
  <path
     d="m 14.388341,1.9999988 c -1.80236,0 -3.266341,1.463981 -3.266341,3.266342 0,1.80236 1.463981,3.254199 3.266341,3.254199 0.04166,0 0.08014,0.0016 0.121426,0 l 2.379936,4.7720152 -3.982751,0 c -0.877596,0 -1.590671,0.713075 -1.590671,1.590672 l 0,21.091576 c 0,0.8776 0.713075,1.57853 1.590671,1.57853 l 2.027803,0 0,7.57694 a 0.45352333,0.87490828 0 0 0 0.679982,0.75284 l 7.4798,-8.32978 10.600432,0 c 0.877596,0 1.590671,-0.70093 1.590671,-1.57853 l 0,-21.091576 c 0,-0.877597 -0.713075,-1.590672 -1.590671,-1.590672 l -4.529165,0 1.517816,-2.015661 c 0.208887,0.04654 0.432789,0.07285 0.655697,0.07285 1.640955,0 2.962778,-1.333965 2.962778,-2.9749202 0,-1.640955 -1.321823,-2.962778 -2.962778,-2.962778 -1.640955,0 -2.97492,1.321823 -2.97492,2.962778 0,0.705765 0.244667,1.360246 0.655697,1.8699502 l -2.282797,3.047776 -7.661938,0 -2.707785,-5.4398552 c 0.779744,-0.596355 1.287109,-1.528893 1.287109,-2.586359 0,-1.802361 -1.463981,-3.266342 -3.266342,-3.266342 z m 3.861326,16.5988432 a 0.58715469,0.7197059 0 0 1 0.06071,0 0.58715469,0.7197059 0 0 1 0.339991,0.09714 l 8.694054,6.156264 a 0.58715469,0.7197059 0 0 1 0,1.238539 l -8.694054,6.156268 a 0.58715469,0.7197059 0 0 1 -0.886405,-0.61927 l 0,-12.312532 a 0.58715469,0.7197059 0 0 1 0.485702,-0.716409 z"
     id="path-main"
      />
</defs>

<use id="1" style="fill:#DBDBDB" xlink:href="#path-main" />



</svg>
