<?xml version="1.0" encoding="UTF-8" standalone="no"?>
<svg
   xmlns:dc="http://purl.org/dc/elements/1.1/"
   xmlns:cc="http://creativecommons.org/ns#"
   xmlns:rdf="http://www.w3.org/1999/02/22-rdf-syntax-ns#"
   xmlns:svg="http://www.w3.org/2000/svg"
   xmlns="http://www.w3.org/2000/svg"
   xmlns:sodipodi="http://sodipodi.sourceforge.net/DTD/sodipodi-0.dtd"
   xmlns:inkscape="http://www.inkscape.org/namespaces/inkscape"
   viewBox="0 0 512 512"
   id="svg2"
   version="1.1"
   inkscape:version="0.91 r"
   sodipodi:docname="jabref.svg">
  <metadata
     id="metadata266">
    <rdf:RDF>
      <cc:Work
         rdf:about="">
        <dc:format>image/svg+xml</dc:format>
        <dc:type
           rdf:resource="http://purl.org/dc/dcmitype/StillImage" />
      </cc:Work>
    </rdf:RDF>
  </metadata>
  <defs
     id="defs264" />
  <sodipodi:namedview
     pagecolor="#ffffff"
     bordercolor="#666666"
     borderopacity="1"
     objecttolerance="10"
     gridtolerance="10"
     guidetolerance="10"
     inkscape:pageopacity="0"
     inkscape:pageshadow="2"
     inkscape:window-width="640"
     inkscape:window-height="480"
     id="namedview262"
     showgrid="false"
     inkscape:zoom="0.4609375"
     inkscape:cx="256"
     inkscape:cy="256"
     inkscape:window-x="0"
     inkscape:window-y="0"
     inkscape:window-maximized="0"
     inkscape:current-layer="svg2" />
  <text
     font-size="129.23"
     y="231.36"
     x="729.64"
     font-family="'Gentium Book Basic'"
     line-height="125%"
     word-spacing="0"
     letter-spacing="0"
     id="text18">
    <tspan
       y="231.36"
       x="729.64"
       id="tspan20" />
  </text>
  <text
     transform="scale(4.0128.2492)"
     font-size="46.954"
     y="579.25"
     x="378.91"
     font-family="Arial"
     text-anchor="middle"
     id="text22" />
  <text
     font-size="129.23"
     y="151.36"
     x="1310.91"
     font-family="'Gentium Book Basic'"
     line-height="125%"
     word-spacing="0"
     letter-spacing="0"
     id="text24">
    <tspan
       y="151.36"
       x="1310.91"
       id="tspan26" />
  </text>
  <text
     transform="scale(4.0128.2492)"
     font-size="46.954"
     y="258.22"
     x="523.76"
     font-family="Arial"
     text-anchor="middle"
     id="text28" />
  <text
     font-size="129.23"
     y="-29.901"
     x="239.33"
     font-family="'Gentium Book Basic'"
     line-height="125%"
     word-spacing="0"
     letter-spacing="0"
     id="text30">
    <tspan
       y="-29.901"
       x="239.33"
       id="tspan32" />
  </text>
  <text
     transform="scale(4.0128.2492)"
     font-size="46.954"
     y="-469.14"
     x="256.72"
     font-family="Arial"
     text-anchor="middle"
     id="text34" />
  <text
     font-size="129.23"
     y="-246.37"
     x="1337.38"
     font-family="'Gentium Book Basic'"
     line-height="125%"
     word-spacing="0"
     letter-spacing="0"
     id="text36">
    <tspan
       y="-246.37"
       x="1337.38"
       id="tspan38" />
  </text>
  <text
     transform="scale(4.0128.2492)"
     font-size="46.954"
     y="-1337.8"
     x="530.36"
     font-family="Arial"
     text-anchor="middle"
     id="text40" />
  <text
     font-size="129.23"
     y="-326.38"
     x="1918.65"
     font-family="'Gentium Book Basic'"
     line-height="125%"
     word-spacing="0"
     letter-spacing="0"
     id="text42">
    <tspan
       y="-326.38"
       x="1918.65"
       id="tspan44" />
  </text>
  <text
     transform="scale(4.0128.2492)"
     font-size="46.954"
     y="-1658.84"
     x="675.21"
     font-family="Arial"
     text-anchor="middle"
     id="text46" />
  <text
     font-size="129.23"
     y="-798.78"
     x="1529.53"
     font-family="'Gentium Book Basic'"
     line-height="125%"
     word-spacing="0"
     letter-spacing="0"
     id="text48">
    <tspan
       y="-798.78"
       x="1529.53"
       id="tspan50" />
  </text>
  <text
     transform="scale(4.0128.2492)"
     font-size="46.954"
     y="-3554.49"
     x="578.24"
     font-family="Arial"
     text-anchor="middle"
     id="text52" />
  <text
     font-size="129.23"
     y="-878.78"
     x="2110.79"
     font-family="'Gentium Book Basic'"
     line-height="125%"
     word-spacing="0"
     letter-spacing="0"
     id="text54">
    <tspan
       y="-878.78"
       x="2110.79"
       id="tspan56" />
  </text>
  <text
     transform="scale(4.0128.2492)"
     font-size="46.954"
     y="-3875.52"
     x="723.09"
     font-family="Arial"
     text-anchor="middle"
     id="text58" />
  <g
     font-family="'Gentium Book Basic'"
     line-height="125%"
     word-spacing="0"
     letter-spacing="0"
     id="g60">
    <text
       y="535.94"
       x="277.99"
       font-size="208.33"
       id="text62">
      <tspan
         y="535.94"
         x="277.99"
         id="tspan64" />
    </text>
    <text
       y="270.87"
       x="-1745.96"
       font-size="129.23"
       id="text66">
      <tspan
         y="270.87"
         x="-1745.96"
         id="tspan68" />
    </text>
  </g>
  <text
     transform="scale(4.0128.2492)"
     font-size="46.954"
     y="737.79"
     x="-238.01"
     font-family="Arial"
     text-anchor="middle"
     id="text70" />
  <text
     font-size="129.23"
     y="190.87"
     x="-1164.69"
     font-family="'Gentium Book Basic'"
     line-height="125%"
     word-spacing="0"
     letter-spacing="0"
     id="text72">
    <tspan
       y="190.87"
       x="-1164.69"
       id="tspan74" />
  </text>
  <text
     transform="scale(4.0128.2492)"
     font-size="46.954"
     y="416.76"
     x="-93.17"
     font-family="Arial"
     text-anchor="middle"
     id="text76" />
  <text
     font-size="129.23"
     y="9.608"
     x="-2236.27"
     font-family="'Gentium Book Basic'"
     line-height="125%"
     word-spacing="0"
     letter-spacing="0"
     id="text78">
    <tspan
       y="9.608"
       x="-2236.27"
       id="tspan80" />
  </text>
  <text
     transform="scale(4.0128.2492)"
     font-size="46.954"
     y="-310.6"
     x="-360.2"
     font-family="Arial"
     text-anchor="middle"
     id="text82" />
  <text
     font-size="129.23"
     y="-206.86"
     x="-1138.22"
     font-family="'Gentium Book Basic'"
     line-height="125%"
     word-spacing="0"
     letter-spacing="0"
     id="text84">
    <tspan
       y="-206.86"
       x="-1138.22"
       id="tspan86" />
  </text>
  <text
     transform="scale(4.0128.2492)"
     font-size="46.954"
     y="-1179.26"
     x="-86.57"
     font-family="Arial"
     text-anchor="middle"
     id="text88" />
  <text
     font-size="129.23"
     y="-286.87"
     x="-556.95"
     font-family="'Gentium Book Basic'"
     line-height="125%"
     word-spacing="0"
     letter-spacing="0"
     id="text90">
    <tspan
       y="-286.87"
       x="-556.95"
       id="tspan92" />
  </text>
  <text
     transform="scale(4.0128.2492)"
     font-size="46.954"
     y="-1500.3"
     x="58.28"
     font-family="Arial"
     text-anchor="middle"
     id="text94" />
  <text
     font-size="129.23"
     y="-759.27"
     x="-946.07"
     font-family="'Gentium Book Basic'"
     line-height="125%"
     word-spacing="0"
     letter-spacing="0"
     id="text96">
    <tspan
       y="-759.27"
       x="-946.07"
       id="tspan98" />
  </text>
  <text
     transform="scale(4.0128.2492)"
     font-size="46.954"
     y="-3395.95"
     x="-38.686"
     font-family="Arial"
     text-anchor="middle"
     id="text100" />
  <text
     font-size="129.23"
     y="-839.27"
     x="-364.81"
     font-family="'Gentium Book Basic'"
     line-height="125%"
     word-spacing="0"
     letter-spacing="0"
     id="text102">
    <tspan
       y="-839.27"
       x="-364.81"
       id="tspan104" />
  </text>
  <text
     transform="scale(4.0128.2492)"
     font-size="46.954"
     y="-3716.98"
     x="106.16"
     font-family="Arial"
     text-anchor="middle"
     id="text106" />
  <g
     font-family="'Gentium Book Basic'"
     line-height="125%"
     word-spacing="0"
     letter-spacing="0"
     id="g108">
    <text
       y="575.45"
       x="-2197.61"
       font-size="208.33"
       id="text110">
      <tspan
         y="575.45"
         x="-2197.61"
         id="tspan112" />
    </text>
    <text
       y="525.1"
       x="-1144.61"
       font-size="129.23"
       id="text114">
      <tspan
         y="525.1"
         x="-1144.61"
         id="tspan116" />
    </text>
  </g>
  <text
     transform="scale(4.0128.2492)"
     font-size="46.954"
     y="1757.96"
     x="-88.16"
     font-family="Arial"
     text-anchor="middle"
     id="text118" />
  <text
     font-size="129.23"
     y="445.1"
     x="-563.34"
     font-family="'Gentium Book Basic'"
     line-height="125%"
     word-spacing="0"
     letter-spacing="0"
     id="text120">
    <tspan
       y="445.1"
       x="-563.34"
       id="tspan122" />
  </text>
  <text
     transform="scale(4.0128.2492)"
     font-size="46.954"
     y="1436.93"
     x="56.693"
     font-family="Arial"
     text-anchor="middle"
     id="text124" />
  <text
     font-size="129.23"
     y="263.84"
     x="-1634.92"
     font-family="'Gentium Book Basic'"
     line-height="125%"
     word-spacing="0"
     letter-spacing="0"
     id="text126">
    <tspan
       y="263.84"
       x="-1634.92"
       id="tspan128" />
  </text>
  <text
     transform="scale(4.0128.2492)"
     font-size="46.954"
     y="709.58"
     x="-210.35"
     font-family="Arial"
     text-anchor="middle"
     id="text130" />
  <text
     font-size="129.23"
     y="47.37"
     x="-536.87"
     font-family="'Gentium Book Basic'"
     line-height="125%"
     word-spacing="0"
     letter-spacing="0"
     id="text132">
    <tspan
       y="47.37"
       x="-536.87"
       id="tspan134" />
  </text>
  <text
     transform="scale(4.0128.2492)"
     font-size="46.954"
     y="-159.09"
     x="63.29"
     font-family="Arial"
     text-anchor="middle"
     id="text136" />
  <text
     font-size="129.23"
     y="-32.643"
     x="44.4"
     font-family="'Gentium Book Basic'"
     line-height="125%"
     word-spacing="0"
     letter-spacing="0"
     id="text138">
    <tspan
       y="-32.643"
       x="44.4"
       id="tspan140" />
  </text>
  <text
     transform="scale(4.0128.2492)"
     font-size="46.954"
     y="-480.13"
     x="208.14"
     font-family="Arial"
     text-anchor="middle"
     id="text142" />
  <text
     font-size="129.23"
     y="-505.04"
     x="-344.72"
     font-family="'Gentium Book Basic'"
     line-height="125%"
     word-spacing="0"
     letter-spacing="0"
     id="text144">
    <tspan
       y="-505.04"
       x="-344.72"
       id="tspan146" />
  </text>
  <text
     transform="scale(4.0128.2492)"
     font-size="46.954"
     y="-2375.78"
     x="111.17"
     font-family="Arial"
     text-anchor="middle"
     id="text148" />
  <text
     font-size="129.23"
     y="-585.04"
     x="236.54"
     font-family="'Gentium Book Basic'"
     line-height="125%"
     word-spacing="0"
     letter-spacing="0"
     id="text150">
    <tspan
       y="-585.04"
       x="236.54"
       id="tspan152" />
  </text>
  <text
     transform="scale(4.0128.2492)"
     font-size="46.954"
     y="-2696.8"
     x="256.02"
     font-family="Arial"
     text-anchor="middle"
     id="text154" />
  <g
     font-family="'Gentium Book Basic'"
     line-height="125%"
     word-spacing="0"
     letter-spacing="0"
     id="g156">
    <text
       y="829.68"
       x="-1596.26"
       font-size="208.33"
       id="text158">
      <tspan
         y="829.68"
         x="-1596.26"
         id="tspan160" />
    </text>
    <text
       y="246.55"
       x="1403.27"
       font-size="129.23"
       id="text162">
      <tspan
         y="246.55"
         x="1403.27"
         id="tspan164" />
    </text>
  </g>
  <text
     transform="scale(4.0128.2492)"
     font-size="46.954"
     y="640.19"
     x="546.78"
     font-family="Arial"
     text-anchor="middle"
     id="text166" />
  <text
     font-size="129.23"
     y="166.55"
     x="1984.54"
     font-family="'Gentium Book Basic'"
     line-height="125%"
     word-spacing="0"
     letter-spacing="0"
     id="text168">
    <tspan
       y="166.55"
       x="1984.54"
       id="tspan170" />
  </text>
  <text
     transform="scale(4.0128.2492)"
     font-size="46.954"
     y="319.16"
     x="691.63"
     font-family="Arial"
     text-anchor="middle"
     id="text172" />
  <text
     font-size="129.23"
     y="-14.715"
     x="912.96"
     font-family="'Gentium Book Basic'"
     line-height="125%"
     word-spacing="0"
     letter-spacing="0"
     id="text174">
    <tspan
       y="-14.715"
       x="912.96"
       id="tspan176" />
  </text>
  <text
     transform="scale(4.0128.2492)"
     font-size="46.954"
     y="-408.2"
     x="424.59"
     font-family="Arial"
     text-anchor="middle"
     id="text178" />
  <text
     font-size="129.23"
     y="-231.18"
     x="2011.01"
     font-family="'Gentium Book Basic'"
     line-height="125%"
     word-spacing="0"
     letter-spacing="0"
     id="text180">
    <tspan
       y="-231.18"
       x="2011.01"
       id="tspan182" />
  </text>
  <text
     transform="scale(4.0128.2492)"
     font-size="46.954"
     y="-1276.86"
     x="698.23"
     font-family="Arial"
     text-anchor="middle"
     id="text184" />
  <text
     font-size="129.23"
     y="-311.19"
     x="2592.28"
     font-family="'Gentium Book Basic'"
     line-height="125%"
     word-spacing="0"
     letter-spacing="0"
     id="text186">
    <tspan
       y="-311.19"
       x="2592.28"
       id="tspan188" />
  </text>
  <text
     transform="scale(4.0128.2492)"
     font-size="46.954"
     y="-1597.9"
     x="843.08"
     font-family="Arial"
     text-anchor="middle"
     id="text190" />
  <text
     font-size="129.23"
     y="-783.59"
     x="2203.16"
     font-family="'Gentium Book Basic'"
     line-height="125%"
     word-spacing="0"
     letter-spacing="0"
     id="text192">
    <tspan
       y="-783.59"
       x="2203.16"
       id="tspan194" />
  </text>
  <text
     transform="scale(4.0128.2492)"
     font-size="46.954"
     y="-3493.55"
     x="746.11"
     font-family="Arial"
     text-anchor="middle"
     id="text196" />
  <text
     font-size="129.23"
     y="-863.59"
     x="2784.42"
     font-family="'Gentium Book Basic'"
     line-height="125%"
     word-spacing="0"
     letter-spacing="0"
     id="text198">
    <tspan
       y="-863.59"
       x="2784.42"
       id="tspan200" />
  </text>
  <text
     transform="scale(4.0128.2492)"
     font-size="46.954"
     y="-3814.58"
     x="890.96"
     font-family="Arial"
     text-anchor="middle"
     id="text202" />
  <g
     font-family="'Gentium Book Basic'"
     line-height="125%"
     word-spacing="0"
     letter-spacing="0"
     id="g204">
    <text
       y="551.13"
       x="951.62"
       font-size="208.33"
       id="text206">
      <tspan
         y="551.13"
         x="951.62"
         id="tspan208" />
    </text>
    <text
       y="246.55"
       x="1403.27"
       font-size="129.23"
       id="text210">
      <tspan
         y="246.55"
         x="1403.27"
         id="tspan212" />
    </text>
  </g>
  <text
     transform="scale(4.0128.2492)"
     font-size="46.954"
     y="640.19"
     x="546.78"
     font-family="Arial"
     text-anchor="middle"
     id="text214" />
  <text
     font-size="129.23"
     y="166.55"
     x="1984.54"
     font-family="'Gentium Book Basic'"
     line-height="125%"
     word-spacing="0"
     letter-spacing="0"
     id="text216">
    <tspan
       y="166.55"
       x="1984.54"
       id="tspan218" />
  </text>
  <text
     transform="scale(4.0128.2492)"
     font-size="46.954"
     y="319.16"
     x="691.63"
     font-family="Arial"
     text-anchor="middle"
     id="text220" />
  <text
     font-size="129.23"
     y="-14.715"
     x="912.96"
     font-family="'Gentium Book Basic'"
     line-height="125%"
     word-spacing="0"
     letter-spacing="0"
     id="text222">
    <tspan
       y="-14.715"
       x="912.96"
       id="tspan224" />
  </text>
  <text
     transform="scale(4.0128.2492)"
     font-size="46.954"
     y="-408.2"
     x="424.59"
     font-family="Arial"
     text-anchor="middle"
     id="text226" />
  <text
     font-size="129.23"
     y="-231.18"
     x="2011.01"
     font-family="'Gentium Book Basic'"
     line-height="125%"
     word-spacing="0"
     letter-spacing="0"
     id="text228">
    <tspan
       y="-231.18"
       x="2011.01"
       id="tspan230" />
  </text>
  <text
     transform="scale(4.0128.2492)"
     font-size="46.954"
     y="-1276.85"
     x="698.23"
     font-family="Arial"
     text-anchor="middle"
     id="text232" />
  <text
     font-size="129.23"
     y="-311.19"
     x="2592.28"
     font-family="'Gentium Book Basic'"
     line-height="125%"
     word-spacing="0"
     letter-spacing="0"
     id="text234">
    <tspan
       y="-311.19"
       x="2592.28"
       id="tspan236" />
  </text>
  <text
     transform="scale(4.0128.2492)"
     font-size="46.954"
     y="-1597.89"
     x="843.08"
     font-family="Arial"
     text-anchor="middle"
     id="text238" />
  <text
     font-size="129.23"
     y="-783.59"
     x="2203.16"
     font-family="'Gentium Book Basic'"
     line-height="125%"
     word-spacing="0"
     letter-spacing="0"
     id="text240">
    <tspan
       y="-783.59"
       x="2203.16"
       id="tspan242" />
  </text>
  <text
     transform="scale(4.0128.2492)"
     font-size="46.954"
     y="-3493.53"
     x="746.11"
     font-family="Arial"
     text-anchor="middle"
     id="text244" />
  <text
     font-size="129.23"
     y="-863.59"
     x="2784.42"
     font-family="'Gentium Book Basic'"
     line-height="125%"
     word-spacing="0"
     letter-spacing="0"
     id="text246">
    <tspan
       y="-863.59"
       x="2784.42"
       id="tspan248" />
  </text>
  <text
     transform="scale(4.0128.2492)"
     font-size="46.954"
     y="-3814.56"
     x="890.96"
     font-family="Arial"
     text-anchor="middle"
     id="text250" />
  <text
     font-size="208.33"
     y="551.13"
     x="951.62"
     font-family="'Gentium Book Basic'"
     line-height="125%"
     word-spacing="0"
     letter-spacing="0"
     id="text252">
    <tspan
       y="551.13"
       x="951.62"
       id="tspan254" />
  </text>
  <path
     style="fill:#DBDBDB;fill-rule:evenodd"
     inkscape:connector-curvature="0"
     id="path260"
     d="m 145.55,125.68 c 55.52,63.78 62.858,129.59 59.924,172.8 -2.572,37.875 -25.666,52.06 -30.08,53.846 -9.199,3.728 -30.798,9.299 -61.61,-10.645 0,23.269 19.794,43.22 54.27,43.22 34.478,0 62.71,-27.929 68.44,-59.38 19.898,-162.38 -17.962,-185.19 -17.962,-185.19 0,0 -34.66,-14.652 -72.989,-14.652 m 88.72,6.04 c 9.644,42.32 85.996,58.967 85.996,79.09 0,20.12 -52.25,23.583 -51.45,56.19 0.804,45.09 63.49,104.76 129.39,119.33 -28.933,-34.687 -102.05,-110.29 -77.944,-129.72 86.8,-61.05 7.234,-111.01 -85.996,-124.88" />
</svg>
