<?xml version="1.0" encoding="UTF-8" standalone="no"?>
<svg
   xmlns:dc="http://purl.org/dc/elements/1.1/"
   xmlns:cc="http://creativecommons.org/ns#"
   xmlns:rdf="http://www.w3.org/1999/02/22-rdf-syntax-ns#"
   xmlns:svg="http://www.w3.org/2000/svg"
   xmlns="http://www.w3.org/2000/svg"
   xmlns:sodipodi="http://sodipodi.sourceforge.net/DTD/sodipodi-0.dtd"
   xmlns:inkscape="http://www.inkscape.org/namespaces/inkscape"
   height="512"
   viewBox="0 0 512 512"
   width="512"
   version="1.1"
   id="svg2"
   inkscape:version="0.91 r"
   sodipodi:docname="jdownloader.svg">
  <defs
     id="defs17" />
  <sodipodi:namedview
     pagecolor="#ffffff"
     bordercolor="#666666"
     borderopacity="1"
     objecttolerance="10"
     gridtolerance="10"
     guidetolerance="10"
     inkscape:pageopacity="0"
     inkscape:pageshadow="2"
     inkscape:window-width="640"
     inkscape:window-height="480"
     id="namedview15"
     showgrid="false"
     inkscape:zoom="0.4609375"
     inkscape:cx="256"
     inkscape:cy="256"
     inkscape:window-x="0"
     inkscape:window-y="0"
     inkscape:window-maximized="0"
     inkscape:current-layer="svg2" />
  <metadata
     id="metadata74">
    <rdf:RDF>
      <cc:Work
         rdf:about="">
        <dc:format>image/svg+xml</dc:format>
        <dc:type
           rdf:resource="http://purl.org/dc/dcmitype/StillImage" />
      </cc:Work>
    </rdf:RDF>
  </metadata>
  <path
     style="fill:#DBDBDB;fill-rule:evenodd"
     inkscape:connector-curvature="0"
     d="m 307.97,41.09 -87.84,59.969 -47.41,-51.688 c -26.568,10.486 -50.608,26.01 -70.906,45.41 l 49.13,53.56 -115.25,78.69 c -1.01,8.529 -1.563,17.23 -1.563,26.03 0,14.991 -2.354,30.549 0.517,44.693 3.074,7.49 3.228,17.934 7.07,24.964 l 166.1,-112.41 69.56,75.844 -45.31,41.594 152.84,13.906 2.844,-156.81 -49.44,44.938 -61.19,-66.72 115.47,-78.66 c -24.337,-20.16 -53.1,-35.17 -84.62,-43.31"
     id="path12" />
  <g
     style="fill-opacity:0.12900002;fill-rule:evenodd"
     id="g16" />
</svg>
