<?xml version="1.0" encoding="UTF-8" standalone="no"?>
<svg
   xmlns:dc="http://purl.org/dc/elements/1.1/"
   xmlns:cc="http://creativecommons.org/ns#"
   xmlns:rdf="http://www.w3.org/1999/02/22-rdf-syntax-ns#"
   xmlns:svg="http://www.w3.org/2000/svg"
   xmlns="http://www.w3.org/2000/svg"
   xmlns:sodipodi="http://sodipodi.sourceforge.net/DTD/sodipodi-0.dtd"
   xmlns:inkscape="http://www.inkscape.org/namespaces/inkscape"
   viewBox="0 0 512 512"
   id="svg2"
   version="1.1"
   inkscape:version="0.91 r13725"
   sodipodi:docname="google-drive.svg">
  <metadata
     id="metadata30">
    <rdf:RDF>
      <cc:Work
         rdf:about="">
        <dc:format>image/svg+xml</dc:format>
        <dc:type
           rdf:resource="http://purl.org/dc/dcmitype/StillImage" />
        <dc:title></dc:title>
      </cc:Work>
    </rdf:RDF>
  </metadata>
  <defs
     id="defs28" />
  <sodipodi:namedview
     pagecolor="#ffffff"
     bordercolor="#666666"
     borderopacity="1"
     objecttolerance="10"
     gridtolerance="10"
     guidetolerance="10"
     inkscape:pageopacity="0"
     inkscape:pageshadow="2"
     inkscape:window-width="1680"
     inkscape:window-height="1021"
     id="namedview26"
     showgrid="false"
     inkscape:zoom="1.8310337"
     inkscape:cx="295.77768"
     inkscape:cy="235.65305"
     inkscape:window-x="1920"
     inkscape:window-y="0"
     inkscape:window-maximized="1"
     inkscape:current-layer="svg2" />
  <path
     inkscape:connector-curvature="0"
     id="path41"
     style="fill:#DBDBDB;fill-opacity:1;fill-rule:evenodd;stroke:none"
     d="m 199.24337,302.58915 204.95855,0 -51.22781,86.70413 -205.00585,0 m 51.27511,-86.70413" />
  <path
     style="fill:#DBDBDB;fill-opacity:1;fill-rule:evenodd;stroke:none"
     d="m 434.47541,289.26886 -102.50293,-173.45558 -102.45562,0 102.45562,173.45558"
     id="path4195"
     inkscape:connector-curvature="0" />
  <path
     style="fill:#DBDBDB;fill-opacity:1;fill-rule:evenodd;stroke:none"
     d="M 149.78465,348.72683 252.28758,175.27125 201.05977,88.567117 98.55684,262.02269"
     id="path4199"
     inkscape:connector-curvature="0" />
</svg>
