<?xml version="1.0" encoding="UTF-8" standalone="no"?>
<svg xmlns:dc="http://purl.org/dc/elements/1.1/" xmlns:cc="http://creativecommons.org/ns#" xmlns:rdf="http://www.w3.org/1999/02/22-rdf-syntax-ns#" xmlns:svg="http://www.w3.org/2000/svg" xmlns="http://www.w3.org/2000/svg" xmlns:sodipodi="http://sodipodi.sourceforge.net/DTD/sodipodi-0.dtd" xmlns:inkscape="http://www.inkscape.org/namespaces/inkscape" height="512" width="512" version="1.1" viewBox="0 0 512 512" id="svg2" inkscape:version="0.91 r" sodipodi:docname="audio-card.svg">
<defs id="defs94" />
<sodipodi:namedview pagecolor="#ffffff" bordercolor="#666666" borderopacity="1" objecttolerance="10" gridtolerance="10" guidetolerance="10" inkscape:pageopacity="0" inkscape:pageshadow="2" inkscape:window-width="1680" inkscape:window-height="994" id="namedview92" showgrid="false" inkscape:zoom="0.4609375" inkscape:cx="-17.355933" inkscape:cy="256" inkscape:window-x="0" inkscape:window-y="0" inkscape:window-maximized="1" inkscape:current-layer="svg2" />
<metadata id="metadata186">
<rdf:RDF>
<cc:Work rdf:about="">
<dc:format>image/svg+xml</dc:format>
<dc:type rdf:resource="http://purl.org/dc/dcmitype/StillImage" />
<dc:title />
</cc:Work>
</rdf:RDF>
</metadata>
<text id="text26" font-size="129.23" line-height="125%" y="223.07489" x="888.91772" word-spacing="0" letter-spacing="0" sodipodi:linespacing="125%" style="font-size:172.68836975px;line-height:125%;font-family:'Gentium Book Basic';letter-spacing:0;word-spacing:0">
<tspan id="tspan28" y="223.07489" x="888.91772" />
</text>
<text id="text30" transform="scale(4.0128205,0.24920128)" font-size="46.954" y="428.58267" x="484.87601" style="font-size:62.74370193px;font-family:Arial;text-anchor:middle" />
<text id="text32" font-size="129.23" line-height="125%" y="116.17193" x="1665.6614" word-spacing="0" letter-spacing="0" sodipodi:linespacing="125%" style="font-size:172.68836975px;line-height:125%;font-family:'Gentium Book Basic';letter-spacing:0;word-spacing:0">
<tspan id="tspan34" y="116.17193" x="1665.6614" />
</text>
<text id="text36" transform="scale(4.0128205,0.24920128)" font-size="46.954" y="-0.40336293" x="678.43622" style="font-size:62.74370193px;font-family:Arial;text-anchor:middle" />
<text id="text38" font-size="129.23" line-height="125%" y="-126.04481" x="233.72275" word-spacing="0" letter-spacing="0" sodipodi:linespacing="125%" style="font-size:172.68836975px;line-height:125%;font-family:'Gentium Book Basic';letter-spacing:0;word-spacing:0">
<tspan id="tspan40" y="-126.04481" x="233.72275" />
</text>
<text id="text42" transform="scale(4.0128205,0.24920128)" font-size="46.954" y="-972.36017" x="321.59592" style="font-size:62.74370193px;font-family:Arial;text-anchor:middle" />
<text id="text44" font-size="129.23" line-height="125%" y="-415.30954" x="1701.0328" word-spacing="0" letter-spacing="0" sodipodi:linespacing="125%" style="font-size:172.68836975px;line-height:125%;font-family:'Gentium Book Basic';letter-spacing:0;word-spacing:0">
<tspan id="tspan46" y="-415.30954" x="1701.0328" />
</text>
<text id="text48" transform="scale(4.0128205,0.24920128)" font-size="46.954" y="-2133.1467" x="687.25562" style="font-size:62.74370193px;font-family:Arial;text-anchor:middle" />
<text id="text50" font-size="129.23" line-height="125%" y="-522.22589" x="2477.7764" word-spacing="0" letter-spacing="0" sodipodi:linespacing="125%" style="font-size:172.68836975px;line-height:125%;font-family:'Gentium Book Basic';letter-spacing:0;word-spacing:0">
<tspan id="tspan52" y="-522.22589" x="2477.7764" />
</text>
<text id="text54" transform="scale(4.0128205,0.24920128)" font-size="46.954" y="-2562.146" x="880.81586" style="font-size:62.74370193px;font-family:Arial;text-anchor:middle" />
<text id="text56" font-size="129.23" line-height="125%" y="-1153.4879" x="1957.8004" word-spacing="0" letter-spacing="0" sodipodi:linespacing="125%" style="font-size:172.68836975px;line-height:125%;font-family:'Gentium Book Basic';letter-spacing:0;word-spacing:0">
<tspan id="tspan58" y="-1153.4879" x="1957.8004" />
</text>
<text id="text60" transform="scale(4.0128205,0.24920128)" font-size="46.954" y="-5095.2793" x="751.23676" style="font-size:62.74370193px;font-family:Arial;text-anchor:middle" />
<text id="text62" font-size="129.23" line-height="125%" y="-1260.3909" x="2734.5308" word-spacing="0" letter-spacing="0" sodipodi:linespacing="125%" style="font-size:172.68836975px;line-height:125%;font-family:'Gentium Book Basic';letter-spacing:0;word-spacing:0">
<tspan id="tspan64" y="-1260.3909" x="2734.5308" />
</text>
<text id="text66" transform="scale(4.0128205,0.24920128)" font-size="46.954" y="-5524.2651" x="944.797" style="font-size:62.74370193px;font-family:Arial;text-anchor:middle" />
<g id="g68" word-spacing="0" letter-spacing="0" transform="matrix(1.3362871,0,0,1.3362871,-86.090842,-86.088488)" style="font-family:'Gentium Book Basic';letter-spacing:0;word-spacing:0">
<text id="text70" y="535.94" x="277.98999" font-size="208.33" style="font-size:208.33000183px">
<tspan id="tspan72" y="535.94" x="277.98999" />
</text>
<text id="text74" y="-11.341" x="-307.17999" font-size="200" style="font-size:200px">
<tspan id="tspan76" y="-11.341" x="-307.17999" />
</text>
</g>
<text id="text78" transform="scale(4.0128205,0.24920128)" font-size="72.67" y="-1128.3575" x="283.84601" style="font-size:97.10748291px;font-family:Arial;text-anchor:middle" />
<text id="text80" font-size="200" line-height="125%" y="-30.229017" x="499.47018" word-spacing="0" letter-spacing="0" sodipodi:linespacing="125%" style="font-size:267.25741577px;line-height:125%;font-family:'Gentium Book Basic';letter-spacing:0;word-spacing:0">
<tspan id="tspan82" y="-30.229017" x="499.47018" />
</text>
<text id="text84" transform="scale(4.0128205,0.24920128)" font-size="72.67" y="-843.39575" x="532.06006" style="font-size:97.10748291px;font-family:Arial;text-anchor:middle" />
<text id="text86" font-size="200" line-height="125%" y="-195.69075" x="1701.6074" word-spacing="0" letter-spacing="0" sodipodi:linespacing="125%" style="font-size:267.25741577px;line-height:125%;font-family:'Gentium Book Basic';letter-spacing:0;word-spacing:0">
<tspan id="tspan88" y="-195.69075" x="1701.6074" />
</text>
<text id="text90" transform="scale(4.0128205,0.24920128)" font-size="72.67" y="-1507.34" x="831.62738" style="font-size:97.10748291px;font-family:Arial;text-anchor:middle" />
<text id="text92" font-size="200" line-height="125%" y="-266.01953" x="536.16461" word-spacing="0" letter-spacing="0" sodipodi:linespacing="125%" style="font-size:267.25741577px;line-height:125%;font-family:'Gentium Book Basic';letter-spacing:0;word-spacing:0">
<tspan id="tspan94" y="-266.01953" x="536.16461" />
</text>
<text id="text96" transform="scale(4.0128205,0.24920128)" font-size="72.67" y="-1789.589" x="541.2002" style="font-size:97.10748291px;font-family:Arial;text-anchor:middle" />
<text id="text98" font-size="200" line-height="125%" y="-431.47861" x="1738.3019" word-spacing="0" letter-spacing="0" sodipodi:linespacing="125%" style="font-size:267.25741577px;line-height:125%;font-family:'Gentium Book Basic';letter-spacing:0;word-spacing:0">
<tspan id="tspan100" y="-431.47861" x="1738.3019" />
</text>
<text id="text102" transform="scale(4.0128205,0.24920128)" font-size="72.67" y="-2453.5332" x="840.76752" style="font-size:97.10748291px;font-family:Arial;text-anchor:middle" />
<text id="text104" font-size="200" line-height="125%" y="337.82187" x="-3486.033" word-spacing="0" letter-spacing="0" sodipodi:linespacing="125%" style="font-size:267.25741577px;line-height:125%;font-family:'Gentium Book Basic';letter-spacing:0;word-spacing:0">
<tspan id="tspan106" y="337.82187" x="-3486.033" />
</text>
<text id="text108" transform="scale(4.0128205,0.24920128)" font-size="72.67" y="633.52795" x="-461.13025" style="font-size:97.10748291px;font-family:Arial;text-anchor:middle" />
<text id="text110" font-size="200" line-height="125%" y="23.219801" x="-909.29712" word-spacing="0" letter-spacing="0" sodipodi:linespacing="125%" style="font-size:267.25741577px;line-height:125%;font-family:'Gentium Book Basic';letter-spacing:0;word-spacing:0">
<tspan id="tspan112" y="23.219801" x="-909.29712" />
</text>
<text id="text114" transform="scale(4.0128205,0.24920128)" font-size="72.67" y="-628.90942" x="180.99251" style="font-size:97.10748291px;font-family:Arial;text-anchor:middle" />
<text id="text116" font-size="200" line-height="125%" y="94.230095" x="86.74453" word-spacing="0" letter-spacing="0" sodipodi:linespacing="125%" style="font-size:267.25741577px;line-height:125%;font-family:'Gentium Book Basic';letter-spacing:0;word-spacing:0">
<tspan id="tspan118" y="94.230095" x="86.74453" />
</text>
<text id="text120" transform="scale(4.0128205,0.24920128)" font-size="72.67" y="-343.93695" x="429.20657" style="font-size:97.10748291px;font-family:Arial;text-anchor:middle" />
<text id="text122" font-size="200" line-height="125%" y="-71.21962" x="1288.8817" word-spacing="0" letter-spacing="0" sodipodi:linespacing="125%" style="font-size:267.25741577px;line-height:125%;font-family:'Gentium Book Basic';letter-spacing:0;word-spacing:0">
<tspan id="tspan124" y="-71.21962" x="1288.8817" />
</text>
<text id="text126" transform="scale(4.0128205,0.24920128)" font-size="72.67" y="-1007.8785" x="728.77386" style="font-size:97.10748291px;font-family:Arial;text-anchor:middle" />
<text id="text128" font-size="200" line-height="125%" y="-141.55777" x="123.43898" word-spacing="0" letter-spacing="0" sodipodi:linespacing="125%" style="font-size:267.25741577px;line-height:125%;font-family:'Gentium Book Basic';letter-spacing:0;word-spacing:0">
<tspan id="tspan130" y="-141.55777" x="123.43898" />
</text>
<text id="text132" transform="scale(4.0128205,0.24920128)" font-size="72.67" y="-1290.141" x="438.34671" style="font-size:97.10748291px;font-family:Arial;text-anchor:middle" />
<text id="text134" font-size="200" line-height="125%" y="-307.01685" x="1325.5896" word-spacing="0" letter-spacing="0" sodipodi:linespacing="125%" style="font-size:267.25741577px;line-height:125%;font-family:'Gentium Book Basic';letter-spacing:0;word-spacing:0">
<tspan id="tspan136" y="-307.01685" x="1325.5896" />
</text>
<text id="text138" transform="scale(4.0128205,0.24920128)" font-size="72.67" y="-1954.0852" x="737.92743" style="font-size:97.10748291px;font-family:Arial;text-anchor:middle" />
<text id="text140" font-size="200" line-height="125%" y="462.28363" x="-3898.7583" word-spacing="0" letter-spacing="0" sodipodi:linespacing="125%" style="font-size:267.25741577px;line-height:125%;font-family:'Gentium Book Basic';letter-spacing:0;word-spacing:0">
<tspan id="tspan142" y="462.28363" x="-3898.7583" />
</text>
<text id="text144" transform="scale(4.0128205,0.24920128)" font-size="72.67" y="1132.9895" x="-563.9837" style="font-size:97.10748291px;font-family:Arial;text-anchor:middle" />
<text id="text146" font-size="200" line-height="125%" y="-132.93872" x="-1864.1678" word-spacing="0" letter-spacing="0" sodipodi:linespacing="125%" style="font-size:267.25741577px;line-height:125%;font-family:'Gentium Book Basic';letter-spacing:0;word-spacing:0">
<tspan id="tspan148" y="-132.93872" x="-1864.1678" />
</text>
<text id="text150" transform="scale(4.0128205,0.24920128)" font-size="72.67" y="-1255.5179" x="-56.960251" style="font-size:97.10748291px;font-family:Arial;text-anchor:middle" />
<text id="text152" font-size="200" line-height="125%" y="-61.915054" x="-868.1261" word-spacing="0" letter-spacing="0" sodipodi:linespacing="125%" style="font-size:267.25741577px;line-height:125%;font-family:'Gentium Book Basic';letter-spacing:0;word-spacing:0">
<tspan id="tspan154" y="-61.915054" x="-868.1261" />
</text>
<text id="text156" transform="scale(4.0128205,0.24920128)" font-size="72.67" y="-970.55621" x="191.25513" style="font-size:97.10748291px;font-family:Arial;text-anchor:middle" />
<text id="text158" font-size="200" line-height="125%" y="-227.37413" x="334.01111" word-spacing="0" letter-spacing="0" sodipodi:linespacing="125%" style="font-size:267.25741577px;line-height:125%;font-family:'Gentium Book Basic';letter-spacing:0;word-spacing:0">
<tspan id="tspan160" y="-227.37413" x="334.01111" />
</text>
<text id="text162" transform="scale(4.0128205,0.24920128)" font-size="72.67" y="-1634.5005" x="490.82242" style="font-size:97.10748291px;font-family:Arial;text-anchor:middle" />
<text id="text164" font-size="200" line-height="125%" y="-297.71628" x="-831.4317" word-spacing="0" letter-spacing="0" sodipodi:linespacing="125%" style="font-size:267.25741577px;line-height:125%;font-family:'Gentium Book Basic';letter-spacing:0;word-spacing:0">
<tspan id="tspan166" y="-297.71628" x="-831.4317" />
</text>
<text id="text168" transform="scale(4.0128205,0.24920128)" font-size="72.67" y="-1916.7629" x="200.39531" style="font-size:97.10748291px;font-family:Arial;text-anchor:middle" />
<text id="text170" font-size="200" line-height="125%" y="-463.16196" x="370.7189" word-spacing="0" letter-spacing="0" sodipodi:linespacing="125%" style="font-size:267.25741577px;line-height:125%;font-family:'Gentium Book Basic';letter-spacing:0;word-spacing:0">
<tspan id="tspan172" y="-463.16196" x="370.7189" />
</text>
<text id="text174" transform="scale(4.0128205,0.24920128)" font-size="72.67" y="-2580.6936" x="499.96262" style="font-size:97.10748291px;font-family:Arial;text-anchor:middle" />
<text id="text176" font-size="200" line-height="125%" y="306.13849" x="-4853.6289" word-spacing="0" letter-spacing="0" sodipodi:linespacing="125%" style="font-size:267.25741577px;line-height:125%;font-family:'Gentium Book Basic';letter-spacing:0;word-spacing:0">
<tspan id="tspan178" y="306.13849" x="-4853.6289" />
</text>
<text id="text180" transform="scale(4.0128205,0.24920128)" font-size="72.67" y="506.36758" x="-801.93518" style="font-size:97.10748291px;font-family:Arial;text-anchor:middle" />
<path id="path182" d="m 31.86322,84.996349 0,14.156626 26.765831,0 0,327.844675 14.156625,0 0,-341.995956 -40.918447,0 m 53.999362,92.377526 0,34.78355 25.682099,0 0,26.84601 -25.682099,0 0,26.30882 25.682099,0 0,25.6821 -25.682099,0 0,26.30882 25.682099,0 0,26.93955 -25.682099,0 0,36.37374 41.758969,0 0,-24.13335 66.48029,0 0,24.30706 29.4384,0 0,-24.30706 15.07465,0 0,24.30706 97.62914,0 0,-24.30706 15.53434,0 0,24.30706 27.68653,0 0,-24.30706 100.67587,0 0,-179.10256 -394.284871,0" inkscape:connector-curvature="0" style="fill:#DBDBDB" />
</svg>
