<?xml version="1.0" encoding="UTF-8" standalone="no"?>
<svg
   xmlns:dc="http://purl.org/dc/elements/1.1/"
   xmlns:cc="http://creativecommons.org/ns#"
   xmlns:rdf="http://www.w3.org/1999/02/22-rdf-syntax-ns#"
   xmlns:svg="http://www.w3.org/2000/svg"
   xmlns="http://www.w3.org/2000/svg"
   xmlns:sodipodi="http://sodipodi.sourceforge.net/DTD/sodipodi-0.dtd"
   xmlns:inkscape="http://www.inkscape.org/namespaces/inkscape"
   height="512"
   viewBox="0 0 512 512"
   width="512"
   version="1.1"
   id="svg2"
   inkscape:version="0.91 r13725"
   sodipodi:docname="lash.svg">
  <defs
     id="defs17" />
  <sodipodi:namedview
     pagecolor="#ffffff"
     bordercolor="#666666"
     borderopacity="1"
     objecttolerance="10"
     gridtolerance="10"
     guidetolerance="10"
     inkscape:pageopacity="0"
     inkscape:pageshadow="2"
     inkscape:window-width="1920"
     inkscape:window-height="1022"
     id="namedview15"
     showgrid="false"
     inkscape:zoom="0.6433966"
     inkscape:cx="12.729173"
     inkscape:cy="151.80409"
     inkscape:window-x="0"
     inkscape:window-y="0"
     inkscape:window-maximized="1"
     inkscape:current-layer="svg2" />
  <metadata
     id="metadata28">
    <rdf:RDF>
      <cc:Work
         rdf:about="">
        <dc:format>image/svg+xml</dc:format>
        <dc:type
           rdf:resource="http://purl.org/dc/dcmitype/StillImage" />
        <dc:title></dc:title>
      </cc:Work>
    </rdf:RDF>
  </metadata>
  <path
     id="path91"
     style="fill:#DBDBDB;fill-opacity:1;fill-rule:nonzero;stroke:none"
     d="m 161.97697,372.83529 56.4663,0 c 0.17123,0 0.2854,0.0572 0.2854,0.0572 l 0,28.42578 c 0,0 -0.11417,0.0572 -0.2854,0.0572 l -56.4663,0 c -0.17124,0 -0.32821,-0.0572 -0.32821,-0.0572 l 0,-28.42578 c 0,0 0.17123,-0.0572 0.32821,-0.0572 m 0,0"
     inkscape:connector-curvature="0" />
  <path
     id="path93"
     style="fill:#DBDBDB;fill-opacity:1;fill-rule:nonzero;stroke:none"
     d="m 161.97697,329.79705 56.4663,0 c 0.17123,0 0.2854,0.057 0.2854,0.057 l 0,28.4258 c 0,0 -0.11417,0.0572 -0.2854,0.0572 l -56.4663,0 c -0.17124,0 -0.32821,-0.0572 -0.32821,-0.0572 l 0,-28.4258 c 0,0 0.17123,-0.057 0.32821,-0.057 m 0,0"
     inkscape:connector-curvature="0" />
  <path
     id="path95"
     style="fill:#DBDBDB;fill-opacity:1;fill-rule:nonzero;stroke:none"
     d="m 161.97697,287.50084 56.4663,0 c 0.17123,0 0.2854,0 0.2854,0.057 l 0,28.04051 c 0,0.0572 -0.11417,0.0572 -0.2854,0.0572 l -56.4663,0 c -0.17124,0 -0.32821,0 -0.32821,-0.0572 l 0,-28.04051 c 0,-0.057 0.17123,-0.057 0.32821,-0.057 m 0,0"
     inkscape:connector-curvature="0" />
  <path
     id="path97"
     style="fill:#DBDBDB;fill-opacity:1;fill-rule:nonzero;stroke:none"
     d="m 161.97697,244.4055 56.4663,0 c 0.17123,0 0.2854,0.057 0.2854,0.057 l 0,27.86926 c 0,0 -0.11417,0.0572 -0.2854,0.0572 l -56.4663,0 c -0.17124,0 -0.32821,-0.0572 -0.32821,-0.0572 l 0,-27.86926 c 0,0 0.17123,-0.057 0.32821,-0.057 m 0,0"
     inkscape:connector-curvature="0" />
  <path
     id="path99"
     style="fill:#DBDBDB;fill-opacity:1;fill-rule:nonzero;stroke:none"
     d="m 161.97697,201.59557 56.4663,0 c 0.17123,0 0.2854,0 0.2854,0.0572 l 0,27.69802 c 0,0 -0.11417,0.0572 -0.2854,0.0572 l -56.4663,0 c -0.17124,0 -0.32821,-0.0572 -0.32821,-0.0572 l 0,-27.69802 c 0,-0.0572 0.17123,-0.0572 0.32821,-0.0572 m 0,0"
     inkscape:connector-curvature="0" />
  <path
     id="path101"
     style="fill:#DBDBDB;fill-opacity:1;fill-rule:nonzero;stroke:none"
     d="m 304.67674,372.97799 56.52337,0 c 0.17124,0 0.2854,0 0.2854,0.0572 l 0,28.21173 c 0,0 -0.11416,0.0572 -0.2854,0.0572 l -56.52337,0 c -0.17125,0 -0.2854,-0.0572 -0.2854,-0.0572 l 0,-28.21173 c 0,-0.0572 0.11416,-0.0572 0.2854,-0.0572 m 0,0"
     inkscape:connector-curvature="0" />
  <path
     id="path103"
     style="fill:#DBDBDB;fill-opacity:1;fill-rule:nonzero;stroke:none"
     d="m 304.67674,330.31077 56.52337,0 c 0.17124,0 0.2854,0.057 0.2854,0.057 l 0,28.04051 c 0,0.0571 -0.11416,0.0571 -0.2854,0.0571 l -56.52337,0 c -0.17125,0 -0.2854,0 -0.2854,-0.0571 l 0,-28.04051 c 0,0 0.11416,-0.057 0.2854,-0.057 m 0,0"
     inkscape:connector-curvature="0" />
  <path
     id="path105"
     style="fill:#DBDBDB;fill-opacity:1;fill-rule:nonzero;stroke:none"
     d="m 304.67674,287.92893 56.52337,0 c 0.17124,0 0.2854,0.0572 0.2854,0.0572 l 0,27.92635 c 0,0 -0.11416,0.0572 -0.2854,0.0572 l -56.52337,0 c -0.17125,0 -0.2854,-0.0572 -0.2854,-0.0572 l 0,-27.92635 c 0,0 0.11416,-0.0572 0.2854,-0.0572 m 0,0"
     inkscape:connector-curvature="0" />
  <path
     id="path107"
     style="fill:#DBDBDB;fill-opacity:1;fill-rule:nonzero;stroke:none"
     d="m 304.67674,245.119 56.52337,0 c 0.17124,0 0.2854,0 0.2854,0.0572 l 0,27.69803 c 0,0 -0.11416,0.057 -0.2854,0.057 l -56.52337,0 c -0.17125,0 -0.2854,-0.057 -0.2854,-0.057 l 0,-27.69803 c 0,-0.0572 0.11416,-0.0572 0.2854,-0.0572 m 0,0"
     inkscape:connector-curvature="0" />
  <path
     id="path109"
     style="fill:#DBDBDB;fill-opacity:1;fill-rule:nonzero;stroke:none"
     d="m 304.67674,202.45177 56.52337,0 c 0.17124,0 0.2854,0.0572 0.2854,0.0572 l 0,27.48397 c 0,0.0572 -0.11416,0.0572 -0.2854,0.0572 l -56.52337,0 c -0.17125,0 -0.2854,0 -0.2854,-0.0572 l 0,-27.48397 c 0,0 0.11416,-0.0572 0.2854,-0.0572 m 0,0"
     inkscape:connector-curvature="0" />
  <path
     id="path111"
     style="fill:#DBDBDB;fill-opacity:1;fill-rule:nonzero;stroke:none"
     d="m 304.67674,158.78564 56.52337,0 c 0.17124,0 0.2854,0.0572 0.2854,0.0572 l 0,28.42579 c 0,0.0572 -0.11416,0.0572 -0.2854,0.0572 l -56.52337,0 c -0.17125,0 -0.2854,0 -0.2854,-0.0572 l 0,-28.42579 c 0,0 0.11416,-0.0572 0.2854,-0.0572 m 0,0"
     inkscape:connector-curvature="0" />
  <path
     id="path113"
     style="fill:#DBDBDB;fill-opacity:1;fill-rule:nonzero;stroke:none"
     d="m 376.02661,372.83529 56.52338,0 c 0.17124,0 0.2854,0.0572 0.2854,0.0572 l 0,28.42578 c 0,0 -0.11417,0.0572 -0.2854,0.0572 l -56.52338,0 c -0.17123,0 -0.2854,-0.0572 -0.2854,-0.0572 l 0,-28.42578 c 0,0 0.11417,-0.0572 0.2854,-0.0572 m 0,0"
     inkscape:connector-curvature="0" />
  <path
     id="path115"
     style="fill:#DBDBDB;fill-opacity:1;fill-rule:nonzero;stroke:none"
     d="m 376.02661,330.02537 56.52338,0 c 0.17124,0 0.2854,0 0.2854,0.057 l 0,28.25456 c 0,0 -0.11417,0.0572 -0.2854,0.0572 l -56.52338,0 c -0.17123,0 -0.2854,-0.0572 -0.2854,-0.0572 l 0,-28.25456 c 0,-0.057 0.11417,-0.057 0.2854,-0.057 m 0,0"
     inkscape:connector-curvature="0" />
  <path
     id="path117"
     style="fill:#DBDBDB;fill-opacity:1;fill-rule:nonzero;stroke:none"
     d="m 376.02661,287.50084 56.52338,0 c 0.17124,0 0.2854,0 0.2854,0.057 l 0,28.04051 c 0,0.0572 -0.11417,0.0572 -0.2854,0.0572 l -56.52338,0 c -0.17123,0 -0.2854,0 -0.2854,-0.0572 l 0,-28.04051 c 0,-0.057 0.11417,-0.057 0.2854,-0.057 m 0,0"
     inkscape:connector-curvature="0" />
  <path
     id="path119"
     style="fill:#DBDBDB;fill-opacity:1;fill-rule:nonzero;stroke:none"
     d="m 376.02661,244.4055 56.52338,0 c 0.17124,0 0.2854,0.057 0.2854,0.057 l 0,27.86926 c 0,0 -0.11417,0.0572 -0.2854,0.0572 l -56.52338,0 c -0.17123,0 -0.2854,-0.0572 -0.2854,-0.0572 l 0,-27.86926 c 0,0 0.11417,-0.057 0.2854,-0.057 m 0,0"
     inkscape:connector-curvature="0" />
  <path
     id="path121"
     style="fill:#DBDBDB;fill-opacity:1;fill-rule:nonzero;stroke:none"
     d="m 376.02661,201.59557 56.52338,0 c 0.17124,0 0.2854,0 0.2854,0.0572 l 0,27.69802 c 0,0 -0.11417,0.0572 -0.2854,0.0572 l -56.52338,0 c -0.17123,0 -0.2854,-0.0572 -0.2854,-0.0572 l 0,-27.69802 c 0,-0.0572 0.11417,-0.0572 0.2854,-0.0572 m 0,0"
     inkscape:connector-curvature="0" />
  <path
     id="path123"
     style="fill:#DBDBDB;fill-opacity:1;fill-rule:nonzero;stroke:none"
     d="m 233.32685,372.83529 56.46629,0 c 0.17125,0 0.2854,0.0572 0.2854,0.0572 l 0,28.42578 c 0,0 -0.11417,0.0572 -0.2854,0.0572 l -56.46629,0 c -0.17124,0 -0.3282,-0.0572 -0.3282,-0.0572 l 0,-28.42578 c 0,0 0.17123,-0.0572 0.3282,-0.0572 m 0,0"
     inkscape:connector-curvature="0" />
  <path
     id="path125"
     style="fill:#DBDBDB;fill-opacity:1;fill-rule:nonzero;stroke:none"
     d="m 233.32685,330.02537 56.46629,0 c 0.17125,0 0.2854,0 0.2854,0.057 l 0,28.25456 c 0,0 -0.11417,0.0572 -0.2854,0.0572 l -56.46629,0 c -0.17124,0 -0.3282,-0.0572 -0.3282,-0.0572 l 0,-28.25456 c 0,-0.057 0.17123,-0.057 0.3282,-0.057 m 0,0"
     inkscape:connector-curvature="0" />
  <path
     id="path127"
     style="fill:#DBDBDB;fill-opacity:1;fill-rule:nonzero;stroke:none"
     d="m 233.32685,287.50084 56.46629,0 c 0.17125,0 0.2854,0 0.2854,0.057 l 0,28.04051 c 0,0.0572 -0.11417,0.0572 -0.2854,0.0572 l -56.46629,0 c -0.17124,0 -0.3282,0 -0.3282,-0.0572 l 0,-28.04051 c 0,-0.057 0.17123,-0.057 0.3282,-0.057 m 0,0"
     inkscape:connector-curvature="0" />
  <path
     id="path129"
     style="fill:#DBDBDB;fill-opacity:1;fill-rule:nonzero;stroke:none"
     d="m 90.627094,372.83529 56.466286,0 c 0.17125,0 0.2854,0.0572 0.2854,0.0572 l 0,28.42578 c 0,0 -0.11417,0.0572 -0.2854,0.0572 l -56.466286,0 c -0.17124,0 -0.32821,-0.0572 -0.32821,-0.0572 l 0,-28.42578 c 0,0 0.17124,-0.0572 0.32821,-0.0572 m 0,0"
     inkscape:connector-curvature="0" />
  <path
     id="path131"
     style="fill:#DBDBDB;fill-opacity:1;fill-rule:nonzero;stroke:none"
     d="m 90.627094,330.31077 56.466286,0 c 0.17125,0 0.2854,0.057 0.2854,0.057 l 0,28.09759 c 0,0 -0.11417,0 -0.2854,0 l -56.466286,0 c -0.17124,0 -0.32821,0 -0.32821,0 l 0,-28.09759 c 0,0 0.17124,-0.057 0.32821,-0.057 m 0,0"
     inkscape:connector-curvature="0" />
  <path
     id="path133"
     style="fill:#DBDBDB;fill-opacity:1;fill-rule:nonzero;stroke:none"
     d="m 90.627094,287.78624 56.466286,0 c 0.17125,0 0.2854,0 0.2854,0 l 0,27.92633 c 0,0.057 -0.11417,0.057 -0.2854,0.057 l -56.466286,0 c -0.17124,0 -0.32821,0 -0.32821,-0.057 l 0,-27.92633 c 0,0 0.17124,0 0.32821,0 m 0,0"
     inkscape:connector-curvature="0" />
  <path
     id="path135"
     style="fill:#DBDBDB;fill-opacity:1;fill-rule:nonzero;stroke:none"
     d="m 90.627094,245.119 56.466286,0 c 0.17125,0 0.2854,0 0.2854,0.0572 l 0,27.69803 c 0,0 -0.11417,0.057 -0.2854,0.057 l -56.466286,0 c -0.17124,0 -0.32821,-0.057 -0.32821,-0.057 l 0,-27.69803 c 0,-0.0572 0.17124,-0.0572 0.32821,-0.0572 m 0,0"
     inkscape:connector-curvature="0" />
  <path
     id="path137"
     style="fill:#DBDBDB;fill-opacity:1;fill-rule:nonzero;stroke:none"
     d="m 90.627094,202.45177 56.466286,0 c 0.17125,0 0.2854,0.0572 0.2854,0.0572 l 0,27.54106 c 0,0 -0.11417,0 -0.2854,0 l -56.466286,0 c -0.17124,0 -0.32821,0 -0.32821,0 l 0,-27.54106 c 0,0 0.17124,-0.0572 0.32821,-0.0572 m 0,0"
     inkscape:connector-curvature="0" />
  <path
     id="path139"
     style="fill:#DBDBDB;fill-opacity:1;fill-rule:nonzero;stroke:none"
     d="m 90.627094,158.78564 56.466286,0 c 0.17125,0 0.2854,0 0.2854,0.0572 l 0,28.36871 c 0,0.0571 -0.11417,0.0571 -0.2854,0.0571 l -56.466286,0 c -0.17124,0 -0.32821,0 -0.32821,-0.0571 l 0,-28.36871 c 0,-0.0572 0.17124,-0.0572 0.32821,-0.0572 m 0,0"
     inkscape:connector-curvature="0" />
  <path
     id="path141"
     style="fill:#DBDBDB;fill-opacity:1;fill-rule:nonzero;stroke:none"
     d="m 90.627094,115.97572 56.466286,0 c 0.17125,0 0.2854,0.0571 0.2854,0.0571 l 0,28.4258 c 0,0 -0.11417,0.0572 -0.2854,0.0572 l -56.466286,0 c -0.17124,0 -0.32821,-0.0572 -0.32821,-0.0572 l 0,-28.4258 c 0,0 0.17124,-0.0571 0.32821,-0.0571 m 0,0"
     inkscape:connector-curvature="0" />
</svg>
