<?xml version="1.0" encoding="UTF-8" standalone="no"?>
<svg
   xmlns:dc="http://purl.org/dc/elements/1.1/"
   xmlns:cc="http://creativecommons.org/ns#"
   xmlns:rdf="http://www.w3.org/1999/02/22-rdf-syntax-ns#"
   xmlns:svg="http://www.w3.org/2000/svg"
   xmlns="http://www.w3.org/2000/svg"
   xmlns:sodipodi="http://sodipodi.sourceforge.net/DTD/sodipodi-0.dtd"
   xmlns:inkscape="http://www.inkscape.org/namespaces/inkscape"
   height="512"
   viewBox="0 0 512 512"
   width="512"
   version="1.1"
   id="svg2"
   inkscape:version="0.91 r"
   sodipodi:docname="unity-webapps-lastfm.svg">
  <defs
     id="defs15" />
  <sodipodi:namedview
     pagecolor="#ffffff"
     bordercolor="#666666"
     borderopacity="1"
     objecttolerance="10"
     gridtolerance="10"
     guidetolerance="10"
     inkscape:pageopacity="0"
     inkscape:pageshadow="2"
     inkscape:window-width="640"
     inkscape:window-height="480"
     id="namedview13"
     showgrid="false"
     inkscape:zoom="0.4609375"
     inkscape:cx="256"
     inkscape:cy="256"
     inkscape:window-x="0"
     inkscape:window-y="0"
     inkscape:window-maximized="0"
     inkscape:current-layer="svg2" />
  <metadata
     id="metadata72">
    <rdf:RDF>
      <cc:Work
         rdf:about="">
        <dc:format>image/svg+xml</dc:format>
        <dc:type
           rdf:resource="http://purl.org/dc/dcmitype/StillImage" />
      </cc:Work>
    </rdf:RDF>
  </metadata>
  <path
     id="path66"
     fill="#DBDBDB"
     d="m196.84 167.16c-30.737 0.695-60.97 17.902-75.906 48.719-21.992 45.38-3.743 99.23 40.906 120.66 6.847 3.286 17.15 6.645 22.906 7.438 20.507 2.825 39.624-1.049 56.28-11.375 10.956-6.791 22.906-17.797 22.906-21.09 0-1.116-2.364-7.458-5.281-14.09l-5.313-12.06-2.688 4.375c-5.162 8.44-17.824 19.75-27.25 24.313-8.18 3.959-11.763 4.594-25.625 4.594-14.385 0-17.229-0.553-26.25-5.125-12.519-6.345-23.858-18.12-29.625-30.781-3.805-8.354-4.375-11.967-4.375-27.16 0-15.896 0.458-18.467 4.969-27.656 5.51-11.226 17.251-23.537 27.625-29 10.756-5.664 27.21-7.976 38.969-5.469 23.293 4.967 37.3 17.597 48.19 43.47 26.26 62.41 34.461 79.51 42.531 88.63 12.01 13.57 21.659 17.497 43.06 17.531 15.05 0.024 18.12-0.531 27.344-4.906 20.256-9.613 30.388-25.882 30.16-48.44-0.268-26.16-11.141-37.411-48.19-49.906-26.835-9.05-32.25-13.555-32.25-26.75 0-13.23 8.467-21.438 22.09-21.438 7.879 0 12.364 1.958 18.969 8.313 3.249 3.124 5.667 4.098 8.469 3.344 5.346-1.44 14.969-7.706 14.969-9.75 0-4.222-16.609-18.975-24.5-21.75-18.628-6.552-39.706-2.141-51.906 10.844-8.476 9.02-11.825 17.876-11.813 31.09 0.027 24.638 12.249 37.01 50.03 50.563 24.812 8.902 29.688 13.362 29.688 27.16 0 16.37-13.507 28.06-32.469 28.06-11.589 0-17.607-2.111-24.09-8.438-6.086-5.936-9.574-13.04-28.313-57.656-17.914-42.652-23.24-52.31-35.16-63.59-16.757-15.879-38.03-23.13-59.06-22.656" />
</svg>
