<?xml version="1.0" encoding="UTF-8" standalone="no"?>
<svg
   xmlns:dc="http://purl.org/dc/elements/1.1/"
   xmlns:cc="http://creativecommons.org/ns#"
   xmlns:rdf="http://www.w3.org/1999/02/22-rdf-syntax-ns#"
   xmlns:svg="http://www.w3.org/2000/svg"
   xmlns="http://www.w3.org/2000/svg"
   xmlns:sodipodi="http://sodipodi.sourceforge.net/DTD/sodipodi-0.dtd"
   xmlns:inkscape="http://www.inkscape.org/namespaces/inkscape"
   height="512"
   viewBox="0 0 512 512"
   width="512"
   version="1.1"
   id="svg2"
   inkscape:version="0.91 r"
   sodipodi:docname="dc++.svg">
  <defs
     id="defs16" />
  <sodipodi:namedview
     pagecolor="#ffffff"
     bordercolor="#666666"
     borderopacity="1"
     objecttolerance="10"
     gridtolerance="10"
     guidetolerance="10"
     inkscape:pageopacity="0"
     inkscape:pageshadow="2"
     inkscape:window-width="640"
     inkscape:window-height="480"
     id="namedview14"
     showgrid="false"
     inkscape:zoom="0.4609375"
     inkscape:cx="256"
     inkscape:cy="256"
     inkscape:window-x="0"
     inkscape:window-y="0"
     inkscape:window-maximized="0"
     inkscape:current-layer="svg2" />
  <metadata
     id="metadata82">
    <rdf:RDF>
      <cc:Work
         rdf:about="">
        <dc:format>image/svg+xml</dc:format>
        <dc:type
           rdf:resource="http://purl.org/dc/dcmitype/StillImage" />
      </cc:Work>
    </rdf:RDF>
  </metadata>
  <path
     id="path78"
     fill="#DBDBDB"
     d="m188.4 106.93a79.215 79.215 0 0 0 -81.519 79.182 79.215 79.215 0 0 0 56.132 75.622c15.525-14.758 35.991-24.22 57.786-24.2 6.01-0.209 12.01 0.341 17.944 1.33-0.51-2.773-0.918-5.579-1.115-8.414-2.702-24.954 7.234-49.5 24.13-67.46a79.215 79.215 0 0 0 -73.356 -56.06m139.81 37.254a79.215 79.215 0 0 0 -81.519 79.182 79.218 79.218 0 0 0 158.44 0 79.215 79.215 0 0 0 -76.916 -79.182m-102.52 102.52a79.215 79.215 0 0 0 -81.519 79.182 79.218 79.218 0 0 0 158.44 0 79.215 79.215 0 0 0 -2.0137 -17.512c-27.786-8.606-50.89-31.751-59.51-59.656a79.215 79.215 0 0 0 -15.39 -2.0137"
     color="#000000" />
</svg>
