<?xml version="1.0" encoding="UTF-8" standalone="no"?>
<svg
   xmlns:dc="http://purl.org/dc/elements/1.1/"
   xmlns:cc="http://creativecommons.org/ns#"
   xmlns:rdf="http://www.w3.org/1999/02/22-rdf-syntax-ns#"
   xmlns:svg="http://www.w3.org/2000/svg"
   xmlns="http://www.w3.org/2000/svg"
   xmlns:sodipodi="http://sodipodi.sourceforge.net/DTD/sodipodi-0.dtd"
   xmlns:inkscape="http://www.inkscape.org/namespaces/inkscape"
   height="512"
   viewBox="0 0 512 512"
   width="512"
   version="1.1"
   id="svg2"
   inkscape:version="0.91 r"
   sodipodi:docname="list-add-user.svg">
  <defs
     id="defs149" />
  <sodipodi:namedview
     pagecolor="#ffffff"
     bordercolor="#666666"
     borderopacity="1"
     objecttolerance="10"
     gridtolerance="10"
     guidetolerance="10"
     inkscape:pageopacity="0"
     inkscape:pageshadow="2"
     inkscape:window-width="647"
     inkscape:window-height="480"
     id="namedview147"
     showgrid="false"
     inkscape:zoom="0.4609375"
     inkscape:cx="256"
     inkscape:cy="256"
     inkscape:window-x="0"
     inkscape:window-y="0"
     inkscape:window-maximized="0"
     inkscape:current-layer="svg2" />
  <metadata
     id="metadata292">
    <rdf:RDF>
      <cc:Work
         rdf:about="">
        <dc:format>image/svg+xml</dc:format>
        <dc:type
           rdf:resource="http://purl.org/dc/dcmitype/StillImage" />
      </cc:Work>
    </rdf:RDF>
  </metadata>
  <text
     id="text20"
     font-size="129.23"
     line-height="125%"
     y="231.36"
     x="729.64"
     font-family="Gentium Book Basic"
     word-spacing="0"
     letter-spacing="0">
    <tspan
       id="tspan22"
       y="231.36"
       x="729.64" />
  </text>
  <text
     id="text24"
     font-size="46.954"
     transform="scale(4.0128 .2492)"
     y="579.25"
     x="378.91"
     font-family="Arial"
     text-anchor="middle" />
  <text
     id="text26"
     font-size="129.23"
     line-height="125%"
     y="151.36"
     x="1310.91"
     font-family="Gentium Book Basic"
     word-spacing="0"
     letter-spacing="0">
    <tspan
       id="tspan28"
       y="151.36"
       x="1310.91" />
  </text>
  <text
     id="text30"
     font-size="46.954"
     transform="scale(4.0128 .2492)"
     y="258.22"
     x="523.76"
     font-family="Arial"
     text-anchor="middle" />
  <text
     id="text32"
     font-size="129.23"
     line-height="125%"
     y="-29.901"
     x="239.33"
     font-family="Gentium Book Basic"
     word-spacing="0"
     letter-spacing="0">
    <tspan
       id="tspan34"
       y="-29.901"
       x="239.33" />
  </text>
  <text
     id="text36"
     font-size="46.954"
     transform="scale(4.0128 .2492)"
     y="-469.14"
     x="256.72"
     font-family="Arial"
     text-anchor="middle" />
  <text
     id="text38"
     font-size="129.23"
     line-height="125%"
     y="-246.37"
     x="1337.38"
     font-family="Gentium Book Basic"
     word-spacing="0"
     letter-spacing="0">
    <tspan
       id="tspan40"
       y="-246.37"
       x="1337.38" />
  </text>
  <text
     id="text42"
     font-size="46.954"
     transform="scale(4.0128 .2492)"
     y="-1337.81"
     x="530.36"
     font-family="Arial"
     text-anchor="middle" />
  <text
     id="text44"
     font-size="129.23"
     line-height="125%"
     y="-326.38"
     x="1918.65"
     font-family="Gentium Book Basic"
     word-spacing="0"
     letter-spacing="0">
    <tspan
       id="tspan46"
       y="-326.38"
       x="1918.65" />
  </text>
  <text
     id="text48"
     font-size="46.954"
     transform="scale(4.0128 .2492)"
     y="-1658.85"
     x="675.21"
     font-family="Arial"
     text-anchor="middle" />
  <text
     id="text50"
     font-size="129.23"
     line-height="125%"
     y="-798.78"
     x="1529.53"
     font-family="Gentium Book Basic"
     word-spacing="0"
     letter-spacing="0">
    <tspan
       id="tspan52"
       y="-798.78"
       x="1529.53" />
  </text>
  <text
     id="text54"
     font-size="46.954"
     transform="scale(4.0128 .2492)"
     y="-3554.51"
     x="578.24"
     font-family="Arial"
     text-anchor="middle" />
  <text
     id="text56"
     font-size="129.23"
     line-height="125%"
     y="-878.78"
     x="2110.79"
     font-family="Gentium Book Basic"
     word-spacing="0"
     letter-spacing="0">
    <tspan
       id="tspan58"
       y="-878.78"
       x="2110.79" />
  </text>
  <text
     id="text60"
     font-size="46.954"
     transform="scale(4.0128 .2492)"
     y="-3875.54"
     x="723.09"
     font-family="Arial"
     text-anchor="middle" />
  <g
     id="g62"
     font-family="Gentium Book Basic"
     line-height="125%"
     word-spacing="0"
     letter-spacing="0">
    <text
       id="text64"
       y="535.94"
       x="277.99"
       font-size="208.33">
      <tspan
         id="tspan66"
         y="535.94"
         x="277.99" />
    </text>
    <text
       id="text68"
       y="1333.14"
       x="-27857.79"
       font-size="4848.5">
      <tspan
         id="tspan70"
         y="1333.14"
         x="-27857.79" />
    </text>
  </g>
  <text
     id="text72"
     font-size="1761.8"
     transform="scale(4.0128 .2492)"
     y="-7750.68"
     x="452.3"
     font-family="Arial"
     text-anchor="middle" />
  <text
     id="text74"
     font-size="4848.5"
     line-height="125%"
     y="2245.22"
     x="-27992.54"
     font-family="Gentium Book Basic"
     word-spacing="0"
     letter-spacing="0">
    <tspan
       id="tspan76"
       y="2245.22"
       x="-27992.54" />
  </text>
  <text
     id="text78"
     font-size="1761.8"
     transform="scale(4.0128 .2492)"
     y="-4090.74"
     x="418.77"
     font-family="Arial"
     text-anchor="middle" />
  <g
     id="g80"
     fill="#555753">
    <text
       id="text82"
       transform="scale(1.0508 .95163)"
       font-size="2976.2"
       y="-4803.86"
       x="-13493.03"
       font-family="Gentium Book Basic"
       line-height="125%"
       word-spacing="0"
       letter-spacing="0">
      <tspan
         id="tspan84"
         y="-4803.86"
         x="-13493.03" />
    </text>
    <text
       id="text86"
       font-size="1081.5"
       transform="scale(4.2168 .23715)"
       y="-27318.7"
       x="1176.55"
       font-family="Arial"
       text-anchor="middle" />
    <text
       id="text88"
       transform="scale(1.0508 .95163)"
       font-size="1593.3"
       y="-5628.9"
       x="-4089.96"
       font-family="Gentium Book Basic"
       line-height="125%"
       word-spacing="0"
       letter-spacing="0">
      <tspan
         id="tspan90"
         y="-5628.9"
         x="-4089.96" />
    </text>
    <text
       id="text92"
       font-size="578.9"
       transform="scale(4.2168 .23715)"
       y="-26892.56"
       x="1410.66"
       font-family="Arial"
       text-anchor="middle" />
    <text
       id="text94"
       font-size="4654.7"
       line-height="125%"
       y="-1780.6"
       x="-40192.67"
       font-family="Gentium Book Basic"
       word-spacing="0"
       letter-spacing="0">
      <tspan
         id="tspan96"
         y="-1780.6"
         x="-40192.67" />
    </text>
    <text
       id="text98"
       font-size="1691.2"
       transform="scale(4.0128 .2492)"
       y="-19720.97"
       x="-2917.18"
       font-family="Arial"
       text-anchor="middle" />
  </g>
  <g
     id="g100">
    <text
       id="text102"
       font-family="Gentium Book Basic"
       font-size="4848.5"
       line-height="125%"
       stroke="#cd1d31"
       y="-14007.49"
       x="-26009.19"
       stroke-width="23.274"
       word-spacing="0"
       letter-spacing="0">
      <tspan
         id="tspan104"
         y="-14007.49"
         x="-26009.19" />
    </text>
    <text
       id="text106"
       font-size="1761.8"
       transform="scale(4.0128 .2492)"
       y="-69309.72"
       x="913.11"
       font-family="Arial"
       text-anchor="middle" />
    <text
       id="text108"
       font-family="Gentium Book Basic"
       font-size="4848.5"
       line-height="125%"
       stroke="#cd1d31"
       y="-13095.41"
       x="-26144.18"
       stroke-width="23.274"
       word-spacing="0"
       letter-spacing="0">
      <tspan
         id="tspan110"
         y="-13095.41"
         x="-26144.18" />
    </text>
    <text
       id="text112"
       font-size="1761.8"
       transform="scale(4.0128 .2492)"
       y="-65649.55"
       x="879.43"
       font-family="Arial"
       text-anchor="middle" />
  </g>
  <g
     id="g114"
     fill="#555753">
    <g
       id="g116"
       stroke="#cd1d31">
      <text
         id="text118"
         stroke-width="23.273"
         transform="scale(1.0508 .95163)"
         font-size="2976.2"
         y="-20924.11"
         x="-11733.85"
         font-family="Gentium Book Basic"
         line-height="125%"
         word-spacing="0"
         letter-spacing="0">
        <tspan
           id="tspan120"
           y="-20924.11"
           x="-11733.85" />
      </text>
      <text
         id="text122"
         stroke-width="23.274"
         font-size="1081.5"
         transform="scale(4.2168 .23715)"
         y="-92007.3"
         x="1615"
         font-family="Arial"
         text-anchor="middle" />
      <text
         id="text124"
         stroke-width="23.273"
         transform="scale(1.0508 .95163)"
         font-size="1593.3"
         y="-21749.15"
         x="-2330.98"
         font-family="Gentium Book Basic"
         line-height="125%"
         word-spacing="0"
         letter-spacing="0">
        <tspan
           id="tspan126"
           y="-21749.15"
           x="-2330.98" />
      </text>
      <text
         id="text128"
         stroke-width="23.274"
         font-size="578.91"
         transform="scale(4.2168 .23715)"
         y="-91581.16"
         x="1848.9"
         font-family="Arial"
         text-anchor="middle" />
      <text
         id="text130"
         stroke-width="23.273"
         font-size="4654.7"
         line-height="125%"
         y="-17121.24"
         x="-38344.07"
         font-family="Gentium Book Basic"
         word-spacing="0"
         letter-spacing="0">
        <tspan
           id="tspan132"
           y="-17121.24"
           x="-38344.07" />
      </text>
    </g>
    <text
       id="text134"
       font-size="1691.2"
       transform="scale(4.0128 .2492)"
       y="-81280.02"
       x="-2456.61"
       font-family="Arial"
       text-anchor="middle" />
  </g>
  <g
     id="g136">
    <text
       id="text138"
       font-family="Gentium Book Basic"
       font-size="4654.7"
       line-height="125%"
       stroke="#cd1d31"
       y="-20697.19"
       x="-9032.9"
       stroke-width="23.274"
       word-spacing="0"
       letter-spacing="0">
      <tspan
         id="tspan140"
         y="-20697.19"
         x="-9032.9" />
    </text>
    <text
       id="text142"
       font-size="1691.2"
       transform="scale(4.0128 .2492)"
       y="-95629.52"
       x="4847.67"
       font-family="Arial"
       text-anchor="middle" />
    <text
       id="text144"
       font-family="Gentium Book Basic"
       font-size="4654.7"
       line-height="125%"
       stroke="#cd1d31"
       y="-23578.9"
       x="11904.28"
       stroke-width="23.274"
       word-spacing="0"
       letter-spacing="0">
      <tspan
         id="tspan146"
         y="-23578.9"
         x="11904.28" />
    </text>
    <text
       id="text148"
       font-size="1691.2"
       transform="scale(4.0128 .2492)"
       y="-107193.01"
       x="10065.26"
       font-family="Arial"
       text-anchor="middle" />
  </g>
  <text
     id="text150"
     font-size="4848.5"
     line-height="125%"
     y="6633.88"
     x="-40497.09"
     font-family="Gentium Book Basic"
     word-spacing="0"
     letter-spacing="0">
    <tspan
       id="tspan152"
       y="6633.88"
       x="-40497.09" />
  </text>
  <text
     id="text154"
     font-size="1761.8"
     transform="scale(4.0128 .2492)"
     y="13520.5"
     x="-2697.25"
     font-family="Arial"
     text-anchor="middle" />
  <text
     id="text156"
     font-size="3007.6"
     line-height="125%"
     y="-770.75"
     x="3492.36"
     font-family="Gentium Book Basic"
     word-spacing="0"
     letter-spacing="0">
    <tspan
       id="tspan158"
       y="-770.75"
       x="3492.36" />
  </text>
  <text
     id="text160"
     font-size="1092.8"
     transform="scale(4.0128 .2492)"
     y="-11218.6"
     x="5456.95"
     font-family="Arial"
     text-anchor="middle" />
  <text
     id="text162"
     font-size="3007.6"
     line-height="125%"
     y="-2632.64"
     x="17020.47"
     font-family="Gentium Book Basic"
     word-spacing="0"
     letter-spacing="0">
    <tspan
       id="tspan164"
       y="-2632.64"
       x="17020.47" />
  </text>
  <text
     id="text166"
     font-size="1092.8"
     transform="scale(4.0128 .2492)"
     y="-18690.2"
     x="8828.07"
     font-family="Arial"
     text-anchor="middle" />
  <text
     id="text168"
     font-size="3007.6"
     line-height="125%"
     y="-6851.17"
     x="-7918.8"
     font-family="Gentium Book Basic"
     word-spacing="0"
     letter-spacing="0">
    <tspan
       id="tspan170"
       y="-6851.17"
       x="-7918.8" />
  </text>
  <text
     id="text172"
     font-size="1092.8"
     transform="scale(4.0128 .2492)"
     y="-35617.91"
     x="2613.21"
     font-family="Arial"
     text-anchor="middle" />
  <text
     id="text174"
     font-size="3007.6"
     line-height="125%"
     y="-11889.15"
     x="17636.51"
     font-family="Gentium Book Basic"
     word-spacing="0"
     letter-spacing="0">
    <tspan
       id="tspan176"
       y="-11889.15"
       x="17636.51" />
  </text>
  <text
     id="text178"
     font-size="1092.8"
     transform="scale(4.0128 .2492)"
     y="-55834.81"
     x="8981.67"
     font-family="Arial"
     text-anchor="middle" />
  <text
     id="text180"
     font-size="3007.6"
     line-height="125%"
     y="-13751.02"
     x="31164.38"
     font-family="Gentium Book Basic"
     word-spacing="0"
     letter-spacing="0">
    <tspan
       id="tspan182"
       y="-13751.02"
       x="31164.38" />
  </text>
  <text
     id="text184"
     font-size="1092.8"
     transform="scale(4.0128 .2492)"
     y="-63306.18"
     x="12352.78"
     font-family="Arial"
     text-anchor="middle" />
  <text
     id="text186"
     font-size="3007.6"
     line-height="125%"
     y="-24745.35"
     x="22108.26"
     font-family="Gentium Book Basic"
     word-spacing="0"
     letter-spacing="0">
    <tspan
       id="tspan188"
       y="-24745.35"
       x="22108.26" />
  </text>
  <text
     id="text190"
     font-size="1092.8"
     transform="scale(4.0128 .2492)"
     y="-107424.11"
     x="10095.98"
     font-family="Arial"
     text-anchor="middle" />
  <text
     id="text192"
     font-size="3007.6"
     line-height="125%"
     y="-26607.46"
     x="35636.37"
     font-family="Gentium Book Basic"
     word-spacing="0"
     letter-spacing="0">
    <tspan
       id="tspan194"
       y="-26607.46"
       x="35636.37" />
  </text>
  <text
     id="text196"
     font-size="1092.8"
     transform="scale(4.0128 .2492)"
     y="-114895.7"
     x="13467.1"
     font-family="Arial"
     text-anchor="middle" />
  <text
     id="text198"
     font-size="4848.5"
     line-height="125%"
     y="6317.83"
     x="-7019.29"
     font-family="Gentium Book Basic"
     word-spacing="0"
     letter-spacing="0">
    <tspan
       id="tspan200"
       y="6317.83"
       x="-7019.29" />
  </text>
  <path
     id="path202"
     d="m232.08 95.36c-35.912 0-65.09 29.16-65.09 65.09 0 35.912 29.16 65.09 65.09 65.09 35.912 0 65.09-29.16 65.09-65.09 0-35.912-29.16-65.09-65.09-65.09m-54.999 146.45c-32.661 3.104-60.868 48.2-51.07 100.45l7.29 40.4h182.94v-37.599h-51.627v-78.557h51.627v-9.534c-17.291-17.704-41.21-21.87-62.29-2.801-21.08 19.09-23.25 19.09-44.34 0-10.648-9.642-21.658-13.377-32.553-12.353m114.47 51.623v24.689h48.27c-0.252-8.762-1.221-16.932-3.376-24.689h-44.894"
     fill-rule="evenodd"
     fill="#DBDBDB" />
  <text
     id="text204"
     font-size="4848.5"
     line-height="125%"
     y="1332.21"
     x="-28732.17"
     font-family="Gentium Book Basic"
     word-spacing="0"
     letter-spacing="0">
    <tspan
       id="tspan206"
       y="1332.21"
       x="-28732.17" />
  </text>
  <text
     id="text208"
     font-size="1761.8"
     transform="scale(4.0128 .2492)"
     y="-7754.63"
     x="234.46"
     font-family="Arial"
     text-anchor="middle" />
  <text
     id="text210"
     font-size="4848.5"
     line-height="125%"
     y="2244.29"
     x="-28866.93"
     font-family="Gentium Book Basic"
     word-spacing="0"
     letter-spacing="0">
    <tspan
       id="tspan212"
       y="2244.29"
       x="-28866.93" />
  </text>
  <text
     id="text214"
     font-size="1761.8"
     transform="scale(4.0128 .2492)"
     y="-4094.46"
     x="200.88"
     font-family="Arial"
     text-anchor="middle" />
  <g
     id="g216"
     fill="#555753">
    <text
       id="text218"
       transform="scale(1.0508 .95163)"
       font-size="2976.2"
       y="-4804.79"
       x="-14325.04"
       font-family="Gentium Book Basic"
       line-height="125%"
       word-spacing="0"
       letter-spacing="0">
      <tspan
         id="tspan220"
         y="-4804.79"
         x="-14325.04" />
    </text>
    <text
       id="text222"
       font-size="1081.5"
       transform="scale(4.2168 .23715)"
       y="-27322.65"
       x="969.16"
       font-family="Arial"
       text-anchor="middle" />
    <text
       id="text224"
       transform="scale(1.0508 .95163)"
       font-size="1593.3"
       y="-5629.83"
       x="-4922.21"
       font-family="Gentium Book Basic"
       line-height="125%"
       word-spacing="0"
       letter-spacing="0">
      <tspan
         id="tspan226"
         y="-5629.83"
         x="-4922.21" />
    </text>
    <text
       id="text228"
       font-size="578.9"
       transform="scale(4.2168 .23715)"
       y="-26896.75"
       x="1203.29"
       font-family="Arial"
       text-anchor="middle" />
    <text
       id="text230"
       font-size="4654.7"
       line-height="125%"
       y="-1781.53"
       x="-41067.05"
       font-family="Gentium Book Basic"
       word-spacing="0"
       letter-spacing="0">
      <tspan
         id="tspan232"
         y="-1781.53"
         x="-41067.05" />
    </text>
    <text
       id="text234"
       font-size="1691.2"
       transform="scale(4.0128 .2492)"
       y="-19724.93"
       x="-3135.01"
       font-family="Arial"
       text-anchor="middle" />
  </g>
  <g
     id="g236">
    <text
       id="text238"
       font-family="Gentium Book Basic"
       font-size="4848.5"
       line-height="125%"
       stroke="#cd1d31"
       y="-14008.42"
       x="-26883.57"
       stroke-width="23.274"
       word-spacing="0"
       letter-spacing="0">
      <tspan
         id="tspan240"
         y="-14008.42"
         x="-26883.57" />
    </text>
    <text
       id="text242"
       font-size="1761.8"
       transform="scale(4.0128 .2492)"
       y="-69313.44"
       x="695.14"
       font-family="Arial"
       text-anchor="middle" />
    <text
       id="text244"
       font-family="Gentium Book Basic"
       font-size="4848.5"
       line-height="125%"
       stroke="#cd1d31"
       y="-13096.34"
       x="-27018.32"
       stroke-width="23.274"
       word-spacing="0"
       letter-spacing="0">
      <tspan
         id="tspan246"
         y="-13096.34"
         x="-27018.32" />
    </text>
    <text
       id="text248"
       font-size="1761.8"
       transform="scale(4.0128 .2492)"
       y="-65653.51"
       x="661.53"
       font-family="Arial"
       text-anchor="middle" />
  </g>
  <g
     id="g250"
     fill="#555753">
    <g
       id="g252"
       stroke="#cd1d31">
      <text
         id="text254"
         stroke-width="23.273"
         transform="scale(1.0508 .95163)"
         font-size="2976.2"
         y="-20925.04"
         x="-12565.87"
         font-family="Gentium Book Basic"
         line-height="125%"
         word-spacing="0"
         letter-spacing="0">
        <tspan
           id="tspan256"
           y="-20925.04"
           x="-12565.87" />
      </text>
      <text
         id="text258"
         stroke-width="23.274"
         font-size="1081.5"
         transform="scale(4.2168 .23715)"
         y="-92011.26"
         x="1407.58"
         font-family="Arial"
         text-anchor="middle" />
      <text
         id="text260"
         stroke-width="23.273"
         transform="scale(1.0508 .95163)"
         font-size="1593.3"
         y="-21750.08"
         x="-3163"
         font-family="Gentium Book Basic"
         line-height="125%"
         word-spacing="0"
         letter-spacing="0">
        <tspan
           id="tspan262"
           y="-21750.08"
           x="-3163" />
      </text>
      <text
         id="text264"
         stroke-width="23.274"
         font-size="578.91"
         transform="scale(4.2168 .23715)"
         y="-91585.35"
         x="1641.65"
         font-family="Arial"
         text-anchor="middle" />
      <text
         id="text266"
         stroke-width="23.273"
         font-size="4654.7"
         line-height="125%"
         y="-17122.17"
         x="-39218.45"
         font-family="Gentium Book Basic"
         word-spacing="0"
         letter-spacing="0">
        <tspan
           id="tspan268"
           y="-17122.17"
           x="-39218.45" />
      </text>
    </g>
    <text
       id="text270"
       font-size="1691.2"
       transform="scale(4.0128 .2492)"
       y="-81283.95"
       x="-2674.44"
       font-family="Arial"
       text-anchor="middle" />
  </g>
  <g
     id="g272">
    <text
       id="text274"
       font-family="Gentium Book Basic"
       font-size="4654.7"
       line-height="125%"
       stroke="#cd1d31"
       y="-20698.12"
       x="-9907.28"
       stroke-width="23.274"
       word-spacing="0"
       letter-spacing="0">
      <tspan
         id="tspan276"
         y="-20698.12"
         x="-9907.28" />
    </text>
    <text
       id="text278"
       font-size="1691.2"
       transform="scale(4.0128 .2492)"
       y="-95633.48"
       x="4629.82"
       font-family="Arial"
       text-anchor="middle" />
    <text
       id="text280"
       font-family="Gentium Book Basic"
       font-size="4654.7"
       line-height="125%"
       stroke="#cd1d31"
       y="-23579.83"
       x="11029.91"
       stroke-width="23.274"
       word-spacing="0"
       letter-spacing="0">
      <tspan
         id="tspan282"
         y="-23579.83"
         x="11029.91" />
    </text>
    <text
       id="text284"
       font-size="1691.2"
       transform="scale(4.0128 .2492)"
       y="-107196.97"
       x="9847.2"
       font-family="Arial"
       text-anchor="middle" />
  </g>
  <path
     id="path286"
     fill="#DBDBDB"
     d="m277.94 331.33 0.308-51.575 51.23 0.013v-51.24h51.627l0.109 51.22 51.32 0.013 0.289 51.658-51.43-0.064 0.128 51.627-51.996-0.372v-51.28z" />
</svg>
