<?xml version="1.0" encoding="UTF-8" standalone="no"?>
<svg xmlns:dc="http://purl.org/dc/elements/1.1/" xmlns:cc="http://creativecommons.org/ns#" xmlns:rdf="http://www.w3.org/1999/02/22-rdf-syntax-ns#" xmlns:svg="http://www.w3.org/2000/svg" xmlns="http://www.w3.org/2000/svg" xmlns:sodipodi="http://sodipodi.sourceforge.net/DTD/sodipodi-0.dtd" xmlns:inkscape="http://www.inkscape.org/namespaces/inkscape" viewBox="0 0 512 512" id="svg2" version="1.1" inkscape:version="0.91 r" sodipodi:docname="lokalize.svg">
<metadata id="metadata72">
<rdf:RDF>
<cc:Work rdf:about="">
<dc:format>image/svg+xml</dc:format>
<dc:type rdf:resource="http://purl.org/dc/dcmitype/StillImage" />
</cc:Work>
</rdf:RDF>
</metadata>
<defs id="defs70" />
<sodipodi:namedview pagecolor="#ffffff" bordercolor="#666666" borderopacity="1" objecttolerance="10" gridtolerance="10" guidetolerance="10" inkscape:pageopacity="0" inkscape:pageshadow="2" inkscape:window-width="640" inkscape:window-height="480" id="namedview68" showgrid="false" inkscape:zoom="0.4609375" inkscape:cx="218.0339" inkscape:cy="256" inkscape:window-x="0" inkscape:window-y="0" inkscape:window-maximized="0" inkscape:current-layer="svg2" />
<text font-size="129.23" y="231.36" x="729.64" font-family="'Gentium Book Basic'" line-height="125%" word-spacing="0" letter-spacing="0" id="text18">
<tspan y="231.36" x="729.64" id="tspan20" />
</text>
<text transform="scale(4.0128.2492)" font-size="46.954" y="579.26" x="378.91" font-family="Arial" text-anchor="middle" id="text22" />
<text font-size="129.23" y="151.36" x="1310.91" font-family="'Gentium Book Basic'" line-height="125%" word-spacing="0" letter-spacing="0" id="text24">
<tspan y="151.36" x="1310.91" id="tspan26" />
</text>
<text transform="scale(4.0128.2492)" font-size="46.954" y="258.22" x="523.76" font-family="Arial" text-anchor="middle" id="text28" />
<text font-size="129.23" y="-29.9" x="239.33" font-family="'Gentium Book Basic'" line-height="125%" word-spacing="0" letter-spacing="0" id="text30">
<tspan y="-29.9" x="239.33" id="tspan32" />
</text>
<text transform="scale(4.0128.2492)" font-size="46.954" y="-469.13" x="256.72" font-family="Arial" text-anchor="middle" id="text34" />
<text font-size="129.23" y="-246.37" x="1337.38" font-family="'Gentium Book Basic'" line-height="125%" word-spacing="0" letter-spacing="0" id="text36">
<tspan y="-246.37" x="1337.38" id="tspan38" />
</text>
<text transform="scale(4.0128.2492)" font-size="46.954" y="-1337.79" x="530.36" font-family="Arial" text-anchor="middle" id="text40" />
<text font-size="129.23" y="-326.37" x="1918.65" font-family="'Gentium Book Basic'" line-height="125%" word-spacing="0" letter-spacing="0" id="text42">
<tspan y="-326.37" x="1918.65" id="tspan44" />
</text>
<text transform="scale(4.0128.2492)" font-size="46.954" y="-1658.82" x="675.21" font-family="Arial" text-anchor="middle" id="text46" />
<text font-size="129.23" y="-798.77" x="1529.53" font-family="'Gentium Book Basic'" line-height="125%" word-spacing="0" letter-spacing="0" id="text48">
<tspan y="-798.77" x="1529.53" id="tspan50" />
</text>
<text transform="scale(4.0128.2492)" font-size="46.954" y="-3554.46" x="578.24" font-family="Arial" text-anchor="middle" id="text52" />
<text font-size="129.23" y="-878.78" x="2110.79" font-family="'Gentium Book Basic'" line-height="125%" word-spacing="0" letter-spacing="0" id="text54">
<tspan y="-878.78" x="2110.79" id="tspan56" />
</text>
<text transform="scale(4.0128.2492)" font-size="46.954" y="-3875.5" x="723.09" font-family="Arial" text-anchor="middle" id="text58" />
<text font-size="208.33" y="535.94" x="277.99" font-family="'Gentium Book Basic'" line-height="125%" word-spacing="0" letter-spacing="0" id="text60">
<tspan y="535.94" x="277.99" id="tspan62" />
</text>
<path d="M 211.49028,468.98001 C 129.6277,462.97997 69.984965,441.72046 56.941986,413.87755 42.922159,383.96263 76.566992,356.68794 145.42236,342.15493 c 9.71345,-2.05001 17.88595,-3.49326 18.179,-3.20571 0.28755,0.28755 -4.80031,1.94681 -11.30529,3.68863 -40.72904,10.90079 -59.477636,33.68473 -44.97076,54.62917 13.29063,19.17786 59.24374,33.41507 119.05158,36.88631 l 17.0343,0.98923 -1.0539,-6.32199 c -1.64551,-9.87441 -8.56461,-32.99268 -15.13426,-50.5897 -9.0379,-24.18454 -23.52689,-52.74977 -44.52223,-87.82685 -22.73441,-37.96635 -40.47727,-73.34612 -44.65019,-89.01696 -4.6022,-17.29295 -4.32565,-46.6768 0.615,-65.42953 5.96427,-22.63397 16.09734,-40.646486 32.54553,-57.854138 30.58496,-32.002078 74.88706,-44.068209 116.82272,-31.850735 21.80571,6.357764 37.40913,15.775401 52.77729,31.850735 21.27739,22.259738 32.36942,46.043918 35.99201,77.157198 2.01974,17.37551 0.39349,35.72511 -4.59668,51.88299 -4.87186,15.7754 -19.67041,45.22805 -39.11793,77.85888 -27.73697,46.5461 -38.66116,68.10417 -49.98433,98.7304 -3.81246,10.31056 -14.15604,46.88869 -14.16842,50.09853 0,1.79685 28.40976,-0.12108 51.68487,-3.48914 45.63667,-6.60404 75.60388,-19.30306 84.24279,-35.70859 11.048,-20.96783 -5.60656,-39.73156 -46.20077,-52.04672 -16.34362,-4.95716 -14.04872,-5.0686 8.09821,-0.39349 47.46378,10.02163 79.33653,26.55925 88.30151,45.81553 15.95426,34.26121 -29.89291,64.4513 -116.50627,76.71831 -39.58021,5.60655 -86.96695,7.1929 -127.07274,4.2541 m 59.38133,-312.88016 c 14.96778,-5.59967 24.97153,-17.84466 28.36022,-34.69872 1.27266,-6.33576 1.13507,-9.5222 -0.72369,-16.77839 -5.64645,-22.040988 -24.40193,-36.005781 -46.02603,-34.270844 -16.86644,1.353828 -29.22563,9.581361 -36.6194,24.377163 -3.73541,7.476321 -4.37518,10.364211 -4.37518,19.781851 0,9.43552 0.63702,12.3014 4.40545,19.84376 10.27341,20.55921 33.54714,29.76496 54.97863,21.74656" id="path66" inkscape:connector-curvature="0" style="fill:#DBDBDB" />
</svg>
