<svg xmlns="http://www.w3.org/2000/svg" width="48" height="48">
<defs>
  <path
     d="M 5.687075,12.949061 C 3.642318,12.949061 2,14.59138 2,16.636136 L 2,34.59532 C 2,36.640076 3.642318,38.296 5.687075,38.296 l 36.612245,0 C 44.344076,38.296 46,36.640076 46,34.59532 l 0,-17.959184 c 0,-2.044756 -1.655924,-3.687075 -3.70068,-3.687075 l -36.612245,0 z m -0.163265,3.292517 36.95238,0 0,18.7483 -36.95238,0 0,-18.7483 z m 10.707483,2.92517 c -0.0598,-0.0087 -0.0906,0.0025 -0.06803,0.04082 -0.203802,0.0074 0.1899,0.283725 0.326531,0.380952 0.08517,0.09806 3.228499,1.516314 4.530612,2.258503 1.377918,0.767614 3.241736,2.333645 3.387755,2.59864 -1.432083,2.273451 -0.756212,4.263541 -0.92517,4.47619 -0.12244,0.18039 -1.259028,1.331988 -0.897959,1.496599 0.361069,0.164614 0.921429,-0.06 1.006803,-0.108844 0.181316,-0.103729 0.388286,-0.290537 0.312925,0 -0.153529,0.591899 -0.888644,2.030259 0.06803,1.727892 0.114211,-0.05911 1.664395,-1.623341 1.85034,-1.67347 3.054625,0.724312 6.493159,0.422493 7.129252,0.14966 0.327388,0.01753 1.250565,0.563005 1.782313,0.816327 0.531748,0.253318 1.993981,0.876157 1.564626,-0.272109 -0.129541,-0.362692 -1.098608,-1.290429 -0.938776,-1.346939 0.341557,-0.120707 1.1866,0.325664 1.510204,0.408163 0.967984,0.246783 1.100247,-0.115978 0.489796,-0.870748 -0.610452,-0.754771 -0.699201,-0.646174 -0.884354,-0.993197 -0.148348,-0.278056 -0.04364,-0.603752 0.06803,-0.680272 0.195969,-0.137655 3.120634,-1.576046 3.795918,-2.136055 1.00672,-0.832564 -0.01533,-1.880936 -0.258503,-2.027211 -2.085775,-1.364177 -4.216769,-1.089777 -4.244898,-1.306122 -0.01475,-0.250066 -0.01852,-0.936711 -0.05442,-1.183674 -0.205919,-1.671636 -1.011887,-1.278215 -1.129252,-1.278911 -0.847538,0.119082 -0.590446,1.30774 -0.231292,2.421768 0.03066,0.285167 -0.269524,0.176207 -0.462585,-0.122448 -0.651128,-1.593514 -0.934099,-1.545497 -1.115647,-1.591837 -0.173896,-0.03585 -0.775336,0.280534 -0.761904,0.92517 0.0023,0.185187 0.229725,1.062459 0.231292,1.333333 -0.401546,0.319784 -0.396637,1.027923 -0.816326,1.292517 -1.227459,0.233079 -4.17767,-0.550413 -4.544218,-0.585034 -1.275015,-0.217247 -1.847055,0.668833 -2.054422,0.462585 -1.650014,-1.724216 -4.184002,-3.016432 -5.278911,-3.238095 -0.423725,-0.08578 -1.824014,-0.623249 -2.340136,-0.911565 -0.387092,-0.216237 -0.868225,-0.43639 -1.047619,-0.462585 z m -2,0.761905 -5.564626,5.687075 5.564626,5.687075 0,-11.37415 z m 25.482993,1.088435 c -0.396919,0.388581 -0.33162,1.825469 -0.244898,1.809524 0.406417,-0.07472 0.364765,-1.926878 0.244898,-1.809524 z m 1.129251,0.204082 c -0.152942,0.05111 -1.087011,1.25284 -0.911564,1.714286 0.08165,0.214751 1.066222,-1.327535 0.92517,-1.70068 -0.0026,-0.0074 -0.0035,-0.01702 -0.01358,-0.01361 z m -5.442176,2.272109 c 0.01133,-0.0124 0.02593,-0.0154 0.04082,0 0.122902,0.36875 0.270571,0.754352 1.07483,0.843537 0.09251,0.01035 -0.457396,0.297754 -0.829932,0.122449 -0.336288,-0.188198 -0.365001,-0.879152 -0.285714,-0.965986 z m 2.299319,1.836735 c 0.194704,0.04263 -1.437395,0.855878 -1.564626,0.748299 -0.08998,-0.07609 1.154872,-0.829912 1.564626,-0.748299 z m 0.231293,0.503401 c 0.171371,0.01316 -0.974773,1.059957 -1.102041,0.952381 -0.08998,-0.07609 0.756946,-0.978064 1.102041,-0.952381 z"
     id="path-main"
      />
</defs>

<use id="1" style="fill:#DBDBDB" xlink:href="#path-main" />



</svg>
