<?xml version="1.0" encoding="UTF-8" standalone="no"?>
<svg
   xmlns:dc="http://purl.org/dc/elements/1.1/"
   xmlns:cc="http://creativecommons.org/ns#"
   xmlns:rdf="http://www.w3.org/1999/02/22-rdf-syntax-ns#"
   xmlns:svg="http://www.w3.org/2000/svg"
   xmlns="http://www.w3.org/2000/svg"
   xmlns:sodipodi="http://sodipodi.sourceforge.net/DTD/sodipodi-0.dtd"
   xmlns:inkscape="http://www.inkscape.org/namespaces/inkscape"
   height="512"
   viewBox="0 0 512 512"
   width="512"
   version="1.1"
   id="svg2"
   inkscape:version="0.91 r13725"
   sodipodi:docname="minetest.svg">
  <defs
     id="defs17" />
  <sodipodi:namedview
     pagecolor="#808081"
     bordercolor="#666666"
     borderopacity="1"
     objecttolerance="10"
     gridtolerance="10"
     guidetolerance="10"
     inkscape:pageopacity="0"
     inkscape:pageshadow="2"
     inkscape:window-width="1920"
     inkscape:window-height="1022"
     id="namedview15"
     showgrid="false"
     inkscape:zoom="1.2867932"
     inkscape:cx="128.88878"
     inkscape:cy="268.94402"
     inkscape:window-x="0"
     inkscape:window-y="0"
     inkscape:window-maximized="1"
     inkscape:current-layer="svg2" />
  <metadata
     id="metadata28">
    <rdf:RDF>
      <cc:Work
         rdf:about="">
        <dc:format>image/svg+xml</dc:format>
        <dc:type
           rdf:resource="http://purl.org/dc/dcmitype/StillImage" />
        <dc:title></dc:title>
      </cc:Work>
    </rdf:RDF>
  </metadata>
  <path
     style="fill:#DBDBDB;fill-opacity:1;fill-rule:nonzero;stroke:none"
     d="m 86.243011,86.243011 0,113.171329 113.171329,0 0,-113.171329 -113.171329,0 z m 113.171329,113.171329 0,56.58438 -56.58438,0 0,169.75828 56.58438,0 0,-56.58695 113.17132,0 0,56.58695 56.58439,0 0,-169.75828 -56.58439,0 0,-56.58438 -113.17132,0 z m 113.17132,0 113.17134,0 0,-113.171329 -113.17134,0 0,113.171329 z m 57.38381,-99.06779 17.50244,9.64735 0,58.03883 -17.50244,9.67315 -17.64942,-9.67315 0,-58.03883 17.64942,-9.64735 z m -229.62548,0.77365 17.50242,9.64993 0,58.03625 -17.50242,9.67313 -17.64942,-9.67313 0,-58.03625 17.64942,-9.64993 z"
     id="path41"
     inkscape:connector-curvature="0" />
</svg>
