<?xml version="1.0" encoding="UTF-8" standalone="no"?>
<svg
   xmlns:dc="http://purl.org/dc/elements/1.1/"
   xmlns:cc="http://creativecommons.org/ns#"
   xmlns:rdf="http://www.w3.org/1999/02/22-rdf-syntax-ns#"
   xmlns:svg="http://www.w3.org/2000/svg"
   xmlns="http://www.w3.org/2000/svg"
   xmlns:sodipodi="http://sodipodi.sourceforge.net/DTD/sodipodi-0.dtd"
   xmlns:inkscape="http://www.inkscape.org/namespaces/inkscape"
   height="512"
   viewBox="0 0 512 512"
   width="512"
   version="1.1"
   id="svg2"
   inkscape:version="0.91 r"
   sodipodi:docname="accessories-media-converter.svg">
  <defs
     id="defs17" />
  <sodipodi:namedview
     pagecolor="#ffffff"
     bordercolor="#666666"
     borderopacity="1"
     objecttolerance="10"
     gridtolerance="10"
     guidetolerance="10"
     inkscape:pageopacity="0"
     inkscape:pageshadow="2"
     inkscape:window-width="647"
     inkscape:window-height="480"
     id="namedview15"
     showgrid="false"
     inkscape:zoom="0.4609375"
     inkscape:cx="256"
     inkscape:cy="256"
     inkscape:window-x="0"
     inkscape:window-y="0"
     inkscape:window-maximized="0"
     inkscape:current-layer="svg2" />
  <metadata
     id="metadata74">
    <rdf:RDF>
      <cc:Work
         rdf:about="">
        <dc:format>image/svg+xml</dc:format>
        <dc:type
           rdf:resource="http://purl.org/dc/dcmitype/StillImage" />
      </cc:Work>
    </rdf:RDF>
  </metadata>
  <path
     style="color:#000000;fill:#DBDBDB"
     inkscape:connector-curvature="0"
     d="m 303.62637,84.262391 164.36295,54.006429 -50.31386,28.84758 c 5.03381,14.16395 7.71884,29.05902 7.71884,44.95016 0,74.72247 -60.45153,135.51282 -135.18164,135.51282 -14.61868,0 -28.74059,-2.7551 -41.92886,-7.04377 54.22551,-17.63615 93.58141,-68.36398 93.58141,-128.46905 0,-0.38977 0.003,-0.61394 0,-1.00371 l -73.45637,42.26258 35.21881,-169.063039 m -81.85031,80.167699 c 14.61868,0 28.74059,2.75509 41.92886,7.04503 -54.22551,17.63743 -93.58141,68.36399 -93.58141,128.46906 0,0.38976 -0.003,0.61394 0,1.0037 l 73.45892,-42.26257 -35.22008,169.0503 -164.362952,-54.00643 50.313863,-28.8463 c -5.033807,-14.16395 -7.718843,-29.05903 -7.718843,-44.95016 0,-74.7212 60.451532,-135.51282 135.181642,-135.51282"
     id="path68" />
</svg>
