<?xml version="1.0" encoding="UTF-8" standalone="no"?>
<svg
   xmlns:dc="http://purl.org/dc/elements/1.1/"
   xmlns:cc="http://creativecommons.org/ns#"
   xmlns:rdf="http://www.w3.org/1999/02/22-rdf-syntax-ns#"
   xmlns:svg="http://www.w3.org/2000/svg"
   xmlns="http://www.w3.org/2000/svg"
   xmlns:sodipodi="http://sodipodi.sourceforge.net/DTD/sodipodi-0.dtd"
   xmlns:inkscape="http://www.inkscape.org/namespaces/inkscape"
   height="512"
   viewBox="0 0 512 512"
   width="512"
   version="1.1"
   id="svg2"
   inkscape:version="0.91 r"
   sodipodi:docname="nitrogen.svg">
  <defs
     id="defs59" />
  <sodipodi:namedview
     pagecolor="#ffffff"
     bordercolor="#666666"
     borderopacity="1"
     objecttolerance="10"
     gridtolerance="10"
     guidetolerance="10"
     inkscape:pageopacity="0"
     inkscape:pageshadow="2"
     inkscape:window-width="1920"
     inkscape:window-height="1028"
     id="namedview57"
     showgrid="false"
     inkscape:zoom="0.4609375"
     inkscape:cx="-59.661017"
     inkscape:cy="256"
     inkscape:window-x="0"
     inkscape:window-y="0"
     inkscape:window-maximized="1"
     inkscape:current-layer="svg2" />
  <metadata
     id="metadata72">
    <rdf:RDF>
      <cc:Work
         rdf:about="">
        <dc:format>image/svg+xml</dc:format>
        <dc:type
           rdf:resource="http://purl.org/dc/dcmitype/StillImage" />
      </cc:Work>
    </rdf:RDF>
  </metadata>
  <g
     style="fill:#DBDBDB;stroke:none;stroke-opacity:1;fill-opacity:1"
     id="g3868"
     transform="translate(696.46422,-66.56686)">
    <ellipse
       style="stroke:none;stroke-width:6;stroke-opacity:1;fill:#DBDBDB;fill-opacity:1"
       ry="105.22034"
       rx="107.38983"
       cy="-42.305084"
       cx="-643.25421"
       transform="translate(201.76271,412.20339)"
       id="path3026" />
    <ellipse
       style="stroke:none;stroke-width:6;stroke-opacity:1;fill:#DBDBDB;fill-opacity:1"
       ry="105.22034"
       rx="107.38983"
       cy="-42.305084"
       cx="-643.25421"
       transform="matrix(0.95070335,0,0,0.9581343,170.09662,410.73774)"
       id="path3026-3" />
    <path
       style="stroke:none;stroke-width:0;stroke-opacity:1;fill:#DBDBDB;fill-opacity:1"
       sodipodi:nodetypes="csscssssc"
       inkscape:connector-curvature="0"
       id="path3866"
       d="m -540.27752,360.41549 c 0,0 32.29686,13.60557 50.82661,15.04499 20.18605,1.56808 41.85803,-9.5096 60.27775,-7.48419 27.09717,2.97957 82.21989,33.02886 82.21989,33.02886 0,0 -12.52701,40.97757 -48.13519,56.38924 -13.89669,6.01467 -14.57574,7.74606 -36.64072,10.136 -17.20141,1.86316 -35.34973,-0.29711 -55.91648,-10.05822 -20.10745,-9.54313 -34.58115,-27.95432 -44.9934,-49.44452 -11.37836,-23.48419 -7.63846,-47.61216 -7.63846,-47.61216 z" />
  </g>
  <g
     style="fill:#DBDBDB;stroke:none;stroke-opacity:1;fill-opacity:1"
     transform="translate(693.07769,-170.84699)"
     id="g3868-2-1-3-7">
    <ellipse
       style="stroke:none;stroke-width:6;stroke-opacity:1;fill:#DBDBDB;fill-opacity:1"
       ry="105.22034"
       rx="107.38983"
       cy="-42.305084"
       cx="-643.25421"
       transform="translate(201.76271,412.20339)"
       id="path3026-8-4-1-9" />
    <ellipse
       style="stroke:none;stroke-width:6;stroke-opacity:1;fill:#DBDBDB;fill-opacity:1"
       ry="105.22034"
       rx="107.38983"
       cy="-42.305084"
       cx="-643.25421"
       transform="matrix(0.95070335,0,0,0.9581343,170.09662,410.73774)"
       id="path3026-3-6-2-6-9" />
    <path
       style="stroke:none;stroke-width:0;stroke-opacity:1;fill:#DBDBDB;fill-opacity:1"
       sodipodi:nodetypes="csscssssc"
       inkscape:connector-curvature="0"
       id="path3866-2-4-8-9"
       d="m -540.27752,360.41549 c 0,0 32.29686,13.60557 50.82661,15.04499 20.18605,1.56808 41.85803,-9.5096 60.27775,-7.48419 27.09717,2.97957 82.21989,33.02886 82.21989,33.02886 0,0 -12.52701,40.97757 -48.13519,56.38924 -13.89669,6.01467 -14.57574,7.74606 -36.64072,10.136 -17.20141,1.86316 -35.34973,-0.29711 -55.91648,-10.05822 -20.10745,-9.54313 -34.58115,-27.95432 -44.9934,-49.44452 -11.37836,-23.48419 -7.63846,-47.61216 -7.63846,-47.61216 z" />
  </g>
  <g
     style="fill:#DBDBDB;stroke:none;stroke-opacity:1;fill-opacity:1"
     transform="translate(615.30646,-123.29106)"
     id="g3868-2-1">
    <ellipse
       style="stroke:none;stroke-width:6;stroke-opacity:1;fill:#DBDBDB;fill-opacity:1"
       ry="105.22034"
       rx="107.38983"
       cy="-42.305084"
       cx="-643.25421"
       transform="translate(201.76271,412.20339)"
       id="path3026-8-4" />
    <ellipse
       style="stroke:none;stroke-width:6;stroke-opacity:1;fill:#DBDBDB;fill-opacity:1"
       ry="105.22034"
       rx="107.38983"
       cy="-42.305084"
       cx="-643.25421"
       transform="matrix(0.95070335,0,0,0.9581343,170.09662,410.73774)"
       id="path3026-3-6-2" />
    <path
       style="stroke:none;stroke-width:0;stroke-opacity:1;fill:#DBDBDB;fill-opacity:1"
       sodipodi:nodetypes="csscssssc"
       inkscape:connector-curvature="0"
       id="path3866-2-4"
       d="m -540.27752,360.41549 c 0,0 32.29686,13.60557 50.82661,15.04499 20.18605,1.56808 41.85803,-9.5096 60.27775,-7.48419 27.09717,2.97957 82.21989,33.02886 82.21989,33.02886 0,0 -12.52701,40.97757 -48.13519,56.38924 -13.89669,6.01467 -14.57574,7.74606 -36.64072,10.136 -17.20141,1.86316 -35.34973,-0.29711 -55.91648,-10.05822 -20.10745,-9.54313 -34.58115,-27.95432 -44.9934,-49.44452 -11.37836,-23.48419 -7.63846,-47.61216 -7.63846,-47.61216 z" />
  </g>
  <g
     style="fill:#DBDBDB;stroke:none;stroke-opacity:1;fill-opacity:1"
     transform="translate(775.91705,-117.62075)"
     id="g3868-2-1-3">
    <ellipse
       style="stroke:none;stroke-width:6;stroke-opacity:1;fill:#DBDBDB;fill-opacity:1"
       ry="105.22034"
       rx="107.38983"
       cy="-42.305084"
       cx="-643.25421"
       transform="translate(201.76271,412.20339)"
       id="path3026-8-4-1" />
    <ellipse
       style="stroke:none;stroke-width:6;stroke-opacity:1;fill:#DBDBDB;fill-opacity:1"
       ry="105.22034"
       rx="107.38983"
       cy="-42.305084"
       cx="-643.25421"
       transform="matrix(0.95070335,0,0,0.9581343,170.09662,410.73774)"
       id="path3026-3-6-2-6" />
    <path
       style="stroke:none;stroke-width:0;stroke-opacity:1;fill:#DBDBDB;fill-opacity:1"
       sodipodi:nodetypes="csscssssc"
       inkscape:connector-curvature="0"
       id="path3866-2-4-8"
       d="m -540.27752,360.41549 c 0,0 32.29686,13.60557 50.82661,15.04499 20.18605,1.56808 41.85803,-9.5096 60.27775,-7.48419 27.09717,2.97957 82.21989,33.02886 82.21989,33.02886 0,0 -12.52701,40.97757 -48.13519,56.38924 -13.89669,6.01467 -14.57574,7.74606 -36.64072,10.136 -17.20141,1.86316 -35.34973,-0.29711 -55.91648,-10.05822 -20.10745,-9.54313 -34.58115,-27.95432 -44.9934,-49.44452 -11.37836,-23.48419 -7.63846,-47.61216 -7.63846,-47.61216 z" />
  </g>
  <g
     style="fill:#DBDBDB;stroke:none;stroke-opacity:1;fill-opacity:1"
     transform="translate(699.21394,-114.08669)"
     id="g3868-2">
    <ellipse
       style="stroke:none;stroke-width:6;stroke-opacity:1;fill:#DBDBDB;fill-opacity:1"
       ry="105.22034"
       rx="107.38983"
       cy="-42.305084"
       cx="-643.25421"
       transform="translate(201.76271,412.20339)"
       id="path3026-8" />
    <ellipse
       style="stroke:none;stroke-width:6;stroke-opacity:1;fill:#DBDBDB;fill-opacity:1"
       ry="105.22034"
       rx="107.38983"
       cy="-42.305084"
       cx="-643.25421"
       transform="matrix(0.95070335,0,0,0.9581343,170.09662,410.73774)"
       id="path3026-3-6" />
    <path
       style="stroke:none;stroke-width:0;stroke-opacity:1;fill:#DBDBDB;fill-opacity:1"
       sodipodi:nodetypes="csscssssc"
       inkscape:connector-curvature="0"
       id="path3866-2"
       d="m -540.27752,360.41549 c 0,0 32.29686,13.60557 50.82661,15.04499 20.18605,1.56808 41.85803,-9.5096 60.27775,-7.48419 27.09717,2.97957 82.21989,33.02886 82.21989,33.02886 0,0 -12.52701,40.97757 -48.13519,56.38924 -13.89669,6.01467 -14.57574,7.74606 -36.64072,10.136 -17.20141,1.86316 -35.34973,-0.29711 -55.91648,-10.05822 -20.10745,-9.54313 -34.58115,-27.95432 -44.9934,-49.44452 -11.37836,-23.48419 -7.63846,-47.61216 -7.63846,-47.61216 z" />
  </g>
</svg>
