<?xml version="1.0" encoding="UTF-8" standalone="no"?>
<svg
   xmlns:dc="http://purl.org/dc/elements/1.1/"
   xmlns:cc="http://creativecommons.org/ns#"
   xmlns:rdf="http://www.w3.org/1999/02/22-rdf-syntax-ns#"
   xmlns:svg="http://www.w3.org/2000/svg"
   xmlns="http://www.w3.org/2000/svg"
   xmlns:sodipodi="http://sodipodi.sourceforge.net/DTD/sodipodi-0.dtd"
   xmlns:inkscape="http://www.inkscape.org/namespaces/inkscape"
   sodipodi:docname="node-red-icon.svg"
   inkscape:version="0.91 r13725"
   id="svg2"
   version="1.1"
   width="512"
   viewBox="0 0 512 512"
   height="512">
  <defs
     id="defs17" />
  <sodipodi:namedview
     inkscape:current-layer="svg2"
     inkscape:window-maximized="1"
     inkscape:window-y="0"
     inkscape:window-x="0"
     inkscape:cy="226.82479"
     inkscape:cx="246.01585"
     inkscape:zoom="0.77333067"
     showgrid="false"
     id="namedview15"
     inkscape:window-height="991"
     inkscape:window-width="1680"
     inkscape:pageshadow="2"
     inkscape:pageopacity="0"
     guidetolerance="10"
     gridtolerance="10"
     objecttolerance="10"
     borderopacity="1"
     bordercolor="#666666"
     pagecolor="#646064" />
  <metadata
     id="metadata28">
    <rdf:RDF>
      <cc:Work
         rdf:about="">
        <dc:format>image/svg+xml</dc:format>
        <dc:type
           rdf:resource="http://purl.org/dc/dcmitype/StillImage" />
        <dc:title></dc:title>
      </cc:Work>
    </rdf:RDF>
  </metadata>
  <g
     id="g4329"
     transform="matrix(1.4809886,0,0,1.4809886,-95.140501,-201.47877)"
     style="stroke:#DBDBDB;stroke-opacity:1">
    <rect
       ry="20.116037"
       y="268.77881"
       x="74.063591"
       height="49.375729"
       width="123.43932"
       id="rect4289"
       style="opacity:1;fill:none;fill-opacity:1;stroke:#DBDBDB;stroke-width:12.30000019;stroke-linejoin:round;stroke-miterlimit:3.9000001;stroke-dasharray:none;stroke-opacity:1" />
    <rect
       ry="20.116037"
       y="338.27057"
       x="266.53751"
       height="49.375729"
       width="123.43932"
       id="rect4289-3"
       style="opacity:1;fill:none;fill-opacity:1;stroke:#DBDBDB;stroke-width:12.30000019;stroke-linejoin:round;stroke-miterlimit:3.9000001;stroke-dasharray:none;stroke-opacity:1" />
    <rect
       ry="20.116037"
       y="225.80363"
       x="244.59274"
       height="49.375729"
       width="123.43932"
       id="rect4289-6"
       style="opacity:1;fill:none;fill-opacity:1;stroke:#DBDBDB;stroke-width:12.30000019;stroke-linejoin:round;stroke-miterlimit:3.9000001;stroke-dasharray:none;stroke-opacity:1" />
    <path
       sodipodi:nodetypes="ccc"
       inkscape:connector-curvature="0"
       id="path4312"
       d="m 200.24601,304.43906 c 37.54168,3.16269 40.28745,23.00576 45.51275,34.69542 8.84205,45.49322 23.06466,21.99524 23.06466,21.99524"
       style="fill:none;fill-rule:evenodd;stroke:#DBDBDB;stroke-width:9.69999981;stroke-linecap:butt;stroke-linejoin:miter;stroke-miterlimit:4;stroke-dasharray:none;stroke-opacity:1" />
    <path
       sodipodi:nodetypes="ccc"
       inkscape:connector-curvature="0"
       id="path4312-7"
       d="m 184.65952,271.68067 c 17.88283,-26.55418 16.05677,-24.99841 35.45473,-25.65269 17.98571,2.51805 25.35058,4.16512 25.35058,4.16512"
       style="fill:none;fill-rule:evenodd;stroke:#DBDBDB;stroke-width:9.69999981;stroke-linecap:butt;stroke-linejoin:miter;stroke-miterlimit:4;stroke-dasharray:none;stroke-opacity:1" />
  </g>
</svg>
