<svg xmlns="http://www.w3.org/2000/svg" width="48" height="48">
<defs>
<defs
     id="defs4">
  </defs>
  <path
     d="m 2.5433962,2 0,44 42.5704998,0 C 40.111808,38.186347 42.367031,29.350086 43.970297,20.640676 40.372292,20.850998 30.382506,24.523529 26.387451,30.847303 20.283049,27.830199 13.093976,28.718972 4.2016158,33.677713 6.4307165,28.361683 18.710367,24.353952 24.700641,25.987005 26.044269,23.252389 33.37279,18.408575 43.970297,20.583496 45.149071,14.169375 45.970415,7.8309866 43.284137,2 L 2.5433962,2 z M 34.707139,14.693957 c 1.520663,-0.0068 3.229349,0.0824 5.146199,0.2859 -2.814277,0.006 -11.528238,2.071455 -15.467187,5.860949 -4.819162,-2.114579 -11.227659,-1.332474 -18.2975956,1.343729 4.5474926,-4.580469 10.6909476,-5.273702 17.2683556,-4.488629 1.647992,-1.219861 4.760688,-2.972332 11.350228,-3.001949 z"
     id="path-main"
      />
</defs>

<use id="1" style="fill:#DBDBDB" xlink:href="#path-main" />



</svg>
