<svg xmlns="http://www.w3.org/2000/svg" width="48" height="48">
<defs>
  <path
     d="M 18.61191,2 C 14.656064,2 10.788136,2.8368 7.746653,4.1365 6.225911,4.7864 4.882319,5.547 3.852746,6.4897 2.823174,7.4326 2,8.6556 2,10.1435 l 0,26.1028 0,0.062 0,0.093 c 0.228327,3.2943 2.661018,5.6957 5.652446,7.1217 2.991429,1.426 6.68525,2.0679 10.425622,2.0746 3.740371,0.01 7.542692,-0.6127 10.676842,-2.0127 0.02177,-0.01 0.04109,-0.021 0.06281,-0.031 -0.852591,-0.098 -1.656006,-0.1078 -2.417991,-0.031 -1.337238,0.1349 -2.498526,0.4906 -3.29726,0.8051 -0.400698,0.1353 -0.919284,0.4212 -1.193294,0.5573 -0.158902,0.1013 -0.240223,0.1185 -0.37683,0.1858 -0.0745,0.023 -0.313402,0.062 -0.314024,0.062 -6.22e-4,0 -0.816092,-0.062 -0.816465,-0.062 -3.73e-4,-1e-4 -1.318779,-1.1145 -1.318904,-1.1147 -1.2e-4,-3e-4 -0.09433,-1.3 -0.09421,-1.3005 1.22e-4,-4e-4 0.133508,-0.3683 0.188415,-0.4644 0.08992,-0.1571 0.144134,-0.197 0.188414,-0.2477 -0.432388,0.02 -0.855165,0.032 -1.287501,0.031 -3.294865,-0.01 -6.537567,-0.6131 -8.824096,-1.703 C 6.967445,39.1819 5.792303,37.859 5.674092,36.1536 l 0,-21.0556 c 0.63055,0.3705 1.345369,0.742 2.072563,1.0527 3.041483,1.2998 6.909411,2.1056 10.865257,2.1056 3.955847,0 7.823774,-0.8058 10.865257,-2.1056 0.727194,-0.3107 1.410611,-0.6822 2.041161,-1.0527 l 0,13.2526 c 0.169809,0.02 0.33115,0.03 0.502439,0.062 0.798366,-1.4165 1.985059,-2.4234 3.171651,-3.0964 l 0,-15.1724 C 35.19242,8.6559 34.369246,7.4329 33.339673,6.49 32.310104,5.5473 30.997911,4.7867 29.477169,4.1368 26.435686,2.8371 22.567759,2.0003 18.611912,2.0003 z m 0,3.6537 c 3.422867,0 6.928191,0.7617 9.420743,1.8269 1.246275,0.5326 2.210299,1.1368 2.79482,1.6721 0.584522,0.5352 0.690855,0.9019 0.690855,0.9908 0,0.089 -0.106333,0.4246 -0.690855,0.9599 -0.584521,0.5353 -1.548545,1.1704 -2.79482,1.703 -2.492552,1.0652 -5.997876,1.8269 -9.420743,1.8269 -3.422866,0 -6.959594,-0.7617 -9.452145,-1.8269 C 7.913489,12.2738 6.949466,11.6387 6.364944,11.1034 5.780423,10.5681 5.67409,10.2323 5.67409,10.1435 c 0,-0.089 0.106333,-0.4556 0.690854,-0.9908 C 6.949466,8.6174 7.913489,8.0132 9.159765,7.4806 11.652316,6.4154 15.189044,5.6537 18.61191,5.6537 z m 21.699111,20.2505 c 0,0 -6.049112,0.1528 -7.096959,4.9853 -4.111383,-2.2172 -8.543514,1.8587 -8.541474,1.8578 0,0 5.212379,-3.5676 10.048792,1.6101 -1.011963,-6.2729 5.589641,-8.4532 5.589641,-8.4532 z m 5.621044,5.9452 c -0.88144,0.098 -9.611168,1.7862 -11.085075,8.7009 -6.208274,-3.3749 -14.199245,2.7508 -13.911297,2.6319 -0.118987,0.065 8.739073,-5.3137 16.297886,2.8178 -1.594613,-9.7837 8.847188,-14.1909 8.76129,-14.1506 0.01558,-0.01 -0.004,-0.01 -0.0628,0 z m -14.413737,2.4152 0,1.703 c -0.128316,0.5864 -0.387456,1.1561 -0.75366,1.672 0.939057,0.02 1.902506,0.1094 2.857626,0.3716 0.19263,-0.4279 0.390741,-0.8523 0.628049,-1.2386 l -1.004879,-1.0837 c -0.606251,-0.6491 -1.181933,-1.0917 -1.727136,-1.4243 z"
     id="path-main" />
</defs>

<use id="1" style="fill:#DBDBDB" xlink:href="#path-main" />



</svg>
