<?xml version="1.0" encoding="UTF-8" standalone="no"?>
<svg xmlns:dc="http://purl.org/dc/elements/1.1/" xmlns:cc="http://creativecommons.org/ns#" xmlns:rdf="http://www.w3.org/1999/02/22-rdf-syntax-ns#" xmlns:svg="http://www.w3.org/2000/svg" xmlns="http://www.w3.org/2000/svg" xmlns:sodipodi="http://sodipodi.sourceforge.net/DTD/sodipodi-0.dtd" xmlns:inkscape="http://www.inkscape.org/namespaces/inkscape" height="512" viewBox="0 0 512 512" width="512" version="1.1" id="svg2" inkscape:version="0.91 r" sodipodi:docname="openoffice4-startcenter.svg">
<sodipodi:namedview pagecolor="#ffffff" bordercolor="#666666" borderopacity="1" objecttolerance="10" gridtolerance="10" guidetolerance="10" inkscape:pageopacity="0" inkscape:pageshadow="2" inkscape:window-width="640" inkscape:window-height="480" id="namedview24" showgrid="false" inkscape:zoom="0.4609375" inkscape:cx="218.0339" inkscape:cy="256" inkscape:window-x="0" inkscape:window-y="0" inkscape:window-maximized="0" inkscape:current-layer="svg2" />
<defs id="defs39">
<clipPath id="clipPath-718178204">
<g transform="translate(0,-1004.3622)" id="g17">
<path inkscape:connector-curvature="0" d="m -24,13 c 0,1.105 -0.672,2 -1.5,2 -0.828,0 -1.5,-0.895 -1.5,-2 0,-1.105 0.672,-2 1.5,-2 0.828,0 1.5,0.895 1.5,2 z" transform="matrix(15.333333,0,0,11.5,414.99999,878.8622)" id="path19" fill="#1890d0" />
</g>
</clipPath>
</defs>
<metadata id="metadata84">
<rdf:RDF>
<cc:Work rdf:about="">
<dc:format>image/svg+xml</dc:format>
<dc:type rdf:resource="http://purl.org/dc/dcmitype/StillImage" />
</cc:Work>
</rdf:RDF>
</metadata>
<g transform="matrix(15.205811,0,0,20.772951,-110.10025,-217.59086)" id="g47" style="fill:#DBDBDB">
<g id="g49" clip-path="url(#clipPath-718178204)">
<g id="g51">
<path inkscape:connector-curvature="0" d="m 36.18,16 c -1.582,-0.023 -3.086,0.391 -4.379,1.133 -1.012,-0.57 -2.164,-0.941 -3.398,-1.059 -1.699,-0.156 -3.328,0.191 -4.738,0.922 -0.016,0.008 -0.031,0.016 -0.043,0.023 -0.035,0.027 -0.059,0.07 -0.059,0.117 0,0.082 0.066,0.141 0.145,0.141 0.008,0 0.02,0 0.027,0 0.004,0 0.008,-0.004 0.008,-0.004 0.762,-0.137 1.551,-0.176 2.359,-0.102 2.258,0.211 4.23,0.906 5.613,2.461 0.07,0.074 0.133,0.066 0.203,-0.004 1.742,-1.996 4.406,-2.789 7.27,-2.52 0.16,0.016 0.32,0.031 0.477,0.059 0.055,0.008 0.141,0.02 0.191,0.023 0.094,0.012 0.145,-0.063 0.145,-0.141 0,-0.063 -0.023,-0.105 -0.078,-0.129 -0.055,-0.027 -0.109,-0.063 -0.164,-0.082 -0.887,-0.43 -1.863,-0.699 -2.898,-0.809 -0.227,-0.02 -0.457,-0.039 -0.684,-0.043 m 0.004,0.004" id="path53" />
<path inkscape:connector-curvature="0" d="m 30.938,22.84 c -3.191,0 -6.141,1.012 -8.555,2.711 -1.844,-0.82 -3.883,-1.277 -6.03,-1.277 -3.055,0 -5.887,0.922 -8.242,2.5 -0.004,0.004 -0.016,0.012 -0.02,0.016 -0.055,0.039 -0.082,0.098 -0.082,0.168 0,0.121 0.098,0.219 0.215,0.219 0.016,0 0.031,-0.004 0.043,-0.004 0.012,0 0.02,-0.004 0.023,-0.008 1.352,-0.406 2.785,-0.621 4.27,-0.621 3.934,0 7.449,0.926 10.09,3.391 0.008,0.004 0.016,0.012 0.023,0.016 0.039,0.035 0.086,0.047 0.145,0.047 0.066,0 0.125,-0.02 0.164,-0.07 0,0 0.086,-0.113 0.129,-0.18 2.691,-3.641 7.121,-5.438 12.04,-5.438 0.352,0 0.703,0.008 1.051,0.035 0.098,0.004 0.313,0.023 0.316,0.023 0.117,0 0.215,-0.098 0.215,-0.219 0,-0.086 -0.051,-0.156 -0.125,-0.188 -0.008,-0.004 -0.016,-0.008 -0.023,-0.012 -1.742,-0.711 -3.641,-1.113 -5.633,-1.113 m -0.008,0.004" id="path55" />
</g>
</g>
</g>
<path d="m 388.11774,275.75442 71.33389,59.82843 -46.02187,72.10092 -99.71404,60.59546 -30.68124,5.36921 L 56.760301,318.70816 z" id="path3029" inkscape:connector-curvature="0" fill="none" stroke="#000000" stroke-width="0" />
</svg>
