<?xml version="1.0" encoding="UTF-8" standalone="no"?>
<svg xmlns:dc="http://purl.org/dc/elements/1.1/" xmlns:cc="http://creativecommons.org/ns#" xmlns:rdf="http://www.w3.org/1999/02/22-rdf-syntax-ns#" xmlns:svg="http://www.w3.org/2000/svg" xmlns="http://www.w3.org/2000/svg" xmlns:sodipodi="http://sodipodi.sourceforge.net/DTD/sodipodi-0.dtd" xmlns:inkscape="http://www.inkscape.org/namespaces/inkscape" version="1.1" viewBox="0 0 512 512" id="svg2" inkscape:version="0.91 r" sodipodi:docname="power.svg">
<defs id="defs16" />
<sodipodi:namedview pagecolor="#ffffff" bordercolor="#666666" borderopacity="1" objecttolerance="10" gridtolerance="10" guidetolerance="10" inkscape:pageopacity="0" inkscape:pageshadow="2" inkscape:window-width="640" inkscape:window-height="480" id="namedview14" showgrid="false" inkscape:zoom="0.4609375" inkscape:cx="218.0339" inkscape:cy="256" inkscape:window-x="0" inkscape:window-y="0" inkscape:window-maximized="0" inkscape:current-layer="svg2" />
<metadata id="metadata4822">
<rdf:RDF>
<cc:Work rdf:about="">
<dc:format>image/svg+xml</dc:format>
<dc:type rdf:resource="http://purl.org/dc/dcmitype/StillImage" />
</cc:Work>
</rdf:RDF>
</metadata>
<path inkscape:connector-curvature="0" id="path4816" d="M 327.79378,8.1923908 C 251.18188,105.85465 176.82627,205.28734 101.38368,303.86912 c 39.08549,0.0426 78.17098,0.29096 117.26059,0.34311 -16.39508,69.23919 -34.47549,138.0941 -49.62714,207.6215 C 411.96502,214.08463 336.75576,306.17481 410.60632,213.02785 372.28116,212.43771 333.9505,212.6422 295.62397,212.59828 308.41092,141.7657 322.09956,71.100552 334.39517,0.17327119 332.19379,2.8467685 329.99241,5.5202659 327.78966,8.1937633" style="fill:#DBDBDB;fill-rule:evenodd" />
</svg>
