<?xml version="1.0" encoding="UTF-8" standalone="no"?>
<svg
   xmlns:dc="http://purl.org/dc/elements/1.1/"
   xmlns:cc="http://creativecommons.org/ns#"
   xmlns:rdf="http://www.w3.org/1999/02/22-rdf-syntax-ns#"
   xmlns:svg="http://www.w3.org/2000/svg"
   xmlns="http://www.w3.org/2000/svg"
   xmlns:sodipodi="http://sodipodi.sourceforge.net/DTD/sodipodi-0.dtd"
   xmlns:inkscape="http://www.inkscape.org/namespaces/inkscape"
   viewBox="0 0 512 512"
   version="1.1"
   id="svg2"
   inkscape:version="0.91 r"
   sodipodi:docname="applications-games.svg">
  <defs
     id="defs15" />
  <sodipodi:namedview
     pagecolor="#ffffff"
     bordercolor="#666666"
     borderopacity="1"
     objecttolerance="10"
     gridtolerance="10"
     guidetolerance="10"
     inkscape:pageopacity="0"
     inkscape:pageshadow="2"
     inkscape:window-width="1920"
     inkscape:window-height="1028"
     id="namedview13"
     showgrid="false"
     inkscape:zoom="0.4609375"
     inkscape:cx="256"
     inkscape:cy="256"
     inkscape:window-x="0"
     inkscape:window-y="0"
     inkscape:window-maximized="1"
     inkscape:current-layer="svg2" />
  <metadata
     id="metadata118">
    <rdf:RDF>
      <cc:Work
         rdf:about="">
        <dc:format>image/svg+xml</dc:format>
        <dc:type
           rdf:resource="http://purl.org/dc/dcmitype/StillImage" />
      </cc:Work>
    </rdf:RDF>
  </metadata>
  <path
     inkscape:connector-curvature="0"
     d="m 415.09283,54.300169 c -8.28746,10.725946 -20.47079,17.31335 -37.71276,20.439642 -2.85247,0.517804 -12.95809,1.310732 -22.46803,1.784413 -31.66263,1.579368 -48.93835,5.287054 -67.44303,14.477755 -24.60025,12.219661 -41.86558,34.506011 -46.67895,60.228811 -2.52933,13.49535 0.0779,21.12615 8.63785,25.144 4.2787,2.00763 11.3917,1.6222 15.612,-0.85133 4.94055,-2.89529 6.95856,-6.68214 8.59762,-16.1817 4.47077,-25.90709 24.85201,-42.06543 59.6565,-47.2876 3.32874,-0.49964 14.22729,-1.31982 24.21092,-1.82464 25.64623,-1.29776 37.86849,-3.6999 52.76153,-10.382043 12.20928,-5.477824 22.94171,-14.12217 31.22398,-24.535356 -8.37441,-7.490642 -17.17838,-14.540047 -26.40152,-21.008058 M 154.35698,163.56206 c -15.81704,-0.21413 -32.01172,7.48934 -48.86826,23.31936 -40.658668,38.17735 -66.380172,100.96533 -66.665678,162.62167 -0.06748,14.24027 0.877282,20.90684 4.582373,32.2012 8.340671,25.4321 25.785094,46.26367 41.891531,50.04533 11.165884,2.62146 25.890214,-1.48593 39.140294,-10.90893 3.14186,-2.23474 12.90098,-11.09191 21.69716,-19.67397 29.37858,-28.64145 39.21816,-36.07629 58.80128,-44.40917 15.33038,-6.52771 31.75088,-9.61118 50.97582,-9.61118 19.22624,0 35.68696,3.08996 51.01475,9.61118 19.58312,8.33158 29.42659,15.76123 58.80128,44.40917 8.79618,8.57686 18.5553,17.43404 21.69716,19.67397 11.50849,8.18753 24.64307,12.51814 34.9174,11.51757 20.82897,-2.02969 42.03947,-29.01001 49.35362,-62.77241 3.4676,-16.00391 0.60346,-51.92317 -6.20457,-77.78484 -11.40207,-43.29959 -31.52247,-78.95281 -59.16984,-104.91051 -16.85654,-15.83002 -33.01099,-23.5283 -48.82803,-23.31936 -17.21991,0.2336 -28.71932,5.80226 -48.82803,23.72426 -17.44702,15.5471 -25.2621,20.73942 -36.33714,24.21092 -9.22704,2.8914 -23.62304,2.8914 -32.85007,0 -11.07504,-3.4715 -18.84989,-8.66382 -36.29691,-24.21092 -20.11131,-17.922 -31.60812,-23.48937 -48.82804,-23.72426 m 203.82541,61.5655 c 4.72772,0.001 9.5359,1.59753 13.54596,5.0288 11.57727,9.90966 9.92523,27.93288 -3.20416,35.03938 -4.12556,2.23344 -10.39501,3.46112 -13.62642,2.67727 -13.82109,-3.35989 -21.05738,-14.66852 -17.39771,-27.17239 2.86674,-9.79546 11.65774,-15.57306 20.68362,-15.57306 m -221.55273,4.42015 17.27701,0 17.27701,0 0,16.87082 0,16.83058 16.87082,0 16.87081,0 0,17.31724 0,17.27702 -16.87081,0 -16.87082,0 0,16.87081 0,16.83059 -17.27701,0 -17.27701,0 0,-16.83059 0,-16.87081 -16.87082,0 -16.87081,0 0,-17.27702 0,-17.31724 16.87081,0 16.87082,0 0,-16.83058 0,-16.87082 m 187.96683,29.40194 c 4.25275,0.0104 11.22948,3.16393 14.59975,6.57053 11.07763,11.19444 6.72496,30.1209 -8.1512,35.36383 -13.86003,4.88994 -28.39618,-5.47523 -28.42862,-20.31766 -0.026,-11.8498 9.9421,-21.64525 21.98137,-21.6154 m 67.44303,0.36467 c 3.55325,-0.005 7.10391,0.65277 9.53071,1.94663 7.60355,4.05418 11.84202,10.97771 11.84202,19.3041 0,8.75725 -4.46817,15.65093 -12.69334,19.54419 -2.75254,1.29776 -5.88532,2.02839 -8.63786,2.02839 -7.99547,0 -16.77997,-5.82302 -19.831,-13.13976 -1.65982,-3.98022 -1.75067,-12.74396 -0.16221,-16.54638 1.70265,-4.07495 6.27205,-8.98306 10.38204,-11.15291 2.46313,-1.29775 6.01769,-1.98297 9.57094,-1.98686 m -34.02714,34.02714 c 18.56698,0 28.26381,21.41295 16.01949,35.32489 -1.93885,2.20359 -5.09628,4.72383 -7.01566,5.59721 -4.20084,1.9077 -13.45642,2.09718 -17.43923,0.36467 -8.12395,-3.53508 -13.84056,-13.15664 -12.97755,-21.77762 1.13164,-11.30734 10.13806,-19.50526 21.41295,-19.50526"
     id="path54"
     style="fill:#DBDBDB;fill-opacity:1" />
</svg>
