<?xml version="1.0" encoding="UTF-8" standalone="no"?>
<svg xmlns:dc="http://purl.org/dc/elements/1.1/" xmlns:cc="http://creativecommons.org/ns#" xmlns:rdf="http://www.w3.org/1999/02/22-rdf-syntax-ns#" xmlns:svg="http://www.w3.org/2000/svg" xmlns="http://www.w3.org/2000/svg" xmlns:sodipodi="http://sodipodi.sourceforge.net/DTD/sodipodi-0.dtd" xmlns:inkscape="http://www.inkscape.org/namespaces/inkscape" height="512" viewBox="0 0 512 512" width="512" version="1.1" id="svg2" inkscape:version="0.91 r" sodipodi:docname="cs-desklets.svg">
<defs id="defs17" />
<sodipodi:namedview pagecolor="#ffffff" bordercolor="#666666" borderopacity="1" objecttolerance="10" gridtolerance="10" guidetolerance="10" inkscape:pageopacity="0" inkscape:pageshadow="2" inkscape:window-width="640" inkscape:window-height="480" id="namedview15" showgrid="false" inkscape:zoom="0.4609375" inkscape:cx="218.0339" inkscape:cy="256" inkscape:window-x="0" inkscape:window-y="0" inkscape:window-maximized="0" inkscape:current-layer="svg2" />
<metadata id="metadata120">
<rdf:RDF>
<cc:Work rdf:about="">
<dc:format>image/svg+xml</dc:format>
<dc:type rdf:resource="http://purl.org/dc/dcmitype/StillImage" />
<dc:title></dc:title>
</cc:Work>
</rdf:RDF>
</metadata>
<g id="g3350" transform="matrix(1.3342437,0,0,1.6687779,-88.444876,-171.19952)">
<path d="m 108.84,149.88 0,23.563 206.28,0 c 5.514,-5.566 11.02,-11.13 16.5,-16.719 0.437,-2.528 4.01,-2.226 4.406,-3.969 1.032,-0.895 2.02,-1.865 3,-2.875 l -230.19,0 m 0,47.16 0,23.563 159.19,0 c 7.881,-7.855 15.759,-15.699 23.625,-23.563 l -182.81,0 m 0,47.19 0,23.594 112.06,0 c 7.784,-7.875 15.602,-15.752 23.438,-23.594 l -135.5,0 m 0,47.22 0,23.563 84.34,0 c 2.641,-7.814 5.221,-15.652 7.406,-23.563 l -91.75,0 m 230.28,0 c -7.861,7.854 -15.704,15.706 -23.563,23.563 l 29.25,0 0,-23.56 -5.688,0 m -230.28,47.16 0,23.594 70.47,0 c 1.542,-7.968 3.688,-15.803 6.094,-23.594 l -76.56,0" id="path112" inkscape:connector-curvature="0" style="fill:#DBDBDB" />
<path d="m 365.05,139.22 c -2.919,0.151 -5.467,1.091 -7.339,2.904 l -0.106,0.106 -13.832,13.885 -0.291,0.291 0.291,0.291 59.16,59.13 0.317,0.291 0.291,-0.291 13.651,-13.674 0.185,-0.185 c 0.068,-0.068 0.097,-0.142 0.106,-0.159 3.327,-3.47 3.679,-9.117 1.663,-15.416 -2.024,-6.324 -6.434,-13.377 -12.772,-19.719 l -13.41,-13.436 c -8.763,-8.764 -18.874,-13.846 -26.609,-14.02 -0.421,-0.009 -0.864,-0.022 -1.293,0 m -28.641,24.23 -0.291,0.317 -14.625,14.651 -0.291,0.291 0.291,0.317 59.13,59.1 0.291,0.317 0.317,-0.317 14.625,-14.651 0.291,-0.291 -0.291,-0.291 -59.13,-59.13 -0.317,-0.317 m -23.677,23.677 -0.317,0.291 -89.22,89.3 -11.03,10.981 -2.772,2.799 -0.079,0.053 -0.026,0.106 -22.306,69.824 -0.026,0.026 c -0.802,3.762 0.426,7.933 3.088,10.453 l 0.026,0.026 c 2.468,1.846 5.745,2.307 8.553,1.188 l 0.026,0 70.771,-22.359 0.079,-0.026 0.079,-0.079 2.297,-2.323 10.665,-10.638 89.62,-89.59 0.291,-0.317 -0.291,-0.291 -59.13,-59.13 -0.291,-0.291 m -87.5,113.45 0.052,0 c 0.084,-0.003 0.154,-0.003 0.237,0 0.009,0 0.017,-0.001 0.026,0 l 0.026,0 c 0.775,0.01 1.515,0.345 2.059,0.898 l 5.094,5.068 19.16,-1 c 0.008,-0.001 0.018,0 0.026,0 0.758,-0.034 1.515,0.239 2.086,0.739 0.672,0.594 1.051,1.48 1,2.376 l -0.95,20.933 3.722,3.722 c 0.737,0.741 1.039,1.842 0.765,2.851 -0.274,1.01 -1.102,1.818 -2.112,2.086 l -33.366,8.949 -0.026,0 c -1,0.275 -2.108,-0.014 -2.851,-0.739 l -0.026,0 -6.467,-6.467 c -0.759,-0.749 -1.057,-1.878 -0.765,-2.904 l 9.767,-34.32 c 0.307,-1.162 1.34,-2.057 2.534,-2.191" id="path114" inkscape:connector-curvature="0" style="color:#000000;fill:#DBDBDB" />
</g>
</svg>
