<?xml version="1.0" encoding="UTF-8" standalone="no"?>
<svg xmlns:dc="http://purl.org/dc/elements/1.1/" xmlns:cc="http://creativecommons.org/ns#" xmlns:rdf="http://www.w3.org/1999/02/22-rdf-syntax-ns#" xmlns:svg="http://www.w3.org/2000/svg" xmlns="http://www.w3.org/2000/svg" xmlns:sodipodi="http://sodipodi.sourceforge.net/DTD/sodipodi-0.dtd" xmlns:inkscape="http://www.inkscape.org/namespaces/inkscape" height="512" viewBox="0 0 512 512" width="512" version="1.1" id="svg2" inkscape:version="0.91 r" sodipodi:docname="mail_generic.svg">
<defs id="defs17" />
<sodipodi:namedview pagecolor="#ffffff" bordercolor="#666666" borderopacity="1" objecttolerance="10" gridtolerance="10" guidetolerance="10" inkscape:pageopacity="0" inkscape:pageshadow="2" inkscape:window-width="1680" inkscape:window-height="994" id="namedview15" showgrid="false" inkscape:zoom="1.3037281" inkscape:cx="-48.064381" inkscape:cy="244.919" inkscape:window-x="0" inkscape:window-y="0" inkscape:window-maximized="1" inkscape:current-layer="svg2" />
<metadata id="metadata28">
<rdf:RDF>
<cc:Work rdf:about="">
<dc:format>image/svg+xml</dc:format>
<dc:type rdf:resource="http://purl.org/dc/dcmitype/StillImage" />
<dc:title />
</cc:Work>
</rdf:RDF>
</metadata>
<path inkscape:connector-curvature="0" style="fill:#DBDBDB" d="m 264.3305,43.468935 c -28.01251,0 -55.08523,5.297594 -81.22513,15.88025 -25.98953,10.582657 -48.78519,25.516162 -68.38838,44.817225 -19.603182,19.45421 -34.709329,42.01876 -45.291986,67.69921 -10.582657,25.67905 -15.88025,52.68912 -15.88025,81.01628 0,29.4187 5.191781,56.94391 15.619895,82.6174 10.426722,25.52312 25.633113,48.0278 45.553731,67.4834 19.92063,19.45421 42.61048,34.21926 68.13499,44.3355 25.52313,10.27079 52.70027,15.39852 81.48966,15.39852 23.65469,0 46.90981,-4.04594 69.79458,-12.13921 23.03235,-7.93734 44.28537,-19.45004 63.73958,-34.54644 l -24.97457,-37.81409 c -13.85171,12.44969 -30.59934,22.31811 -50.20531,29.62893 -19.60318,7.31499 -39.22029,10.96414 -58.82348,10.96414 -22.8778,0 -44.42181,-4.04594 -64.65709,-12.13922 -20.07656,-7.93734 -37.91156,-19.50572 -53.47715,-34.76363 -15.71875,-15.56281 -27.75215,-33.45629 -36.1559,-53.69017 -8.24782,-20.38703 -12.399575,-42.15798 -12.399575,-65.35044 0,-28.16844 6.382175,-54.32644 19.143735,-78.44059 12.9175,-24.27843 30.92235,-44.05008 53.95053,-59.30241 14.00625,-9.18204 29.23074,-16.128078 45.72776,-20.797757 16.49703,-4.824221 33.76259,-7.221713 51.82035,-7.223105 25.8336,0 49.81966,5.13052 71.91919,15.398522 22.25407,10.27218 40.77963,24.91331 55.55999,43.89972 9.18203,11.36093 16.02226,23.89138 20.536,37.59133 4.51236,13.53984 6.78733,28.08212 6.78733,43.63936 0,24.43437 -5.52732,44.497 -16.57639,60.21575 -11.05046,15.56281 -26.2123,24.84509 -45.51057,27.80227 l 0,-161.76804 -48.81305,0 0,30.58682 c -4.66967,-11.04907 -12.19769,-19.70065 -22.62441,-25.93106 -10.27218,-6.22485 -22.34596,-9.35467 -36.19906,-9.35467 -26.60631,0 -48.32436,9.74033 -65.13186,29.19454 -16.80472,19.45421 -25.18619,44.74761 -25.18619,75.8788 0,31.12563 8.3216,56.42599 24.97456,75.87881 16.80472,19.29827 38.58124,28.93279 65.35045,28.93279 13.85032,0 25.92688,-3.02401 36.19906,-9.09292 10.42672,-6.22485 17.95474,-14.88199 22.62442,-25.93106 l 0,35.9387 9.09292,0 c 46.22342,0 82.01176,-11.6366 107.38591,-34.97386 25.36719,-23.34422 38.06888,-56.10854 38.07028,-98.28045 0,-19.60319 -3.02402,-38.29722 -9.09293,-56.03893 C 451.27777,152.79149 442.49811,136.21093 430.8253,120.9586 411.68296,95.903276 387.86398,76.756757 359.38784,63.527392 330.90754,50.143485 299.22779,43.470327 264.36531,43.470327 m -3.26349,149.154063 c 14.00625,0 25.11658,5.52731 33.37136,16.57638 8.40932,10.89453 12.61398,25.76538 12.61398,44.59446 0,18.98641 -4.15175,34.08699 -12.39957,45.29199 -8.24921,11.04907 -19.25929,16.57638 -33.10961,16.57638 -14.00625,0 -25.17227,-5.52731 -33.41452,-16.57638 -8.09328,-11.04907 -12.13922,-26.14965 -12.13922,-45.29199 0,-18.83047 4.04594,-33.70689 12.13922,-44.59446 8.24782,-11.04907 19.2398,-16.57638 32.93558,-16.57638" id="path2914" />
</svg>
