<?xml version="1.0" encoding="UTF-8" standalone="no"?>
<svg
   xmlns:dc="http://purl.org/dc/elements/1.1/"
   xmlns:cc="http://creativecommons.org/ns#"
   xmlns:rdf="http://www.w3.org/1999/02/22-rdf-syntax-ns#"
   xmlns:svg="http://www.w3.org/2000/svg"
   xmlns="http://www.w3.org/2000/svg"
   xmlns:sodipodi="http://sodipodi.sourceforge.net/DTD/sodipodi-0.dtd"
   xmlns:inkscape="http://www.inkscape.org/namespaces/inkscape"
   height="512"
   width="512"
   version="1.1"
   viewBox="0 0 512 512"
   id="svg2"
   inkscape:version="0.91 r13725"
   sodipodi:docname="help-contents.svg">
  <defs
     id="defs48" />
  <sodipodi:namedview
     pagecolor="#ffffff"
     bordercolor="#666666"
     borderopacity="1"
     objecttolerance="10"
     gridtolerance="10"
     guidetolerance="10"
     inkscape:pageopacity="0"
     inkscape:pageshadow="2"
     inkscape:window-width="1680"
     inkscape:window-height="1021"
     id="namedview46"
     showgrid="false"
     inkscape:zoom="0.26146725"
     inkscape:cx="-899.7591"
     inkscape:cy="417.40328"
     inkscape:window-x="1920"
     inkscape:window-y="0"
     inkscape:window-maximized="1"
     inkscape:current-layer="svg2" />
  <metadata
     id="metadata90">
    <rdf:RDF>
      <cc:Work
         rdf:about="">
        <dc:format>image/svg+xml</dc:format>
        <dc:type
           rdf:resource="http://purl.org/dc/dcmitype/StillImage" />
        <dc:title />
      </cc:Work>
    </rdf:RDF>
  </metadata>
  <text
     id="text20"
     font-size="129.23"
     line-height="125%"
     y="231.36"
     x="729.64"
     font-family="Gentium Book Basic"
     word-spacing="0"
     letter-spacing="0">
    <tspan
       id="tspan22"
       y="231.36"
       x="729.64" />
  </text>
  <text
     id="text24"
     transform="scale(4.0128 .2492)"
     font-size="46.954"
     y="579.25"
     x="378.91"
     font-family="Arial"
     text-anchor="middle" />
  <text
     id="text26"
     font-size="129.23"
     line-height="125%"
     y="151.36"
     x="1310.91"
     font-family="Gentium Book Basic"
     word-spacing="0"
     letter-spacing="0">
    <tspan
       id="tspan28"
       y="151.36"
       x="1310.91" />
  </text>
  <text
     id="text30"
     transform="scale(4.0128 .2492)"
     font-size="46.954"
     y="258.22"
     x="523.76"
     font-family="Arial"
     text-anchor="middle" />
  <text
     id="text32"
     font-size="129.23"
     line-height="125%"
     y="-29.901"
     x="239.33"
     font-family="Gentium Book Basic"
     word-spacing="0"
     letter-spacing="0">
    <tspan
       id="tspan34"
       y="-29.901"
       x="239.33" />
  </text>
  <text
     id="text36"
     transform="scale(4.0128 .2492)"
     font-size="46.954"
     y="-469.14"
     x="256.72"
     font-family="Arial"
     text-anchor="middle" />
  <text
     id="text38"
     font-size="129.23"
     line-height="125%"
     y="-246.37"
     x="1337.38"
     font-family="Gentium Book Basic"
     word-spacing="0"
     letter-spacing="0">
    <tspan
       id="tspan40"
       y="-246.37"
       x="1337.38" />
  </text>
  <text
     id="text42"
     transform="scale(4.0128 .2492)"
     font-size="46.954"
     y="-1337.81"
     x="530.36"
     font-family="Arial"
     text-anchor="middle" />
  <text
     id="text44"
     font-size="129.23"
     line-height="125%"
     y="-326.38"
     x="1918.65"
     font-family="Gentium Book Basic"
     word-spacing="0"
     letter-spacing="0">
    <tspan
       id="tspan46"
       y="-326.38"
       x="1918.65" />
  </text>
  <text
     id="text48"
     transform="scale(4.0128 .2492)"
     font-size="46.954"
     y="-1658.85"
     x="675.21"
     font-family="Arial"
     text-anchor="middle" />
  <text
     id="text50"
     font-size="129.23"
     line-height="125%"
     y="-798.78"
     x="1529.53"
     font-family="Gentium Book Basic"
     word-spacing="0"
     letter-spacing="0">
    <tspan
       id="tspan52"
       y="-798.78"
       x="1529.53" />
  </text>
  <text
     id="text54"
     transform="scale(4.0128 .2492)"
     font-size="46.954"
     y="-3554.51"
     x="578.24"
     font-family="Arial"
     text-anchor="middle" />
  <text
     id="text56"
     font-size="129.23"
     line-height="125%"
     y="-878.78"
     x="2110.79"
     font-family="Gentium Book Basic"
     word-spacing="0"
     letter-spacing="0">
    <tspan
       id="tspan58"
       y="-878.78"
       x="2110.79" />
  </text>
  <text
     id="text60"
     transform="scale(4.0128 .2492)"
     font-size="46.954"
     y="-3875.54"
     x="723.09"
     font-family="Arial"
     text-anchor="middle" />
  <g
     id="g62"
     font-family="Gentium Book Basic"
     font-size="208.33"
     line-height="125%"
     word-spacing="0"
     letter-spacing="0">
    <text
       id="text64"
       y="535.94"
       x="277.99">
      <tspan
         id="tspan66"
         y="535.94"
         x="277.99" />
    </text>
    <text
       id="text68"
       y="413.27"
       x="-1771.42">
      <tspan
         id="tspan70"
         y="413.27"
         x="-1771.42" />
    </text>
  </g>
  <text
     id="text72"
     transform="scale(4.0128 .2492)"
     font-size="75.7"
     y="1095.49"
     x="-123.71"
     font-family="Arial"
     text-anchor="middle" />
  <text
     id="text74"
     font-size="208.33"
     line-height="125%"
     y="859.18"
     x="-1213.24"
     font-family="Gentium Book Basic"
     word-spacing="0"
     letter-spacing="0">
    <tspan
       id="tspan76"
       y="859.18"
       x="-1213.24" />
  </text>
  <text
     id="text78"
     transform="scale(4.0128 .2492)"
     font-size="75.7"
     y="2884.85"
     x="15.386"
     font-family="Arial"
     text-anchor="middle" />
  <text
     id="text80"
     font-size="40"
     line-height="125%"
     y="621.66"
     x="875.45"
     font-family="Sans"
     word-spacing="0"
     letter-spacing="0">
    <tspan
       id="tspan82"
       font-style="italic"
       y="621.66"
       x="875.45"
       font-weight="bold" />
  </text>
  <path
     inkscape:connector-curvature="0"
     style="fill:#DBDBDB;fill-opacity:1;stroke:none"
     d="m 257.79542,88.924153 c -26.18053,0 -50.6258,9.184819 -67.84772,26.402967 -17.22138,17.22355 -26.40243,41.66719 -26.40243,67.84718 l 53.85722,0 c 0,-14.21292 4.28166,-23.42951 10.62389,-29.7685 6.34115,-6.339 15.55666,-10.62441 29.76904,-10.62441 14.21238,0 23.42735,4.30856 29.7685,10.62441 6.34115,6.33899 10.62441,15.55558 10.62441,29.7685 0,12.34408 -2.43433,17.64686 -5.68031,22.30012 -3.24759,4.63173 -8.59346,8.96885 -16.51478,14.51613 -7.92186,5.54192 -18.36586,11.91054 -28.08601,23.24748 -9.72015,11.34234 -17.04043,28.57988 -17.04043,47.65071 l 0,13.46431 53.85722,0 0,-13.46431 c 0,-7.85237 1.09331,-9.23489 3.99622,-12.6225 2.90289,-3.39302 9.28875,-7.85886 18.19781,-14.09553 8.90853,-6.23667 20.39304,-14.53767 29.7685,-27.98044 9.37548,-13.43738 15.35794,-31.69929 15.35794,-53.01597 0,-26.17999 -9.18105,-50.62363 -26.40297,-67.84718 C 308.42014,98.108972 283.97487,88.924153 257.79434,88.924153 Z m -26.92862,269.286117 0,53.85724 53.85722,0 0,-53.85724 -53.85722,0 z"
     id="path6" />
</svg>
