<?xml version="1.0" encoding="UTF-8" standalone="no"?>
<svg
   xmlns:dc="http://purl.org/dc/elements/1.1/"
   xmlns:cc="http://creativecommons.org/ns#"
   xmlns:rdf="http://www.w3.org/1999/02/22-rdf-syntax-ns#"
   xmlns:svg="http://www.w3.org/2000/svg"
   xmlns="http://www.w3.org/2000/svg"
   xmlns:sodipodi="http://sodipodi.sourceforge.net/DTD/sodipodi-0.dtd"
   xmlns:inkscape="http://www.inkscape.org/namespaces/inkscape"
   version="1.1"
   width="512"
   height="512"
   viewBox="0 0 512 512"
   id="svg2"
   inkscape:version="0.91 r"
   sodipodi:docname="applications-development-web.svg">
  <metadata
     id="metadata46">
    <rdf:RDF>
      <cc:Work
         rdf:about="">
        <dc:format>image/svg+xml</dc:format>
        <dc:type
           rdf:resource="http://purl.org/dc/dcmitype/StillImage" />
      </cc:Work>
    </rdf:RDF>
  </metadata>
  <defs
     id="defs44" />
  <sodipodi:namedview
     pagecolor="#ffffff"
     bordercolor="#666666"
     borderopacity="1"
     objecttolerance="10"
     gridtolerance="10"
     guidetolerance="10"
     inkscape:pageopacity="0"
     inkscape:pageshadow="2"
     inkscape:window-width="1920"
     inkscape:window-height="1028"
     id="namedview42"
     showgrid="false"
     inkscape:zoom="0.4609375"
     inkscape:cx="256"
     inkscape:cy="256"
     inkscape:window-x="0"
     inkscape:window-y="0"
     inkscape:window-maximized="1"
     inkscape:current-layer="svg2" />
  <text
     x="729.64"
     y="231.36"
     id="text114"
     font-family="Gentium Book Basic"
     word-spacing="0"
     line-height="125%"
     letter-spacing="0"
     font-size="129.23">
    <tspan
       x="729.64"
       y="231.36"
       id="tspan116" />
  </text>
  <text
     x="378.91"
     y="579.25"
     transform="scale(4.0128,0.2492)"
     id="text118"
     font-family="Arial"
     text-anchor="middle"
     font-size="46.954" />
  <text
     x="1310.91"
     y="151.36"
     id="text120"
     font-family="Gentium Book Basic"
     word-spacing="0"
     line-height="125%"
     letter-spacing="0"
     font-size="129.23">
    <tspan
       x="1310.91"
       y="151.36"
       id="tspan122" />
  </text>
  <text
     x="523.76"
     y="258.22"
     transform="scale(4.0128,0.2492)"
     id="text124"
     font-family="Arial"
     text-anchor="middle"
     font-size="46.954" />
  <text
     x="239.33"
     y="-29.901"
     id="text126"
     font-family="Gentium Book Basic"
     word-spacing="0"
     line-height="125%"
     letter-spacing="0"
     font-size="129.23">
    <tspan
       x="239.33"
       y="-29.901"
       id="tspan128" />
  </text>
  <text
     x="256.72"
     y="-469.14"
     transform="scale(4.0128,0.2492)"
     id="text130"
     font-family="Arial"
     text-anchor="middle"
     font-size="46.954" />
  <text
     x="1337.38"
     y="-246.37"
     id="text132"
     font-family="Gentium Book Basic"
     word-spacing="0"
     line-height="125%"
     letter-spacing="0"
     font-size="129.23">
    <tspan
       x="1337.38"
       y="-246.37"
       id="tspan134" />
  </text>
  <text
     x="530.36"
     y="-1337.8"
     transform="scale(4.0128,0.2492)"
     id="text136"
     font-family="Arial"
     text-anchor="middle"
     font-size="46.954" />
  <text
     x="1918.65"
     y="-326.38"
     id="text138"
     font-family="Gentium Book Basic"
     word-spacing="0"
     line-height="125%"
     letter-spacing="0"
     font-size="129.23">
    <tspan
       x="1918.65"
       y="-326.38"
       id="tspan140" />
  </text>
  <text
     x="675.21"
     y="-1658.84"
     transform="scale(4.0128,0.2492)"
     id="text142"
     font-family="Arial"
     text-anchor="middle"
     font-size="46.954" />
  <text
     x="1529.53"
     y="-798.78"
     id="text144"
     font-family="Gentium Book Basic"
     word-spacing="0"
     line-height="125%"
     letter-spacing="0"
     font-size="129.23">
    <tspan
       x="1529.53"
       y="-798.78"
       id="tspan146" />
  </text>
  <text
     x="578.24"
     y="-3554.49"
     transform="scale(4.0128,0.2492)"
     id="text148"
     font-family="Arial"
     text-anchor="middle"
     font-size="46.954" />
  <text
     x="2110.79"
     y="-878.78"
     id="text150"
     font-family="Gentium Book Basic"
     word-spacing="0"
     line-height="125%"
     letter-spacing="0"
     font-size="129.23">
    <tspan
       x="2110.79"
       y="-878.78"
       id="tspan152" />
  </text>
  <text
     x="723.09"
     y="-3875.52"
     transform="scale(4.0128,0.2492)"
     id="text154"
     font-family="Arial"
     text-anchor="middle"
     font-size="46.954" />
  <text
     x="277.99"
     y="535.94"
     id="text156"
     font-family="Gentium Book Basic"
     word-spacing="0"
     line-height="125%"
     letter-spacing="0"
     font-size="208.33">
    <tspan
       x="277.99"
       y="535.94"
       id="tspan158" />
  </text>
  <g
     id="g160"
     style="fill:#DBDBDB;fill-opacity:1"
     transform="matrix(1.4546923,0,0,1.4546923,-116.40123,-116.40282)">
    <path
       d="m 136.72,136.72 c -8.982,0 -16.281,7.268 -16.281,16.25 l 0,24.875 271.13,0 0,-24.875 c 0,-8.985 -7.265,-16.25 -16.25,-16.25 l -238.59,0 m 168.06,10.813 c 5.978,0 10.875,4.894 10.875,10.875 0,5.981 -4.897,10.813 -10.875,10.813 -5.978,0 -10.813,-4.832 -10.813,-10.813 0,-5.981 4.834,-10.875 10.813,-10.875 m 29.844,0 c 5.978,0 10.844,4.894 10.844,10.875 0,5.981 -4.866,10.813 -10.844,10.813 -5.978,0 -10.813,-4.832 -10.813,-10.813 0,-5.981 4.834,-10.875 10.813,-10.875 m 29.813,0 c 5.978,0 10.844,4.894 10.844,10.875 0,5.981 -4.866,10.813 -10.844,10.813 -5.978,0 -10.844,-4.832 -10.844,-10.813 0,-5.981 4.866,-10.875 10.844,-10.875"
       inkscape:connector-curvature="0"
       id="path162"
       style="fill:#DBDBDB;fill-opacity:1" />
    <path
       d="m 120.44,192.24 0,166.76 c 0,8.982 7.305,16.287 16.287,16.287 l 238.58,0 c 8.985,0 16.254,-7.308 16.254,-16.287 l 0,-166.76 -271.13,0"
       inkscape:connector-curvature="0"
       id="path164"
       style="fill:#DBDBDB;fill-opacity:1" />
  </g>
</svg>
