<?xml version="1.0" encoding="UTF-8" standalone="no"?>
<svg
   xmlns:dc="http://purl.org/dc/elements/1.1/"
   xmlns:cc="http://creativecommons.org/ns#"
   xmlns:rdf="http://www.w3.org/1999/02/22-rdf-syntax-ns#"
   xmlns:svg="http://www.w3.org/2000/svg"
   xmlns="http://www.w3.org/2000/svg"
   xmlns:sodipodi="http://sodipodi.sourceforge.net/DTD/sodipodi-0.dtd"
   xmlns:inkscape="http://www.inkscape.org/namespaces/inkscape"
   height="512"
   viewBox="0 0 512 512"
   width="512"
   version="1.1"
   id="svg2"
   inkscape:version="0.91 r"
   sodipodi:docname="package_system_applet.svg">
  <sodipodi:namedview
     pagecolor="#ffffff"
     bordercolor="#666666"
     borderopacity="1"
     objecttolerance="10"
     gridtolerance="10"
     guidetolerance="10"
     inkscape:pageopacity="0"
     inkscape:pageshadow="2"
     inkscape:window-width="1920"
     inkscape:window-height="1028"
     id="namedview23"
     showgrid="false"
     inkscape:zoom="0.4609375"
     inkscape:cx="-299.38983"
     inkscape:cy="256"
     inkscape:window-x="0"
     inkscape:window-y="0"
     inkscape:window-maximized="1"
     inkscape:current-layer="svg2" />
  <metadata
     id="metadata43">
    <rdf:RDF>
      <cc:Work
         rdf:about="">
        <dc:format>image/svg+xml</dc:format>
        <dc:type
           rdf:resource="http://purl.org/dc/dcmitype/StillImage" />
      </cc:Work>
    </rdf:RDF>
  </metadata>
  <defs
     id="defs4">
    <clipPath
       id="0">
      <path
         id="path7"
         d="m-7.03 52.33c0.08 0.3 0.096 1.542-1.032 2.158-0.841 0.459-3.324 0.836-5.03-1.063-1.766-1.97-0.597-4.263 0.719-5.414 0.685-0.599 1.48-0.841 1.77-0.667 0.307 0.184 0.316 0.555 0.071 0.73-0.589 0.419-1.114 1.609-0.532 2.434 0.687 0.974 1.855 0.571 2.46 0.496 0.5-0.062 1.283 0.242 1.571 1.327" />
    </clipPath>
  </defs>
  <g
     id="g29"
     transform="matrix(.85867 0 0 .85867 -465.43 -424.52)"
     fill="#DBDBDB">
    <path
       id="path31"
       d="m-7.03 52.33c0.08 0.3 0.096 1.542-1.032 2.158-0.841 0.459-3.324 0.836-5.03-1.063-1.766-1.97-0.597-4.263 0.719-5.414 0.685-0.599 1.48-0.841 1.77-0.667 0.307 0.184 0.316 0.555 0.071 0.73-0.589 0.419-1.114 1.609-0.532 2.434 0.687 0.974 1.855 0.571 2.46 0.496 0.5-0.062 1.283 0.242 1.571 1.327"
       transform="matrix(47.687 0 0 47.687 1335.9 -1634.1)"
       clip-path="url(#0)" />
    <path
       id="path33"
       d="m871.06 602.94c-0.903 0.009-1.809 0.09-2.691 0.217-0.168 0.024-0.337 0.043-0.506 0.072-0.493 0.084-0.979 0.187-1.463 0.307-0.127 0.031-0.253 0.056-0.379 0.09-0.102 0.027-0.206 0.062-0.307 0.09-0.214 0.061-0.421 0.131-0.632 0.199-0.023 0.008-0.049 0.01-0.072 0.018-0.315 0.102-0.63 0.208-0.939 0.325-0.02 0.008-0.034 0.029-0.054 0.036-0.205 0.079-0.412 0.15-0.614 0.235-0.165 0.069-0.325 0.144-0.488 0.217-0.104 0.047-0.204 0.096-0.307 0.144-0.168 0.079-0.341 0.152-0.506 0.235-0.204 0.104-0.413 0.214-0.614 0.325-0.078 0.043-0.157 0.083-0.235 0.126-0.213 0.121-0.424 0.251-0.632 0.379-0.072 0.044-0.146 0.082-0.217 0.126-0.036 0.023-0.072 0.049-0.108 0.072-0.231 0.149-0.462 0.312-0.686 0.47-0.091 0.064-0.18 0.133-0.271 0.199-0.441 0.322-0.871 0.657-1.282 1.01-0.029 0.025-0.061 0.047-0.09 0.072-0.217 0.189-0.424 0.38-0.632 0.578-0.132 0.125-0.268 0.25-0.397 0.379-0.102 0.102-0.208 0.203-0.307 0.307-0.027 0.028-0.046 0.063-0.072 0.09-0.197 0.208-0.39 0.416-0.578 0.632-0.025 0.029-0.047 0.061-0.072 0.09-0.186 0.217-0.365 0.444-0.542 0.668-0.34 0.431-0.669 0.875-0.975 1.336-0.076 0.115-0.161 0.226-0.235 0.343-0.045 0.071-0.082 0.145-0.126 0.217-0.125 0.202-0.244 0.408-0.361 0.614-0.011 0.019-0.025 0.035-0.036 0.054-0.128 0.227-0.242 0.454-0.361 0.686-0.131 0.254-0.259 0.515-0.379 0.776-0.025 0.053-0.048 0.109-0.072 0.163-0.073 0.162-0.148 0.323-0.217 0.488-0.085 0.202-0.156 0.409-0.235 0.614-0.008 0.02-0.029 0.034-0.036 0.054-0.115 0.303-0.224 0.612-0.325 0.921-0.018 0.054-0.037 0.108-0.054 0.163-0.052 0.163-0.097 0.323-0.144 0.488-0.035 0.121-0.076 0.239-0.108 0.361-0.035 0.132-0.058 0.265-0.09 0.397-0.01 0.043-0.026 0.083-0.036 0.126-0.039 0.162-0.073 0.325-0.108 0.488-0.054 0.25-0.1 0.506-0.144 0.758-0.074 0.422-0.134 0.843-0.181 1.264-0.034 0.307-0.071 0.612-0.09 0.921-0.006 0.078 0.005 0.157 0 0.235-0.009 0.162-0.014 0.325-0.018 0.488-0.006 0.186-0.018 0.374-0.018 0.56 0 0.193 0.012 0.384 0.018 0.578 0.005 0.157 0.01 0.313 0.018 0.469 0.005 0.072-0.005 0.144 0 0.217 0.032 0.51 0.092 1.014 0.163 1.517 0.03 0.216 0.053 0.434 0.09 0.65 0.082 0.474 0.192 0.943 0.307 1.408 0.033 0.132 0.055 0.265 0.09 0.397 0.033 0.122 0.073 0.24 0.108 0.361 0.006 0.018 0.013 0.036 0.018 0.054 0.057 0.194 0.119 0.387 0.181 0.578 0.095 0.292 0.199 0.579 0.307 0.867 0.05 0.133 0.092 0.266 0.144 0.397 2.611 7.787 9.951 13.399 18.617 13.399 6.68 0 12.575-3.339 16.13-8.433 0.054-0.078 0.109-0.156 0.163-0.235 0.314-0.414 0.62-0.842 0.903-1.282 0.137-0.213 0.268-0.432 0.397-0.65 0.053-0.09 0.111-0.18 0.163-0.271 0.263-0.461 0.496-0.928 0.722-1.408 0.046-0.098 0.1-0.189 0.144-0.289 0.085-0.188 0.156-0.387 0.235-0.578 0.073-0.178 0.148-0.361 0.217-0.542 0.4-1.046 0.699-2.126 0.921-3.232 0.014-0.073 0.04-0.143 0.054-0.217 0.061-0.321 0.117-0.65 0.163-0.975 0.015-0.108 0.023-0.217 0.036-0.325 0.025-0.206 0.053-0.407 0.072-0.614v-0.036c0.026-0.287 0.059-0.578 0.072-0.867 0.006-0.122-0.006-0.24 0-0.361 0.006-0.193 0.019-0.384 0.018-0.578 0-0.185-0.013-0.376-0.018-0.56-0.012-0.406-0.035-0.82-0.072-1.228-0.02-0.227-0.044-0.461-0.072-0.686-0.028-0.229-0.072-0.457-0.108-0.686-0.006-0.018 0-0.036 0-0.054-0.028-0.175-0.057-0.349-0.09-0.524-0.226-1.193-0.562-2.362-0.993-3.485-0.079-0.207-0.15-0.411-0.235-0.614-0.07-0.165-0.143-0.324-0.217-0.488-0.024-0.054-0.047-0.109-0.072-0.163-0.238-0.514-0.496-1.025-0.776-1.517-0.119-0.209-0.235-0.41-0.361-0.614-0.044-0.071-0.082-0.146-0.126-0.217-0.074-0.116-0.159-0.229-0.235-0.343-0.126-0.191-0.265-0.374-0.397-0.56-0.189-0.264-0.377-0.523-0.578-0.776-0.166-0.211-0.331-0.427-0.506-0.632-0.145-0.17-0.301-0.323-0.451-0.488-0.108-0.119-0.214-0.245-0.325-0.361-0.197-0.205-0.409-0.418-0.614-0.614-0.025-0.024-0.047-0.049-0.072-0.072-0.079-0.074-0.155-0.144-0.235-0.217-0.174-0.16-0.344-0.316-0.524-0.469-0.205-0.175-0.421-0.339-0.632-0.506-0.291-0.23-0.58-0.454-0.885-0.668-0.23-0.161-0.468-0.318-0.704-0.469-0.043-0.028-0.083-0.063-0.126-0.09-0.146-0.092-0.285-0.182-0.433-0.271-0.126-0.075-0.251-0.144-0.379-0.217-0.076-0.043-0.158-0.084-0.235-0.126-0.203-0.112-0.406-0.22-0.614-0.325-0.167-0.085-0.336-0.154-0.506-0.235-0.097-0.046-0.191-0.1-0.289-0.144-0.2-0.091-0.411-0.168-0.614-0.253-0.178-0.073-0.361-0.148-0.542-0.217-0.314-0.12-0.619-0.239-0.939-0.343-0.006-0.002-0.013 0.002-0.018 0-0.024-0.008-0.048-0.01-0.072-0.018-0.306-0.098-0.626-0.205-0.939-0.289-0.337-0.09-0.674-0.162-1.01-0.235-0.476-0.102-0.96-0.185-1.445-0.253-0.193-0.027-0.386-0.051-0.578-0.072-0.336-0.037-0.672-0.07-1.01-0.09-0.128-0.008-0.251-0.013-0.379-0.018-0.331-0.013-0.659-0.021-0.993-0.018" />
    <path
       id="path35"
       d="m938.79 614.62c-0.399 0.016-0.797 0.051-1.192 0.09-0.15 0.015-0.301 0.036-0.451 0.054-0.109 0.013-0.217 0.021-0.325 0.036-0.145 0.02-0.288 0.049-0.433 0.072-0.945 0.153-1.875 0.368-2.781 0.65-0.201 0.062-0.398 0.131-0.596 0.199-0.008 0.003-0.01 0.015-0.018 0.018-0.548 0.189-1.085 0.4-1.607 0.632-0.126 0.056-0.255 0.104-0.379 0.163-0.225 0.105-0.449 0.212-0.668 0.325-0.173 0.089-0.336 0.195-0.506 0.289-0.058 0.032-0.123 0.058-0.181 0.09-0.115 0.065-0.229 0.131-0.343 0.199-0.173 0.102-0.354 0.2-0.524 0.307-0.044 0.028-0.083 0.062-0.126 0.09-0.513 0.33-1 0.676-1.481 1.047-0.155 0.12-0.3 0.254-0.451 0.379-0.1 0.083-0.209 0.15-0.307 0.235-0.032 0.028-0.058 0.062-0.09 0.09-0.215 0.187-0.444 0.382-0.65 0.578-0.025 0.024-0.047 0.049-0.072 0.072-0.211 0.202-0.413 0.404-0.614 0.614-0.024 0.025-0.049 0.047-0.072 0.072-0.2 0.211-0.387 0.431-0.578 0.65-0.113 0.129-0.216 0.265-0.325 0.397-0.098 0.118-0.212 0.223-0.307 0.343-0.027 0.034-0.046 0.074-0.072 0.108-0.172 0.222-0.343 0.457-0.506 0.686-0.335 0.469-0.643 0.944-0.939 1.445-0.064 0.109-0.136 0.215-0.199 0.325-0.035 0.062-0.056 0.136-0.09 0.199-0.096 0.175-0.198 0.346-0.289 0.524-0.185 0.361-0.359 0.727-0.524 1.101-0.096 0.217-0.183 0.43-0.271 0.65-0.115 0.29-0.222 0.587-0.325 0.885-0.006 0.013-0.014 0.023-0.018 0.036-0.066 0.192-0.138 0.382-0.199 0.578-0.357 1.148-0.61 2.332-0.758 3.539-0.019 0.15-0.039 0.301-0.054 0.451-0.007 0.067-0.012 0.132-0.018 0.199-0.019 0.204-0.024 0.41-0.036 0.614-0.027 0.457-0.041 0.911-0.036 1.372 0.006 0.612 0.03 1.22 0.09 1.824 0.015 0.15 0.036 0.301 0.054 0.451 0.013 0.109 0.021 0.217 0.036 0.325 0.02 0.145 0.048 0.288 0.072 0.433 0.153 0.945 0.368 1.875 0.65 2.781 0.061 0.195 0.133 0.386 0.199 0.578 0.006 0.013 0.014 0.023 0.018 0.036 0.097 0.28 0.199 0.558 0.307 0.831 0.007 0.018 0.011 0.037 0.018 0.054 2.613 7.783 9.954 13.398 18.617 13.398 6.782 0 12.757-3.441 16.288-8.667l0.072-0.108c0.103-0.137 0.208-0.275 0.307-0.415 0.321-0.454 0.62-0.93 0.903-1.408 0.064-0.109 0.136-0.215 0.199-0.325 0.036-0.063 0.056-0.135 0.09-0.199 0.096-0.173 0.198-0.347 0.289-0.524 0.112-0.218 0.221-0.428 0.325-0.65 0.058-0.125 0.106-0.253 0.162-0.379 0.106-0.237 0.211-0.481 0.307-0.722 0.12-0.303 0.237-0.61 0.343-0.921 0.374-1.086 0.664-2.214 0.849-3.359 0.041-0.253 0.077-0.506 0.108-0.758 0.019-0.151 0.039-0.299 0.054-0.451 0.027-0.27 0.038-0.543 0.054-0.813 0.027-0.457 0.041-0.911 0.036-1.372 0-0.339-0.016-0.675-0.036-1.01-0.016-0.269-0.027-0.542-0.054-0.813-0.015-0.152-0.036-0.3-0.054-0.451-0.031-0.253-0.067-0.505-0.108-0.758-0.185-1.145-0.475-2.272-0.849-3.359-0.107-0.311-0.223-0.618-0.343-0.921-0.12-0.301-0.245-0.59-0.379-0.885-0.216-0.475-0.455-0.939-0.704-1.39-0.035-0.063-0.054-0.135-0.09-0.199-0.062-0.11-0.134-0.216-0.199-0.325-0.129-0.218-0.26-0.437-0.397-0.65-0.176-0.274-0.354-0.531-0.542-0.795-0.094-0.132-0.192-0.268-0.289-0.397-0.191-0.255-0.394-0.496-0.596-0.74-0.315-0.382-0.632-0.76-0.975-1.12-0.547-0.57-1.127-1.089-1.734-1.589-0.244-0.202-0.486-0.405-0.74-0.596-0.13-0.097-0.265-0.195-0.397-0.289-0.264-0.188-0.521-0.366-0.795-0.542-0.213-0.137-0.432-0.268-0.65-0.397-0.113-0.067-0.228-0.134-0.343-0.199-0.059-0.033-0.122-0.058-0.181-0.09-0.169-0.093-0.334-0.201-0.506-0.289-0.222-0.115-0.442-0.219-0.668-0.325-0.125-0.058-0.253-0.106-0.379-0.163-0.237-0.106-0.481-0.211-0.722-0.307-0.297-0.118-0.597-0.238-0.903-0.343-1.091-0.377-2.226-0.663-3.377-0.849-0.253-0.041-0.506-0.077-0.758-0.108-0.151-0.019-0.299-0.039-0.451-0.054-0.27-0.027-0.543-0.038-0.813-0.054-0.337-0.02-0.672-0.033-1.01-0.036-0.334-0.004-0.662-0.013-0.993 0" />
    <path
       id="path37"
       d="m990.97 650.5c-0.208 0.002-0.423 0.01-0.632 0.018-0.126 0.006-0.253 0.011-0.379 0.018-0.054 0.004-0.108 0.014-0.163 0.018-0.217 0.014-0.434 0.015-0.65 0.036-0.15 0.015-0.301 0.036-0.451 0.054-0.109 0.013-0.217 0.021-0.325 0.036-0.145 0.02-0.288 0.049-0.433 0.072-0.597 0.096-1.187 0.231-1.77 0.379-0.084 0.021-0.169 0.032-0.253 0.054-0.037 0.01-0.071 0.026-0.108 0.036-0.217 0.06-0.436 0.114-0.65 0.181-0.805 0.249-1.579 0.565-2.329 0.903-0.017 0.008-0.037 0.01-0.054 0.018-0.23 0.104-0.462 0.213-0.686 0.325-0.416 0.209-0.827 0.431-1.228 0.668-0.173 0.102-0.354 0.2-0.524 0.307-0.043 0.028-0.083 0.062-0.126 0.09-0.513 0.33-1 0.676-1.481 1.047-0.404 0.314-0.793 0.648-1.174 0.993-0.107 0.097-0.221 0.19-0.325 0.289-0.025 0.024-0.047 0.049-0.072 0.072-0.211 0.202-0.413 0.404-0.614 0.614-0.024 0.025-0.048 0.047-0.072 0.072-0.2 0.211-0.387 0.431-0.578 0.65-0.206 0.236-0.401 0.476-0.596 0.722-0.016 0.02-0.039 0.034-0.054 0.054-0.019 0.024-0.035 0.048-0.054 0.072-0.175 0.225-0.34 0.454-0.506 0.686-0.334 0.469-0.643 0.944-0.939 1.445-0.064 0.109-0.136 0.215-0.199 0.325-0.035 0.062-0.056 0.136-0.09 0.199-0.096 0.175-0.198 0.346-0.289 0.524-0.185 0.361-0.359 0.727-0.524 1.101-0.096 0.217-0.183 0.43-0.271 0.65-0.202 0.507-0.397 1.023-0.56 1.553-0.349 1.132-0.594 2.295-0.74 3.485-0.019 0.15-0.039 0.301-0.054 0.451-0.007 0.067-0.012 0.132-0.018 0.199-0.019 0.204-0.024 0.41-0.036 0.614-0.027 0.457-0.041 0.911-0.036 1.372 0.006 0.612 0.03 1.22 0.09 1.824 0.015 0.15 0.036 0.301 0.054 0.451 0.013 0.109 0.021 0.217 0.036 0.325 0.02 0.145 0.048 0.288 0.072 0.433 0.153 0.945 0.368 1.875 0.65 2.781 0.061 0.195 0.133 0.386 0.199 0.578 0.006 0.011-0.006 0.025 0 0.036 0.097 0.282 0.217 0.556 0.325 0.831 0.007 0.018 0.011 0.037 0.018 0.054 2.613 7.783 9.954 13.399 18.617 13.399 6.782 0 12.757-3.441 16.288-8.667l0.072-0.108c0.103-0.137 0.208-0.275 0.307-0.415 0.321-0.454 0.62-0.93 0.903-1.408 0.064-0.109 0.136-0.215 0.199-0.325 0.036-0.063 0.056-0.135 0.09-0.199 0.095-0.173 0.198-0.347 0.289-0.524 0.112-0.218 0.221-0.428 0.325-0.65 0.058-0.125 0.106-0.253 0.162-0.379 0.106-0.237 0.211-0.481 0.307-0.722 0.12-0.303 0.236-0.61 0.343-0.921 0.374-1.086 0.664-2.214 0.849-3.359 0.041-0.253 0.077-0.506 0.108-0.758 0.019-0.151 0.039-0.299 0.054-0.451 0.027-0.27 0.038-0.543 0.054-0.813 0.027-0.457 0.041-0.911 0.036-1.372 0-0.339-0.016-0.675-0.036-1.01-0.016-0.269-0.027-0.542-0.054-0.813-0.015-0.152-0.036-0.3-0.054-0.451-0.031-0.253-0.067-0.505-0.108-0.758-0.186-1.151-0.472-2.268-0.849-3.359-0.107-0.311-0.223-0.618-0.343-0.921-0.12-0.301-0.245-0.59-0.379-0.885-0.216-0.475-0.455-0.939-0.704-1.39-0.035-0.063-0.054-0.135-0.09-0.199-0.062-0.11-0.134-0.216-0.199-0.325-0.129-0.218-0.26-0.437-0.397-0.65-0.176-0.274-0.354-0.531-0.542-0.795-0.183-0.257-0.365-0.51-0.56-0.758-0.016-0.02-0.038-0.034-0.054-0.054-0.392-0.495-0.808-0.986-1.246-1.445-0.327-0.341-0.663-0.659-1.01-0.975-0.135-0.123-0.277-0.242-0.415-0.361-0.25-0.214-0.499-0.43-0.759-0.632-0.094-0.073-0.193-0.145-0.289-0.217-0.13-0.097-0.265-0.195-0.397-0.289-0.264-0.188-0.521-0.366-0.794-0.542-0.213-0.137-0.432-0.268-0.65-0.397-0.109-0.064-0.215-0.136-0.325-0.199-0.01-0.003-0.013 0.003-0.018 0-0.01-0.003-0.013 0.003-0.018 0-0.287-0.162-0.572-0.322-0.867-0.469-0.289-0.144-0.587-0.284-0.885-0.415-0.225-0.1-0.457-0.197-0.686-0.289-0.297-0.118-0.597-0.238-0.903-0.343-0.525-0.181-1.067-0.332-1.607-0.469-0.253-0.064-0.505-0.126-0.758-0.181-0.334-0.072-0.672-0.144-1.01-0.199-0.253-0.041-0.506-0.077-0.758-0.108-0.151-0.019-0.299-0.039-0.451-0.054-0.216-0.022-0.435-0.021-0.65-0.036-0.054-0.004-0.108-0.015-0.162-0.018-0.126-0.008-0.254-0.013-0.379-0.018-0.331-0.013-0.659-0.021-0.993-0.018" />
  </g>
</svg>
