<?xml version="1.0" encoding="UTF-8" standalone="no"?>
<svg
   xmlns:dc="http://purl.org/dc/elements/1.1/"
   xmlns:cc="http://creativecommons.org/ns#"
   xmlns:rdf="http://www.w3.org/1999/02/22-rdf-syntax-ns#"
   xmlns:svg="http://www.w3.org/2000/svg"
   xmlns="http://www.w3.org/2000/svg"
   xmlns:sodipodi="http://sodipodi.sourceforge.net/DTD/sodipodi-0.dtd"
   xmlns:inkscape="http://www.inkscape.org/namespaces/inkscape"
   sodipodi:docname="preferences-desktop.svg"
   inkscape:version="0.91 r13725"
   id="svg2"
   version="1.1"
   width="512"
   viewBox="0 0 512 512"
   height="512">
  <defs
     id="defs17" />
  <sodipodi:namedview
     inkscape:current-layer="svg2"
     inkscape:window-maximized="1"
     inkscape:window-y="0"
     inkscape:window-x="0"
     inkscape:cy="258.02532"
     inkscape:cx="143.88573"
     inkscape:zoom="1.2103817"
     showgrid="false"
     id="namedview15"
     inkscape:window-height="1021"
     inkscape:window-width="1920"
     inkscape:pageshadow="2"
     inkscape:pageopacity="0"
     guidetolerance="10"
     gridtolerance="10"
     objecttolerance="10"
     borderopacity="1"
     bordercolor="#666666"
     pagecolor="#ffffff" />
  <metadata
     id="metadata28">
    <rdf:RDF>
      <cc:Work
         rdf:about="">
        <dc:format>image/svg+xml</dc:format>
        <dc:type
           rdf:resource="http://purl.org/dc/dcmitype/StillImage" />
        <dc:title></dc:title>
      </cc:Work>
    </rdf:RDF>
  </metadata>
  <g
     id="g8"
     style="color:#000000;fill:#DBDBDB"
     transform="matrix(-2.2389074,0,0,2.2830481,604.80344,-114.31778)">
    <g
       id="g3355"
       transform="translate(8.0788735,11.082169)"
       style="fill:#DBDBDB">
      <path
         transform="matrix(-0.6091353,0,0,0.59735822,312.36112,11.223221)"
         inkscape:connector-curvature="0"
         style="color:#000000;fill:#DBDBDB"
         id="path18"
         d="m 233.12619,150.36574 c -5.17964,0 -9.34962,4.07451 -9.34962,9.13556 l 0,21.62815 c -7.86837,1.93752 -15.29995,4.9822 -22.08744,8.95002 L 186.0426,174.79115 c -3.66357,-3.57969 -9.55852,-3.57969 -13.21417,0 l -15.36009,15.00845 c -3.66357,3.57968 -3.66357,9.33966 0,12.91162 l 15.64652,15.2883 c -4.06078,6.63055 -7.17521,13.89354 -9.15972,21.58178 l -22.13491,0 c -5.17965,0 -9.34962,4.0745 -9.34962,9.13556 l 0,21.25548 c 0,5.06105 4.16997,9.13556 9.34962,9.13556 l 22.13491,0 c 1.98293,7.68823 5.09894,14.94968 9.15972,21.58178 l -15.64652,15.2883 c -3.66357,3.5797 -3.66357,9.33967 0,12.91165 l 15.36009,15.00842 c 3.66357,3.5797 9.55851,3.5797 13.21417,0 l 15.64653,-15.28831 c 6.78591,3.96783 14.21907,7.01095 22.08744,8.95 l 0,21.62816 c 0,5.06106 4.16998,9.13557 9.34962,9.13557 l 21.75353,0 c 5.17965,0 9.34963,-4.07451 9.34963,-9.13557 l 0,-21.62816 c 7.86835,-1.93751 15.29994,-4.98217 22.08744,-8.95 l 15.64653,15.28831 c 3.66356,3.5797 9.55851,3.5797 13.21417,0 l 15.36009,-15.00842 c 3.66357,-3.5797 3.66357,-9.33969 0,-12.91165 l -15.64652,-15.2883 c 4.06078,-6.63055 7.17521,-13.89355 9.1597,-21.58178 l 22.13493,0 c 5.17963,0 9.34962,-4.07451 9.34962,-9.13556 l 0,-21.25548 c 0,-5.06106 -4.16999,-9.13556 -9.34962,-9.13556 l -22.13493,0 c -1.98291,-7.68824 -5.09892,-14.94968 -9.1597,-21.58178 l 15.64652,-15.2883 c 3.66357,-3.57969 3.66357,-9.33967 0,-12.91162 l -15.36009,-15.00845 c -3.66357,-3.57969 -9.55851,-3.57969 -13.21417,0 l -15.64653,15.28832 c -6.7859,-3.96782 -14.21909,-7.01095 -22.08744,-8.95002 l 0,-21.62815 c 0,-5.06105 -4.16998,-9.13556 -9.34963,-9.13556 l -21.75353,0 z m 10.87677,71.73304 c 21.06038,0 38.12329,16.6645 38.12329,37.25046 0,20.57822 -17.055,37.25046 -38.12329,37.25046 -21.06038,0 -38.12329,-16.66453 -38.12329,-37.25046 0,-20.57822 17.05499,-37.25046 38.12329,-37.25046 z" />
      <path
         d="m 159.97,180.33 c -1.79,-0.821 -16.16,-13.948 -31.932,-29.17 -28.352,-27.365 -28.74,-27.688 -34.17,-28.403 -13.23,-1.742 -22.334,-9.712 -24.951,-21.842 -0.83,-3.846 0.233,-11.21 1.617,-11.21 0.495,0 4.585,3.417 9.09,7.593 4.504,4.176 8.831,7.593 9.616,7.593 3.554,0 12.696,-8.984 12.696,-12.476 0,-1.01 -3.697,-5.808 -8.216,-10.672 -7.734,-8.325 -8.07,-8.886 -5.695,-9.553 9.07,-2.553 20.323,0.938 26.801,8.315 4.715,5.37 6.636,10.08 6.636,16.285 l 0,4.985 29.422,28.948 29.422,28.948 0.547,5.697 c 0.456,4.748 0.124,6.314 -1.991,9.4 -4.413,6.441 -12.06,8.694 -18.892,5.563 z m 9.626,-5.964 c 6.364,-2.42 6.373,-11.08 0.014,-13.732 -3.228,-1.349 -4.102,-1.341 -6.815,0.063 -6.786,3.509 -4.409,13.916 3.342,14.634 0.409,0.038 1.965,-0.396 3.459,-0.964 z"
         id="path10"
         style="fill:#DBDBDB"
         inkscape:connector-curvature="0" />
    </g>
    <path
       inkscape:connector-curvature="0"
       style="fill:#DBDBDB"
       id="path12-3"
       d="m 70.68,179.42 -2.311,-2.46 6.45,-9.725 c 5.346,-8.06 7.194,-10 10.793,-11.352 2.389,-0.895 8.183,-5.131 12.877,-9.413 l 8.534,-7.786 2.88,2.88 2.88,2.88 -8.338,8.387 c -4.598,4.625 -8.856,9.974 -9.492,11.923 -1.111,3.404 -6.666,7.952 -18.07,14.789 l -3.896,2.337 -2.311,-2.46 z" />
    <path
       inkscape:connector-curvature="0"
       style="fill:#DBDBDB"
       id="path14-6"
       d="m 146.56,118.63 c -0.942,-1.135 2.137,-4.765 14.228,-16.771 12.359,-12.273 15.16,-15.593 14.07,-16.681 -1.088,-1.088 -3.03,0.254 -9.751,6.742 -24.893,24.03 -22.703,22.289 -25.22,20.02 -2.252,-2.038 -2.238,-2.057 12.979,-17.301 8.378,-8.393 15.233,-15.656 15.233,-16.14 0,-2.35 -4.32,0.96 -17.82,13.652 -8.09,7.607 -15.392,13.831 -16.227,13.831 -0.835,0 -1.805,-0.75 -2.157,-1.667 -0.44,-1.147 3.959,-6.138 14.1,-16 8.108,-7.883 15.788,-14.926 17.07,-15.651 4.962,-2.813 12.841,-0.759 16.36,4.265 0.931,1.329 1.693,4.589 1.693,7.244 0,4.757 -0.224,5.05 -15.409,20.369 -8.475,8.548 -15.981,15.542 -16.681,15.542 -0.699,0 -1.813,-0.652 -2.474,-1.449 z" />
  </g>
</svg>
