<svg xmlns="http://www.w3.org/2000/svg" width="48" height="48">
<defs>
  <path
     d="m 31.659775,4 c -4.377546,0 -7.90461,4.2938118 -7.90461,9.578595 0,5.284784 3.527064,9.578595 7.90461,9.578595 4.377533,0 7.932591,-4.293811 7.932591,-9.578595 C 39.592366,8.2938118 36.037308,4 31.659775,4 z M 13.737996,6.0468224 c -3.585135,0 -6.477583,3.5246976 -6.477583,7.8528426 0,4.328148 2.892448,7.839465 6.477583,7.839465 3.585123,0 6.491573,-3.511317 6.491573,-7.839465 0,-4.328145 -2.90645,-7.8528426 -6.491573,-7.8528426 z m 6.533545,18.2474926 c -0.485458,0.0076 -0.971346,0.412014 -1.468999,1.204013 -1.130131,1.79857 -3.090122,2.742474 -5.064546,2.742474 -1.927773,0 -3.68623,-0.9846 -4.966613,-2.608695 C 7.696329,24.268461 6.500991,24.358929 5.693481,25.61873 3.568019,28.934678 2.295975,33.593167 2,38.809363 l 13.752622,0 c 0.750829,-4.579059 2.173806,-8.685669 4.281081,-11.973242 0.381744,-0.595559 0.914926,-1.150005 1.552941,-1.551839 -0.455251,-0.663175 -0.883126,-0.996743 -1.315103,-0.989966 z m 19.362797,1.979933 c -0.592758,0.0093 -1.183132,0.504519 -1.790779,1.471571 -1.379921,2.196103 -3.772959,3.344482 -6.183784,3.344482 -2.353862,0 -4.494486,-1.200883 -6.057869,-3.183946 -1.312669,-1.665049 -2.777443,-1.551626 -3.763434,-0.01338 -2.595248,4.048862 -4.143535,9.737905 -4.504928,16.107023 L 46,44 C 45.614781,37.591027 43.978484,31.887669 41.453101,27.772575 40.82006,26.741035 40.227098,26.264948 39.634338,26.274248 z"
     id="path-main"
      />
</defs>

<use id="1" style="fill:#DBDBDB" xlink:href="#path-main" />



</svg>
