<?xml version="1.0" encoding="UTF-8" standalone="no"?>
<svg
   xmlns:dc="http://purl.org/dc/elements/1.1/"
   xmlns:cc="http://creativecommons.org/ns#"
   xmlns:rdf="http://www.w3.org/1999/02/22-rdf-syntax-ns#"
   xmlns:svg="http://www.w3.org/2000/svg"
   xmlns="http://www.w3.org/2000/svg"
   xmlns:sodipodi="http://sodipodi.sourceforge.net/DTD/sodipodi-0.dtd"
   xmlns:inkscape="http://www.inkscape.org/namespaces/inkscape"
   height="512"
   viewBox="0 0 512 512"
   width="512"
   version="1.1"
   id="svg2"
   inkscape:version="0.91 r"
   sodipodi:docname="qr-reader.svg">
  <defs
     id="defs134" />
  <sodipodi:namedview
     pagecolor="#ffffff"
     bordercolor="#666666"
     borderopacity="1"
     objecttolerance="10"
     gridtolerance="10"
     guidetolerance="10"
     inkscape:pageopacity="0"
     inkscape:pageshadow="2"
     inkscape:window-width="1920"
     inkscape:window-height="1028"
     id="namedview132"
     showgrid="false"
     inkscape:zoom="1.84375"
     inkscape:cx="-47.230036"
     inkscape:cy="76.069948"
     inkscape:window-x="0"
     inkscape:window-y="0"
     inkscape:window-maximized="1"
     inkscape:current-layer="svg2" />
  <metadata
     id="metadata308">
    <rdf:RDF>
      <cc:Work
         rdf:about="">
        <dc:format>image/svg+xml</dc:format>
        <dc:type
           rdf:resource="http://purl.org/dc/dcmitype/StillImage" />
      </cc:Work>
    </rdf:RDF>
  </metadata>
  <path
     inkscape:connector-curvature="0"
     style="fill:#DBDBDB;fill-opacity:1;stroke:none;stroke-width:3.47905064;stroke-miterlimit:2"
     d="m 128.16377,88.81164 94.67059,0 0,13.57051 -94.67059,0 z"
     id="path86" />
  <path
     inkscape:connector-curvature="0"
     style="fill:#DBDBDB;fill-opacity:1;stroke:none;stroke-width:3.47905064;stroke-miterlimit:2"
     d="m 236.35641,88.81164 13.52437,0 0,13.57051 -13.52437,0 z"
     id="path88" />
  <path
     inkscape:connector-curvature="0"
     style="fill:#DBDBDB;fill-opacity:1;stroke:none;stroke-width:3.47905064;stroke-miterlimit:2"
     d="m 303.98984,88.81164 54.09748,0 0,13.57051 -54.08822,0 z"
     id="path90" />
  <path
     inkscape:connector-curvature="0"
     style="fill:#DBDBDB;fill-opacity:1;stroke:none;stroke-width:3.47905064;stroke-miterlimit:2"
     d="m 128.16377,102.37983 13.52437,0 0,13.57051 -13.52437,0 z"
     id="path92" />
  <path
     inkscape:connector-curvature="0"
     style="fill:#DBDBDB;fill-opacity:1;stroke:none;stroke-width:3.47905064;stroke-miterlimit:2"
     d="m 209.3123,102.37983 13.52437,0 0,13.57051 -13.52437,0 z"
     id="path94" />
  <path
     inkscape:connector-curvature="0"
     style="fill:#DBDBDB;fill-opacity:1;stroke:none;stroke-width:3.47905064;stroke-miterlimit:2"
     d="m 236.35641,102.37983 13.52437,0 0,13.57051 -13.52437,0 z"
     id="path96" />
  <path
     inkscape:connector-curvature="0"
     style="fill:#DBDBDB;fill-opacity:1;stroke:none;stroke-width:3.47905064;stroke-miterlimit:2"
     d="m 276.92257,102.37983 40.57543,0 0,13.57051 -40.56616,0 z"
     id="path98" />
  <path
     inkscape:connector-curvature="0"
     style="fill:#DBDBDB;fill-opacity:1;stroke:none;stroke-width:3.47905064;stroke-miterlimit:2"
     d="m 128.16377,115.94802 13.52437,0 0,13.57051 -13.52437,0 z"
     id="path100" />
  <path
     inkscape:connector-curvature="0"
     style="fill:#DBDBDB;fill-opacity:1;stroke:none;stroke-width:3.47905064;stroke-miterlimit:2"
     d="m 155.21251,115.94802 40.57311,0 0,13.57051 -40.57311,0 z"
     id="path102" />
  <path
     inkscape:connector-curvature="0"
     style="fill:#DBDBDB;fill-opacity:1;stroke:none;stroke-width:3.47905064;stroke-miterlimit:2"
     d="m 209.3123,115.94802 13.52437,0 0,13.57051 -13.52437,0 z"
     id="path104" />
  <path
     inkscape:connector-curvature="0"
     style="fill:#DBDBDB;fill-opacity:1;stroke:none;stroke-width:3.47905064;stroke-miterlimit:2"
     d="m 236.35641,115.94802 27.04874,0 0,13.57051 -27.04411,0 z"
     id="path106" />
  <path
     inkscape:connector-curvature="0"
     style="fill:#DBDBDB;fill-opacity:1;stroke:none;stroke-width:3.47905064;stroke-miterlimit:2"
     d="m 290.46778,115.94802 13.52437,0 0,13.57051 -13.52437,0 z"
     id="path108" />
  <path
     inkscape:connector-curvature="0"
     style="fill:#DBDBDB;fill-opacity:1;stroke:none;stroke-width:3.47905064;stroke-miterlimit:2"
     d="m 317.51189,115.94802 27.04874,0 0,13.57051 -27.04411,0 z"
     id="path110" />
  <path
     inkscape:connector-curvature="0"
     style="fill:#DBDBDB;fill-opacity:1;stroke:none;stroke-width:3.47905064;stroke-miterlimit:2"
     d="m 128.16377,129.51621 13.52437,0 0,13.57052 -13.52437,0 z"
     id="path112" />
  <path
     inkscape:connector-curvature="0"
     style="fill:#DBDBDB;fill-opacity:1;stroke:none;stroke-width:3.47905064;stroke-miterlimit:2"
     d="m 155.21251,129.51621 40.57311,0 0,13.57052 -40.57311,0 z"
     id="path114" />
  <path
     inkscape:connector-curvature="0"
     style="fill:#DBDBDB;fill-opacity:1;stroke:none;stroke-width:3.47905064;stroke-miterlimit:2"
     d="m 209.3123,129.51621 13.52437,0 0,13.57052 -13.52437,0 z"
     id="path116" />
  <path
     inkscape:connector-curvature="0"
     style="fill:#DBDBDB;fill-opacity:1;stroke:none;stroke-width:3.47905064;stroke-miterlimit:2"
     d="m 236.35641,129.51621 40.57311,0 0,13.57052 -40.56616,0 z"
     id="path118" />
  <path
     inkscape:connector-curvature="0"
     style="fill:#DBDBDB;fill-opacity:1;stroke:none;stroke-width:3.47905064;stroke-miterlimit:2"
     d="m 290.46778,129.51621 13.52437,0 0,13.57052 -13.52437,0 z"
     id="path120" />
  <path
     inkscape:connector-curvature="0"
     style="fill:#DBDBDB;fill-opacity:1;stroke:none;stroke-width:3.47905064;stroke-miterlimit:2"
     d="m 128.16377,143.0844 13.52437,0 0,13.57052 -13.52437,0 z"
     id="path122" />
  <path
     inkscape:connector-curvature="0"
     style="fill:#DBDBDB;fill-opacity:1;stroke:none;stroke-width:3.47905064;stroke-miterlimit:2"
     d="m 155.21251,143.0844 40.57311,0 0,13.57052 -40.57311,0 z"
     id="path124" />
  <path
     inkscape:connector-curvature="0"
     style="fill:#DBDBDB;fill-opacity:1;stroke:none;stroke-width:3.47905064;stroke-miterlimit:2"
     d="m 209.3123,143.0844 13.52437,0 0,13.57052 -13.52437,0 z"
     id="path126" />
  <path
     inkscape:connector-curvature="0"
     style="fill:#DBDBDB;fill-opacity:1;stroke:none;stroke-width:3.47905064;stroke-miterlimit:2"
     d="m 249.87846,143.0844 27.04874,0 0,13.57052 -27.0441,0 z"
     id="path128" />
  <path
     inkscape:connector-curvature="0"
     style="fill:#DBDBDB;fill-opacity:1;stroke:none;stroke-width:3.47905064;stroke-miterlimit:2"
     d="m 290.46778,143.0844 13.52437,0 0,13.57052 -13.52437,0 z"
     id="path130" />
  <path
     inkscape:connector-curvature="0"
     style="fill:#DBDBDB;fill-opacity:1;stroke:none;stroke-width:3.47905064;stroke-miterlimit:2"
     d="m 317.51189,143.0844 40.57311,0 0,13.57052 -40.56616,0 z"
     id="path132" />
  <path
     inkscape:connector-curvature="0"
     style="fill:#DBDBDB;fill-opacity:1;stroke:none;stroke-width:3.47905064;stroke-miterlimit:2"
     d="m 128.16377,156.67583 13.52437,0 0,13.57052 -13.52437,0 z"
     id="path134" />
  <path
     inkscape:connector-curvature="0"
     style="fill:#DBDBDB;fill-opacity:1;stroke:none;stroke-width:3.47905064;stroke-miterlimit:2"
     d="m 209.3123,156.67583 13.52437,0 0,13.57052 -13.52437,0 z"
     id="path136" />
  <path
     inkscape:connector-curvature="0"
     style="fill:#DBDBDB;fill-opacity:1;stroke:none;stroke-width:3.47905064;stroke-miterlimit:2"
     d="m 236.35641,156.67583 40.57311,0 0,13.57052 -40.56616,0 z"
     id="path138" />
  <path
     inkscape:connector-curvature="0"
     style="fill:#DBDBDB;fill-opacity:1;stroke:none;stroke-width:3.47905064;stroke-miterlimit:2"
     d="m 128.16377,170.24402 94.67059,0 0,13.57052 -94.67059,0 z"
     id="path140" />
  <path
     inkscape:connector-curvature="0"
     style="fill:#DBDBDB;fill-opacity:1;stroke:none;stroke-width:3.47905064;stroke-miterlimit:2"
     d="m 236.35641,170.24402 13.52437,0 0,13.57052 -13.52437,0 z"
     id="path142" />
  <path
     inkscape:connector-curvature="0"
     style="fill:#DBDBDB;fill-opacity:1;stroke:none;stroke-width:3.47905064;stroke-miterlimit:2"
     d="m 263.40052,170.24402 13.52437,0 0,13.57052 -13.52437,0 z"
     id="path144" />
  <path
     inkscape:connector-curvature="0"
     style="fill:#DBDBDB;fill-opacity:1;stroke:none;stroke-width:3.47905064;stroke-miterlimit:2"
     d="m 290.46778,170.24402 13.52437,0 0,13.57052 -13.52437,0 z"
     id="path146" />
  <path
     inkscape:connector-curvature="0"
     style="fill:#DBDBDB;fill-opacity:1;stroke:none;stroke-width:3.47905064;stroke-miterlimit:2"
     d="m 317.51189,170.24402 13.52437,0 0,13.57052 -13.52437,0 z"
     id="path148" />
  <path
     inkscape:connector-curvature="0"
     style="fill:#DBDBDB;fill-opacity:1;stroke:none;stroke-width:3.47905064;stroke-miterlimit:2"
     d="m 263.40052,183.81221 27.05105,0 0,13.57284 -27.0441,0 z"
     id="path150" />
  <path
     inkscape:connector-curvature="0"
     style="fill:#DBDBDB;fill-opacity:1;stroke:none;stroke-width:3.47905064;stroke-miterlimit:2"
     d="m 303.98984,183.81221 13.52437,0 0,13.57284 -13.52437,0 z"
     id="path152" />
  <path
     inkscape:connector-curvature="0"
     style="fill:#DBDBDB;fill-opacity:1;stroke:none;stroke-width:3.47905064;stroke-miterlimit:2"
     d="m 331.03395,183.81221 27.04874,0 0,13.57284 -27.04411,0 z"
     id="path154" />
  <path
     inkscape:connector-curvature="0"
     style="fill:#DBDBDB;fill-opacity:1;stroke:none;stroke-width:3.47905064;stroke-miterlimit:2"
     d="m 128.16377,197.38041 27.04874,0 0,13.57051 -27.04874,0 z"
     id="path156" />
  <path
     inkscape:connector-curvature="0"
     style="fill:#DBDBDB;fill-opacity:1;stroke:none;stroke-width:3.47905064;stroke-miterlimit:2"
     d="m 182.26819,197.38041 40.57311,0 0,13.57051 -40.57311,0 z"
     id="path158" />
  <path
     inkscape:connector-curvature="0"
     style="fill:#DBDBDB;fill-opacity:1;stroke:none;stroke-width:3.47905064;stroke-miterlimit:2"
     d="m 263.40052,197.38041 13.52437,0 0,13.57051 -13.52437,0 z"
     id="path160" />
  <path
     inkscape:connector-curvature="0"
     style="fill:#DBDBDB;fill-opacity:1;stroke:none;stroke-width:3.47905064;stroke-miterlimit:2"
     d="m 290.46778,197.38041 27.04874,0 0,13.57051 -27.04411,0 z"
     id="path162" />
  <path
     inkscape:connector-curvature="0"
     style="fill:#DBDBDB;fill-opacity:1;stroke:none;stroke-width:3.47905064;stroke-miterlimit:2"
     d="m 331.03395,197.38041 27.04874,0 0,13.57051 -27.04411,0 z"
     id="path164" />
  <path
     inkscape:connector-curvature="0"
     style="fill:#DBDBDB;fill-opacity:1;stroke:none;stroke-width:3.47905064;stroke-miterlimit:2"
     d="m 128.16377,210.9486 13.52437,0 0,13.57051 -13.52437,0 z"
     id="path166" />
  <path
     inkscape:connector-curvature="0"
     style="fill:#DBDBDB;fill-opacity:1;stroke:none;stroke-width:3.47905064;stroke-miterlimit:2"
     d="m 155.21251,210.9486 13.52437,0 0,13.57051 -13.52437,0 z"
     id="path168" />
  <path
     id="path170"
     d="m 303.98984,210.9486 67.61027,0 0,13.57051 -67.61027,0 z"
     style="fill:#DBDBDB;fill-opacity:1;stroke:none;stroke-width:2.25906348;stroke-miterlimit:2"
     inkscape:connector-curvature="0" />
  <path
     inkscape:connector-curvature="0"
     style="fill:#DBDBDB;fill-opacity:1;stroke:none;stroke-width:3.47905064;stroke-miterlimit:2"
     d="m 182.26819,224.51679 54.09748,0 0,13.57052 -54.09748,0 z"
     id="path174" />
  <path
     inkscape:connector-curvature="0"
     style="fill:#DBDBDB;fill-opacity:1;stroke:none;stroke-width:3.47905064;stroke-miterlimit:2"
     d="m 249.87846,224.51679 27.04874,0 0,13.57052 -27.0441,0 z"
     id="path176" />
  <path
     inkscape:connector-curvature="0"
     style="fill:#DBDBDB;fill-opacity:1;stroke:none;stroke-width:3.47905064;stroke-miterlimit:2"
     d="m 331.03395,224.51679 27.04874,0 0,13.57052 -27.04411,0 z"
     id="path178" />
  <path
     inkscape:connector-curvature="0"
     style="fill:#DBDBDB;fill-opacity:1;stroke:none;stroke-width:3.47905064;stroke-miterlimit:2"
     d="m 141.68814,238.08498 13.52437,0 0,13.57052 -13.52437,0 z"
     id="path180" />
  <path
     inkscape:connector-curvature="0"
     style="fill:#DBDBDB;fill-opacity:1;stroke:none;stroke-width:3.47905064;stroke-miterlimit:2"
     d="m 222.83436,238.08498 13.52437,0 0,13.57052 -13.52437,0 z"
     id="path182" />
  <path
     inkscape:connector-curvature="0"
     style="fill:#DBDBDB;fill-opacity:1;stroke:none;stroke-width:3.47905064;stroke-miterlimit:2"
     d="m 249.87846,238.08498 13.52437,0 0,13.57052 -13.52205,0 z"
     id="path184" />
  <path
     inkscape:connector-curvature="0"
     style="fill:#DBDBDB;fill-opacity:1;stroke:none;stroke-width:3.47905064;stroke-miterlimit:2"
     d="m 290.46778,238.08498 13.52437,0 0,13.57052 -13.52437,0 z"
     id="path186" />
  <path
     inkscape:connector-curvature="0"
     style="fill:#DBDBDB;fill-opacity:1;stroke:none;stroke-width:3.47905064;stroke-miterlimit:2"
     d="m 317.51189,238.08498 27.04874,0 0,13.57052 -27.04411,0 z"
     id="path188" />
  <path
     inkscape:connector-curvature="0"
     style="fill:#DBDBDB;fill-opacity:1;stroke:none;stroke-width:3.47905064;stroke-miterlimit:2"
     d="m 128.16377,251.65318 94.67059,0 0,13.57051 -94.67059,0 z"
     id="path190" />
  <path
     inkscape:connector-curvature="0"
     style="fill:#DBDBDB;fill-opacity:1;stroke:none;stroke-width:3.47905064;stroke-miterlimit:2"
     d="m 276.92257,251.65318 13.52669,0 0,13.57051 -13.52669,0 z"
     id="path192" />
  <path
     inkscape:connector-curvature="0"
     style="fill:#DBDBDB;fill-opacity:1;stroke:none;stroke-width:3.47905064;stroke-miterlimit:2"
     d="m 303.98984,251.65318 27.04874,0 0,13.57051 -27.04411,0 z"
     id="path194" />
  <path
     inkscape:connector-curvature="0"
     style="fill:#DBDBDB;fill-opacity:1;stroke:none;stroke-width:3.47905064;stroke-miterlimit:2"
     d="m 128.16377,265.23298 13.52437,0 0,13.57052 -13.52437,0 z"
     id="path196" />
  <path
     inkscape:connector-curvature="0"
     style="fill:#DBDBDB;fill-opacity:1;stroke:none;stroke-width:3.47905064;stroke-miterlimit:2"
     d="m 155.21251,265.23298 13.52437,0 0,13.57052 -13.52437,0 z"
     id="path198" />
  <path
     inkscape:connector-curvature="0"
     style="fill:#DBDBDB;fill-opacity:1;stroke:none;stroke-width:3.47905064;stroke-miterlimit:2"
     d="m 182.26819,265.23298 27.04874,0 0,13.57052 -27.04874,0 z"
     id="path200" />
  <path
     inkscape:connector-curvature="0"
     style="fill:#DBDBDB;fill-opacity:1;stroke:none;stroke-width:3.47905064;stroke-miterlimit:2"
     d="m 263.40052,265.23298 13.52437,0 0,13.57052 -13.52437,0 z"
     id="path202" />
  <path
     inkscape:connector-curvature="0"
     style="fill:#DBDBDB;fill-opacity:1;stroke:none;stroke-width:3.47905064;stroke-miterlimit:2"
     d="m 290.46778,265.23298 13.52437,0 0,13.57052 -13.52437,0 z"
     id="path204" />
  <path
     inkscape:connector-curvature="0"
     style="fill:#DBDBDB;fill-opacity:1;stroke:none;stroke-width:3.47905064;stroke-miterlimit:2"
     d="m 331.03395,265.23298 27.04874,0 0,13.57052 -27.04411,0 z"
     id="path206" />
  <path
     inkscape:connector-curvature="0"
     style="fill:#DBDBDB;fill-opacity:1;stroke:none;stroke-width:3.47905064;stroke-miterlimit:2"
     d="m 155.21251,278.81279 13.52437,0 0,13.57052 -13.52437,0 z"
     id="path208" />
  <path
     inkscape:connector-curvature="0"
     style="fill:#DBDBDB;fill-opacity:1;stroke:none;stroke-width:3.47905064;stroke-miterlimit:2"
     d="m 182.26819,278.81279 13.52437,0 0,13.57052 -13.52437,0 z"
     id="path210" />
  <path
     inkscape:connector-curvature="0"
     style="fill:#DBDBDB;fill-opacity:1;stroke:none;stroke-width:3.47905064;stroke-miterlimit:2"
     d="m 209.3123,278.81279 13.52437,0 0,13.57052 -13.52437,0 z"
     id="path212" />
  <path
     inkscape:connector-curvature="0"
     style="fill:#DBDBDB;fill-opacity:1;stroke:none;stroke-width:3.47905064;stroke-miterlimit:2"
     d="m 263.40052,278.81279 81.15548,0 0,13.57052 -81.15548,0 z"
     id="path214" />
  <path
     inkscape:connector-curvature="0"
     style="fill:#DBDBDB;fill-opacity:1;stroke:none;stroke-width:3.47905064;stroke-miterlimit:2"
     d="m 155.21251,292.38099 27.04874,0 0,13.57051 -27.04874,0 z"
     id="path216" />
  <path
     inkscape:connector-curvature="0"
     style="fill:#DBDBDB;fill-opacity:1;stroke:none;stroke-width:3.47905064;stroke-miterlimit:2"
     d="m 195.79025,292.38099 13.52437,0 0,13.57051 -13.52437,0 z"
     id="path218" />
  <path
     inkscape:connector-curvature="0"
     style="fill:#DBDBDB;fill-opacity:1;stroke:none;stroke-width:3.47905064;stroke-miterlimit:2"
     d="m 249.87846,292.38099 40.57543,0 0,13.57051 -40.56616,0 z"
     id="path220" />
  <path
     inkscape:connector-curvature="0"
     style="fill:#DBDBDB;fill-opacity:1;stroke:none;stroke-width:3.47905064;stroke-miterlimit:2"
     d="m 303.98984,292.38099 13.52437,0 0,13.57051 -13.52437,0 z"
     id="path222" />
  <path
     inkscape:connector-curvature="0"
     style="fill:#DBDBDB;fill-opacity:1;stroke:none;stroke-width:3.47905064;stroke-miterlimit:2"
     d="m 128.16377,305.94918 54.09748,0 0,13.57051 -54.09748,0 z"
     id="path224" />
  <path
     inkscape:connector-curvature="0"
     style="fill:#DBDBDB;fill-opacity:1;stroke:none;stroke-width:3.47905064;stroke-miterlimit:2"
     d="m 209.3123,305.94918 13.52437,0 0,13.57051 -13.52437,0 z"
     id="path226" />
  <path
     inkscape:connector-curvature="0"
     style="fill:#DBDBDB;fill-opacity:1;stroke:none;stroke-width:3.47905064;stroke-miterlimit:2"
     d="m 263.40052,305.94918 13.52437,0 0,13.57051 -13.52437,0 z"
     id="path228" />
  <path
     inkscape:connector-curvature="0"
     style="fill:#DBDBDB;fill-opacity:1;stroke:none;stroke-width:3.47905064;stroke-miterlimit:2"
     d="m 290.46778,305.94918 27.04874,0 0,13.57051 -27.04411,0 z"
     id="path230" />
  <path
     inkscape:connector-curvature="0"
     style="fill:#DBDBDB;fill-opacity:1;stroke:none;stroke-width:3.47905064;stroke-miterlimit:2"
     d="m 236.35641,319.51737 13.52437,0 0,13.57052 -13.52437,0 z"
     id="path232" />
  <path
     inkscape:connector-curvature="0"
     style="fill:#DBDBDB;fill-opacity:1;stroke:none;stroke-width:3.47905064;stroke-miterlimit:2"
     d="m 263.40052,319.51737 13.52437,0 0,13.57052 -13.52437,0 z"
     id="path234" />
  <path
     inkscape:connector-curvature="0"
     style="fill:#DBDBDB;fill-opacity:1;stroke:none;stroke-width:3.47905064;stroke-miterlimit:2"
     d="m 303.98984,319.51737 54.09748,0 0,13.57052 -54.08822,0 z"
     id="path236" />
  <path
     inkscape:connector-curvature="0"
     style="fill:#DBDBDB;fill-opacity:1;stroke:none;stroke-width:3.47905064;stroke-miterlimit:2"
     d="m 128.16377,333.08556 94.67059,0 0,13.57052 -94.67059,0 z"
     id="path238" />
  <path
     inkscape:connector-curvature="0"
     style="fill:#DBDBDB;fill-opacity:1;stroke:none;stroke-width:3.47905064;stroke-miterlimit:2"
     d="m 331.03395,333.08556 27.04874,0 0,13.57052 -27.04411,0 z"
     id="path240" />
  <path
     inkscape:connector-curvature="0"
     style="fill:#DBDBDB;fill-opacity:1;stroke:none;stroke-width:3.47905064;stroke-miterlimit:2"
     d="m 128.16377,346.65608 13.52437,0 0,13.57051 -13.52437,0 z"
     id="path242" />
  <path
     inkscape:connector-curvature="0"
     style="fill:#DBDBDB;fill-opacity:1;stroke:none;stroke-width:3.47905064;stroke-miterlimit:2"
     d="m 209.3123,346.65608 13.52437,0 0,13.57051 -13.52437,0 z"
     id="path244" />
  <path
     inkscape:connector-curvature="0"
     style="fill:#DBDBDB;fill-opacity:1;stroke:none;stroke-width:3.47905064;stroke-miterlimit:2"
     d="m 236.35641,346.65608 13.52437,0 0,13.57051 -13.52437,0 z"
     id="path246" />
  <path
     inkscape:connector-curvature="0"
     style="fill:#DBDBDB;fill-opacity:1;stroke:none;stroke-width:3.47905064;stroke-miterlimit:2"
     d="m 263.40052,346.65608 13.52437,0 0,13.57051 -13.52437,0 z"
     id="path248" />
  <path
     inkscape:connector-curvature="0"
     style="fill:#DBDBDB;fill-opacity:1;stroke:none;stroke-width:3.47905064;stroke-miterlimit:2"
     d="m 290.46778,346.65608 13.52437,0 0,13.57051 -13.52437,0 z"
     id="path250" />
  <path
     inkscape:connector-curvature="0"
     style="fill:#DBDBDB;fill-opacity:1;stroke:none;stroke-width:3.47905064;stroke-miterlimit:2"
     d="m 317.51189,346.65608 13.52437,0 0,13.57051 -13.52437,0 z"
     id="path252" />
  <path
     inkscape:connector-curvature="0"
     style="fill:#DBDBDB;fill-opacity:1;stroke:none;stroke-width:3.47905064;stroke-miterlimit:2"
     d="m 128.16377,360.22659 13.52437,0 0,13.57052 -13.52437,0 z"
     id="path254" />
  <path
     inkscape:connector-curvature="0"
     style="fill:#DBDBDB;fill-opacity:1;stroke:none;stroke-width:3.47905064;stroke-miterlimit:2"
     d="m 155.21251,360.22659 40.57311,0 0,13.57052 -40.57311,0 z"
     id="path256" />
  <path
     inkscape:connector-curvature="0"
     style="fill:#DBDBDB;fill-opacity:1;stroke:none;stroke-width:3.47905064;stroke-miterlimit:2"
     d="m 209.3123,360.22659 13.52437,0 0,13.57052 -13.52437,0 z"
     id="path258" />
  <path
     inkscape:connector-curvature="0"
     style="fill:#DBDBDB;fill-opacity:1;stroke:none;stroke-width:3.47905064;stroke-miterlimit:2"
     d="m 236.35641,360.22659 27.04874,0 0,13.57052 -27.04411,0 z"
     id="path260" />
  <path
     inkscape:connector-curvature="0"
     style="fill:#DBDBDB;fill-opacity:1;stroke:none;stroke-width:3.47905064;stroke-miterlimit:2"
     d="m 276.92257,360.22659 13.52669,0 0,13.57052 -13.52669,0 z"
     id="path262" />
  <path
     inkscape:connector-curvature="0"
     style="fill:#DBDBDB;fill-opacity:1;stroke:none;stroke-width:3.47905064;stroke-miterlimit:2"
     d="m 303.98984,360.22659 27.04874,0 0,13.57052 -27.04411,0 z"
     id="path264" />
  <path
     inkscape:connector-curvature="0"
     style="fill:#DBDBDB;fill-opacity:1;stroke:none;stroke-width:3.47905064;stroke-miterlimit:2"
     d="m 128.16377,373.79014 13.52437,0 0,13.57052 -13.52437,0 z"
     id="path266" />
  <path
     inkscape:connector-curvature="0"
     style="fill:#DBDBDB;fill-opacity:1;stroke:none;stroke-width:3.47905064;stroke-miterlimit:2"
     d="m 155.21251,373.79014 40.57311,0 0,13.57052 -40.57311,0 z"
     id="path268" />
  <path
     inkscape:connector-curvature="0"
     style="fill:#DBDBDB;fill-opacity:1;stroke:none;stroke-width:3.47905064;stroke-miterlimit:2"
     d="m 209.3123,373.79014 13.52437,0 0,13.57052 -13.52437,0 z"
     id="path270" />
  <path
     inkscape:connector-curvature="0"
     style="fill:#DBDBDB;fill-opacity:1;stroke:none;stroke-width:3.47905064;stroke-miterlimit:2"
     d="m 290.46778,373.79014 13.52437,0 0,13.57052 -13.52437,0 z"
     id="path272" />
  <path
     inkscape:connector-curvature="0"
     style="fill:#DBDBDB;fill-opacity:1;stroke:none;stroke-width:3.47905064;stroke-miterlimit:2"
     d="m 331.03395,373.79014 13.52437,0 0,13.57052 -13.52437,0 z"
     id="path274" />
  <path
     inkscape:connector-curvature="0"
     style="fill:#DBDBDB;fill-opacity:1;stroke:none;stroke-width:3.47905064;stroke-miterlimit:2"
     d="m 128.16377,387.36763 13.52437,0 0,13.57051 -13.52437,0 z"
     id="path276" />
  <path
     inkscape:connector-curvature="0"
     style="fill:#DBDBDB;fill-opacity:1;stroke:none;stroke-width:3.47905064;stroke-miterlimit:2"
     d="m 155.21251,387.36763 40.57311,0 0,13.57051 -40.57311,0 z"
     id="path278" />
  <path
     inkscape:connector-curvature="0"
     style="fill:#DBDBDB;fill-opacity:1;stroke:none;stroke-width:3.47905064;stroke-miterlimit:2"
     d="m 209.3123,387.36763 13.52437,0 0,13.57051 -13.52437,0 z"
     id="path280" />
  <path
     inkscape:connector-curvature="0"
     style="fill:#DBDBDB;fill-opacity:1;stroke:none;stroke-width:3.47905064;stroke-miterlimit:2"
     d="m 249.87846,387.36763 13.52437,0 0,13.57051 -13.52205,0 z"
     id="path282" />
  <path
     inkscape:connector-curvature="0"
     style="fill:#DBDBDB;fill-opacity:1;stroke:none;stroke-width:3.47905064;stroke-miterlimit:2"
     d="m 276.92257,387.36763 54.0998,0 0,13.57051 -54.08822,0 z"
     id="path284" />
  <path
     inkscape:connector-curvature="0"
     style="fill:#DBDBDB;fill-opacity:1;stroke:none;stroke-width:3.47905064;stroke-miterlimit:2"
     d="m 128.16377,400.93814 13.52437,0 0,13.57052 -13.52437,0 z"
     id="path286" />
  <path
     inkscape:connector-curvature="0"
     style="fill:#DBDBDB;fill-opacity:1;stroke:none;stroke-width:3.47905064;stroke-miterlimit:2"
     d="m 209.3123,400.93814 13.52437,0 0,13.57052 -13.52437,0 z"
     id="path288" />
  <path
     inkscape:connector-curvature="0"
     style="fill:#DBDBDB;fill-opacity:1;stroke:none;stroke-width:3.47905064;stroke-miterlimit:2"
     d="m 236.35641,400.93814 27.04874,0 0,13.57052 -27.04411,0 z"
     id="path290" />
  <path
     inkscape:connector-curvature="0"
     style="fill:#DBDBDB;fill-opacity:1;stroke:none;stroke-width:3.47905064;stroke-miterlimit:2"
     d="m 276.92257,400.93814 13.52669,0 0,13.57052 -13.52669,0 z"
     id="path292" />
  <path
     inkscape:connector-curvature="0"
     style="fill:#DBDBDB;fill-opacity:1;stroke:none;stroke-width:3.47905064;stroke-miterlimit:2"
     d="m 303.98984,400.93814 13.52437,0 0,13.57052 -13.52437,0 z"
     id="path294" />
  <path
     inkscape:connector-curvature="0"
     style="fill:#DBDBDB;fill-opacity:1;stroke:none;stroke-width:3.47905064;stroke-miterlimit:2"
     d="m 331.03395,400.93814 13.52437,0 0,13.57052 -13.52437,0 z"
     id="path296" />
  <path
     inkscape:connector-curvature="0"
     style="fill:#DBDBDB;fill-opacity:1;stroke:none;stroke-width:3.47905064;stroke-miterlimit:2"
     d="m 128.16377,414.50866 94.67059,0 0,13.57051 -94.67059,0 z"
     id="path298" />
  <path
     inkscape:connector-curvature="0"
     style="fill:#DBDBDB;fill-opacity:1;stroke:none;stroke-width:3.47905064;stroke-miterlimit:2"
     d="m 236.35641,414.50866 40.57311,0 0,13.57051 -40.56616,0 z"
     id="path300" />
  <path
     inkscape:connector-curvature="0"
     style="fill:#DBDBDB;fill-opacity:1;stroke:none;stroke-width:3.47905064;stroke-miterlimit:2"
     d="m 290.46778,414.50866 27.04874,0 0,13.57051 -27.04411,0 z"
     id="path302" />
</svg>
