<svg xmlns="http://www.w3.org/2000/svg" width="48" height="48">
<defs>
<defs
     id="defs4">
  </defs>
  <path
     id="path-main"
     d="M 24,2 C 11.856001,2 2,11.856002 2,24 c 0,12.143999 9.856001,22 22,22 4.74375,0 9.12433,-1.510984 12.71875,-4.067708 l 3.924479,3.924479 5.213542,-5.213542 -3.924479,-3.924479 C 44.489016,33.12433 46,28.74375 46,24 46,11.856001 36.143998,2 24,2 z m 0,7.333333 c 8.095997,1e-6 14.666667,6.570669 14.666667,14.666667 1e-6,2.711092 -0.749686,5.239727 -2.033855,7.419271 l -8.335937,-8.335938 2.893229,-2.893229 2.75,-2.75 -5.213542,-5.213541 -2.75,2.749999 -5.5,5.5 -5.499999,5.5 -2.75,2.75 5.213541,5.213542 2.75,-2.75 2.893229,-2.893229 8.335938,8.335937 C 29.239727,37.916981 26.711092,38.666667 24,38.666667 15.904001,38.666666 9.3333333,32.095998 9.3333333,24 9.3333337,15.904003 15.904002,9.333333 24,9.333333 z" />
</defs>

<use id="1" style="fill:#DBDBDB" xlink:href="#path-main" />



</svg>
