<?xml version="1.0" encoding="UTF-8" standalone="no"?>
<svg
   xmlns:dc="http://purl.org/dc/elements/1.1/"
   xmlns:cc="http://creativecommons.org/ns#"
   xmlns:rdf="http://www.w3.org/1999/02/22-rdf-syntax-ns#"
   xmlns:svg="http://www.w3.org/2000/svg"
   xmlns="http://www.w3.org/2000/svg"
   xmlns:sodipodi="http://sodipodi.sourceforge.net/DTD/sodipodi-0.dtd"
   xmlns:inkscape="http://www.inkscape.org/namespaces/inkscape"
   version="1.1"
   width="512"
   height="512"
   viewBox="0 0 512 512"
   id="svg2"
   inkscape:version="0.91 r"
   sodipodi:docname="applications-accessories.svg">
  <defs
     id="defs39" />
  <sodipodi:namedview
     pagecolor="#ffffff"
     bordercolor="#666666"
     borderopacity="1"
     objecttolerance="10"
     gridtolerance="10"
     guidetolerance="10"
     inkscape:pageopacity="0"
     inkscape:pageshadow="2"
     inkscape:window-width="1920"
     inkscape:window-height="1028"
     id="namedview37"
     showgrid="false"
     inkscape:zoom="0.4609375"
     inkscape:cx="-379.66102"
     inkscape:cy="256"
     inkscape:window-x="0"
     inkscape:window-y="0"
     inkscape:window-maximized="1"
     inkscape:current-layer="svg2" />
  <metadata
     id="metadata72">
    <rdf:RDF>
      <cc:Work
         rdf:about="">
        <dc:format>image/svg+xml</dc:format>
        <dc:type
           rdf:resource="http://purl.org/dc/dcmitype/StillImage" />
      </cc:Work>
    </rdf:RDF>
  </metadata>
  <text
     x="729.64"
     y="231.36"
     id="text20"
     font-family="Gentium Book Basic"
     word-spacing="0"
     line-height="125%"
     letter-spacing="0"
     font-size="129.23">
    <tspan
       x="729.64"
       y="231.36"
       id="tspan22" />
  </text>
  <text
     x="378.91"
     y="579.25"
     transform="scale(4.0128,0.2492)"
     id="text24"
     font-family="Arial"
     text-anchor="middle"
     font-size="46.954" />
  <text
     x="1310.91"
     y="151.36"
     id="text26"
     font-family="Gentium Book Basic"
     word-spacing="0"
     line-height="125%"
     letter-spacing="0"
     font-size="129.23">
    <tspan
       x="1310.91"
       y="151.36"
       id="tspan28" />
  </text>
  <text
     x="523.76"
     y="258.22"
     transform="scale(4.0128,0.2492)"
     id="text30"
     font-family="Arial"
     text-anchor="middle"
     font-size="46.954" />
  <text
     x="239.33"
     y="-29.901"
     id="text32"
     font-family="Gentium Book Basic"
     word-spacing="0"
     line-height="125%"
     letter-spacing="0"
     font-size="129.23">
    <tspan
       x="239.33"
       y="-29.901"
       id="tspan34" />
  </text>
  <text
     x="256.72"
     y="-469.14"
     transform="scale(4.0128,0.2492)"
     id="text36"
     font-family="Arial"
     text-anchor="middle"
     font-size="46.954" />
  <text
     x="1337.38"
     y="-246.37"
     id="text38"
     font-family="Gentium Book Basic"
     word-spacing="0"
     line-height="125%"
     letter-spacing="0"
     font-size="129.23">
    <tspan
       x="1337.38"
       y="-246.37"
       id="tspan40" />
  </text>
  <text
     x="530.36"
     y="-1337.81"
     transform="scale(4.0128,0.2492)"
     id="text42"
     font-family="Arial"
     text-anchor="middle"
     font-size="46.954" />
  <text
     x="1918.65"
     y="-326.38"
     id="text44"
     font-family="Gentium Book Basic"
     word-spacing="0"
     line-height="125%"
     letter-spacing="0"
     font-size="129.23">
    <tspan
       x="1918.65"
       y="-326.38"
       id="tspan46" />
  </text>
  <text
     x="675.21"
     y="-1658.85"
     transform="scale(4.0128,0.2492)"
     id="text48"
     font-family="Arial"
     text-anchor="middle"
     font-size="46.954" />
  <text
     x="1529.53"
     y="-798.78"
     id="text50"
     font-family="Gentium Book Basic"
     word-spacing="0"
     line-height="125%"
     letter-spacing="0"
     font-size="129.23">
    <tspan
       x="1529.53"
       y="-798.78"
       id="tspan52" />
  </text>
  <text
     x="578.24"
     y="-3554.51"
     transform="scale(4.0128,0.2492)"
     id="text54"
     font-family="Arial"
     text-anchor="middle"
     font-size="46.954" />
  <text
     x="2110.79"
     y="-878.78"
     id="text56"
     font-family="Gentium Book Basic"
     word-spacing="0"
     line-height="125%"
     letter-spacing="0"
     font-size="129.23">
    <tspan
       x="2110.79"
       y="-878.78"
       id="tspan58" />
  </text>
  <text
     x="723.09"
     y="-3875.54"
     transform="scale(4.0128,0.2492)"
     id="text60"
     font-family="Arial"
     text-anchor="middle"
     font-size="46.954" />
  <text
     x="277.99"
     y="535.94"
     id="text62"
     font-family="Gentium Book Basic"
     word-spacing="0"
     line-height="125%"
     letter-spacing="0"
     font-size="208.33">
    <tspan
       x="277.99"
       y="535.94"
       id="tspan64" />
  </text>
  <path
     d="m 242.54073,165.24923 -28.75932,69.84405 c -0.97496,2.3687 -3.19197,3.99628 -5.74081,4.22068 L 60.941434,252.23984 c -3.609132,0.31762 -6.352339,3.38633 -6.254366,7.00811 l 2.991283,115.46392 c 0.08218,3.17618 2.333935,5.87828 5.44373,6.53248 l 173.172189,36.4232 c 4.23331,0.88965 8.53772,1.33209 12.84055,1.32104 l 0.003,-34.24572 0,-218.19158 c 0,-9.5285 -2.97073,-10.11948 -6.59883,-1.30522 m -20.13783,215.33143 -65.00872,-10.4687 0,-34.07662 65.00872,0 0,44.54532 M 193.97382,222.70149 20.612019,240.22571 c -5.296769,0.53569 -9.155574,-4.90646 -6.899075,-9.7276 l 46.157133,-98.66658 c 0.938622,-2.00842 2.79218,-3.43848 4.971249,-3.83826 L 255.3323,93.008029 199.55187,218.67993 c -0.99868,2.25017 -3.12718,3.79243 -5.57805,4.03894 m 257.07986,29.52571 -147.09917,-12.92589 c -2.55199,-0.22439 -4.77214,-1.85198 -5.7408,-4.22066 l -28.7609,-69.84407 c -3.62967,-8.81426 -6.59883,-8.22642 -6.59883,1.30524 l 0,218.19158 0.003,34.2457 c 4.30283,0.0108 8.60567,-0.43139 12.84057,-1.32104 l 173.17199,-36.42319 c 3.10823,-0.65419 5.36,-3.35789 5.44375,-6.53247 l 2.99128,-115.46394 c 0.0933,-3.62019 -2.64681,-6.69048 -6.25437,-7.00651 m -60.53678,61.67451 -8.12529,0.22597 -0.16434,51.1347 c -0.008,2.25176 -2.29443,4.40553 -5.14034,4.81481 l -13.3162,1.91519 c -3.04185,0.4377 -5.53064,-1.12194 -5.52589,-3.48589 l 0.12483,-53.7104 -9.29305,0.25757 c -4.51932,0.12482 -7.37787,-3.49852 -5.07712,-6.49613 l 22.10043,-28.80041 c 2.09374,-2.72897 7.23249,-2.47772 9.25039,0.39822 l 19.39831,27.65003 c 1.83933,2.62152 -0.48513,5.99521 -4.23489,6.0995 M 491.37458,240.24153 318.01278,222.7173 c -2.45087,-0.24651 -4.57937,-1.78877 -5.57804,-4.03895 l -55.78045,-125.6719 190.49099,34.98524 c 2.18064,0.39978 4.03262,1.82984 4.97124,3.83826 l 46.15715,98.66658 c 2.25648,4.82113 -1.60391,10.26328 -6.90068,9.7276"
     inkscape:connector-curvature="0"
     id="path66"
     style="fill:#DBDBDB;fill-opacity:1" />
</svg>
