<?xml version="1.0" encoding="UTF-8" standalone="no"?>
<svg xmlns:dc="http://purl.org/dc/elements/1.1/" xmlns:cc="http://creativecommons.org/ns#" xmlns:rdf="http://www.w3.org/1999/02/22-rdf-syntax-ns#" xmlns:svg="http://www.w3.org/2000/svg" xmlns="http://www.w3.org/2000/svg" xmlns:sodipodi="http://sodipodi.sourceforge.net/DTD/sodipodi-0.dtd" xmlns:inkscape="http://www.inkscape.org/namespaces/inkscape" height="512" viewBox="0 0 512 512" width="512" version="1.1" id="svg2" inkscape:version="0.91 r" sodipodi:docname="redshift-idle.svg">
<defs id="defs16" />
<sodipodi:namedview pagecolor="#ffffff" bordercolor="#666666" borderopacity="1" objecttolerance="10" gridtolerance="10" guidetolerance="10" inkscape:pageopacity="0" inkscape:pageshadow="2" inkscape:window-width="1680" inkscape:window-height="994" id="namedview14" showgrid="false" inkscape:zoom="0.4609375" inkscape:cx="-116.0678" inkscape:cy="256" inkscape:window-x="0" inkscape:window-y="0" inkscape:window-maximized="1" inkscape:current-layer="svg2" />
<metadata id="metadata72">
<rdf:RDF>
<cc:Work rdf:about="">
<dc:format>image/svg+xml</dc:format>
<dc:type rdf:resource="http://purl.org/dc/dcmitype/StillImage" />
</cc:Work>
</rdf:RDF>
</metadata>
<path id="path66" d="m 256.00054,49.702712 c -64.10381,0 -116.03806,51.974958 -116.03806,116.078758 0,34.49666 15.03217,65.47406 37.62249,89.32474 22.56182,23.82084 23.51558,54.40344 23.3487,79.86045 -0.34867,1.34584 -0.14652,2.82464 0.54811,4.02802 l 11.1466,19.31933 -11.73269,15.64404 c -1.43403,1.93465 -1.33092,4.85832 0.23471,6.68715 l 8.72083,10.28509 -7.74401,10.01241 c -1.45031,1.87902 -1.43267,4.74843 0.0393,6.60981 l 7.97872,10.12908 0,0.11668 -6.92186,9.22959 c -1.85595,2.48817 -0.91848,6.55283 1.83832,7.97872 16.81487,9.47515 35.06648,18.41848 51.03748,26.6726 1.58734,0.8398 3.60203,0.80859 5.16222,-0.0787 l 45.48453,-25.96712 c 2.74595,-1.56291 3.47314,-5.78223 1.40825,-8.1673 l -7.54864,-8.76018 11.57667,-11.22393 c 2.16121,-2.08117 2.02419,-6.0495 -0.27405,-7.97871 l -10.44248,-8.83887 9.07357,-9.81704 c 1.70537,-1.84239 1.84511,-4.93294 0.3134,-6.92185 l -10.01241,-12.94558 9.57827,-23.58341 c 0.28083,-0.69192 0.41514,-1.44352 0.39072,-2.18971 -0.16009,-24.73117 -1.43674,-56.0993 16.58288,-77.94208 27.17458,-21.23769 44.66237,-54.30847 44.66237,-91.48189 0,-64.1038 -51.93425,-116.078751 -116.03806,-116.078751 m 0,26.048528 c 49.72285,0 90.03023,40.306023 90.03023,90.030223 0,29.47825 -14.19238,55.67873 -36.91565,72.62384 -20.84018,20.93786 -27.16102,64.95581 -26.00783,91.59043 -5.4227,-0.0136 -10.86712,-0.0312 -16.30746,-0.0394 l -0.0393,-104.15341 c 8.34774,-18.87297 12.42732,-21.02333 18.38185,-28.86231 2.68082,-5.90569 0.45449,-11.1059 -6.81061,-12.55349 -4.03209,-0.54946 -8.40065,-1.15048 -12.94557,-1.60361 -2.88976,-0.28762 -6.39139,-0.40701 -10.08974,-0.39073 -11.09776,0.0488 -23.91987,1.39332 -26.7513,3.55861 -1.52221,1.08671 -3.00236,2.18292 -3.83266,4.65346 -0.7299,2.25754 -0.061,4.78099 1.40825,7.43061 8.78867,9.83875 14.63331,15.69424 17.63703,28.11884 l 0,103.86851 c -5.0252,0.0448 -10.06532,0.0977 -15.09594,0.19537 1.21696,-26.64412 -4.98314,-70.87371 -23.6214,-90.34227 -0.0109,-0.007 0.0109,-0.0326 0,-0.0393 l -13.18029,-10.51981 c -13.11516,-10.53744 -25.88572,-35.55896 -25.88572,-63.55163 0,-49.72284 40.30603,-90.030223 90.03023,-90.030223 m -28.50415,65.898703 c -1.98349,0.0896 -3.86794,1.3567 -4.69281,3.16788 -5.10117,11.26057 -12.59961,19.80503 -28.31556,24.55617 l 3.12854,10.40313 c 15.7078,-4.7525 25.53027,-13.99566 31.87417,-24.79494 8.91077,6.39138 16.10532,10.3258 24.28618,10.5198 8.34232,0.19808 16.46891,-3.34832 27.41879,-9.42495 5.92197,11.96876 15.83127,19.436 26.82863,24.16951 l 4.30208,-9.97306 c -11.015,-4.74029 -19.14296,-11.20087 -23.3867,-23.6214 -1.02566,-3.01458 -5.05233,-4.54493 -7.82134,-2.97252 -13.62121,7.84576 -21.23498,11.08962 -27.06333,10.94852 -5.82836,-0.13838 -11.90907,-3.49077 -22.99597,-11.88871 -1.00938,-0.76518 -2.29417,-1.15997 -3.55861,-1.09485 m 80.80471,97.2614 c 0.55895,-0.3351 -0.53047,0.34189 -1.64296,1.01617 l 0,0.0393 1.64296,-1.05551 m -52.52306,101.76563 c 13.8627,-0.0285 27.78509,0.0502 41.68985,0.0394 l -1.29021,3.16788 -72.12187,12.90623 c -0.0977,-0.25641 -0.21571,-0.50469 -0.35138,-0.74347 l -8.44813,-14.62652 c 13.46247,-0.46263 26.96701,-0.71497 40.51767,-0.74347 m 35.58609,15.09594 -1.64296,4.02803 c -0.6892,1.72707 -0.39616,3.80959 0.74347,5.28025 l 4.57613,5.90569 -76.34119,13.76638 -6.60981,-7.82135 6.02237,-8.0167 z m 8.09539,20.96228 0.11668,0.15602 -0.0787,0.0787 -0.0393,-0.23471 m -4.65346,5.31824 -5.04554,5.48105 c -1.96314,2.12051 -1.73522,5.87584 0.46941,7.74401 l 4.53679,3.83266 -74.93022,13.53167 -6.64916,-8.40879 6.64916,-8.68285 z m 4.30208,20.72758 1.32956,1.13419 -0.97818,0.93884 z m -5.24091,7.5093 -4.38077,4.26273 c -1.93464,1.88716 -2.07981,5.30739 -0.31339,7.35193 l 3.3239,3.83266 -64.1445,9.34762 -12.75021,-6.64916 3.48127,-4.61547 z m -13.9224,28.27622 -21.47104,12.27808 -13.68904,-7.15656 z" inkscape:connector-curvature="0" style="color:#000000;fill:#DBDBDB" />
</svg>
