<?xml version="1.0" encoding="UTF-8" standalone="no"?>
<svg xmlns:dc="http://purl.org/dc/elements/1.1/" xmlns:cc="http://creativecommons.org/ns#" xmlns:rdf="http://www.w3.org/1999/02/22-rdf-syntax-ns#" xmlns:svg="http://www.w3.org/2000/svg" xmlns="http://www.w3.org/2000/svg" xmlns:sodipodi="http://sodipodi.sourceforge.net/DTD/sodipodi-0.dtd" xmlns:inkscape="http://www.inkscape.org/namespaces/inkscape" height="512" viewBox="0 0 512 512" width="512" version="1.1" id="svg2" inkscape:version="0.91 r" sodipodi:docname="reload.svg">
<defs id="defs17" />
<sodipodi:namedview pagecolor="#ffffff" bordercolor="#666666" borderopacity="1" objecttolerance="10" gridtolerance="10" guidetolerance="10" inkscape:pageopacity="0" inkscape:pageshadow="2" inkscape:window-width="1680" inkscape:window-height="994" id="namedview15" showgrid="false" inkscape:zoom="1.3037281" inkscape:cx="77.144945" inkscape:cy="244.919" inkscape:window-x="0" inkscape:window-y="0" inkscape:window-maximized="1" inkscape:current-layer="svg2" />
<metadata id="metadata28">
<rdf:RDF>
<cc:Work rdf:about="">
<dc:format>image/svg+xml</dc:format>
<dc:type rdf:resource="http://purl.org/dc/dcmitype/StillImage" />
<dc:title />
</cc:Work>
</rdf:RDF>
</metadata>
<g transform="matrix(4.9436299,0,0,4.9436299,-57.873863,-61.367034)" style="fill:#DBDBDB;fill-opacity:0.9020004" id="g6">
<path inkscape:connector-curvature="0" d="M 102.98047,48.042969 C 96.222656,33.402344 81.117188,24 64.085938,24 46.671875,24 30.757812,34.289062 24.488281,49.597656 L 37.6875,54.402344 c 4.175781,-10.210938 14.789062,-17.066406 26.398438,-17.066406 11.207031,0 21.117187,6.128906 25.707031,15.667968 l -9.628907,3.625 24.624998,13.394532 7.19922,-25.371094 z" id="path8-9" />
<path inkscape:connector-curvature="0" d="m 64.085938,90.675781 c -11.101563,0 -21.226563,-6.316406 -25.753907,-15.792969 L 47.824219,71.425781 23.457031,58.324219 16,83.019531 l 9.085938,-3.3125 c 6.625,14.585938 22.09375,24.300779 39,24.300779 17.480468,0 32.957031,-9.886716 39.429692,-25.183591 L 90.378906,73.882812 C 86.058594,84.082031 75.742188,90.675781 64.085938,90.675781 Z" id="path10" />
</g>
</svg>
