<?xml version="1.0" encoding="UTF-8" standalone="no"?>
<svg
   xmlns:osb="http://www.openswatchbook.org/uri/2009/osb"
   xmlns:dc="http://purl.org/dc/elements/1.1/"
   xmlns:cc="http://creativecommons.org/ns#"
   xmlns:rdf="http://www.w3.org/1999/02/22-rdf-syntax-ns#"
   xmlns:svg="http://www.w3.org/2000/svg"
   xmlns="http://www.w3.org/2000/svg"
   xmlns:sodipodi="http://sodipodi.sourceforge.net/DTD/sodipodi-0.dtd"
   xmlns:inkscape="http://www.inkscape.org/namespaces/inkscape"
   height="512"
   viewBox="0 0 512 512"
   width="512"
   version="1.1"
   id="svg2"
   inkscape:version="0.91 r13725"
   sodipodi:docname="scrivener.svg">
  <defs
     id="defs17">
    <linearGradient
       id="linearGradient5623"
       osb:paint="solid">
      <stop
         style="stop-color:#ffffff;stop-opacity:1;"
         offset="0"
         id="stop5625" />
    </linearGradient>
  </defs>
  <sodipodi:namedview
     pagecolor="#ffffff"
     bordercolor="#666666"
     borderopacity="1"
     objecttolerance="10"
     gridtolerance="10"
     guidetolerance="10"
     inkscape:pageopacity="0"
     inkscape:pageshadow="2"
     inkscape:window-width="1920"
     inkscape:window-height="1052"
     id="namedview15"
     showgrid="false"
     inkscape:zoom="0.6433966"
     inkscape:cx="35.982357"
     inkscape:cy="275.69923"
     inkscape:window-x="1920"
     inkscape:window-y="0"
     inkscape:window-maximized="1"
     inkscape:current-layer="svg2" />
  <metadata
     id="metadata28">
    <rdf:RDF>
      <cc:Work
         rdf:about="">
        <dc:format>image/svg+xml</dc:format>
        <dc:type
           rdf:resource="http://purl.org/dc/dcmitype/StillImage" />
        <dc:title></dc:title>
      </cc:Work>
    </rdf:RDF>
  </metadata>
  <g
     transform="matrix(1.923496,0,0,1.923496,-541.79628,126.58232)"
     id="g4180"
     style="opacity:1;fill:#DBDBDB;fill-opacity:1"
     clip-path="none">
    <g
       transform="matrix(7.8085977,0,0,7.8085977,-2458.308,-739.14767)"
       style="font-style:normal;font-weight:normal;font-size:40px;line-height:125%;font-family:sans-serif;letter-spacing:0px;word-spacing:0px;fill:#DBDBDB;fill-opacity:1;stroke:none;stroke-width:1px;stroke-linecap:butt;stroke-linejoin:miter;stroke-opacity:1"
       id="flowRoot4150">
      <path
         d="m 372.73437,111.23769 q 0,-2.8125 -3.24218,-5 l -5.46875,-3.32031 Q 360.3125,100.37832 360.03906,97.097065 360,96.745503 360,96.433003 q 0,-3.710938 2.92969,-5.703125 1.79687,-1.132813 3.98437,-1.132813 1.75781,0 4.53125,0.976563 0.97656,0.390625 1.44531,0.390625 1.05469,0 1.28907,-1.367188 l 0.85937,0 0.85938,8.515625 -0.97657,0 q -1.44531,-5.3125 -5.35156,-6.5625 -0.9375,-0.3125 -1.99219,-0.3125 -2.69531,0 -3.75,1.992188 -0.39062,0.742187 -0.39062,1.71875 0,2.382812 3.32031,4.6875 1.01563,0.703122 2.53906,1.562502 5.97657,3.20312 7.14844,6.60156 0.35156,0.97656 0.35156,2.10938 0,3.51562 -2.96875,5.625 -2.1875,1.64062 -5.19531,1.64062 -2.07031,0 -4.92187,-0.97656 -1.13282,-0.35156 -1.67969,-0.35156 -0.85938,0 -1.09375,0.97656 -0.0391,0.15625 -0.0391,0.3125 l -0.85938,0 -1.21094,-8.47656 0.9375,0 q 2.46094,6.05468 6.44532,6.91406 0.78125,0.15625 1.60156,0.15625 3.08594,0 4.375,-2.22656 0.54687,-0.97657 0.54687,-2.26563 z"
         style="font-style:normal;font-variant:normal;font-weight:normal;font-stretch:normal;font-family:Rachana;-inkscape-font-specification:Rachana;opacity:1;fill:#DBDBDB;fill-opacity:1"
         id="path5630"
         inkscape:connector-curvature="0" />
    </g>
    <g
       style="font-style:normal;font-weight:normal;font-size:40px;line-height:125%;font-family:sans-serif;letter-spacing:0px;word-spacing:0px;fill:#DBDBDB;fill-opacity:1;stroke:none;stroke-width:1px;stroke-linecap:butt;stroke-linejoin:miter;stroke-opacity:1"
       id="text4158">
      <path
         d="m 415.62711,22.303062 q 3.91113,0 10.37109,-6.811523 6.24023,-6.6357422 6.63574,-11.5136719 0,-5.8886718 -6.45996,-7.4707031 -4.04297,0 -7.29492,2.94433594 -3.03223,2.81249996 -3.25195,6.94335936 -0.0879,1.6699219 1.45019,3.0761719 1.40625,1.2744138 3.69141,1.3183598 2.06543,0.08789 4.39453,-2.4169926 -0.65918,3.7792966 -9.53613,9.8876956 -2.68067,1.098633 -2.68067,2.460937 0,0.395508 0.87891,1.054688 0.21972,0.219726 1.80176,0.527343 z"
         style="font-style:normal;font-variant:normal;font-weight:normal;font-stretch:normal;font-size:90px;font-family:Mallige;-inkscape-font-specification:Mallige;fill:#DBDBDB;fill-opacity:1"
         id="path5633"
         inkscape:connector-curvature="0" />
    </g>
    <g
       transform="matrix(-0.97912696,0.20324958,-0.20324958,-0.97912696,0,0)"
       style="font-style:normal;font-weight:normal;font-size:40px;line-height:125%;font-family:sans-serif;letter-spacing:0px;word-spacing:0px;fill:#DBDBDB;fill-opacity:1;stroke:none;stroke-width:1px;stroke-linecap:butt;stroke-linejoin:miter;stroke-opacity:1"
       id="text4158-4">
      <path
         d="m -379.27197,-189.9357 q 3.91113,0 10.37109,-6.81152 6.24024,-6.63575 6.63574,-11.51367 0,-5.88868 -6.45996,-7.47071 -4.04297,0 -7.29492,2.94434 -3.03223,2.8125 -3.25195,6.94336 -0.0879,1.66992 1.45019,3.07617 1.40625,1.27441 3.69141,1.31836 2.06543,0.0879 4.39453,-2.41699 -0.65918,3.77929 -9.53613,9.88769 -2.68067,1.09863 -2.68067,2.46094 0,0.39551 0.87891,1.05469 0.21973,0.21972 1.80176,0.52734 z"
         style="font-style:normal;font-variant:normal;font-weight:normal;font-stretch:normal;font-size:90px;font-family:Mallige;-inkscape-font-specification:Mallige;fill:#DBDBDB;fill-opacity:1"
         id="path5636"
         inkscape:connector-curvature="0" />
    </g>
  </g>
</svg>
