<?xml version="1.0" encoding="UTF-8" standalone="no"?>
<svg xmlns:dc="http://purl.org/dc/elements/1.1/" xmlns:cc="http://creativecommons.org/ns#" xmlns:rdf="http://www.w3.org/1999/02/22-rdf-syntax-ns#" xmlns:svg="http://www.w3.org/2000/svg" xmlns="http://www.w3.org/2000/svg" xmlns:xlink="http://www.w3.org/1999/xlink" xmlns:sodipodi="http://sodipodi.sourceforge.net/DTD/sodipodi-0.dtd" xmlns:inkscape="http://www.inkscape.org/namespaces/inkscape" height="512" viewBox="0 0 512 512" width="512" version="1.1" id="svg2" inkscape:version="0.91 r" sodipodi:docname="gnome-system.svg">
<defs id="defs17">
<linearGradient x2="47" x1="1" gradientTransform="matrix(0,-1,1,0,-1.5e-6,47.999998)" gradientUnits="userSpaceOnUse" id="linearGradient3260">
<stop id="stop9075" stop-color="#e4e4e4" />
<stop id="stop9077" stop-color="#eee" offset="1" />
</linearGradient>
<radialGradient r="3.6689999" cy="6.7729998" cx="6.7729998" gradientTransform="scale(3.543307,3.543307)" gradientUnits="userSpaceOnUse" id="radialGradient3162" xlink:href="#radial0" />
<radialGradient gradientTransform="scale(3.543307,3.543307)" r="3.6689999" cy="6.7729998" cx="6.7729998" gradientUnits="userSpaceOnUse" id="radial0">
<stop id="stop9055" />
<stop id="stop9057" stop-opacity="0" offset="1" />
</radialGradient>
<radialGradient r="3.6689999" cy="6.7729998" cx="6.7729998" gradientTransform="scale(3.543307,3.543307)" gradientUnits="userSpaceOnUse" id="radialGradient5406" xlink:href="#radial0" />
<radialGradient gradientTransform="scale(3.543307,3.543307)" r="3.6689999" cy="6.7729998" cx="6.7729998" gradientUnits="userSpaceOnUse" id="radialGradient5408">
<stop id="stop5410" />
<stop id="stop5412" stop-opacity="0" offset="1" />
</radialGradient>
<radialGradient r="3.6689999" cy="6.7729998" cx="6.7729998" gradientTransform="scale(3.543307,3.543307)" gradientUnits="userSpaceOnUse" id="radialGradient3164" xlink:href="#radial1" />
<radialGradient gradientTransform="scale(3.543307,3.543307)" r="3.6689999" cy="6.7729998" cx="6.7729998" gradientUnits="userSpaceOnUse" id="radial1">
<stop id="stop9060" stop-opacity="0.251" />
<stop id="stop9062" stop-opacity="0" offset="1" />
</radialGradient>
<radialGradient r="3.6689999" cy="6.7729998" cx="6.7729998" gradientTransform="scale(3.543307,3.543307)" gradientUnits="userSpaceOnUse" id="radialGradient5418" xlink:href="#radial1" />
<radialGradient gradientTransform="scale(3.543307,3.543307)" r="3.6689999" cy="6.7729998" cx="6.7729998" gradientUnits="userSpaceOnUse" id="radialGradient5420">
<stop id="stop5422" stop-opacity="0.251" />
<stop id="stop5424" stop-opacity="0" offset="1" />
</radialGradient>
<radialGradient gradientTransform="matrix(5.31496,0,0,5.31496,-10.999999,-10.499999)" r="0.28200001" cy="5.927" cx="6.2090001" gradientUnits="userSpaceOnUse" id="radial2">
<stop id="stop9065" stop-opacity="0.749" stop-color="#fff" />
<stop id="stop9067" stop-opacity="0" stop-color="#fff" offset="1" />
</radialGradient>
<radialGradient gradientTransform="matrix(5.31496,0,0,5.31496,-10.999999,-10.499999)" r="0.28200001" cy="5.927" cx="6.2090001" gradientUnits="userSpaceOnUse" id="radialGradient5431">
<stop id="stop5433" stop-opacity="0.749" stop-color="#fff" />
<stop id="stop5435" stop-opacity="0" stop-color="#fff" offset="1" />
</radialGradient>
<radialGradient gradientTransform="translate(1.7525759,1.9755815)" id="1" gradientUnits="userSpaceOnUse" cy="253.06" cx="253.03" r="218.88">
<stop stop-color="#fff" stop-opacity="0.628" id="stop12" />
<stop stop-color="#fff" stop-opacity="0" offset="1" id="stop14" />
</radialGradient>
</defs>
<sodipodi:namedview pagecolor="#ffffff" bordercolor="#666666" borderopacity="1" objecttolerance="10" gridtolerance="10" guidetolerance="10" inkscape:pageopacity="0" inkscape:pageshadow="2" inkscape:window-width="1680" inkscape:window-height="994" id="namedview15" showgrid="false" inkscape:zoom="1.3037281" inkscape:cx="26.744141" inkscape:cy="244.919" inkscape:window-x="0" inkscape:window-y="0" inkscape:window-maximized="1" inkscape:current-layer="svg2" />
<metadata id="metadata28">
<rdf:RDF>
<cc:Work rdf:about="">
<dc:format>image/svg+xml</dc:format>
<dc:type rdf:resource="http://purl.org/dc/dcmitype/StillImage" />
<dc:title />
</cc:Work>
</rdf:RDF>
</metadata>
<path inkscape:connector-curvature="0" style="fill:#DBDBDB" d="M 190.31411,40.512902 181.00767,49.776 c -11.39535,7.225912 -3.42979,20.707384 -6.94767,30.984175 -2.02879,5.528494 -6.88055,6.623287 -16.82038,6.816239 -13.34584,-0.404081 -17.01473,3.032702 -22.19647,8.214441 L 79.900829,150.93318 c -4.194608,4.48404 -32.242561,36.29455 -33.99451,88.26854 -0.157997,14.94539 3.287175,64.54105 21.279253,71.265 6.391186,-2.73208 6.859584,-44.72151 16.210764,-69.99403 5.753605,-11.64703 16.375754,-25.671 25.517204,-33.16397 16.50019,-13.33047 40.27243,-17.22167 55.49187,-4.2827 l 72.97221,72.97221 c -8.69682,8.69402 -8.65348,22.67605 0.0433,31.37287 l 141.26043,141.30238 c 8.69543,8.69682 22.67606,8.69682 31.37288,0 l 31.41622,-31.41622 c 8.69682,-8.69682 8.69682,-22.67605 0,-31.37287 L 300.21006,244.58201 c -8.69543,-8.69822 -22.7194,-8.69822 -31.41622,0 l -70.52535,-70.52535 c -13.65066,-10.41242 -9.04917,-33.10945 -0.52433,-42.99474 6.33945,-7.06092 15.62072,-10.09642 25.03622,-11.31705 11.1996,-0.80537 14.5469,-0.69631 23.99316,-10.13697 l 6.29191,-6.29192 -62.74435,-62.787698 m 186.70203,23.027007 c -21.44844,-0.230703 -42.6368,8.045259 -59.07407,24.46855 -21.91404,21.915431 -29.01691,51.985181 -21.58546,79.921271 l -35.26268,35.26268 15.11877,16.12267 c 14.30921,-2.73628 29.51606,-1.36884 40.28642,9.39453 l 20.14251,19.40006 19.44341,-19.40006 c 27.93889,7.43145 58.00025,0.33557 79.92127,-21.58546 21.77561,-21.77561 28.91624,-52.33752 21.71549,-80.131 l -28.83793,28.83793 c -16.66378,16.66378 -43.49809,16.66378 -60.16467,0 -16.66378,-16.66378 -16.66378,-43.49809 0,-60.164664 l 28.7065,-28.706503 c -4.26172,-1.470909 -14.88527,-3.165531 -20.40537,-3.408818 M 196.3096,268.01169 81.083709,383.9311 c -16.414902,16.41909 -16.413503,42.61582 0,59.03212 16.414901,16.4163 42.614421,16.4163 59.032121,0 L 240.21317,342.90783 220.76976,323.46442 c -10.77175,-10.77036 -12.08746,-26.02056 -9.35118,-40.32977 l -15.11876,-15.11876 m -85.68187,124.56589 c 5.3621,0 10.98428,1.62331 15.07402,5.72424 8.18228,8.18088 8.18228,21.35615 0,29.54403 -8.18228,8.18508 -21.31141,8.18228 -29.488096,0 -8.180885,-8.18089 -8.182283,-21.35476 0,-29.53005 4.091146,-4.09114 9.057556,-5.72564 14.419666,-5.72424 z" id="path1944" />
</svg>
