<?xml version="1.0" encoding="UTF-8" standalone="no"?>
<svg
   xmlns:dc="http://purl.org/dc/elements/1.1/"
   xmlns:cc="http://creativecommons.org/ns#"
   xmlns:rdf="http://www.w3.org/1999/02/22-rdf-syntax-ns#"
   xmlns:svg="http://www.w3.org/2000/svg"
   xmlns="http://www.w3.org/2000/svg"
   xmlns:sodipodi="http://sodipodi.sourceforge.net/DTD/sodipodi-0.dtd"
   xmlns:inkscape="http://www.inkscape.org/namespaces/inkscape"
   viewBox="0 0 512 512"
   id="svg2"
   version="1.1"
   inkscape:version="0.91 r"
   sodipodi:docname="skype-call-recorder.svg">
  <metadata
     id="metadata454">
    <rdf:RDF>
      <cc:Work
         rdf:about="">
        <dc:format>image/svg+xml</dc:format>
        <dc:type
           rdf:resource="http://purl.org/dc/dcmitype/StillImage" />
      </cc:Work>
    </rdf:RDF>
  </metadata>
  <defs
     id="defs452" />
  <sodipodi:namedview
     pagecolor="#ffffff"
     bordercolor="#666666"
     borderopacity="1"
     objecttolerance="10"
     gridtolerance="10"
     guidetolerance="10"
     inkscape:pageopacity="0"
     inkscape:pageshadow="2"
     inkscape:window-width="647"
     inkscape:window-height="480"
     id="namedview450"
     showgrid="false"
     inkscape:zoom="0.4609375"
     inkscape:cx="256"
     inkscape:cy="256"
     inkscape:window-x="0"
     inkscape:window-y="0"
     inkscape:window-maximized="0"
     inkscape:current-layer="svg2" />
  <text
     font-size="129.23"
     y="231.36"
     x="729.64"
     font-family="'Gentium Book Basic'"
     line-height="125%"
     word-spacing="0"
     letter-spacing="0"
     id="text4">
    <tspan
       y="231.36"
       x="729.64"
       id="tspan6" />
  </text>
  <text
     transform="scale(4.0128.2492)"
     font-size="46.954"
     y="579.26"
     x="378.91"
     font-family="Arial"
     text-anchor="middle"
     id="text8" />
  <text
     font-size="129.23"
     y="151.36"
     x="1310.91"
     font-family="'Gentium Book Basic'"
     line-height="125%"
     word-spacing="0"
     letter-spacing="0"
     id="text10">
    <tspan
       y="151.36"
       x="1310.91"
       id="tspan12" />
  </text>
  <text
     transform="scale(4.0128.2492)"
     font-size="46.954"
     y="258.22"
     x="523.76"
     font-family="Arial"
     text-anchor="middle"
     id="text14" />
  <text
     font-size="129.23"
     y="-29.9"
     x="239.33"
     font-family="'Gentium Book Basic'"
     line-height="125%"
     word-spacing="0"
     letter-spacing="0"
     id="text16">
    <tspan
       y="-29.9"
       x="239.33"
       id="tspan18" />
  </text>
  <text
     transform="scale(4.0128.2492)"
     font-size="46.954"
     y="-469.13"
     x="256.72"
     font-family="Arial"
     text-anchor="middle"
     id="text20" />
  <text
     font-size="129.23"
     y="-246.37"
     x="1337.38"
     font-family="'Gentium Book Basic'"
     line-height="125%"
     word-spacing="0"
     letter-spacing="0"
     id="text22">
    <tspan
       y="-246.37"
       x="1337.38"
       id="tspan24" />
  </text>
  <text
     transform="scale(4.0128.2492)"
     font-size="46.954"
     y="-1337.8"
     x="530.36"
     font-family="Arial"
     text-anchor="middle"
     id="text26" />
  <text
     font-size="129.23"
     y="-326.37"
     x="1918.65"
     font-family="'Gentium Book Basic'"
     line-height="125%"
     word-spacing="0"
     letter-spacing="0"
     id="text28">
    <tspan
       y="-326.37"
       x="1918.65"
       id="tspan30" />
  </text>
  <text
     transform="scale(4.0128.2492)"
     font-size="46.954"
     y="-1658.83"
     x="675.21"
     font-family="Arial"
     text-anchor="middle"
     id="text32" />
  <text
     font-size="129.23"
     y="-798.77"
     x="1529.53"
     font-family="'Gentium Book Basic'"
     line-height="125%"
     word-spacing="0"
     letter-spacing="0"
     id="text34">
    <tspan
       y="-798.77"
       x="1529.53"
       id="tspan36" />
  </text>
  <text
     transform="scale(4.0128.2492)"
     font-size="46.954"
     y="-3554.48"
     x="578.24"
     font-family="Arial"
     text-anchor="middle"
     id="text38" />
  <text
     font-size="129.23"
     y="-878.78"
     x="2110.79"
     font-family="'Gentium Book Basic'"
     line-height="125%"
     word-spacing="0"
     letter-spacing="0"
     id="text40">
    <tspan
       y="-878.78"
       x="2110.79"
       id="tspan42" />
  </text>
  <text
     transform="scale(4.0128.2492)"
     font-size="46.954"
     y="-3875.52"
     x="723.09"
     font-family="Arial"
     text-anchor="middle"
     id="text44" />
  <g
     font-family="'Gentium Book Basic'"
     line-height="125%"
     word-spacing="0"
     letter-spacing="0"
     id="g46">
    <text
       y="535.94"
       x="277.99"
       font-size="208.33"
       id="text48">
      <tspan
         y="535.94"
         x="277.99"
         id="tspan50" />
    </text>
    <text
       y="231.36"
       x="729.64"
       font-size="129.23"
       id="text52">
      <tspan
         y="231.36"
         x="729.64"
         id="tspan54" />
    </text>
  </g>
  <text
     transform="scale(4.0128.2492)"
     font-size="46.954"
     y="579.26"
     x="378.91"
     font-family="Arial"
     text-anchor="middle"
     id="text56" />
  <text
     font-size="129.23"
     y="151.36"
     x="1310.91"
     font-family="'Gentium Book Basic'"
     line-height="125%"
     word-spacing="0"
     letter-spacing="0"
     id="text58">
    <tspan
       y="151.36"
       x="1310.91"
       id="tspan60" />
  </text>
  <text
     transform="scale(4.0128.2492)"
     font-size="46.954"
     y="258.22"
     x="523.76"
     font-family="Arial"
     text-anchor="middle"
     id="text62" />
  <text
     font-size="129.23"
     y="-29.9"
     x="239.33"
     font-family="'Gentium Book Basic'"
     line-height="125%"
     word-spacing="0"
     letter-spacing="0"
     id="text64">
    <tspan
       y="-29.9"
       x="239.33"
       id="tspan66" />
  </text>
  <text
     transform="scale(4.0128.2492)"
     font-size="46.954"
     y="-469.13"
     x="256.72"
     font-family="Arial"
     text-anchor="middle"
     id="text68" />
  <text
     font-size="129.23"
     y="-246.37"
     x="1337.38"
     font-family="'Gentium Book Basic'"
     line-height="125%"
     word-spacing="0"
     letter-spacing="0"
     id="text70">
    <tspan
       y="-246.37"
       x="1337.38"
       id="tspan72" />
  </text>
  <text
     transform="scale(4.0128.2492)"
     font-size="46.954"
     y="-1337.8"
     x="530.36"
     font-family="Arial"
     text-anchor="middle"
     id="text74" />
  <text
     font-size="129.23"
     y="-326.37"
     x="1918.65"
     font-family="'Gentium Book Basic'"
     line-height="125%"
     word-spacing="0"
     letter-spacing="0"
     id="text76">
    <tspan
       y="-326.37"
       x="1918.65"
       id="tspan78" />
  </text>
  <text
     transform="scale(4.0128.2492)"
     font-size="46.954"
     y="-1658.83"
     x="675.21"
     font-family="Arial"
     text-anchor="middle"
     id="text80" />
  <text
     font-size="129.23"
     y="-798.77"
     x="1529.53"
     font-family="'Gentium Book Basic'"
     line-height="125%"
     word-spacing="0"
     letter-spacing="0"
     id="text82">
    <tspan
       y="-798.77"
       x="1529.53"
       id="tspan84" />
  </text>
  <text
     transform="scale(4.0128.2492)"
     font-size="46.954"
     y="-3554.48"
     x="578.24"
     font-family="Arial"
     text-anchor="middle"
     id="text86" />
  <text
     font-size="129.23"
     y="-878.78"
     x="2110.79"
     font-family="'Gentium Book Basic'"
     line-height="125%"
     word-spacing="0"
     letter-spacing="0"
     id="text88">
    <tspan
       y="-878.78"
       x="2110.79"
       id="tspan90" />
  </text>
  <text
     transform="scale(4.0128.2492)"
     font-size="46.954"
     y="-3875.52"
     x="723.09"
     font-family="Arial"
     text-anchor="middle"
     id="text92" />
  <g
     font-family="'Gentium Book Basic'"
     line-height="125%"
     word-spacing="0"
     letter-spacing="0"
     id="g94">
    <text
       y="535.94"
       x="277.99"
       font-size="208.33"
       id="text96">
      <tspan
         y="535.94"
         x="277.99"
         id="tspan98" />
    </text>
    <text
       y="231.36"
       x="729.64"
       font-size="129.23"
       id="text100">
      <tspan
         y="231.36"
         x="729.64"
         id="tspan102" />
    </text>
  </g>
  <text
     transform="scale(4.0128.2492)"
     font-size="46.954"
     y="579.26"
     x="378.91"
     font-family="Arial"
     text-anchor="middle"
     id="text104" />
  <text
     font-size="129.23"
     y="151.36"
     x="1310.91"
     font-family="'Gentium Book Basic'"
     line-height="125%"
     word-spacing="0"
     letter-spacing="0"
     id="text106">
    <tspan
       y="151.36"
       x="1310.91"
       id="tspan108" />
  </text>
  <text
     transform="scale(4.0128.2492)"
     font-size="46.954"
     y="258.22"
     x="523.76"
     font-family="Arial"
     text-anchor="middle"
     id="text110" />
  <text
     font-size="129.23"
     y="-29.9"
     x="239.33"
     font-family="'Gentium Book Basic'"
     line-height="125%"
     word-spacing="0"
     letter-spacing="0"
     id="text112">
    <tspan
       y="-29.9"
       x="239.33"
       id="tspan114" />
  </text>
  <text
     transform="scale(4.0128.2492)"
     font-size="46.954"
     y="-469.13"
     x="256.72"
     font-family="Arial"
     text-anchor="middle"
     id="text116" />
  <text
     font-size="129.23"
     y="-246.37"
     x="1337.38"
     font-family="'Gentium Book Basic'"
     line-height="125%"
     word-spacing="0"
     letter-spacing="0"
     id="text118">
    <tspan
       y="-246.37"
       x="1337.38"
       id="tspan120" />
  </text>
  <text
     transform="scale(4.0128.2492)"
     font-size="46.954"
     y="-1337.8"
     x="530.36"
     font-family="Arial"
     text-anchor="middle"
     id="text122" />
  <text
     font-size="129.23"
     y="-326.37"
     x="1918.65"
     font-family="'Gentium Book Basic'"
     line-height="125%"
     word-spacing="0"
     letter-spacing="0"
     id="text124">
    <tspan
       y="-326.37"
       x="1918.65"
       id="tspan126" />
  </text>
  <text
     transform="scale(4.0128.2492)"
     font-size="46.954"
     y="-1658.83"
     x="675.21"
     font-family="Arial"
     text-anchor="middle"
     id="text128" />
  <text
     font-size="129.23"
     y="-798.77"
     x="1529.53"
     font-family="'Gentium Book Basic'"
     line-height="125%"
     word-spacing="0"
     letter-spacing="0"
     id="text130">
    <tspan
       y="-798.77"
       x="1529.53"
       id="tspan132" />
  </text>
  <text
     transform="scale(4.0128.2492)"
     font-size="46.954"
     y="-3554.48"
     x="578.24"
     font-family="Arial"
     text-anchor="middle"
     id="text134" />
  <text
     font-size="129.23"
     y="-878.78"
     x="2110.79"
     font-family="'Gentium Book Basic'"
     line-height="125%"
     word-spacing="0"
     letter-spacing="0"
     id="text136">
    <tspan
       y="-878.78"
       x="2110.79"
       id="tspan138" />
  </text>
  <text
     transform="scale(4.0128.2492)"
     font-size="46.954"
     y="-3875.52"
     x="723.09"
     font-family="Arial"
     text-anchor="middle"
     id="text140" />
  <g
     font-family="'Gentium Book Basic'"
     line-height="125%"
     word-spacing="0"
     letter-spacing="0"
     id="g142">
    <text
       y="535.94"
       x="277.99"
       font-size="208.33"
       id="text144">
      <tspan
         y="535.94"
         x="277.99"
         id="tspan146" />
    </text>
    <text
       y="231.36"
       x="729.64"
       font-size="129.23"
       id="text148">
      <tspan
         y="231.36"
         x="729.64"
         id="tspan150" />
    </text>
  </g>
  <text
     transform="scale(4.0128.2492)"
     font-size="46.954"
     y="579.26"
     x="378.91"
     font-family="Arial"
     text-anchor="middle"
     id="text152" />
  <text
     font-size="129.23"
     y="151.36"
     x="1310.91"
     font-family="'Gentium Book Basic'"
     line-height="125%"
     word-spacing="0"
     letter-spacing="0"
     id="text154">
    <tspan
       y="151.36"
       x="1310.91"
       id="tspan156" />
  </text>
  <text
     transform="scale(4.0128.2492)"
     font-size="46.954"
     y="258.22"
     x="523.76"
     font-family="Arial"
     text-anchor="middle"
     id="text158" />
  <text
     font-size="129.23"
     y="-29.9"
     x="239.33"
     font-family="'Gentium Book Basic'"
     line-height="125%"
     word-spacing="0"
     letter-spacing="0"
     id="text160">
    <tspan
       y="-29.9"
       x="239.33"
       id="tspan162" />
  </text>
  <text
     transform="scale(4.0128.2492)"
     font-size="46.954"
     y="-469.13"
     x="256.72"
     font-family="Arial"
     text-anchor="middle"
     id="text164" />
  <text
     font-size="129.23"
     y="-246.37"
     x="1337.38"
     font-family="'Gentium Book Basic'"
     line-height="125%"
     word-spacing="0"
     letter-spacing="0"
     id="text166">
    <tspan
       y="-246.37"
       x="1337.38"
       id="tspan168" />
  </text>
  <text
     transform="scale(4.0128.2492)"
     font-size="46.954"
     y="-1337.8"
     x="530.36"
     font-family="Arial"
     text-anchor="middle"
     id="text170" />
  <text
     font-size="129.23"
     y="-326.37"
     x="1918.65"
     font-family="'Gentium Book Basic'"
     line-height="125%"
     word-spacing="0"
     letter-spacing="0"
     id="text172">
    <tspan
       y="-326.37"
       x="1918.65"
       id="tspan174" />
  </text>
  <text
     transform="scale(4.0128.2492)"
     font-size="46.954"
     y="-1658.83"
     x="675.21"
     font-family="Arial"
     text-anchor="middle"
     id="text176" />
  <text
     font-size="129.23"
     y="-798.77"
     x="1529.53"
     font-family="'Gentium Book Basic'"
     line-height="125%"
     word-spacing="0"
     letter-spacing="0"
     id="text178">
    <tspan
       y="-798.77"
       x="1529.53"
       id="tspan180" />
  </text>
  <text
     transform="scale(4.0128.2492)"
     font-size="46.954"
     y="-3554.48"
     x="578.24"
     font-family="Arial"
     text-anchor="middle"
     id="text182" />
  <text
     font-size="129.23"
     y="-878.78"
     x="2110.79"
     font-family="'Gentium Book Basic'"
     line-height="125%"
     word-spacing="0"
     letter-spacing="0"
     id="text184">
    <tspan
       y="-878.78"
       x="2110.79"
       id="tspan186" />
  </text>
  <text
     transform="scale(4.0128.2492)"
     font-size="46.954"
     y="-3875.52"
     x="723.09"
     font-family="Arial"
     text-anchor="middle"
     id="text188" />
  <g
     font-family="'Gentium Book Basic'"
     line-height="125%"
     word-spacing="0"
     letter-spacing="0"
     id="g190">
    <text
       y="535.94"
       x="277.99"
       font-size="208.33"
       id="text192">
      <tspan
         y="535.94"
         x="277.99"
         id="tspan194" />
    </text>
    <text
       y="231.36"
       x="729.64"
       font-size="129.23"
       id="text196">
      <tspan
         y="231.36"
         x="729.64"
         id="tspan198" />
    </text>
  </g>
  <text
     transform="scale(4.0128.2492)"
     font-size="46.954"
     y="579.26"
     x="378.91"
     font-family="Arial"
     text-anchor="middle"
     id="text200" />
  <text
     font-size="129.23"
     y="151.36"
     x="1310.91"
     font-family="'Gentium Book Basic'"
     line-height="125%"
     word-spacing="0"
     letter-spacing="0"
     id="text202">
    <tspan
       y="151.36"
       x="1310.91"
       id="tspan204" />
  </text>
  <text
     transform="scale(4.0128.2492)"
     font-size="46.954"
     y="258.22"
     x="523.76"
     font-family="Arial"
     text-anchor="middle"
     id="text206" />
  <text
     font-size="129.23"
     y="-29.9"
     x="239.33"
     font-family="'Gentium Book Basic'"
     line-height="125%"
     word-spacing="0"
     letter-spacing="0"
     id="text208">
    <tspan
       y="-29.9"
       x="239.33"
       id="tspan210" />
  </text>
  <text
     transform="scale(4.0128.2492)"
     font-size="46.954"
     y="-469.13"
     x="256.72"
     font-family="Arial"
     text-anchor="middle"
     id="text212" />
  <text
     font-size="129.23"
     y="-246.37"
     x="1337.38"
     font-family="'Gentium Book Basic'"
     line-height="125%"
     word-spacing="0"
     letter-spacing="0"
     id="text214">
    <tspan
       y="-246.37"
       x="1337.38"
       id="tspan216" />
  </text>
  <text
     transform="scale(4.0128.2492)"
     font-size="46.954"
     y="-1337.8"
     x="530.36"
     font-family="Arial"
     text-anchor="middle"
     id="text218" />
  <text
     font-size="129.23"
     y="-326.37"
     x="1918.65"
     font-family="'Gentium Book Basic'"
     line-height="125%"
     word-spacing="0"
     letter-spacing="0"
     id="text220">
    <tspan
       y="-326.37"
       x="1918.65"
       id="tspan222" />
  </text>
  <text
     transform="scale(4.0128.2492)"
     font-size="46.954"
     y="-1658.83"
     x="675.21"
     font-family="Arial"
     text-anchor="middle"
     id="text224" />
  <text
     font-size="129.23"
     y="-798.77"
     x="1529.53"
     font-family="'Gentium Book Basic'"
     line-height="125%"
     word-spacing="0"
     letter-spacing="0"
     id="text226">
    <tspan
       y="-798.77"
       x="1529.53"
       id="tspan228" />
  </text>
  <text
     transform="scale(4.0128.2492)"
     font-size="46.954"
     y="-3554.48"
     x="578.24"
     font-family="Arial"
     text-anchor="middle"
     id="text230" />
  <text
     font-size="129.23"
     y="-878.78"
     x="2110.79"
     font-family="'Gentium Book Basic'"
     line-height="125%"
     word-spacing="0"
     letter-spacing="0"
     id="text232">
    <tspan
       y="-878.78"
       x="2110.79"
       id="tspan234" />
  </text>
  <text
     transform="scale(4.0128.2492)"
     font-size="46.954"
     y="-3875.52"
     x="723.09"
     font-family="Arial"
     text-anchor="middle"
     id="text236" />
  <text
     font-size="208.33"
     y="535.94"
     x="277.99"
     font-family="'Gentium Book Basic'"
     line-height="125%"
     word-spacing="0"
     letter-spacing="0"
     id="text238">
    <tspan
       y="535.94"
       x="277.99"
       id="tspan240" />
  </text>
  <text
     font-size="129.23"
     y="231.36"
     x="729.64"
     font-family="'Gentium Book Basic'"
     line-height="125%"
     word-spacing="0"
     letter-spacing="0"
     id="text256">
    <tspan
       y="231.36"
       x="729.64"
       id="tspan258" />
  </text>
  <text
     transform="scale(4.0128.2492)"
     font-size="46.954"
     y="579.26"
     x="378.91"
     font-family="Arial"
     text-anchor="middle"
     id="text260" />
  <text
     font-size="129.23"
     y="151.36"
     x="1310.91"
     font-family="'Gentium Book Basic'"
     line-height="125%"
     word-spacing="0"
     letter-spacing="0"
     id="text262">
    <tspan
       y="151.36"
       x="1310.91"
       id="tspan264" />
  </text>
  <text
     transform="scale(4.0128.2492)"
     font-size="46.954"
     y="258.22"
     x="523.76"
     font-family="Arial"
     text-anchor="middle"
     id="text266" />
  <text
     font-size="129.23"
     y="-29.9"
     x="239.33"
     font-family="'Gentium Book Basic'"
     line-height="125%"
     word-spacing="0"
     letter-spacing="0"
     id="text268">
    <tspan
       y="-29.9"
       x="239.33"
       id="tspan270" />
  </text>
  <text
     transform="scale(4.0128.2492)"
     font-size="46.954"
     y="-469.13"
     x="256.72"
     font-family="Arial"
     text-anchor="middle"
     id="text272" />
  <text
     font-size="129.23"
     y="-246.37"
     x="1337.38"
     font-family="'Gentium Book Basic'"
     line-height="125%"
     word-spacing="0"
     letter-spacing="0"
     id="text274">
    <tspan
       y="-246.37"
       x="1337.38"
       id="tspan276" />
  </text>
  <text
     transform="scale(4.0128.2492)"
     font-size="46.954"
     y="-1337.8"
     x="530.36"
     font-family="Arial"
     text-anchor="middle"
     id="text278" />
  <text
     font-size="129.23"
     y="-326.37"
     x="1918.65"
     font-family="'Gentium Book Basic'"
     line-height="125%"
     word-spacing="0"
     letter-spacing="0"
     id="text280">
    <tspan
       y="-326.37"
       x="1918.65"
       id="tspan282" />
  </text>
  <text
     transform="scale(4.0128.2492)"
     font-size="46.954"
     y="-1658.83"
     x="675.21"
     font-family="Arial"
     text-anchor="middle"
     id="text284" />
  <text
     font-size="129.23"
     y="-798.77"
     x="1529.53"
     font-family="'Gentium Book Basic'"
     line-height="125%"
     word-spacing="0"
     letter-spacing="0"
     id="text286">
    <tspan
       y="-798.77"
       x="1529.53"
       id="tspan288" />
  </text>
  <text
     transform="scale(4.0128.2492)"
     font-size="46.954"
     y="-3554.48"
     x="578.24"
     font-family="Arial"
     text-anchor="middle"
     id="text290" />
  <text
     font-size="129.23"
     y="-878.78"
     x="2110.79"
     font-family="'Gentium Book Basic'"
     line-height="125%"
     word-spacing="0"
     letter-spacing="0"
     id="text292">
    <tspan
       y="-878.78"
       x="2110.79"
       id="tspan294" />
  </text>
  <text
     transform="scale(4.0128.2492)"
     font-size="46.954"
     y="-3875.52"
     x="723.09"
     font-family="Arial"
     text-anchor="middle"
     id="text296" />
  <g
     font-family="'Gentium Book Basic'"
     line-height="125%"
     word-spacing="0"
     letter-spacing="0"
     id="g298">
    <text
       y="535.94"
       x="277.99"
       font-size="208.33"
       id="text300">
      <tspan
         y="535.94"
         x="277.99"
         id="tspan302" />
    </text>
    <text
       y="260.32"
       x="13.421"
       font-size="129.23"
       id="text304">
      <tspan
         y="260.32"
         x="13.421"
         id="tspan306" />
    </text>
  </g>
  <text
     transform="scale(4.0128.2492)"
     font-size="46.954"
     y="695.45"
     x="200.43"
     font-family="Arial"
     text-anchor="middle"
     id="text308" />
  <text
     font-size="129.23"
     y="180.32"
     x="594.69"
     font-family="'Gentium Book Basic'"
     line-height="125%"
     word-spacing="0"
     letter-spacing="0"
     id="text310">
    <tspan
       y="180.32"
       x="594.69"
       id="tspan312" />
  </text>
  <text
     transform="scale(4.0128.2492)"
     font-size="46.954"
     y="374.43"
     x="345.27"
     font-family="Arial"
     text-anchor="middle"
     id="text314" />
  <text
     font-size="129.23"
     y="-0.942"
     x="-476.89"
     font-family="'Gentium Book Basic'"
     line-height="125%"
     word-spacing="0"
     letter-spacing="0"
     id="text316">
    <tspan
       y="-0.942"
       x="-476.89"
       id="tspan318" />
  </text>
  <text
     transform="scale(4.0128.2492)"
     font-size="46.954"
     y="-352.93"
     x="78.24"
     font-family="Arial"
     text-anchor="middle"
     id="text320" />
  <text
     font-size="129.23"
     y="-217.41"
     x="621.16"
     font-family="'Gentium Book Basic'"
     line-height="125%"
     word-spacing="0"
     letter-spacing="0"
     id="text322">
    <tspan
       y="-217.41"
       x="621.16"
       id="tspan324" />
  </text>
  <text
     transform="scale(4.0128.2492)"
     font-size="46.954"
     y="-1221.6"
     x="351.87"
     font-family="Arial"
     text-anchor="middle"
     id="text326" />
  <text
     font-size="129.23"
     y="-297.42"
     x="1202.43"
     font-family="'Gentium Book Basic'"
     line-height="125%"
     word-spacing="0"
     letter-spacing="0"
     id="text328">
    <tspan
       y="-297.42"
       x="1202.43"
       id="tspan330" />
  </text>
  <text
     transform="scale(4.0128.2492)"
     font-size="46.954"
     y="-1542.63"
     x="496.72"
     font-family="Arial"
     text-anchor="middle"
     id="text332" />
  <text
     font-size="129.23"
     y="-769.82"
     x="813.31"
     font-family="'Gentium Book Basic'"
     line-height="125%"
     word-spacing="0"
     letter-spacing="0"
     id="text334">
    <tspan
       y="-769.82"
       x="813.31"
       id="tspan336" />
  </text>
  <text
     transform="scale(4.0128.2492)"
     font-size="46.954"
     y="-3438.29"
     x="399.75"
     font-family="Arial"
     text-anchor="middle"
     id="text338" />
  <text
     font-size="129.23"
     y="-849.82"
     x="1394.57"
     font-family="'Gentium Book Basic'"
     line-height="125%"
     word-spacing="0"
     letter-spacing="0"
     id="text340">
    <tspan
       y="-849.82"
       x="1394.57"
       id="tspan342" />
  </text>
  <text
     transform="scale(4.0128.2492)"
     font-size="46.954"
     y="-3759.31"
     x="544.6"
     font-family="Arial"
     text-anchor="middle"
     id="text344" />
  <g
     font-family="'Gentium Book Basic'"
     line-height="125%"
     word-spacing="0"
     letter-spacing="0"
     id="g346">
    <text
       y="564.9"
       x="-438.23"
       font-size="208.33"
       id="text348">
      <tspan
         y="564.9"
         x="-438.23"
         id="tspan350" />
    </text>
    <text
       y="260.32"
       x="13.421"
       font-size="129.23"
       id="text352">
      <tspan
         y="260.32"
         x="13.421"
         id="tspan354" />
    </text>
  </g>
  <text
     transform="scale(4.0128.2492)"
     font-size="46.954"
     y="695.45"
     x="200.43"
     font-family="Arial"
     text-anchor="middle"
     id="text356" />
  <text
     font-size="129.23"
     y="180.32"
     x="594.69"
     font-family="'Gentium Book Basic'"
     line-height="125%"
     word-spacing="0"
     letter-spacing="0"
     id="text358">
    <tspan
       y="180.32"
       x="594.69"
       id="tspan360" />
  </text>
  <text
     transform="scale(4.0128.2492)"
     font-size="46.954"
     y="374.43"
     x="345.27"
     font-family="Arial"
     text-anchor="middle"
     id="text362" />
  <text
     font-size="129.23"
     y="-0.942"
     x="-476.89"
     font-family="'Gentium Book Basic'"
     line-height="125%"
     word-spacing="0"
     letter-spacing="0"
     id="text364">
    <tspan
       y="-0.942"
       x="-476.89"
       id="tspan366" />
  </text>
  <text
     transform="scale(4.0128.2492)"
     font-size="46.954"
     y="-352.93"
     x="78.24"
     font-family="Arial"
     text-anchor="middle"
     id="text368" />
  <text
     font-size="129.23"
     y="-217.41"
     x="621.16"
     font-family="'Gentium Book Basic'"
     line-height="125%"
     word-spacing="0"
     letter-spacing="0"
     id="text370">
    <tspan
       y="-217.41"
       x="621.16"
       id="tspan372" />
  </text>
  <text
     transform="scale(4.0128.2492)"
     font-size="46.954"
     y="-1221.59"
     x="351.87"
     font-family="Arial"
     text-anchor="middle"
     id="text374" />
  <text
     font-size="129.23"
     y="-297.42"
     x="1202.43"
     font-family="'Gentium Book Basic'"
     line-height="125%"
     word-spacing="0"
     letter-spacing="0"
     id="text376">
    <tspan
       y="-297.42"
       x="1202.43"
       id="tspan378" />
  </text>
  <text
     transform="scale(4.0128.2492)"
     font-size="46.954"
     y="-1542.62"
     x="496.72"
     font-family="Arial"
     text-anchor="middle"
     id="text380" />
  <text
     font-size="129.23"
     y="-769.82"
     x="813.31"
     font-family="'Gentium Book Basic'"
     line-height="125%"
     word-spacing="0"
     letter-spacing="0"
     id="text382">
    <tspan
       y="-769.82"
       x="813.31"
       id="tspan384" />
  </text>
  <text
     transform="scale(4.0128.2492)"
     font-size="46.954"
     y="-3438.27"
     x="399.75"
     font-family="Arial"
     text-anchor="middle"
     id="text386" />
  <text
     font-size="129.23"
     y="-849.82"
     x="1394.57"
     font-family="'Gentium Book Basic'"
     line-height="125%"
     word-spacing="0"
     letter-spacing="0"
     id="text388">
    <tspan
       y="-849.82"
       x="1394.57"
       id="tspan390" />
  </text>
  <text
     transform="scale(4.0128.2492)"
     font-size="46.954"
     y="-3759.29"
     x="544.6"
     font-family="Arial"
     text-anchor="middle"
     id="text392" />
  <g
     font-family="'Gentium Book Basic'"
     line-height="125%"
     word-spacing="0"
     letter-spacing="0"
     id="g394">
    <text
       y="564.9"
       x="-438.23"
       font-size="208.33"
       id="text396">
      <tspan
         y="564.9"
         x="-438.23"
         id="tspan398" />
    </text>
    <text
       y="2.596"
       x="1357.26"
       font-size="129.23"
       id="text400">
      <tspan
         y="2.596"
         x="1357.26"
         id="tspan402" />
    </text>
  </g>
  <text
     transform="scale(4.0128.2492)"
     font-size="46.954"
     y="-338.73"
     x="535.31"
     font-family="Arial"
     text-anchor="middle"
     id="text404" />
  <text
     font-size="129.23"
     y="-77.4"
     x="1938.53"
     font-family="'Gentium Book Basic'"
     line-height="125%"
     word-spacing="0"
     letter-spacing="0"
     id="text406">
    <tspan
       y="-77.4"
       x="1938.53"
       id="tspan408" />
  </text>
  <text
     transform="scale(4.0128.2492)"
     font-size="46.954"
     y="-659.77"
     x="680.16"
     font-family="Arial"
     text-anchor="middle"
     id="text410" />
  <text
     font-size="129.23"
     y="-258.66"
     x="866.95"
     font-family="'Gentium Book Basic'"
     line-height="125%"
     word-spacing="0"
     letter-spacing="0"
     id="text412">
    <tspan
       y="-258.66"
       x="866.95"
       id="tspan414" />
  </text>
  <text
     transform="scale(4.0128.2492)"
     font-size="46.954"
     y="-1387.11"
     x="413.12"
     font-family="Arial"
     text-anchor="middle"
     id="text416" />
  <text
     font-size="129.23"
     y="-475.13"
     x="1965"
     font-family="'Gentium Book Basic'"
     line-height="125%"
     word-spacing="0"
     letter-spacing="0"
     id="text418">
    <tspan
       y="-475.13"
       x="1965"
       id="tspan420" />
  </text>
  <text
     transform="scale(4.0128.2492)"
     font-size="46.954"
     y="-2255.79"
     x="686.76"
     font-family="Arial"
     text-anchor="middle"
     id="text422" />
  <text
     font-size="129.23"
     y="-555.13"
     x="2546.27"
     font-family="'Gentium Book Basic'"
     line-height="125%"
     word-spacing="0"
     letter-spacing="0"
     id="text424">
    <tspan
       y="-555.13"
       x="2546.27"
       id="tspan426" />
  </text>
  <text
     transform="scale(4.0128.2492)"
     font-size="46.954"
     y="-2576.82"
     x="831.61"
     font-family="Arial"
     text-anchor="middle"
     id="text428" />
  <text
     font-size="129.23"
     y="-1027.53"
     x="2157.15"
     font-family="'Gentium Book Basic'"
     line-height="125%"
     word-spacing="0"
     letter-spacing="0"
     id="text430">
    <tspan
       y="-1027.53"
       x="2157.15"
       id="tspan432" />
  </text>
  <text
     transform="scale(4.0128.2492)"
     font-size="46.954"
     y="-4472.47"
     x="734.64"
     font-family="Arial"
     text-anchor="middle"
     id="text434" />
  <text
     font-size="129.23"
     y="-1107.54"
     x="2738.41"
     font-family="'Gentium Book Basic'"
     line-height="125%"
     word-spacing="0"
     letter-spacing="0"
     id="text436">
    <tspan
       y="-1107.54"
       x="2738.41"
       id="tspan438" />
  </text>
  <text
     transform="scale(4.0128.2492)"
     font-size="46.954"
     y="-4793.51"
     x="879.49"
     font-family="Arial"
     text-anchor="middle"
     id="text440" />
  <text
     font-size="208.33"
     y="307.18"
     x="905.61"
     font-family="'Gentium Book Basic'"
     line-height="125%"
     word-spacing="0"
     letter-spacing="0"
     id="text442">
    <tspan
       y="307.18"
       x="905.61"
       id="tspan444" />
  </text>
  <path
     d="m198.6 125.77c-39.24 0-71.03 31.799-71.03 71.03 0 13.12 3.561 25.383 9.758 35.927-1.625 7.958-2.469 16.202-2.469 24.641 0 67.66 54.842 122.5 122.5 122.5 7.663 0 15.16-0.7 22.431-2.046 10 5.376 21.426 8.418 33.576 8.418 39.24 0 71.06-31.795 71.06-71.03 0-11.336-2.66-22.05-7.383-31.554 1.852-8.47 2.822-17.262 2.822-26.287 0-67.66-54.842-122.5-122.5-122.5-7.143 0-14.14 0.613-20.95 1.787-10.949-6.896-23.913-10.886-37.808-10.886m57.935 45.4c10.94 0 20.563 1.265 28.591 3.762 8.08 2.514 14.895 5.908 20.244 10.09 5.387 4.208 9.381 8.724 11.897 13.402 2.542 4.725 3.833 9.418 3.833 13.967 0 4.377-1.674 8.36-5.01 11.827-3.355 3.489-7.609 5.243-12.603 5.243-4.537 0-8.07-1.109-10.534-3.292-2.292-2.027-4.673-5.165-7.312-9.711-3.055-5.804-6.763-10.39-11-13.614-4.116-3.132-11-4.726-20.456-4.726-8.782 0-15.907 1.766-21.21 5.243-5.11 3.35-7.595 7.182-7.595 11.733 0 2.791 0.801 5.141 2.445 7.148 1.741 2.127 4.185 3.996 7.289 5.549 3.22 1.618 6.529 2.891 9.852 3.809 3.405 0.945 9.12 2.351 16.953 4.162 9.913 2.128 19.03 4.502 27.09 7.08 8.157 2.611 15.201 5.83 20.95 9.57 5.868 3.822 10.528 8.743 13.825 14.601 3.306 5.88 4.985 13.13 4.985 21.561 0 10.09-2.895 19.294-8.582 27.345-5.667 8.02-14.03 14.37-24.876 18.881-10.744 4.465-23.643 6.725-38.3 6.725-17.594 0-32.34-3.085-43.851-9.193-8.231-4.446-15.02-10.461-20.17-17.893-5.204-7.506-7.83-14.966-7.83-22.15 0-4.489 1.712-8.383 5.102-11.568 3.356-3.157 7.662-4.75 12.791-4.75 4.21 0 7.841 1.267 10.792 3.762 2.82 2.39 5.228 5.92 7.171 10.487 2.171 4.972 4.53 9.178 7.03 12.485 2.402 3.181 5.859 5.86 10.275 7.947 4.44 2.103 10.434 3.151 17.799 3.151 10.128 0 18.443-2.155 24.688-6.419 6.101-4.165 9.05-9.162 9.05-15.283 0-4.836-1.542-8.633-4.726-11.615-3.333-3.117-7.733-5.553-13.07-7.218-5.569-1.735-13.13-3.615-22.478-5.572-12.713-2.723-23.504-5.94-32.09-9.593-8.785-3.738-15.864-8.917-21.04-15.401-5.26-6.582-7.924-14.838-7.924-24.547 0-9.254 2.78-17.61 8.3-24.806 5.478-7.145 13.494-12.697 23.795-16.506 10.166-3.76 22.243-5.667 35.927-5.667"
     fill="#DBDBDB"
     id="path448" />
</svg>
