<?xml version="1.0" encoding="UTF-8" standalone="no"?>
<svg
   xmlns:dc="http://purl.org/dc/elements/1.1/"
   xmlns:cc="http://creativecommons.org/ns#"
   xmlns:rdf="http://www.w3.org/1999/02/22-rdf-syntax-ns#"
   xmlns:svg="http://www.w3.org/2000/svg"
   xmlns="http://www.w3.org/2000/svg"
   xmlns:sodipodi="http://sodipodi.sourceforge.net/DTD/sodipodi-0.dtd"
   xmlns:inkscape="http://www.inkscape.org/namespaces/inkscape"
   height="512"
   viewBox="0 0 512 512"
   width="512"
   version="1.1"
   id="svg2"
   inkscape:version="0.91 r13725"
   sodipodi:docname="synaptics.svg">
  <sodipodi:namedview
     pagecolor="#ffffff"
     bordercolor="#666666"
     borderopacity="1"
     objecttolerance="10"
     gridtolerance="10"
     guidetolerance="10"
     inkscape:pageopacity="0"
     inkscape:pageshadow="2"
     inkscape:window-width="1920"
     inkscape:window-height="1021"
     id="namedview15"
     showgrid="false"
     inkscape:zoom="2.1312512"
     inkscape:cx="352.63005"
     inkscape:cy="288.84215"
     inkscape:window-x="0"
     inkscape:window-y="0"
     inkscape:window-maximized="1"
     inkscape:current-layer="svg2" />
  <defs
     id="defs17" />
  <metadata
     id="metadata28">
    <rdf:RDF>
      <cc:Work
         rdf:about="">
        <dc:format>image/svg+xml</dc:format>
        <dc:type
           rdf:resource="http://purl.org/dc/dcmitype/StillImage" />
        <dc:title></dc:title>
      </cc:Work>
    </rdf:RDF>
  </metadata>
  <path
     id="rect2985"
     d="m 114.56664,77.551637 c -21.833732,0 -39.411411,17.577694 -39.411411,39.411393 l 0,272.17187 c 0,21.83377 17.577679,39.41146 39.411411,39.41146 l 276.94672,0 c 21.83372,0 39.41141,-17.57769 39.41141,-39.41146 l 0,-272.17187 c 0,-21.833699 -17.57769,-39.411393 -39.41141,-39.411393 l -111.25619,0 c 0.89403,0.03549 1.60642,0.760548 1.60642,1.663569 l 0,29.918904 c 0,0.92567 -0.74425,1.6699 -1.66992,1.6699 l -57.31069,0 c -0.92566,0 -1.66993,-0.74423 -1.66993,-1.6699 l 0,-29.918904 c 0,-0.903205 0.71208,-1.628629 1.60642,-1.663569 l -108.25283,0 z M 250.7891,167.87344 c 20.67392,0.001 40.95848,8.29099 55.52014,23.00428 16.62371,16.79683 25.12606,41.01544 22.43916,63.91422 -3.57837,30.49663 -22.75636,54.81163 -51.62788,65.45711 -12.26833,4.52359 -25.78961,5.77738 -39.2654,3.64462 -15.05701,-2.38299 -31.98101,-11.13362 -42.96714,-22.21695 -16.41827,-16.5635 -24.91554,-40.87798 -22.24234,-63.66022 4.34863,-37.06119 32.50271,-65.36048 69.27953,-69.63509 2.95393,-0.34334 5.9105,-0.50827 8.86393,-0.50797 z m -0.0888,16.11506 c -8.06987,0.0163 -10.61391,0.36694 -16.57858,2.27949 -15.80943,5.06925 -27.80537,14.537 -36.89067,29.11251 -8.85303,14.2029 -11.3995,29.71172 -7.41624,45.17042 6.07307,23.56881 28.24355,43.86346 52.39618,47.96422 7.41566,1.25908 17.89074,0.23994 26.33146,-2.55884 21.03818,-6.97554 38.0779,-25.44378 43.55133,-47.20227 1.44942,-5.76196 1.45652,-18.92324 0.0141,-24.80122 -5.30713,-21.6074 -22.4099,-40.05164 -43.81801,-47.26577 -7.27687,-2.45215 -8.98494,-2.71439 -17.58813,-2.69854 z m 0,19.13744 c 3.07924,0 6.15969,0.0575 8.49564,0.17132 l 8.48932,0.41272 0.41908,16.98495 0.4127,16.99131 12.84506,0.21587 c 7.06494,0.11835 13.34208,0.39837 13.9499,0.62223 1.38186,0.50897 -0.94006,3.47675 -12.0133,15.37218 -4.48332,4.81622 -13.52581,14.60591 -20.09621,21.75342 -6.57037,7.14753 -12.19682,12.99747 -12.50219,12.99747 -0.30525,0 -5.93176,-5.84994 -12.50218,-12.99747 -6.57039,-7.14751 -15.61284,-16.9372 -20.09619,-21.75342 -11.07326,-11.89543 -13.39517,-14.86321 -12.0133,-15.37218 0.60781,-0.22399 6.88495,-0.50396 13.94988,-0.62223 l 12.84507,-0.21587 0.41271,-16.99131 0.41273,-16.98495 8.49565,-0.41272 c 2.33597,-0.11368 5.41641,-0.17132 8.49563,-0.17132 z m -28.50297,192.12354 57.31072,0 c 0.92566,0 1.66992,0.74427 1.66992,1.66994 l 0,29.91893 c 0,0.92568 -0.74426,1.66992 -1.66992,1.66992 l -57.31072,0 c -0.92564,0 -1.66991,-0.74424 -1.66991,-1.66992 l 0,-29.91893 c 0,-0.92567 0.74427,-1.66994 1.66991,-1.66994 z"
     style="fill:#DBDBDB;fill-opacity:1;fill-rule:evenodd;stroke:none"
     inkscape:connector-curvature="0" />
</svg>
