<?xml version="1.0" encoding="UTF-8" standalone="no"?>
<svg
   xmlns:dc="http://purl.org/dc/elements/1.1/"
   xmlns:cc="http://creativecommons.org/ns#"
   xmlns:rdf="http://www.w3.org/1999/02/22-rdf-syntax-ns#"
   xmlns:svg="http://www.w3.org/2000/svg"
   xmlns="http://www.w3.org/2000/svg"
   xmlns:sodipodi="http://sodipodi.sourceforge.net/DTD/sodipodi-0.dtd"
   xmlns:inkscape="http://www.inkscape.org/namespaces/inkscape"
   height="512"
   viewBox="0 0 512 512"
   width="512"
   version="1.1"
   id="svg2"
   inkscape:version="0.91 r13725"
   sodipodi:docname="input-keyboard.svg">
  <defs
     id="defs27" />
  <sodipodi:namedview
     pagecolor="#ffffff"
     bordercolor="#666666"
     borderopacity="1"
     objecttolerance="10"
     gridtolerance="10"
     guidetolerance="10"
     inkscape:pageopacity="0"
     inkscape:pageshadow="2"
     inkscape:window-width="711"
     inkscape:window-height="480"
     id="namedview25"
     showgrid="false"
     inkscape:zoom="0.4609375"
     inkscape:cx="256"
     inkscape:cy="256"
     inkscape:window-x="0"
     inkscape:window-y="25"
     inkscape:window-maximized="0"
     inkscape:current-layer="svg2" />
  <metadata
     id="metadata48">
    <rdf:RDF>
      <cc:Work
         rdf:about="">
        <dc:format>image/svg+xml</dc:format>
        <dc:type
           rdf:resource="http://purl.org/dc/dcmitype/StillImage" />
      </cc:Work>
    </rdf:RDF>
  </metadata>
  <g
     id="g8"
     transform="matrix(1.2432377,0,0,1.2432377,-72.778135,-745.40636)"
     style="fill:#DBDBDB">
    <g
       id="g10"
       transform="translate(0.357,-4.286)">
      <rect
         id="rect12"
         rx="22.625"
         ry="22.747999"
         height="70"
         width="70"
         y="766.35999"
         x="85.639999" />
      <rect
         id="rect14"
         rx="22.625"
         ry="22.747999"
         height="70"
         width="70"
         y="766.35999"
         x="175.64" />
      <rect
         id="rect16"
         rx="22.625"
         ry="22.747999"
         height="70"
         width="70"
         y="766.35999"
         x="265.64001" />
      <rect
         id="rect18"
         rx="22.625"
         ry="22.747999"
         height="70"
         width="70"
         y="766.35999"
         x="355.64001" />
    </g>
    <g
       id="g20"
       transform="translate(5.204,0)">
      <rect
         id="rect22"
         rx="22.625"
         ry="22.747999"
         height="70"
         width="70"
         y="672.08002"
         x="125.8" />
      <rect
         id="rect24"
         rx="22.625"
         ry="22.747999"
         height="70"
         width="70"
         y="672.08002"
         x="215.8" />
      <rect
         id="rect26"
         rx="22.625"
         ry="22.747999"
         height="70"
         width="70"
         y="672.08002"
         x="305.79999" />
    </g>
    <rect
       id="rect28"
       rx="22.625"
       ry="22.747999"
       height="70"
       width="325"
       y="852.08002"
       x="93.5" />
  </g>
</svg>
