<?xml version="1.0" encoding="UTF-8" standalone="no"?>
<svg
   xmlns:dc="http://purl.org/dc/elements/1.1/"
   xmlns:cc="http://creativecommons.org/ns#"
   xmlns:rdf="http://www.w3.org/1999/02/22-rdf-syntax-ns#"
   xmlns:svg="http://www.w3.org/2000/svg"
   xmlns="http://www.w3.org/2000/svg"
   xmlns:sodipodi="http://sodipodi.sourceforge.net/DTD/sodipodi-0.dtd"
   xmlns:inkscape="http://www.inkscape.org/namespaces/inkscape"
   height="512"
   viewBox="0 0 512 512"
   width="512"
   version="1.1"
   id="svg2"
   inkscape:version="0.91 r"
   sodipodi:docname="internet-telephony.svg">
  <defs
     id="defs17" />
  <sodipodi:namedview
     pagecolor="#ffffff"
     bordercolor="#666666"
     borderopacity="1"
     objecttolerance="10"
     gridtolerance="10"
     guidetolerance="10"
     inkscape:pageopacity="0"
     inkscape:pageshadow="2"
     inkscape:window-width="647"
     inkscape:window-height="480"
     id="namedview15"
     showgrid="false"
     inkscape:zoom="0.4609375"
     inkscape:cx="263.59322"
     inkscape:cy="256"
     inkscape:window-x="0"
     inkscape:window-y="0"
     inkscape:window-maximized="0"
     inkscape:current-layer="svg2" />
  <metadata
     id="metadata74">
    <rdf:RDF>
      <cc:Work
         rdf:about="">
        <dc:format>image/svg+xml</dc:format>
        <dc:type
           rdf:resource="http://purl.org/dc/dcmitype/StillImage" />
      </cc:Work>
    </rdf:RDF>
  </metadata>
  <path
     style="fill:#DBDBDB"
     inkscape:connector-curvature="0"
     d="m 256.61,132.93 c -47.956,0.128 -95.05,8.152 -136.67,22.14 -7.941,16.12 -11.677,32.769 -17.619,49.621 31.12,12.946 65.5,1.487 78.8,-9.736 2.473,-5.409 4.01,-13.66 7.413,-16.236 41.44,-14.547 109.66,-15.61 136.78,2.767 2.318,1.854 6.03,15.766 6.03,15.766 20.12,11.01 58.826,15.403 78.33,7.439 l -19.47,-49.62 c -42.75,-15.406 -88.54,-22.255 -133.59,-22.14 m -60.04,59.932 0.653,30.827 c -59.41,84.01 -58.992,91.24 -58.992,155.39 l 235.76,0 c 0,-59.743 8.119,-60.727 -55.47,-154.74 l 0,-31.48 -38.684,0 0,22.292 -47.846,0 0,-22.292 -35.421,0 m -15.609,12.138 c -32.19,14.32 -53.716,13.01 -77.37,7.544 -0.619,11.868 -0.156,25.16 5.899,28.53 20.723,10.416 62.67,9.298 71.782,-19.681 0.628,-1.94 -0.127,-10.679 -0.313,-16.393 m 149.7,0 c -0.186,5.713 -0.968,14.453 -0.339,16.393 9.109,28.98 51.06,30.1 71.783,19.681 6.06,-3.368 6.544,-16.662 5.925,-28.53 -23.652,5.464 -45.18,6.776 -77.37,-7.544 m -118.95,35.37 20.18,0 0,14.15 -20.18,0 0,-14.15 m 33.15,0 20.18,0 0,14.15 -20.18,0 0,-14.15 m 33.15,0 20.18,0 0,14.15 -20.18,0 0,-14.15 m -66.3,24.537 20.18,0 0,14.12 -20.18,0 0,-14.12 m 33.15,0 20.18,0 0,14.12 -20.18,0 0,-14.12 m 33.15,0 20.18,0 0,14.12 -20.18,0 0,-14.12 m -66.3,24.51 20.18,0 0,14.15 -20.18,0 0,-14.15 m 33.15,0 20.18,0 0,14.15 -20.18,0 0,-14.15 m 33.15,0 20.18,0 0,14.15 -20.18,0 0,-14.15"
     id="path68" />
</svg>
