<?xml version="1.0" encoding="UTF-8" standalone="no"?>
<svg
   xmlns:dc="http://purl.org/dc/elements/1.1/"
   xmlns:cc="http://creativecommons.org/ns#"
   xmlns:rdf="http://www.w3.org/1999/02/22-rdf-syntax-ns#"
   xmlns:svg="http://www.w3.org/2000/svg"
   xmlns="http://www.w3.org/2000/svg"
   xmlns:sodipodi="http://sodipodi.sourceforge.net/DTD/sodipodi-0.dtd"
   xmlns:inkscape="http://www.inkscape.org/namespaces/inkscape"
   height="512"
   viewBox="0 0 512 512"
   width="512"
   version="1.1"
   id="svg2"
   inkscape:version="0.91 r"
   sodipodi:docname="trelby.svg">
  <defs
     id="defs16" />
  <sodipodi:namedview
     pagecolor="#ffffff"
     bordercolor="#666666"
     borderopacity="1"
     objecttolerance="10"
     gridtolerance="10"
     guidetolerance="10"
     inkscape:pageopacity="0"
     inkscape:pageshadow="2"
     inkscape:window-width="640"
     inkscape:window-height="480"
     id="namedview14"
     showgrid="false"
     inkscape:zoom="0.4609375"
     inkscape:cx="256"
     inkscape:cy="256"
     inkscape:window-x="0"
     inkscape:window-y="0"
     inkscape:window-maximized="0"
     inkscape:current-layer="svg2" />
  <metadata
     id="metadata72">
    <rdf:RDF>
      <cc:Work
         rdf:about="">
        <dc:format>image/svg+xml</dc:format>
        <dc:type
           rdf:resource="http://purl.org/dc/dcmitype/StillImage" />
      </cc:Work>
    </rdf:RDF>
  </metadata>
  <path
     id="path66"
     fill="#DBDBDB"
     d="m292.52 130.5c-6.196 0.069-7.966 0.636-11.844 2.031-42.09 17.368-82.57 34.552-133.31 49.03-12.145 2.853-17.249 9.394-15.375 19.688 0 0 9.219 88.08 9.219 93.31 0 0.82 0.155 2.237 0.344 3.875-0.415 0.182-0.835 0.381-1.25 0.563l1.719 12.781c0.404-0.167 0.843-0.362 1.25-0.531 0.576 4.184 1.143 8.443 1.531 12.375-0.411 0.18-0.84 0.351-1.25 0.531 0.299 4.658 0.562 9.296-0.125 13.813 0.412-0.171 0.866-0.359 1.281-0.531-1.775 11.269-7.316 32.701-8.125 35.938-0.924 3.695 0.014 6.152 0.938 8 0.924 1.847 32.18-17.678 45.03-27.438 4.572-3.472 13-8.943 23.594-15.5l144.16-81.53s30.06-19.16 30.06-20.906c0-1.741 0.776-12.05-5.438-24.625-5.061-10.239-4.425-20.11-8.188-21.19-3.2-0.915-10.444 5.886-17.12 11.25-0.139-0.257-0.297-0.522-0.438-0.781l-0.813-1.531c-0.013 0.007-0.019 0.024-0.031 0.031-8.818-15.981-21.08-34.7-35.75-58.75-5.117-7.317-13.867-9.969-20.06-9.906" />
</svg>
