<svg xmlns="http://www.w3.org/2000/svg" width="48" height="48">
<defs>
  <path
     d="M 6.161218,8.249444 C 3.862242,8.249444 2,10.097723 2,12.396699 l 0,12.776895 0,1.60584 0,9.355759 C 2,39.382449 11.82241,42 24.006981,42 36.191551,42 46,39.382449 46,36.135193 l 0,-9.355759 0,-1.60584 0,-12.776895 C 46,10.097723 44.137754,8.249444 41.838782,8.249444 l -35.677564,0 z m 0.209458,4.957156 35.258648,0 0,21.336718 -35.258648,0 0,-21.336718 z"
     id="path-main"
      />
</defs>

<use id="1" style="fill:#DBDBDB" xlink:href="#path-main" />



</svg>
