<?xml version="1.0" encoding="UTF-8" standalone="no"?>
<svg
   xmlns:dc="http://purl.org/dc/elements/1.1/"
   xmlns:cc="http://creativecommons.org/ns#"
   xmlns:rdf="http://www.w3.org/1999/02/22-rdf-syntax-ns#"
   xmlns:svg="http://www.w3.org/2000/svg"
   xmlns="http://www.w3.org/2000/svg"
   xmlns:sodipodi="http://sodipodi.sourceforge.net/DTD/sodipodi-0.dtd"
   xmlns:inkscape="http://www.inkscape.org/namespaces/inkscape"
   height="512"
   viewBox="0 0 512 512"
   width="512"
   version="1.1"
   id="svg2"
   inkscape:version="0.91 r"
   sodipodi:docname="qtcreatorubuntu.svg">
  <defs
     id="defs17" />
  <sodipodi:namedview
     pagecolor="#ffffff"
     bordercolor="#666666"
     borderopacity="1"
     objecttolerance="10"
     gridtolerance="10"
     guidetolerance="10"
     inkscape:pageopacity="0"
     inkscape:pageshadow="2"
     inkscape:window-width="647"
     inkscape:window-height="480"
     id="namedview15"
     showgrid="false"
     inkscape:zoom="0.4609375"
     inkscape:cx="263.59322"
     inkscape:cy="256"
     inkscape:window-x="0"
     inkscape:window-y="0"
     inkscape:window-maximized="0"
     inkscape:current-layer="svg2" />
  <metadata
     id="metadata76">
    <rdf:RDF>
      <cc:Work
         rdf:about="">
        <dc:format>image/svg+xml</dc:format>
        <dc:type
           rdf:resource="http://purl.org/dc/dcmitype/StillImage" />
      </cc:Work>
    </rdf:RDF>
  </metadata>
  <g
     id="g66"
     fill-rule="evenodd"
     fill="#DBDBDB">
    <path
       id="path68"
       d="m139.71 135.72c-61.43 0-61.698 66.15-61.698 66.15v75.22c0 14.15 9.712 33.01 19.16 42.44 16.706 16.673 28.26 14.28 28.26 14.28s0.157 4.649 4.882 18.796c4.725 14.15 18.626 23.678 32.802 23.678s19.16-4.882 19.16-4.882v-18.796s-4.83 0.169-14.28-4.546c-9.452-4.716-9.429-14.25-9.429-14.25s14.08-4.649 28.26-18.796c14.176-14.15 14.311-37.928 14.311-37.928v-70.7s0.006-70.67-61.42-70.67m93.58 9.734-14.311 37.592h-9.429v18.827h9.429v99.2s0.083 23.343 23.709 23.343 28.29-9.398 28.29-9.398v-18.16c-0.443 1.326-2.341 4.211-9.429 4.211-9.451 0-13.975-9.398-13.975-9.398v-89.8h23.404v-18.81h-23.404v-37.592h-14.28m-90.65 13.945c23.631 0 23.709 23.343 23.709 23.343v94.35s-0.083 33.05-23.709 33.05c-23.631 0-23.709-33.05-23.709-33.05v-89.5s0.083-28.19 23.709-28.19" />
    <path
       id="path70"
       d="m398.16 171.83c-4.995 0.201-9.8 2.895-12.489 7.558-4.173 7.223-1.705 16.45 5.53 20.623 7.211 4.173 16.462 1.705 20.623-5.53 4.16-7.211 1.692-16.45-5.53-20.623-2.25-1.304-4.712-1.963-7.143-2.028-0.334-0.01-0.658-0.013-0.991 0m-35.462 14.54c-9.443 0-18.571 2.064-26.867 5.968l12.95 22.443c4.294-1.732 9-2.696 13.918-2.696 18.801 0 34.385 13.958 36.96 32.05h25.9c-1.184-14.226-7.09-27.484-16.936-37.928-6.32 3.221-14.08 3.277-20.692-0.53-6.588-3.794-10.406-10.574-10.784-17.65-4.673-1.098-9.531-1.659-14.447-1.659m-36.02 11.268c-3.05 2.123-5.923 4.54-8.595 7.212-7.491 7.503-12.865 16.547-15.83 26.43 5.966 3.855 9.908 10.555 9.908 18.18s-3.942 14.314-9.908 18.16c2.965 9.882 8.339 18.938 15.83 26.43 2.672 2.672 5.546 5.066 8.572 7.189l12.95-22.42c-8.686-6.857-14.286-17.46-14.286-29.356 0-11.908 5.6-22.547 14.286-29.379l-12.93-22.44m-36.937 36.706c-7.984 0.406-14.355 7.04-14.355 15.12 0 8.333 6.771 15.09 15.12 15.09 8.333 0 15.09-6.783 15.09-15.12 0-8.333-6.76-15.09-15.09-15.09-0.261 0-0.503-0.013-0.76 0m109.91 20.369c-2.575 18.11-18.18 32.1-36.983 32.1-4.929 0-9.623-0.951-13.918-2.696l-12.95 22.42c8.296 3.904 17.412 5.968 26.867 5.968 4.929 0 9.773-0.573 14.471-1.659 0.366-7.089 4.194-13.855 10.807-17.673 6.588-3.819 14.349-3.751 20.669-0.53 9.858-10.456 15.742-23.702 16.913-37.928h-25.877m-1.29 42.14c-2.434 0.065-4.886 0.724-7.143 2.028-7.234 4.16-9.714 13.377-5.553 20.6 4.173 7.223 13.4 9.703 20.623 5.53 7.234-4.173 9.726-13.425 5.553-20.623-2.86-4.966-8.125-7.678-13.48-7.535m24.678 43.07c-0.125 0.082-0.244 0.172-0.369 0.253h0.461c-0.033-0.084-0.06-0.169-0.092-0.253" />
  </g>
</svg>
