<svg xmlns="http://www.w3.org/2000/svg" width="48" height="48">
<defs>
<defs
     id="defs2162" />
  <g
     id="layer1">
    <path
       d="M 3,6 L 3,12 L 9,12 L 9,39 L 3,39 L 3,45 L 15,45 L 15,6 L 3,6 z M 33,6 L 33,45 L 45,45 L 45,39 L 39,39 L 39,12 L 45,12 L 45,6 L 33,6 z M 18,12 L 18,39 L 30,39 L 30,12 L 18,12 z"
       id="path-main"
        />
  </g>
</defs>

<use id="1" style="fill:#DBDBDB" xlink:href="#path-main" />



</svg>
