<svg xmlns="http://www.w3.org/2000/svg" width="48" height="48">
<defs>
  <path
     d="M 7.0818713,8.0632546 C 4.2739307,8.0632546 2,10.078396 2,12.598342 l 0,22.225146 c 0,2.519947 2.2739307,4.535088 5.0818713,4.535088 l 33.8362577,0 C 43.72607,39.358576 46,37.343435 46,34.823488 L 46,12.598342 C 46,10.078396 43.72607,8.0632546 40.918129,8.0632546 l -33.8362577,0 z M 29.532164,9.0603302 a 0.30880282,0.30880282 0 0 1 0.225146,0.032164 c 4.611802,1.8819648 7.956832,4.1488658 9.97076,7.7836258 2.013924,3.634657 2.684955,8.596005 1.994152,15.888889 a 0.30880282,0.30880282 0 0 1 -0.03216,0.09649 0.30880282,0.30880282 0 0 1 -0.06433,0.09649 0.30880282,0.30880282 0 0 1 -0.03216,0.03216 0.30880282,0.30880282 0 0 1 -0.06433,0.03216 0.30880282,0.30880282 0 0 1 -0.418129,-0.321638 C 41.795997,25.470272 41.138736,20.640307 39.21345,17.165594 37.288168,13.69088 34.082234,11.52819 29.532164,9.6714415 a 0.30880282,0.30880282 0 0 1 -0.09649,-0.064328 0.30880282,0.30880282 0 0 1 -0.06433,-0.064327 0.30880282,0.30880282 0 0 1 -0.03216,-0.2251462 0.30880282,0.30880282 0 0 1 0.09649,-0.1608187 0.30880282,0.30880282 0 0 1 0.03216,-0.032164 0.30880282,0.30880282 0 0 1 0.03216,-0.032164 0.30880282,0.30880282 0 0 1 0.03216,-0.032164 z M 18.628655,10.186061 c 1.483739,-0.01535 3.19218,0.07104 5.146199,0.289474 7.618998,0.851721 12.294425,6.274728 13.733918,13.733918 C 39.978033,37.004718 34.555684,38.431052 23.774854,37.911208 16.186888,37.545321 11.273937,31.705543 10.040936,24.209453 8.6763437,15.913356 8.2424852,10.293467 18.628655,10.186061 z m 3.152047,1.061404 c -9.491419,0.100999 -10.903509,6.260576 -10.903509,12.961988 0,7.148173 5.749745,12.930948 12.897661,12.865497 12.591307,-0.115292 13.677058,-4.808027 12.897661,-12.865497 -0.688229,-7.114964 -5.749443,-12.897661 -12.897661,-12.897661 -0.706687,-0.04873 -1.361391,-0.07106 -1.994152,-0.06433 z M 7.2426901,13.659746 a 0.30880282,0.30880282 0 0 1 0.032164,0 0.30880282,0.30880282 0 0 1 0.096491,0.03216 0.30880282,0.30880282 0 0 1 0.1608187,0.09649 0.30880282,0.30880282 0 0 1 0.032164,0.06433 0.30880282,0.30880282 0 0 1 0.032164,0.192983 0.30880282,0.30880282 0 0 1 0,0.03216 c -1.6840299,6.27826 -1.7141945,11.52378 -0.1286549,15.502924 1.5855395,3.979144 4.7530791,6.711467 9.5847961,7.976608 a 0.30880282,0.30880282 0 0 1 0.160818,0.09649 0.30880282,0.30880282 0 0 1 0.06433,0.289473 0.30880282,0.30880282 0 0 1 0,0.03216 0.30880282,0.30880282 0 0 1 -0.03216,0.06433 0.30880282,0.30880282 0 0 1 -0.03216,0.03216 0.30880282,0.30880282 0 0 1 -0.03216,0.03216 0.30880282,0.30880282 0 0 1 -0.03216,0.03216 0.30880282,0.30880282 0 0 1 -0.03216,0.03216 0.30880282,0.30880282 0 0 1 -0.225146,0 C 11.911842,36.864471 8.5440176,33.959647 6.8888889,29.805944 5.2337602,25.652139 5.2793304,20.277449 6.9853801,13.917056 a 0.30880282,0.30880282 0 0 1 0.128655,-0.192983 0.30880282,0.30880282 0 0 1 0.032164,0 0.30880282,0.30880282 0 0 1 0.064328,-0.03216 0.30880282,0.30880282 0 0 1 0.032164,-0.03216 z m 13.2514619,0.321637 c 0.93222,-0.05095 1.986159,0.0064 3.184211,0.160819 5.54073,0.714121 9.584773,4.577274 10.131579,10.163742 0.714786,7.30266 1.65473,10.781385 -10.131579,10.131579 -5.604643,-0.308996 -10.131579,-4.518414 -10.131579,-10.131579 0,-4.911519 0.421828,-9.967918 6.947368,-10.324561 z m 1.961988,0.739766 c -5.931364,0.117329 -8.298245,4.633155 -8.298245,9.584795 0,5.28175 4.239457,9.434093 9.520468,9.520468 7.94592,0.129961 9.845371,-2.549223 9.520467,-9.520468 -0.245894,-5.276023 -4.238751,-9.552631 -9.520467,-9.552631 -0.427579,-0.03249 -0.826798,-0.03999 -1.222223,-0.03216 z m 0.25731,2.412281 c 0.304348,0.0036 0.633706,0.02778 0.964913,0.06433 3.9347,0 6.531858,3.21584 7.108187,7.108187 0.909727,6.144021 0.140522,7.498071 -7.108187,7.108188 -3.929022,-0.211329 -7.108188,-3.173507 -7.108188,-7.108188 0,-3.68886 1.578062,-7.227095 6.143275,-7.172514 z m 0.192983,0.482456 c -3.74659,0.156181 -5.885965,3.219076 -5.885965,6.690058 0,3.702279 2.960643,6.463255 6.657895,6.657895 6.171631,0.324903 6.94998,-2.045889 6.690058,-6.657895 -0.208327,-3.696515 -2.987688,-6.690058 -6.690058,-6.690058 -0.263889,-0.01624 -0.522157,-0.01042 -0.77193,0 z m -0.707603,1.897661 c 0.375066,-0.03058 0.787266,-6.54e-4 1.222223,0.06433 2.894832,0.259922 4.746064,2.23091 4.98538,4.98538 0.324903,3.739556 -0.01117,5.375264 -4.98538,4.98538 -2.756417,-0.21605 -5.017544,-2.220533 -5.017544,-4.98538 0,-2.419241 1.169861,-4.835637 3.795321,-5.049707 z m 1.222223,0.353801 c -2.601613,0 -4.695907,2.094297 -4.695907,4.695906 0,2.60161 2.094294,4.695907 4.695907,4.695907 2.601613,0 4.663742,-2.094297 4.663742,-4.695907 0,-2.601609 -2.062129,-4.695906 -4.663742,-4.695906 z"
     id="path-main" />
</defs>

<use id="1" style="fill:#DBDBDB" xlink:href="#path-main" />



</svg>
