<?xml version="1.0" encoding="UTF-8" standalone="no"?>
<svg xmlns:dc="http://purl.org/dc/elements/1.1/" xmlns:cc="http://creativecommons.org/ns#" xmlns:rdf="http://www.w3.org/1999/02/22-rdf-syntax-ns#" xmlns:svg="http://www.w3.org/2000/svg" xmlns="http://www.w3.org/2000/svg" xmlns:sodipodi="http://sodipodi.sourceforge.net/DTD/sodipodi-0.dtd" xmlns:inkscape="http://www.inkscape.org/namespaces/inkscape" height="512" viewBox="0 0 512 512" width="512" version="1.1" id="svg2" inkscape:version="0.91 r" sodipodi:docname="evernote.svg">
<defs id="defs16" />
<sodipodi:namedview pagecolor="#ffffff" bordercolor="#666666" borderopacity="1" objecttolerance="10" gridtolerance="10" guidetolerance="10" inkscape:pageopacity="0" inkscape:pageshadow="2" inkscape:window-width="640" inkscape:window-height="480" id="namedview14" showgrid="false" inkscape:zoom="0.4609375" inkscape:cx="218.0339" inkscape:cy="256" inkscape:window-x="0" inkscape:window-y="0" inkscape:window-maximized="0" inkscape:current-layer="svg2" />
<metadata id="metadata72">
<rdf:RDF>
<cc:Work rdf:about="">
<dc:format>image/svg+xml</dc:format>
<dc:type rdf:resource="http://purl.org/dc/dcmitype/StillImage" />
</cc:Work>
</rdf:RDF>
</metadata>
<path id="path66" d="m 130.55051,95.52621 0.0256,0.0057 38.41375,8.390485 c 2.20136,0.48035 4.36152,-0.91807 4.84044,-3.09243 0.004,-0.0142 6.69932,-32.899678 8.69035,-42.024898 l 0.0242,-0.108007 c 1.63575,-7.489474 4.64006,-13.674329 8.58376,-18.54604 l 1.85034,-2.1701 c -0.15206,-0.0085 -0.31549,0.03127 -0.49314,0.146379 l -90.73774,57.414559 c -0.17196,0.08669 -0.29702,0.223121 -0.37376,0.373763 1.70964,-0.423503 4.04744,-1.003333 4.37431,-1.068706 7.13418,-1.500737 15.36834,-1.381361 24.80337,0.67931 m 300.65901,57.25823 c 0.50167,-16.93445 -7.45821,-27.07295 -15.54883,-32.14362 -8.7273,-5.47855 -27.15822,-13.20677 -50.67972,-21.311606 -18.91838,-6.518826 -41.77904,-11.3209 -55.65233,-13.907398 0.81006,-11.647765 -4.88592,-23.694874 -12.99928,-29.207525 -21.62141,-14.67482 -58.73623,-20.376483 -68.71272,-19.806601 -7.92292,0.447663 -17.12488,2.903414 -23.15768,8.464384 -4.0446,3.71205 -7.26777,8.894993 -8.99873,16.742597 -0.97065,4.442522 -3.13222,14.936312 -5.04936,24.259072 -1.92424,9.352604 -3.62394,17.723197 -3.63673,17.780037 -1.81765,8.30379 -10.04755,13.58764 -18.4295,11.76856 l -38.41375,-8.3919 c -8.19579,-1.79065 -14.75583,-1.78639 -20.00983,-0.66652 -5.26395,1.11987 -9.29434,3.29991 -12.626939,6.19196 -6.629676,5.74146 -9.369658,14.01256 -11.235632,22.65743 0,0 -1.466629,7.07734 -2.742824,21.11549 -0.889641,10.8846 -5.509808,87.27297 0.518721,112.1204 2.33069,9.66668 4.360096,13.92445 11.848148,19.59627 16.830706,11.96752 57.300866,30.02895 76.620016,36.89312 19.28077,6.8599 30.56899,14.89083 41.36974,1.01896 0.0327,-0.0341 2.32785,-3.53014 5.55955,-8.68892 10.68565,-18.03159 15.34987,-35.08399 18.07564,-47.56455 0.27713,-1.26909 2.16015,-0.91949 1.87024,0.40787 -1.92424,8.81114 -10.42558,39.62457 11.39764,53.1511 8.61218,5.33643 27.34155,12.50756 46.51716,19.10171 17.34801,5.92336 28.73855,15.71794 18.80753,61.18061 -6.04132,27.66273 -12.70368,30.18102 -43.20019,23.52007 -24.72095,-5.39895 -34.2782,-6.82011 -30.01474,-26.38085 3.4534,-15.81032 18.79048,-10.72402 30.42545,-8.18299 5.19716,1.1355 2.26532,-3.53867 4.39705,-13.29204 2.11894,-9.70221 9.43645,-13.9813 3.70494,-15.38114 -39.99123,-9.8898 -63.89643,-14.00403 -74.84357,36.11149 -9.9367,45.49109 5.69882,57.76274 62.80073,70.23335 44.77056,9.77895 60.87222,11.76572 91.83487,-41.32711 6.12232,-10.47816 22.4869,-42.96144 40.46305,-99.58015 11.36638,-35.79883 28.87782,-147.51563 29.74188,-176.49293 M 326.54306,257.6257 c -5.48849,-1.39983 -10.8846,-2.21415 -16.01923,-2.50407 3.8499,-10.92582 11.51276,-23.69061 27.87449,-19.51242 18.11543,4.61164 16.91882,22.35188 14.44317,34.00391 -6.94944,-5.09909 -16.00076,-9.35687 -26.29843,-11.98742" inkscape:connector-curvature="0" style="fill:#DBDBDB" />
</svg>
