<svg xmlns="http://www.w3.org/2000/svg" width="48" height="48">
<defs>
<defs
   id="defs23">
</defs>
	<path
   
   d="M 5.75 3.4375 C 5.0853045 3.4036344 4.4074722 3.5550179 3.8125 3.9375 C 2.2259076 4.9574523 1.6675477 7.1009076 2.6875 8.6875 L 10.96875 22.625 C 10.984442 22.649409 11.015028 22.663576 11.03125 22.6875 L 4.71875 26.5 C 2.7921735 27.63328 2.2417197 30.104673 3.375 32.03125 L 5.875 35.90625 L 8.34375 34.40625 L 13.9375 41.96875 L 14.0625 42.125 L 14.125 42.09375 C 14.596065 42.814953 15.261467 43.37917 15.9375 43.625 C 16.678406 43.89442 17.381146 43.942653 18 43.90625 C 19.237706 43.833448 20.25 43.4375 20.25 43.4375 C 20.273912 43.426281 20.2892 43.418671 20.3125 43.40625 L 44.34375 32.65625 C 45.018604 32.33705 45.337082 31.559528 45.125 30.84375 C 44.912918 30.127972 44.208563 29.681289 43.46875 29.78125 C 43.46875 29.78125 41.493612 30.080451 39.3125 30.09375 C 38.221944 30.100436 37.075706 30.009249 36.21875 29.8125 C 35.361794 29.61575 34.88697 29.276973 34.78125 29.125 C 34.769641 29.113001 34.730749 29.105359 34.71875 29.09375 L 29.15625 21.78125 L 31.34375 20.4375 L 28.875 16.625 C 27.74172 14.698423 25.239077 14.14797 23.3125 15.28125 L 17.0625 19.0625 C 17.028796 19.004609 17.005072 18.966133 16.96875 18.90625 L 8.59375 5.0625 C 7.9562798 4.0708797 6.8578258 3.4939427 5.75 3.4375 z M 31.34375 20.4375 L 31.375 20.5 L 31.46875 20.375 L 31.34375 20.4375 z M 26.53125 23.375 L 32.3125 30.9375 C 33.113404 32.088799 34.305803 32.499897 35.53125 32.78125 C 35.819883 32.847513 36.141523 32.79911 36.4375 32.84375 L 19.15625 40.625 L 19.0625 40.65625 C 18.996101 40.679414 18.462998 40.867985 17.8125 40.90625 C 17.468064 40.926513 17.13155 40.851808 16.9375 40.78125 C 16.74345 40.710692 16.694452 40.681268 16.59375 40.5 C 16.562403 40.438622 16.539404 40.369038 16.5 40.3125 L 10.96875 32.8125 L 26.53125 23.375 z "
   id="path-main" />	
</defs>

<use id="1" style="fill:#DBDBDB" xlink:href="#path-main" />



</svg>
