<svg xmlns="http://www.w3.org/2000/svg" width="48" height="48">
<defs>
  <path
     d="M 23.978704,2 C 11.826007,2 2,11.859057 2,24 2,36.140944 11.826007,46 23.978704,46 36.1314,46 46,36.140944 46,24 46,11.859057 36.1314,2 23.978704,2 z m -7.794773,8.12766 c 0.770721,-0.02942 1.45479,0.07026 1.74637,0.297872 1.540766,1.202748 2.336951,3.256979 1.916747,4.936171 -0.420204,1.679187 1.428575,2.726043 3.10939,1.361701 1.680814,-1.364341 6.23336,-4.235703 8.859633,-5.914893 2.626273,-1.6791918 5.698581,0.75781 1.916747,3.276596 -3.781835,2.518783 -11.293481,8.042781 -13.289449,9.61702 -1.995967,1.574241 -3.555423,1.182888 -5.026137,0.553192 -1.470713,-0.629696 -1.15556,-2.516373 0,-2.93617 1.15556,-0.419799 2.623633,-1.863967 1.36302,-2.808511 -1.260611,-0.944544 -2.493435,-0.984686 -4.174249,-2.978723 -1.680816,-1.994037 -0.732488,-3.143429 0.212971,-4.297872 0.5655,-0.690498 2.080422,-1.057335 3.364957,-1.106383 z m 18.06002,11.787234 c 3.010315,-0.309449 2.59414,2.147219 -0.511133,3.021277 -2.814597,0.792239 -4.184906,0.941559 -5.835431,1.574467 -1.505303,0.577222 -1.15684,1.071472 0,1.744681 1.84587,1.07418 4.657407,2.338116 6.60213,3.574469 1.944723,1.236353 1.190854,2.982822 -1.107454,4.042556 -2.298311,1.059725 -9.060814,2.302032 -11.543078,1.914887 -2.672051,-0.416737 -3.525636,-2.679037 0,-2.468081 2.706618,0.161953 3.045236,-0.14458 4.813165,-0.851066 1.767932,-0.706486 1.005229,-1.573707 -1.06486,-3.19149 -0.794286,-0.620739 -2.796541,-1.368346 -3.961278,-2.042553 -0.81902,-0.474091 -1.874679,-3.097661 1.661182,-4.510637 3.535861,-1.412975 7.421794,-2.446159 10.946757,-2.80851 z"
     id="path-main"
      />
</defs>

<use id="1" style="fill:#DBDBDB" xlink:href="#path-main" />



</svg>
