<svg viewBox="0 0 512 512" xmlns="http://www.w3.org/2000/svg">
 <text fill="#dbdbdb" x="-210.55" y="39.41">
  
 </text>
 <text fill="#dbdbdb" x="370.72" y="-40.59">
  
 </text>
 <text fill="#dbdbdb" x="-700.86" y="-221.85">
  
 </text>
 <text fill="#dbdbdb" x="397.19" y="-438.32">
  
 </text>
 <text fill="#dbdbdb" x="978.46" y="-518.33">
  
 </text>
 <text fill="#dbdbdb" x="589.34" y="-990.73">
  
 </text>
 <text fill="#dbdbdb" x="1170.6" y="-1070.73">
  
 </text>
 <g fill="#dbdbdb">
  <text x="-662.2" y="343.99">
   
  </text>
  <text x="91.81" y="209.67">
   
  </text>
 </g>
 <text fill="#dbdbdb" x="673.08" y="129.67">
  
 </text>
 <text fill="#dbdbdb" x="-398.5" y="-51.6">
  
 </text>
 <text fill="#dbdbdb" x="699.55" y="-268.06">
  
 </text>
 <text fill="#dbdbdb" x="1280.82" y="-348.07">
  
 </text>
 <text fill="#dbdbdb" x="891.7" y="-820.47">
  
 </text>
 <text fill="#dbdbdb" x="1472.96" y="-900.47">
  
 </text>
 <g fill="#dbdbdb">
  <text x="-359.84" y="514.25">
   
  </text>
  <text x="78.79" y="179.29">
   
  </text>
 </g>
 <text fill="#dbdbdb" x="660.06" y="99.29">
  
 </text>
 <text fill="#dbdbdb" x="-411.52" y="-81.97">
  
 </text>
 <text fill="#dbdbdb" x="686.53" y="-298.44">
  
 </text>
 <text fill="#dbdbdb" x="1267.8" y="-378.45">
  
 </text>
 <text fill="#dbdbdb" x="878.68" y="-850.85">
  
 </text>
 <text fill="#dbdbdb" x="1459.94" y="-930.85">
  
 </text>
 <g fill="#dbdbdb">
  <text x="-372.86" y="483.87">
   
  </text>
  <text x="39.5" y="244.98">
   
  </text>
 </g>
 <text fill="#dbdbdb" x="620.77" y="164.98">
  
 </text>
 <text fill="#dbdbdb" x="-450.81" y="-16.28">
  
 </text>
 <text fill="#dbdbdb" x="647.24" y="-232.75">
  
 </text>
 <text fill="#dbdbdb" x="1228.51" y="-312.76">
  
 </text>
 <text fill="#dbdbdb" x="839.39" y="-785.16">
  
 </text>
 <text fill="#dbdbdb" x="1420.65" y="-865.16">
  
 </text>
 <g fill="#dbdbdb" transform="translate(-690.14 13.618)">
  <text x="277.99" y="535.94">
   
  </text>
  <text x="148.44" y="135.65">
   
  </text>
 </g>
 <text fill="#dbdbdb" x="39.57" y="69.27">
  
 </text>
 <text fill="#dbdbdb" x="-1032.01" y="-111.99">
  
 </text>
 <text fill="#dbdbdb" x="66.04" y="-328.46">
  
 </text>
 <text fill="#dbdbdb" x="647.31" y="-408.47">
  
 </text>
 <text fill="#dbdbdb" x="258.19" y="-880.87">
  
 </text>
 <text fill="#dbdbdb" x="839.45" y="-960.87">
  
 </text>
 <text fill="#dbdbdb" x="-993.35" y="453.85">
  
 </text>
 <text fill="#555753" stroke="#555753" x="-575.74" y="116.28">
  
 </text>
 <g fill="#555753">
  <text stroke="#555753" x="169.64" y="169.43">
   
  </text>
  <text stroke="#555753" x="1069.25" y="45.61">
   
  </text>
  <text stroke="#555753" x="197.1" y="-7.03">
   
  </text>
  <text stroke="#555753" x="1096.72" y="-130.85">
   
  </text>
  <text stroke="#555753" x="-2812.88" y="444.86">
   
  </text>
 </g>
 <text fill="#dbdbdb" x="-957.33" y="478.97">
  
 </text>
 <g fill="#654641" transform="translate(.001 -.003)">
  <text transform="scale(1.05082 .95163)" x="681.22" y="221.3">
   
  </text>
  <text transform="scale(1.05082 .95163)" x="949.03" y="197.8">
   
  </text>
  <text x="-25.07" y="290.09">
   
  </text>
 </g>
 <path d="m54.741989 12.666247c-4.573418.0045-8.248047 3.121791-8.248047 7v477.000003c0 3.881 3.679813 7 8.257813 7h428.529295c4.578 0 8.25977-3.119 8.25977-7v-477.000003c0-3.880999-3.68177-7-8.25977-7h-428.529295-.0098zm363.103521 100.158203l.0742 73.6504c.03 40.51.0315 73.73828-.0195 73.73828-.05.051-36.09156.49247-80.10156.98046h-.004c-44.01.494-81.4783.89549-83.2793.89649h-3.25586l.0723-58.13086.0742-58.12891 7.53125-1.48242c4.14-.816 41.58675-8.2429 83.21875-16.5039l75.68946-15.01954zm-180.60743 35.85157v113.67187h-3.63867c-2 .009-22.88139.23186-46.40039.50586l-.008.002c-23.515.276-45.31441.50377-48.44141.50977h-5.67968l.004-47.04102.002-47.03906 51.3789-10.17578c28.259-5.597 51.69508-10.21069 52.08008-10.30469l.70312-.1289zm14.03711 127.46484h3.50977c1.93 0 39.05953.40067 82.51953.88867 43.45.488 79.3858.88672 79.8418.88672h.83008v34.16992c0 18.79-.0779 51.93239-.17188 73.65039l.0137.006c-.155 35.805-.20831 39.4768-.57031 39.4668-.22-.013-37.62914-7.41898-83.11914-16.45898-45.49-9.038-82.73925-16.43946-82.78125-16.43946-.042-.01-.0723-26.14484-.0723-58.08984v-58.08008zm-116.20312.70703c33.3644.32578 66.72788.7411 100.0918 1.11328-.06 36.35555-.097 72.71171-.36914 109.06641-33.24624-6.58937-66.48297-13.22704-99.72266-19.84961z" fill="#dbdbdb"/>
 <g fill="#654641" transform="translate(.001 -.003)">
  <text transform="scale(1.05082 .95163)" x="119.84" y="185.78">
   
  </text>
  <text transform="scale(1.05082 .95163)" x="387.65" y="162.28">
   
  </text>
  <text x="-614.98" y="256.28">
   
  </text>
 </g>
 <g transform="translate(.001 -.003)">
  <g fill="#dbdbdb">
   <text x="-352.73" y="236.4">
    
   </text>
   <text x="-645.81" y="78.57">
    
   </text>
  </g>
  <text fill="#654641" transform="scale(1.05082 .95163)" x="89.53" y="181.15">
   
  </text>
  <g fill="#654641">
   <text transform="scale(1.05082 .95163)" x="357.34" y="157.65">
    
   </text>
   <text x="-646.83" y="251.88">
    
   </text>
  </g>
 </g>
 <text fill="#dbdbdb" x="-60.98" y="31.74">
  
 </text>
 <text fill="#dbdbdb" x="520.29" y="-48.26">
  
 </text>
 <text fill="#dbdbdb" x="-551.29" y="-229.52">
  
 </text>
 <text fill="#dbdbdb" x="546.76" y="-445.99">
  
 </text>
 <text fill="#dbdbdb" x="1128.03" y="-526">
  
 </text>
 <text fill="#dbdbdb" x="738.91" y="-998.4">
  
 </text>
 <text fill="#dbdbdb" x="1320.17" y="-1078.4">
  
 </text>
 <text fill="#dbdbdb" x="-512.63" y="336.32">
  
 </text>
</svg>
