<svg viewBox="0 0 512 512" xmlns="http://www.w3.org/2000/svg">
 <text x="-109.95" y="148.92">
  
 </text>
 <text x="471.32" y="68.92">
  
 </text>
 <text x="-600.26" y="-112.34">
  
 </text>
 <text x="497.79" y="-328.81">
  
 </text>
 <text x="1079.06" y="-408.82">
  
 </text>
 <text x="689.94" y="-881.22">
  
 </text>
 <text x="1271.2" y="-961.22">
  
 </text>
 <text x="-561.6" y="453.5">
  
 </text>
 <text x="-990.51" y="-43.58">
  
 </text>
 <text x="-1638.27" y="-811.53">
  
 </text>
 <text x="-931.93" y="-967.16">
  
 </text>
 <text x="-459.24" y="318.14">
  
 </text>
 <text x="122.03" y="238.14">
  
 </text>
 <text x="-949.55" y="56.88">
  
 </text>
 <text x="148.5" y="-159.59">
  
 </text>
 <text x="729.77" y="-239.6">
  
 </text>
 <text x="340.65" y="-712">
  
 </text>
 <text x="921.91" y="-792">
  
 </text>
 <text x="-910.89" y="622.72">
  
 </text>
 <path d="m53.738513 6.1610174c-5.399 0-9.71875 4.3509996-9.71875 9.7499996v471.500003c0 5.399 4.31975 9.75 9.71875 9.75h.0078 265.781247l165.80859-165.81055v-315.439453c0-5.399-4.31975-9.7499996-9.71875-9.7499996h-421.878899zm212.410157 17.6093746l-.002.0078c10.357 1.571 10.62534 15.209531 12.15234 23.269531.32 13.028 3.58921 29.82789-7.21679 39.58789-14.616 8.1-19.05758-13.71748-18.39258-24.02148 1.265-13.010004-.89602-33.208754 13.45898-38.843754zm21.16407 69.062504c1.03467-.003 2.06976.005 3.10351.0254l-.0215-.0195c9.049.031 18.18825.74007 26.90625 3.28907 19.177.569 28.99226 30.387144 2.82226 25.869144-15.724-2.784-31.43844-8.17933-47.64843-5.23633-41.82 4.47-79.03893 42.50844-76.41993 85.64844-1.719 18.96 11.96132 33.40379 24.94532 45.09179 12.35 14.158 32.04992 13.577 49.16992 13 23.4 1.046 42.32078-15.84207 55.55078-33.33007 14.389-19.41 3.90228-46.99249-12.51172-61.52149-18.674-16.619-48.34098-8.86806-62.83398 9.46094-13.213 12.96-3.15669 32.6367 12.57031 37.2207 20.688 6.869.21875 26.53586-13.78125 19.50586-20.09-7.611-34.98591-31.58766-29.12891-52.97266 6.833-28.543 36.04119-45.61398 63.99219-46.45898 32.328-2.432 63.39692 20.97008 70.91992 52.33008 7.763 24.919.46292 53.37172-19.08008 70.88672-20.279 18.482-47.33161 31.44203-75.09961 31.58203-31.4-2.587-63.17637-18.71039-79.85937-46.15039-22.557-36.3-10.81313-85.42141 19.29687-113.69141 22.6765-23.18703 55.03267-34.430994 87.10743-34.529294zm122.26757 11.835934c5.35657.0661 10.36446 4.94227 8.47071 10.54102-7.762 15.724-25.09952 23.19736-39.47852 31.69336-13.757 11.502-26.72436-10.47575-11.19336-18.21875 12.273-9.891 25.45086-20.64294 41.13086-23.96094l-.004-.004c.35825-.0396.71712-.0552 1.07422-.0508zm-283.83007.0547c3.14-.009 6.17382.98134 9.04882 2.15234 13.482 6.423 28.61757 13.16405 36.97657 25.99805-1.294 20.11-26.77218 8.02172-36.95118 1.26172-12.306-3.791-31.96531-27.18416-9.07031-29.41016l-.004-.002zm62.3164 163.49609l.004.006c4.02-.087 7.15928 3.93188 6.36328 7.79688-5.086 15.998-18.94563 27.53148-31.51563 37.89648-13.975 13.8-26.12384-8.89278-11.83984-18.05078 10.627-10.895 21.74528-23.82344 36.98828-27.64844zm144.97656 11.54883c3.23675.0888 6.1243 2.06328 8.61524 3.95703 11.731 10.467 23.33986 22.99761 27.88086 38.34961 1.817 24.771-24.31685 8.16472-29.08985-5.11328-5.513-9.809-23.38859-29.51041-8.05859-37.1914l.002.006c.21888-.0114.43461-.0137.65039-.008z" fill="#dbdbdb"/>
 <text x="-764.81" y="79.7">
  
 </text>
 <text x="-183.54" y="-.3">
  
 </text>
 <text x="-1255.12" y="-181.56">
  
 </text>
 <text x="-157.07" y="-398.03">
  
 </text>
 <text x="424.2" y="-478.04">
  
 </text>
 <text x="35.08" y="-950.44">
  
 </text>
 <text x="616.34" y="-1030.44">
  
 </text>
 <text x="-1216.46" y="384.28">
  
 </text>
 <text x="-1645.36" y="-112.8">
  
 </text>
 <text x="-2293.13" y="-880.75">
  
 </text>
 <text x="-1586.79" y="-1036.38">
  
 </text>
 <text x="-688.88" y="175.16">
  
 </text>
 <text x="-107.61" y="95.16">
  
 </text>
 <text x="-1179.19" y="-86.11">
  
 </text>
 <text x="-81.14" y="-302.57">
  
 </text>
 <text x="500.13" y="-382.58">
  
 </text>
 <text x="111.01" y="-854.98">
  
 </text>
 <text x="692.27" y="-934.98">
  
 </text>
 <text x="-1140.53" y="479.74">
  
 </text>
 <text x="-693.1" y="148.53">
  
 </text>
 <text x="-111.83" y="68.53">
  
 </text>
 <text x="-1183.41" y="-112.73">
  
 </text>
 <text x="-85.36" y="-329.2">
  
 </text>
 <text x="495.91" y="-409.21">
  
 </text>
 <text x="106.79" y="-881.61">
  
 </text>
 <text x="688.05" y="-961.61">
  
 </text>
 <text x="-1144.75" y="453.11">
  
 </text>
 <text x="-866.06" y="52.09">
  
 </text>
 <text x="-284.79" y="-27.91">
  
 </text>
 <text x="-1356.37" y="-209.18">
  
 </text>
 <text x="-258.32" y="-425.64">
  
 </text>
 <text x="322.95" y="-505.65">
  
 </text>
 <text x="-66.17" y="-978.05">
  
 </text>
 <text x="515.09" y="-1058.06">
  
 </text>
 <text x="-1317.71" y="356.67">
  
 </text>
 <text x="-1746.61" y="-140.41">
  
 </text>
 <text x="-2394.38" y="-908.36">
  
 </text>
 <text x="-1688.04" y="-1063.99">
  
 </text>
 <text x="-790.13" y="147.54">
  
 </text>
 <text x="-208.86" y="67.54">
  
 </text>
 <text x="-1280.44" y="-113.72">
  
 </text>
 <text x="-182.39" y="-330.19">
  
 </text>
 <text x="398.88" y="-410.2">
  
 </text>
 <text x="9.77" y="-882.6">
  
 </text>
 <text x="591.02" y="-962.6">
  
 </text>
 <text x="-1241.78" y="452.12">
  
 </text>
 <text x="-584.73" y="650.24">
  
 </text>
 <text x="-3.46" y="570.24">
  
 </text>
 <text x="-1075.04" y="388.98">
  
 </text>
 <text x="23.01" y="172.51">
  
 </text>
 <text x="604.28" y="92.5">
  
 </text>
 <text x="215.16" y="-379.9">
  
 </text>
 <text x="796.42" y="-459.9">
  
 </text>
 <text x="-1036.38" y="954.82">
  
 </text>
 <text x="-1528.46" y="572.14">
  
 </text>
 <text x="-947.19" y="492.14">
  
 </text>
 <text x="-2018.77" y="310.88">
  
 </text>
 <text x="-920.72" y="94.41">
  
 </text>
 <text x="-339.45" y="14.4">
  
 </text>
 <text x="-728.57" y="-458">
  
 </text>
 <text x="-147.31" y="-538">
  
 </text>
 <text x="-1980.11" y="876.72">
  
 </text>
 <text x="-1281.01" y="646.99">
  
 </text>
 <text x="-699.74" y="566.99">
  
 </text>
 <text x="-1771.32" y="385.72">
  
 </text>
 <text x="-673.27" y="169.26">
  
 </text>
 <text x="-92" y="89.25">
  
 </text>
 <text x="-481.12" y="-383.15">
  
 </text>
 <text x="100.14" y="-463.15">
  
 </text>
 <text x="-1732.66" y="951.57">
  
 </text>
 <text x="-2147.05" y="-35.27">
  
 </text>
 <text x="-1565.78" y="-115.27">
  
 </text>
 <text x="-2637.36" y="-296.53">
  
 </text>
 <text x="-1539.31" y="-513">
  
 </text>
 <text x="-958.04" y="-593.01">
  
 </text>
 <text x="-1347.16" y="-1065.41">
  
 </text>
 <text x="-765.9" y="-1145.41">
  
 </text>
 <text x="-2598.7" y="269.31">
  
 </text>
 <text x="-3027.6" y="-227.77">
  
 </text>
 <text x="-3675.37" y="-995.72">
  
 </text>
 <text x="-2969.03" y="-1151.35">
  
 </text>
 <text x="-2496.34" y="133.95">
  
 </text>
 <text x="-1915.07" y="53.95">
  
 </text>
 <text x="-2986.65" y="-127.31">
  
 </text>
 <text x="-1888.6" y="-343.78">
  
 </text>
 <text x="-1307.33" y="-423.79">
  
 </text>
 <text x="-1696.45" y="-896.19">
  
 </text>
 <text x="-1115.19" y="-976.19">
  
 </text>
 <text x="-2947.99" y="438.53">
  
 </text>
 <text x="-1277.14" y="75.16">
  
 </text>
 <text x="-695.87" y="-4.84">
  
 </text>
 <text x="-1767.45" y="-186.1">
  
 </text>
 <text x="-669.4" y="-402.57">
  
 </text>
 <text x="-88.13" y="-482.58">
  
 </text>
 <text x="-477.25" y="-954.98">
  
 </text>
 <text x="104.01" y="-1034.98">
  
 </text>
 <text x="-1728.79" y="379.74">
  
 </text>
 <text x="-2157.69" y="-117.34">
  
 </text>
 <text x="-2805.46" y="-885.29">
  
 </text>
 <text x="-2099.12" y="-1040.92">
  
 </text>
 <text x="-1201.21" y="170.61">
  
 </text>
 <text x="-619.94" y="90.61">
  
 </text>
 <text x="-1691.52" y="-90.65">
  
 </text>
 <text x="-593.47" y="-307.12">
  
 </text>
 <text x="-12.2" y="-387.13">
  
 </text>
 <text x="-401.32" y="-859.53">
  
 </text>
 <text x="179.94" y="-939.53">
  
 </text>
 <text x="-1652.86" y="475.19">
  
 </text>
</svg>
