<svg height="512" viewBox="0 0 512 512" width="512" xmlns="http://www.w3.org/2000/svg">
 <g fill="#dbdbdb" transform="matrix(1.3828514 0 0 1.3828514 -98.00997 -98.00997)">
  <path d="m159.53 138.94c-17.762 0-32 14.09-32 31.656v104.06c0 17.569 14.251 32.34 32 31.656l43.44-1.667c63.747-36.02 43.63-94.69 93.87-165.71z" fill-opacity=".079"/>
  <path d="m156.72 120c-27.13 0-49.41 22.28-49.41 49.41v108.28c0 27.13 22.28 49.41 49.41 49.41h198.56c27.13 0 49.41-22.28 49.41-49.41v-108.28c0-27.13-22.28-49.41-49.41-49.41zm3.938 24.19h190.69c15.53 0 27.938 12.309 27.938 27.813v103.09c0 15.504-12.433 27.938-27.938 27.938h-190.69c-15.503 0-27.938-12.434-27.938-27.938v-103.09c0-15.504 12.409-27.813 27.938-27.813m157.5 161.81c5.155 0 9.313 4.157 9.313 9.313 0 5.155-4.157 9.344-9.313 9.344-5.155 0-9.344-4.189-9.344-9.344 0-5.155 4.189-9.313 9.344-9.313"/>
  <g fill-rule="evenodd">
   <rect height="46.17" rx="11.08" width="50.17" x="229.14" y="340.16"/>
   <rect height="16" rx="8" width="160.02" x="173.8" y="376"/>
  </g>
 </g>
</svg>
