<svg xmlns="http://www.w3.org/2000/svg" width="48" height="48">
<defs>
  <path
     d="m 37.491581,2 c -4.807073,0 -7.757474,3.5616419 -8.726513,7.0424495 -0.48452,1.7404035 -0.510824,3.4916245 -0.03062,4.9297145 0.480205,1.43809 1.678842,2.602645 3.30689,2.602645 1.627929,0 3.234749,-0.934297 4.745998,-2.204593 1.51125,-1.270297 2.907133,-2.923666 3.888657,-4.623521 C 41.657517,8.0468386 42.277941,6.3048028 41.900767,4.6945024 41.71218,3.8893523 41.200442,3.1433953 40.431039,2.6736256 39.661635,2.203856 38.693389,2 37.491581,2 z M 24.049689,3.9596381 c -0.180608,-0.00481 -0.361991,0.00762 -0.551149,0.030619 -1.484337,0.1805283 -2.601234,0.9949407 -3.215031,2.0514962 -0.613797,1.0565554 -0.789338,2.3016112 -0.704245,3.4906053 0.08509,1.1889944 0.436723,2.3442694 0.979819,3.2762704 0.543096,0.932001 1.331494,1.742591 2.449548,1.806541 1.220582,0.06984 2.082448,-0.815873 2.725122,-1.806541 0.642673,-0.990668 1.11188,-2.256898 1.347251,-3.5212251 C 27.316375,8.0230785 27.327735,6.7397394 26.80543,5.6437022 26.348413,4.6846696 25.313936,3.9932771 24.049689,3.9596381 z M 15.10884,6.8990953 c -0.313839,0.033631 -0.639762,0.1225971 -0.9492,0.2449548 -1.243901,0.4918804 -2.021464,1.4997442 -2.296451,2.5720249 -0.274987,1.072281 -0.109309,2.174127 0.244955,3.184412 0.354263,1.010286 0.906626,1.940561 1.592206,2.633264 0.685579,0.692703 1.562702,1.244715 2.602644,1.041058 1.005287,-0.196405 1.514443,-1.054484 1.837161,-1.8984 0.322718,-0.843916 0.486816,-1.811127 0.489909,-2.81698 0.0031,-1.005852 -0.148108,-2.046057 -0.520529,-2.9394568 C 17.737115,8.0265724 17.063549,7.2105359 16.02742,6.960334 15.724434,6.8871698 15.422679,6.8654647 15.10884,6.8990953 z M 9.0768282,12.196242 c -0.5987354,-0.02096 -1.1718381,0.213851 -1.684064,0.581768 -1.0232077,0.735389 -1.5368728,1.844915 -1.5615867,2.908838 -0.024714,1.063922 0.3421929,2.080128 0.8573417,2.970076 0.5151488,0.889948 1.205792,1.642945 1.9596382,2.173974 0.7538461,0.531028 1.6893436,0.921911 2.6332636,0.489909 0.919368,-0.420948 1.173972,-1.312152 1.286013,-2.173973 0.11204,-0.861822 0.04685,-1.833039 -0.153097,-2.786361 C 12.214386,15.407151 11.880369,14.472031 11.373279,13.69659 10.86619,12.92115 10.105124,12.232238 9.0768282,12.196242 z m 18.2797498,4.470425 c -3.605739,-0.05945 -7.664528,0.785591 -11.145442,2.541405 -3.477733,1.75421 -6.3708449,4.474361 -7.2261658,8.205985 C 8.0397601,31.53489 9.917305,36.077849 13.118582,39.692415 16.311504,43.297545 20.853491,46 25.703133,46 c 2.518533,0 5.004691,-1.107678 7.073069,-2.78636 2.068379,-1.678683 3.75456,-3.988137 4.286709,-6.736257 0.09867,-0.508757 -0.01991,-1.401035 -0.275575,-1.83716 -0.406441,-0.693331 -0.876214,-0.884077 -1.286012,-1.071677 -1.121835,-0.513559 -2.156524,-0.54911 -3.398748,-0.428671 -1.195217,0.115881 -2.32346,0.382712 -3.337508,0.91858 -0.54892,0.290074 -0.918804,0.566886 -1.255393,0.979819 -0.06385,0.07833 -0.111883,0.141132 -0.183716,0.244955 -0.03592,0.05191 -0.05128,0.0809 -0.153097,0.306193 -0.101817,0.225295 -0.153119,1.040892 -0.153097,1.041058 0.15286,1.137308 -0.294301,1.828627 -0.826722,2.112735 -0.562714,0.300272 -1.426365,0.291773 -2.480167,-0.48991 -0.935832,-0.694148 -1.320979,-1.234439 -1.43911,-1.653444 -0.09292,-0.329592 -0.01959,-0.731614 0.275575,-1.163535 0.715215,-1.046598 2.479859,-2.200005 4.623521,-3.490606 2.125643,-1.279752 4.450903,-2.637274 6.276966,-4.286708 0.894347,-0.80784 1.672184,-1.660235 2.204593,-2.694503 0.532408,-1.034267 0.762682,-2.296645 0.551148,-3.521224 -0.277311,-1.605343 -1.541372,-2.884088 -3.092554,-3.613083 -1.585331,-0.745044 -3.570758,-1.127502 -5.756437,-1.163535 z"
     id="path-main" />
</defs>

<use id="1" style="fill:#DBDBDB" xlink:href="#path-main" />



</svg>
