<svg height="22" viewBox="0 0 512 512" width="22" xmlns="http://www.w3.org/2000/svg">
 <path d="m352.31 106c-62.41 0-74.14 88.91-39.03 88.91 35.1 0 101.44-88.91 39.03-88.91m-96.44 10.875c-.991-.003-2.027.076-3.125.219-35.12 4.559-22.764 65.64-4.063 66.781 18.11 1.106 37.909-66.894 7.188-67m-60.844 24.19c-1.857.041-3.889.465-6.094 1.375-28.23 11.649-4.283 59.732 11.531 56.5 14.591-2.975 16.471-58.36-5.438-57.875m-45.906 37.688c-2.191.127-4.559.98-7.03 2.688-22.598 15.614 7.611 53.32 20.906 47.47 11.841-5.212 3.965-51.19-13.875-50.16m126.31 28.844c-47.947.425-108.97 24.725-119.59 72.31-11.804 52.818 48.58 126.09 111.59 126.09 30.999 0 66.748-27.978 73.44-63.44 5.109-27.04-60.13-16.204-57.781 1.688 2.808 21.446-15.717 32.01-33.875 18.19-57.806-44.01 95.71-65.967 85.59-126.09-3.281-19.496-28.64-29.02-59.37-28.75" fill="#dbdbdb" transform="matrix(1.51048604 0 0 1.51048604 -130.67962099 -130.68385657)"/>
</svg>
