<svg xmlns="http://www.w3.org/2000/svg" width="48" height="48">
 <path d="M 3,6.9999993 L 3,42 L 45,42 L 45,10.5 L 25.749993,10.5 L 25.749993,6.9999993 L 3,6.9999993 z M 4.7499993,8.750003 L 24,8.750003 L 24,12.249993 L 43.250007,12.249993 L 43.250007,15.75 L 20.499993,15.75 L 20.499993,12.249993 L 4.7499993,12.249993 L 4.7499993,8.750003 z" fill="#dbdbdb"/>
</svg>
