/* XPM */
static char * maximize_inactive_xpm[] = {
"24 25 3 1",
"   c None",
".  c #383C4A",
"+  c #A7ABAA",
"........................",
"........................",
"........................",
"........................",
"........................",
"........++++++++........",
"........++++++++........",
"........+......+........",
"........+......+........",
"........+......+........",
"........+......+........",
"........++++++++........",
"........................",
"........................",
"........................",
"........................",
"........................",
"........................",
"........................",
"........................",
"........................",
"........................",
"........................",
"........................",
"........................"};
