/* XPM */
static char * maximize_prelight_xpm[] = {
"24 25 3 1",
"   c None",
".  c #4D5463",
"+  c #FFFFFF",
"........................",
"........................",
"........................",
"........................",
"........................",
"........++++++++........",
"........++++++++........",
"........+......+........",
"........+......+........",
"........+......+........",
"........+......+........",
"........++++++++........",
"........................",
"........................",
"........................",
"........................",
"........................",
"........................",
"........................",
"........................",
"........................",
"........................",
"........................",
"........................",
"........................"};
