<svg height="16" width="16" xmlns="http://www.w3.org/2000/svg">
    <path d="M1 0v16h9.75L15 11.75V0zm1 1h12v10h-4v4H2zm2 2v1h8V3zm0 2v1h8V5zm0 2v1h8V7zm0 2v1h3V9z" fill="#4984C9" overflow="visible" style="marker:none" color="#000"/>
</svg>
