<?xml version="1.0" encoding="UTF-8" standalone="no"?>
<svg xmlns="http://www.w3.org/2000/svg" height="513" width="512" version="1.1">
 <path d="m33.692795 71.733047h183.68008v44.56144h-183.68008z" fill="#3C6BA3" fill-rule="evenodd"/>
 <path d="m8.6949148 115.20763h493.43646v326.0593h-493.43646z" fill="#4984C9" fill-rule="evenodd"/>
 <path d="m251.24734 228.423l-34.87762 31.00201h23.25152v49.60364h-23.25152l34.87762 30.99922 34.87761-31.00201h-23.25151v-49.60364h23.25151z" fill="#383C4A"/>
 <path d="m325.85638 262.45947a106.05703 106.05703 0 1 1 -212.11406 0 106.05703 106.05703 0 1 1 212.11406 0z" fill="none" stroke="#9f5722" stroke-width="27.2" transform="matrix(.807317 0 0 .807317 73.85762 71.919797)" style="stroke:#383C4A606060a0b6e5;stroke-opacity:1"/>
</svg>
