<svg height="513" width="512" xmlns="http://www.w3.org/2000/svg">
 <path d="m33.692795 71.733047h183.68008v44.56144h-183.68008z" fill="#3C6BA3" fill-rule="evenodd"/>
 <path d="m8.6949148 115.20763h493.43646v326.0593h-493.43646z" fill="#4984C9" fill-rule="evenodd"/>
 <g fill="#383C4A" transform="matrix(4.1468862 0 0 4.1468862 157.4781937 184.15792529)">
  <path d="m24 36.428572c-1.261716 0-2.386857.529712-3.214285 1.357143l3.214285 3.214285 3.214285-3.214285c-.827429-.827431-1.952569-1.357144-3.214285-1.357143z" overflow="visible"/>
  <path d="m24 27.285715c-3.785141 0-7.196285 1.553428-9.678572 4.035713l3.214287 3.214287c1.654857-1.654858 3.940856-2.678572 6.464285-2.678572 2.523428 0 4.809428 1.023714 6.464285 2.678572l3.214287-3.214287c-2.482287-2.482285-5.893431-4.035713-9.678572-4.035713z" overflow="visible"/>
  <path d="m24 18.142857c-6.308572 0-12.005715 2.577143-16.1428571 6.714286l3.2142861 3.214285c3.309714-3.309713 7.881711-5.357143 12.928571-5.357143 5.04686 0 9.618857 2.04743 12.928572 5.357143l3.214285-3.214285c-4.137142-4.137143-9.834285-6.714286-16.142857-6.714286z" overflow="visible"/>
  <path d="m24 9c-8.831997 0-16.8151424 3.600857-22.6071428 9.392857l3.2142857 3.214286c4.9645714-4.964571 11.8225731-8.035715 19.3928571-8.035715 7.570284 0 14.428285 3.071144 19.392857 8.035715l3.214286-3.214286c-5.792-5.792-13.775146-9.392857-22.607143-9.392857z" overflow="visible"/>
 </g>
</svg>
