<svg height="513" width="512" xmlns="http://www.w3.org/2000/svg">
 <path d="m33.692795 71.733047h183.68008v44.56144h-183.68008z" fill="#3C6BA3" fill-rule="evenodd"/>
 <path d="m8.6949148 115.20763h493.43646v326.0593h-493.43646z" fill="#4984C9" fill-rule="evenodd"/>
 <path d="m269 647.69c-1.0005-.004-1.5631 3.5402-2.375 4.125-.81155.58452-4.3435-.0125-4.6562.9375-.31286.95036 2.8822 2.5784 3.1875 3.5312.30513.95245-1.3381 4.1278-.53125 4.7188.80717.59122 3.3432-1.9416 4.3438-1.9375 1.0001.004 3.5011 2.5847 4.3125 2 .81172-.58496-.81311-3.7997-.5-4.75.31298-.9499 3.5241-2.5476 3.2188-3.5-.3055-.95275-3.8492-.37732-4.6562-.96875-.8067-.5912-1.3436-4.1524-2.3438-4.1562z" fill="#383C4A" transform="matrix(10.572693 0 0 10.572693 -2592.5481 -6638.5287)"/>
</svg>
