<svg height="513" width="512" xmlns="http://www.w3.org/2000/svg">
 <path d="m33.692795 71.733047h183.68008v44.56144h-183.68008z" fill="#3C6BA3" fill-rule="evenodd"/>
 <path d="m8.6949148 115.20763h493.43646v326.0593h-493.43646z" fill="#4984C9" fill-rule="evenodd"/>
 <path d="m177.20941 288.7404l79.3408-65.9426 31.73632 24.72848v-10.99044h15.86816v24.72848l31.73632 27.47608h-15.86816v65.94259h-39.6704v-54.95216h-31.73632v54.95216h-55.53856v-65.94259z" fill="#383C4A"/>
</svg>
