<svg viewBox="0 0 24 24" xmlns="http://www.w3.org/2000/svg">
 <path d="m9 4v2h-3v14h12v-14h-3v-2zm5 3l-1 5h3l-6 7 1-5h-3z" fill="#dbdbdb" opacity=".4"/>
 <path d="m6 13.6v6.4h12v-6.4h-3.371l-4.629 5.4 1-5h-3l .344-.4z" fill="#dbdbdb"/>
</svg>
