<svg viewBox="0 0 19.64 24" xmlns="http://www.w3.org/2000/svg">
 <path d="m118.5-180v79.72l-43.819-33.33-14.849 11.822 54.51 41.79-55.35 41.789 17.341 13.05 42.16-33.909v79.06l78.5-58.21-52.02-41.13 50.36-40.559-76.84-60.1m21.494 38.588l25.648 22.17-25.648 19.622v-41.789zm-.831 83.01l27.309 19.54-25.648 17.652-1.661-37.19z" fill="#dbdbdb" fill-rule="evenodd" transform="matrix(.09 0 0 .09 -1.7000003 19.2)"/>
 <path d="m16.271687 16.616424c-.806 0-1.455.662-1.455 1.477v.705c-.403 0-.727.324-.727.727v2.182c0 .403.324.727.727.727h2.909c.403 0 .727-.324.727-.727v-2.182c0-.403-.324-.727-.727-.727v-.705c0-.815-.649-1.477-1.455-1.477zm0 .727c.403 0 .727.322.727.727v.727h-1.455v-.727c0-.406.324-.727.727-.727z" fill="#dbdbdb"/>
</svg>
