<svg xmlns="http://www.w3.org/2000/svg" width="48" height="48">
 <path d="M 23.984229,2 C 11.84743,2 2,11.859112 2,24 2,36.140888 11.84743,46.000002 23.984229,46 36.121027,46 45.999998,36.141783 46,24 46,11.858216 36.121029,2 23.984229,2 z m -16.0544806,19.190818 31.6673846,0 0,5.144906 -31.6673846,0 0,-5.144906 z" fill="#dbdbdb"/>
</svg>
