<svg xmlns="http://www.w3.org/2000/svg" width="48" height="48">
 <path d="M 3,6.9999993 L 3,22.113 L 1,22.113 L 1,42 L 47,42 L 47,25.613 L 45,25.613 L 45,10.5 L 25.749993,10.5 L 25.749993,6.9999993 L 3,6.9999993 z M 4.7499993,8.750003 L 24,8.750003 L 24,12.249993 L 43.250007,12.249993 L 43.250007,25.613 L 20.499993,25.613281 L 20.499993,22.113274 L 4.7499993,22.113 L 4.7499993,8.750003 z" fill="#dbdbdb"/>
</svg>
