<svg viewBox="0 0 24 24" xmlns="http://www.w3.org/2000/svg">
 <path d="m4 2c-1.108 0-2 .892-2 2v16c0 1.108.892 2 2 2h16c1.108 0 2-.892 2-2v-16c0-1.108-.892-2-2-2zm8.955 4.551v3.236c.167-.058.358-.109.574-.15.225-.042.447-.063.664-.063.525 0 .957.077 1.299.227.35.142.63.345.838.611.208.258.354.571.438.938.092.367.137.775.137 1.225v3.676h-1.512v-3.438c0-.35-.024-.645-.074-.887-.042-.25-.118-.452-.227-.602-.1-.158-.237-.269-.412-.336-.175-.075-.392-.113-.65-.113-.2 0-.403.021-.611.063-.208.042-.363.08-.463.113v5.199h-1.512v-9.449l1.512-.25zm-6.775.949c1.258 0 2.22.229 2.887.688.675.458 1.014 1.175 1.014 2.15 0 .508-.092.946-.275 1.313-.175.358-.434.653-.775.887-.342.225-.758.392-1.25.5-.492.108-1.054.162-1.688.162h-.787v3.051h-1.574v-8.537c.367-.083.769-.137 1.211-.162.45-.033.863-.051 1.238-.051zm.113 1.363c-.4 0-.73.012-.988.037v2.949h.762c.758 0 1.342-.104 1.75-.313.408-.217.613-.621.613-1.213 0-.283-.054-.519-.162-.711-.108-.192-.26-.343-.451-.451-.192-.108-.421-.183-.688-.225-.258-.05-.536-.074-.836-.074zm13.12 5.455c.462 0 .801.111 1.018.332.221.217.332.513.332.893 0 .15-.031.299-.094.445-.063.142-.144.28-.244.418-.096.133-.205.265-.33.395-.125.125-.25.246-.375.367-.067.063-.143.139-.227.227-.083.087-.161.174-.236.262-.075.087-.139.173-.193.256-.054.079-.084.147-.088.201h1.924v.637h-2.756c-.004-.033-.006-.073-.006-.119v-.111c0-.2.031-.384.094-.551.067-.171.152-.329.256-.475.104-.146.22-.283.35-.412.129-.129.26-.258.389-.383.1-.096.195-.19.287-.281.092-.092.172-.18.238-.268.071-.092.126-.184.168-.275.042-.096.063-.193.063-.293 0-.217-.063-.371-.188-.463-.125-.092-.278-.139-.457-.139-.117 0-.224.017-.324.051-.1.033-.19.073-.27.119-.075.046-.141.093-.199.143-.058.046-.102.084-.131.113l-.375-.531c.175-.167.378-.3.611-.4.237-.104.493-.156.764-.156z" fill="#dbdbdb"/>
</svg>
