<svg viewBox="0 0 24 24" xmlns="http://www.w3.org/2000/svg">
 <path d="m4 2c-1.108 0-2 .892-2 2v16c0 1.108.892 2 2 2h16c1.108 0 2-.892 2-2v-16c0-1.108-.892-2-2-2zm-.479 5.588h1.576v3.463h3.762v-3.463h1.576v8.662h-1.576v-3.838h-3.762v3.838h-1.576zm8.06 2.125h1.611c.083.35.184.728.301 1.137.125.408.259.825.4 1.25.142.417.291.833.449 1.25.158.417.316.804.475 1.162.267-.742.517-1.528.75-2.361.233-.842.447-1.654.639-2.438h1.563c-.675 2.483-1.458 4.733-2.35 6.75-.167.375-.339.696-.514.963-.175.267-.371.487-.588.662-.217.175-.458.3-.725.375-.267.083-.574.125-.924.125-.233 0-.468-.026-.701-.076-.225-.05-.395-.104-.512-.162l.275-1.213c.3.117.595.176.887.176.392 0 .695-.095.912-.287.225-.183.421-.472.588-.863-.475-.917-.933-1.917-1.375-3-.433-1.083-.82-2.233-1.162-3.449zm7.176 4.705h2.211v.639h-1.568c-.004.071-.009.152-.018.244-.004.088-.011.176-.02.268-.004.092-.011.18-.02.264-.008.083-.015.153-.023.211.617.033 1.07.176 1.361.426.296.246.443.583.443 1.012 0 .196-.033.378-.1.545-.067.167-.169.311-.307.432-.137.121-.309.216-.518.287-.208.067-.453.1-.732.1-.113 0-.227-.009-.344-.025-.117-.017-.228-.038-.336-.063-.104-.021-.198-.043-.281-.068-.083-.025-.146-.048-.188-.068l.143-.639c.087.042.212.089.375.139.167.046.37.068.607.068.163 0 .301-.017.418-.051.117-.038.21-.086.281-.148.075-.063.129-.134.162-.213.033-.083.051-.172.051-.264 0-.137-.028-.259-.082-.367-.054-.108-.15-.2-.287-.275-.133-.075-.314-.132-.543-.17-.225-.038-.512-.055-.857-.055.046-.4.082-.78.107-1.139.025-.363.046-.725.063-1.088z" fill="#dbdbdb"/>
</svg>
