<svg viewBox="0 0 24 24" xmlns="http://www.w3.org/2000/svg">
 <path d="m4 2c-1.108 0-2 .892-2 2v16c0 1.108.892 2 2 2h16c1.108 0 2-.892 2-2v-16c0-1.108-.892-2-2-2zm .289 5.588h1.588v5.262c0 .392.042.73.125 1.014.092.275.217.499.375.674.167.175.36.305.576.389.225.083.475.125.75.125.275 0 .525-.042.75-.125.225-.083.416-.214.574-.389.167-.175.292-.399.375-.674.092-.283.137-.622.137-1.014v-5.262h1.588v5.412c0 .5-.071.958-.213 1.375-.133.417-.342.78-.625 1.088-.275.308-.629.55-1.063.725-.433.167-.945.25-1.537.25-.592 0-1.1-.083-1.525-.25-.425-.175-.779-.416-1.063-.725-.275-.308-.478-.671-.611-1.088-.133-.417-.201-.875-.201-1.375zm11.328 1.986c.1 0 .216.009.35.025.133.008.267.026.4.051.133.017.262.041.387.074.125.025.226.051.301.076l-.264 1.273c-.125-.042-.3-.083-.525-.125-.217-.05-.47-.074-.762-.074-.167 0-.345.017-.537.051-.183.033-.314.061-.389.086v5.238h-1.512v-6.225c.292-.108.655-.209 1.088-.301.442-.1.93-.15 1.463-.15zm4.467 4.82l.043.625c-.225.004-.435.028-.631.074-.196.042-.371.108-.525.199-.154.092-.288.212-.4.357-.108.146-.192.325-.25.537.204-.096.428-.145.67-.145.258 0 .477.038.656.113.183.071.331.168.443.293.113.125.194.271.244.438.054.163.08.335.08.514 0 .163-.03.329-.088.5-.054.171-.141.327-.262.469-.117.137-.264.252-.443.344-.179.087-.393.131-.639.131-.496 0-.874-.163-1.137-.488-.258-.329-.387-.78-.387-1.355 0-.417.059-.785.18-1.105.125-.325.3-.599.525-.82.229-.221.505-.387.826-.5.325-.117.69-.176 1.094-.18zm-1.188 2.25c-.121 0-.239.01-.352.031-.113.021-.213.052-.305.094-.004.033-.009.07-.014.111v.113c0 .167.01.325.031.475.025.146.065.274.119.387.058.108.135.197.23.264.1.063.223.094.369.094.121 0 .223-.026.307-.076.087-.05.159-.114.213-.193.054-.079.094-.164.119-.256.025-.096.037-.188.037-.275 0-.25-.061-.439-.182-.568-.121-.133-.312-.199-.574-.199z" fill="#dbdbdb"/>
</svg>
