<svg viewBox="0 0 24 24" xmlns="http://www.w3.org/2000/svg">
 <path d="m4 2c-1.108 0-2 .892-2 2v16c0 1.108.892 2 2 2h16c1.108 0 2-.892 2-2v-16c0-1.108-.892-2-2-2zm .742 5.588h5.563v1.338h-3.986v2.137h3.549v1.313h-3.549v2.537h4.287v1.338h-5.863v-8.662zm9.35 1.963c.383 0 .75.036 1.1.111.35.067.614.135.789.201l-.275 1.225c-.167-.075-.38-.143-.639-.201-.258-.067-.557-.1-.898-.1-.308 0-.558.054-.75.162-.192.1-.289.26-.289.477 0 .108.017.204.051.287.042.083.108.161.199.236.092.067.213.138.363.213.15.067.334.138.551.213.358.133.662.267.912.4.25.125.453.271.611.438.167.158.288.34.363.549.075.208.113.458.113.75 0 .625-.235 1.101-.701 1.426-.458.317-1.116.475-1.975.475-.575 0-1.037-.05-1.387-.15-.35-.092-.597-.166-.738-.225l.262-1.262c.225.092.492.178.801.262.317.083.674.125 1.074.125.4 0 .692-.045.875-.137.183-.1.275-.267.275-.5 0-.217-.099-.395-.299-.537-.192-.142-.513-.296-.963-.463-.275-.1-.53-.204-.764-.313-.225-.117-.419-.25-.586-.4-.167-.15-.3-.329-.4-.537-.092-.217-.139-.479-.139-.787 0-.6.222-1.072.664-1.414.442-.35 1.04-.523 1.799-.523zm4.775 4.867h.719v2.676h.488v.619h-.488v1.037h-.736v-1.037h-1.9v-.537c.083-.183.193-.395.33-.633.142-.238.298-.48.469-.73.171-.25.353-.497.545-.738.192-.242.383-.46.574-.656zm-.018.932c-.1.121-.204.251-.313.389-.104.137-.207.28-.307.43-.1.15-.195.305-.287.463-.092.154-.175.309-.25.463h1.156v-1.744z" fill="#dbdbdb"/>
</svg>
