<svg viewBox="0 0 24 24" xmlns="http://www.w3.org/2000/svg">
 <path d="m4 2c-1.108 0-2 .892-2 2v16c0 1.108.892 2 2 2h16c1.108 0 2-.892 2-2v-16c0-1.108-.892-2-2-2zm1.461 5.838h6.912v1.361h-2.662v7.301h-1.588v-7.301h-2.662zm9.713 1.963c.5 0 .922.063 1.264.188.342.125.613.298.813.523.208.225.354.501.438.826.092.317.137.665.137 1.049v3.963c-.233.05-.587.109-1.063.176-.467.075-.996.111-1.588.111-.392 0-.749-.036-1.074-.111-.325-.075-.605-.197-.838-.363-.225-.167-.404-.384-.537-.65-.125-.267-.188-.595-.188-.986 0-.375.071-.693.213-.951.15-.258.35-.467.6-.625.25-.167.536-.283.861-.35.333-.075.681-.111 1.039-.111.167 0 .34.012.523.037.183.017.38.05.588.1v-.25c0-.175-.021-.342-.063-.5-.042-.158-.116-.295-.225-.412-.1-.125-.237-.22-.412-.287-.167-.067-.38-.102-.639-.102-.35 0-.669.026-.961.076-.292.05-.53.107-.713.174l-.188-1.225c.192-.067.471-.133.838-.199.367-.067.757-.1 1.174-.1zm.301 3.773c-.167 0-.339.014-.514.039-.167.025-.319.07-.461.137-.133.067-.243.162-.326.287-.083.117-.125.268-.125.451 0 .358.113.608.338.75.225.133.529.199.912.199.467 0 .821-.024 1.063-.074v-1.676c-.083-.025-.203-.049-.361-.074-.158-.025-.334-.039-.525-.039z" fill="#dbdbdb"/>
</svg>
