<svg viewBox="0 0 24 24" xmlns="http://www.w3.org/2000/svg">
 <path d="m4 2c-1.108 0-2 .892-2 2v16c0 1.108.892 2 2 2h16c1.108 0 2-.892 2-2v-16c0-1.108-.892-2-2-2zm3.531 5.588h1.588v5.813c0 .425-.047.821-.139 1.188-.092.367-.253.688-.486.963-.225.275-.534.49-.926.648-.383.158-.871.238-1.463.238-.55 0-1.029-.075-1.438-.225-.4-.158-.707-.325-.924-.5l.563-1.238c.208.142.462.279.762.412.308.125.621.188.938.188.533 0 .92-.132 1.162-.398.242-.267.363-.725.363-1.375v-5.713zm5.709 1.963c.5 0 .92.063 1.262.188.342.125.613.298.813.523.208.225.354.501.438.826.092.317.137.665.137 1.049v3.963c-.233.05-.588.109-1.063.176-.467.075-.994.111-1.586.111-.392 0-.751-.036-1.076-.111-.325-.075-.605-.197-.838-.363-.225-.167-.404-.384-.537-.65-.125-.267-.188-.595-.188-.986 0-.375.071-.693.213-.951.15-.258.35-.467.6-.625.25-.167.538-.283.863-.35.333-.075.679-.111 1.037-.111.167 0 .342.012.525.037.183.017.38.05.588.1v-.25c0-.175-.021-.342-.063-.5-.042-.158-.118-.295-.227-.412-.1-.125-.237-.22-.412-.287-.167-.067-.378-.102-.637-.102-.35 0-.671.026-.963.076-.292.05-.53.107-.713.174l-.188-1.225c.192-.067.471-.133.838-.199.367-.067.759-.1 1.176-.1zm.299 3.773c-.167 0-.337.014-.512.039-.167.025-.321.07-.463.137-.133.067-.241.162-.324.287-.083.117-.125.268-.125.451 0 .358.111.608.336.75.225.133.531.199.914.199.467 0 .821-.024 1.063-.074v-1.676c-.083-.025-.205-.049-.363-.074-.158-.025-.334-.039-.525-.039zm4.02 1.094h2.213v.639h-1.568c-.004.071-.011.152-.02.244-.004.088-.011.176-.02.268-.004.092-.009.18-.018.264-.008.083-.017.153-.025.211.617.033 1.072.176 1.363.426.296.246.443.583.443 1.012 0 .196-.033.378-.1.545-.067.167-.169.311-.307.432-.138.121-.311.216-.52.287-.208.067-.451.1-.73.1-.113 0-.227-.009-.344-.025-.117-.017-.23-.038-.338-.063-.104-.021-.198-.043-.281-.068-.083-.025-.146-.048-.188-.068l.145-.639c.087.042.212.089.375.139.167.046.368.068.605.068.163 0 .301-.017.418-.051.117-.038.21-.086.281-.148.075-.063.131-.134.164-.213.033-.083.049-.172.049-.264 0-.137-.026-.259-.08-.367-.054-.108-.152-.2-.289-.275-.133-.075-.314-.132-.543-.17-.225-.038-.51-.055-.855-.055.046-.4.08-.78.105-1.139.025-.363.046-.725.063-1.088z" fill="#dbdbdb"/>
</svg>
