<svg viewBox="0 0 24 24" xmlns="http://www.w3.org/2000/svg">
 <path d="m4 2c-1.108 0-2 .892-2 2v16c0 1.108.892 2 2 2h16c1.108 0 2-.892 2-2v-16c0-1.108-.892-2-2-2zm .768 5.588h5.475v1.338h-3.9v2.211h3.463v1.338h-3.463v3.775h-1.574v-8.662zm8.424 1.963c.5 0 .92.063 1.262.188.342.125.613.298.813.523.208.225.354.501.438.826.092.317.137.665.137 1.049v3.963c-.233.05-.588.109-1.063.176-.467.075-.994.111-1.586.111-.392 0-.751-.036-1.076-.111-.325-.075-.605-.197-.838-.363-.225-.167-.404-.384-.537-.65-.125-.267-.188-.595-.188-.986 0-.375.071-.693.213-.951.15-.258.35-.467.6-.625.25-.167.538-.283.863-.35.333-.075.679-.111 1.037-.111.167 0 .342.012.525.037.183.017.38.05.588.1v-.25c0-.175-.021-.342-.063-.5-.042-.158-.118-.295-.227-.412-.1-.125-.237-.22-.412-.287-.167-.067-.378-.102-.637-.102-.35 0-.671.026-.963.076-.292.05-.53.107-.713.174l-.188-1.225c.192-.067.471-.133.838-.199.367-.067.759-.1 1.176-.1zm.299 3.773c-.167 0-.337.014-.512.039-.167.025-.321.07-.463.137-.133.067-.241.162-.324.287-.083.117-.125.268-.125.451 0 .358.111.608.336.75.225.133.531.199.914.199.467 0 .821-.024 1.063-.074v-1.676c-.083-.025-.205-.049-.363-.074-.158-.025-.334-.039-.525-.039zm4.885.994c.462 0 .801.111 1.018.332.221.217.332.513.332.893 0 .15-.031.299-.094.445-.063.142-.144.28-.244.418-.096.133-.207.265-.332.395-.125.125-.25.246-.375.367-.067.063-.141.139-.225.227-.083.087-.161.174-.236.262-.075.087-.141.173-.195.256-.054.079-.082.147-.086.201h1.924v.637h-2.756c-.004-.033-.006-.073-.006-.119v-.111c0-.2.031-.384.094-.551.067-.171.152-.329.256-.475.104-.146.22-.283.35-.412.129-.129.26-.258.389-.383.1-.096.195-.19.287-.281.092-.092.17-.18.236-.268.071-.092.128-.184.17-.275.042-.096.063-.193.063-.293 0-.217-.063-.371-.188-.463-.125-.092-.278-.139-.457-.139-.117 0-.224.017-.324.051-.1.033-.19.073-.27.119-.075.046-.141.093-.199.143-.058.046-.102.084-.131.113l-.375-.531c.175-.167.378-.3.611-.4.238-.104.493-.156.764-.156z" fill="#dbdbdb"/>
</svg>
