<svg viewBox="0 0 24 24" xmlns="http://www.w3.org/2000/svg">
 <path d="m4 2c-1.108 0-2 .892-2 2v16c0 1.108.892 2 2 2h16c1.108 0 2-.892 2-2v-16c0-1.108-.892-2-2-2zm .914 5.588h1.574v7.299h3.9v1.363h-5.475v-8.662zm5.252 2.125h1.613c.092.367.196.763.313 1.188.125.417.253.837.387 1.262.142.417.284.825.426 1.225.15.392.287.746.412 1.063.125-.317.259-.671.4-1.063.142-.4.279-.808.412-1.225.142-.425.275-.845.4-1.262.125-.425.233-.821.324-1.188h1.563c-.358 1.275-.758 2.471-1.199 3.588-.433 1.108-.859 2.091-1.275 2.949h-1.299c-.417-.858-.847-1.841-1.289-2.949-.433-1.117-.829-2.313-1.188-3.588zm9.355 4.682l.043.625c-.225.004-.435.028-.631.074-.196.042-.371.108-.525.199-.154.092-.286.212-.398.357-.108.146-.192.325-.25.537.204-.096.426-.145.668-.145.258 0 .477.038.656.113.183.071.331.168.443.293.113.125.194.271.244.438.054.163.082.335.082.514 0 .163-.03.329-.088.5-.054.171-.143.327-.264.469-.117.137-.264.252-.443.344-.179.087-.391.131-.637.131-.496 0-.876-.163-1.139-.488-.258-.329-.387-.78-.387-1.355 0-.417.061-.785.182-1.105.125-.325.3-.599.525-.82.229-.221.503-.387.824-.5.325-.117.69-.176 1.094-.18zm-1.188 2.25c-.121 0-.237.01-.35.031-.113.021-.215.052-.307.094-.004.033-.008.07-.012.111v.113c0 .167.01.325.031.475.025.146.063.274.117.387.058.108.137.197.232.264.1.063.223.094.369.094.121 0 .221-.026.305-.076.087-.05.159-.114.213-.193.054-.079.094-.164.119-.256.025-.096.037-.188.037-.275 0-.25-.061-.439-.182-.568-.121-.133-.312-.199-.574-.199z" fill="#dbdbdb"/>
</svg>
