<svg viewBox="0 0 24 24" xmlns="http://www.w3.org/2000/svg">
 <g fill="#dbdbdb" transform="translate(0 -1028.8622)">
  <path d="m10 1045.86l-2 2c-1 1-1 1 0 1h8c1 0 1 0 0-1l-2-2v-1h-4z"/>
  <path d="m6 1032.86c-1.108 0-2 .892-2 2v9c0 1.108.892 2 2 2h12c1.108 0 2-.892 2-2v-9c0-1.108-.892-2-2-2zm0 2h12v9h-12z"/>
  <g transform="translate(-.11535655)">
   <path d="m7.316 1041.42h1.453v-4.123l-1.491.308v-1.119l1.483-.308h1.564v5.242h1.453v1.136h-4.46v-1.136z"/>
   <path d="m14.15 1041.34h2.807v1.209h-4.636v-1.209l2.328-2.055q.312-.282.461-.551.15-.269.15-.56 0-.449-.303-.722-.299-.273-.799-.273-.385 0-.842.167-.457.162-.978.487v-1.401q.555-.184 1.098-.278.543-.098 1.064-.098 1.145 0 1.777.504.637.504.637 1.406 0 .521-.269.974-.269.449-1.132 1.205l-1.363 1.196z"/>
  </g>
 </g>
</svg>
