<svg viewBox="0 0 24 24" xmlns="http://www.w3.org/2000/svg">
 <path d="m4 2c-1.108 0-2 .892-2 2v16c0 1.108.892 2 2 2h16c1.108 0 2-.892 2-2v-16c0-1.108-.892-2-2-2zm5.502 5.637c.567 0 1.105.097 1.613.289.508.192.949.478 1.324.861.383.383.687.859.912 1.426.225.558.338 1.208.338 1.949 0 .742-.113 1.396-.338 1.963-.217.567-.515 1.042-.898 1.426-.375.375-.818.658-1.326.85-.508.192-1.05.287-1.625.287-.575 0-1.12-.095-1.637-.287-.508-.192-.955-.475-1.338-.85-.375-.383-.675-.859-.9-1.426-.225-.567-.338-1.221-.338-1.963 0-.742.113-1.391.338-1.949.225-.567.529-1.042.912-1.426.392-.383.843-.67 1.352-.861.508-.192 1.045-.289 1.611-.289zm-.012 1.389c-.4 0-.76.075-1.076.225-.317.15-.588.362-.813.637-.217.275-.383.605-.5.988-.117.383-.174.812-.174 1.287 0 .475.057.909.174 1.301.117.383.283.711.5.986.225.267.496.475.813.625.317.15.676.227 1.076.227.392 0 .746-.077 1.062-.227.317-.15.582-.358.799-.625.225-.275.397-.603.514-.986.117-.392.174-.826.174-1.301 0-.475-.057-.904-.174-1.287-.117-.392-.289-.722-.514-.988-.217-.275-.482-.487-.799-.637-.317-.15-.671-.225-1.062-.225zm8.391.799c.1 0 .216.009.35.025.133.008.267.026.4.051.133.017.262.041.387.074.125.025.226.051.301.076l-.264 1.273c-.125-.042-.298-.083-.523-.125-.217-.05-.472-.074-.764-.074-.167 0-.345.017-.537.051-.183.033-.312.061-.387.086v5.238h-1.514v-6.225c.292-.108.655-.209 1.088-.301.442-.1.93-.15 1.463-.15z" fill="#dbdbdb"/>
</svg>
