<svg viewBox="0 0 24 24" xmlns="http://www.w3.org/2000/svg">
 <path d="m4 2c-1.108 0-2 .892-2 2v16c0 1.108.892 2 2 2h16c1.108 0 2-.892 2-2v-16c0-1.108-.892-2-2-2zm-.137 5.588h1.576v3.574c.275-.275.561-.567.861-.875.3-.317.597-.633.889-.949.3-.325.583-.637.85-.938.267-.3.508-.571.725-.813h1.889c-.275.317-.567.645-.875.986-.308.342-.626.689-.951 1.039-.325.342-.653.682-.986 1.023-.325.342-.646.668-.963.977.35.267.704.579 1.063.938.367.35.724.728 1.074 1.137.35.4.683.82 1 1.262.325.433.622.867.889 1.301h-1.863c-.217-.333-.467-.684-.75-1.051-.283-.367-.584-.721-.9-1.063-.308-.342-.63-.666-.963-.975-.333-.308-.661-.574-.986-.799v3.887h-1.576v-8.662zm10.23 1.963c.5 0 .92.063 1.262.188.342.125.613.298.813.523.208.225.354.501.438.826.092.317.139.665.139 1.049v3.963c-.233.05-.587.109-1.063.176-.467.075-.996.111-1.588.111-.392 0-.749-.036-1.074-.111-.325-.075-.605-.197-.838-.363-.225-.167-.404-.384-.537-.65-.125-.267-.188-.595-.188-.986 0-.375.069-.693.211-.951.15-.258.352-.467.602-.625.25-.167.536-.283.861-.35.333-.075.679-.111 1.037-.111.167 0 .342.012.525.037.183.017.38.05.588.1v-.25c0-.175-.021-.342-.063-.5-.042-.158-.116-.295-.225-.412-.1-.125-.237-.22-.412-.287-.167-.067-.38-.102-.639-.102-.35 0-.671.026-.963.076-.292.05-.528.107-.711.174l-.188-1.225c.192-.067.469-.133.836-.199.367-.067.759-.1 1.176-.1zm.301 3.773c-.167 0-.339.014-.514.039-.167.025-.321.07-.463.137-.133.067-.241.162-.324.287-.083.117-.125.268-.125.451 0 .358.113.608.338.75.225.133.529.199.912.199.467 0 .821-.024 1.063-.074v-1.676c-.083-.025-.205-.049-.363-.074-.158-.025-.332-.039-.523-.039zm5.352 1.094h.719v2.676h.488v.619h-.488v1.037h-.736v-1.037h-1.9v-.537c.083-.183.193-.395.33-.633.142-.238.298-.48.469-.73.171-.25.353-.497.545-.738.192-.242.383-.46.574-.656zm-.018.932c-.1.121-.204.251-.313.389-.104.137-.207.28-.307.43-.1.15-.195.305-.287.463-.092.154-.175.309-.25.463h1.156v-1.744z" fill="#dbdbdb"/>
</svg>
