<?xml version='1.0' encoding='UTF-8' standalone='no'?>
<!-- Created with Inkscape (http://www.inkscape.org/) -->

<svg xmlns:cc='http://creativecommons.org/ns#' xmlns:dc='http://purl.org/dc/elements/1.1/' sodipodi:docname='network-cellular-no-route-symbolic.svg' inkscape:export-filename='/home/sam/dev/RESOURCES/gnome-icon-theme-symbolic/src/gnome-stencils.png' inkscape:export-xdpi='90' inkscape:export-ydpi='90' height='16' id='svg7384' xmlns:inkscape='http://www.inkscape.org/namespaces/inkscape' xmlns:rdf='http://www.w3.org/1999/02/22-rdf-syntax-ns#' xmlns:sodipodi='http://sodipodi.sourceforge.net/DTD/sodipodi-0.dtd' xmlns:svg='http://www.w3.org/2000/svg' version='1.1' inkscape:version='0.48.4 r9939' width='16' xmlns='http://www.w3.org/2000/svg'>
  <metadata id='metadata90'>
    <rdf:RDF>
      <cc:Work rdf:about=''>
        <dc:format>image/svg+xml</dc:format>
        <dc:type rdf:resource='http://purl.org/dc/dcmitype/StillImage'/>
        <dc:title>Gnome Symbolic Icon Theme</dc:title>
      </cc:Work>
    </rdf:RDF>
  </metadata>
  <sodipodi:namedview inkscape:bbox-nodes='false' inkscape:bbox-paths='true' bordercolor='#666666' borderopacity='1' inkscape:current-layer='layer9' inkscape:cx='-55.351093' inkscape:cy='-14.012087' gridtolerance='10' inkscape:guide-bbox='true' guidetolerance='10' id='namedview88' inkscape:object-nodes='false' inkscape:object-paths='false' objecttolerance='10' pagecolor='#3a3b39' inkscape:pageopacity='1' inkscape:pageshadow='2' showborder='false' showgrid='false' showguides='true' inkscape:snap-bbox='true' inkscape:snap-bbox-midpoints='false' inkscape:snap-global='true' inkscape:snap-grids='true' inkscape:snap-nodes='true' inkscape:snap-others='false' inkscape:snap-to-guides='true' inkscape:window-height='1374' inkscape:window-maximized='1' inkscape:window-width='2560' inkscape:window-x='0' inkscape:window-y='27' inkscape:zoom='2.8284271'>
    <inkscape:grid dotted='false' empspacing='2' enabled='true' id='grid4866' originx='60px' originy='40.000001px' snapvisiblegridlinesonly='true' spacingx='1px' spacingy='1px' type='xygrid' visible='true'/>
  </sodipodi:namedview>
  <title id='title9167'>Gnome Symbolic Icon Theme</title>
  <defs id='defs7386'/>
  <g inkscape:groupmode='layer' id='layer9' inkscape:label='status' style='display:inline' transform='translate(-181.0002,-257)'>
    <path inkscape:connector-curvature='0' d='m 181,266 0,1.5 0,3 0,1.5 3,0 0,-1.5 0,-3 0,-1.5 -3,0 z' id='path9349' style='font-size:medium;font-style:normal;font-variant:normal;font-weight:normal;font-stretch:normal;text-indent:0;text-align:start;text-decoration:none;line-height:normal;letter-spacing:normal;word-spacing:normal;text-transform:none;direction:ltr;block-progression:tb;writing-mode:lr-tb;text-anchor:start;baseline-shift:baseline;opacity:0.35;color:#000000;fill:#DBDBDB;fill-opacity:1;fill-rule:evenodd;stroke:none;stroke-width:3;marker:none;visibility:visible;display:inline;overflow:visible;enable-background:accumulate;font-family:Sans;-inkscape-font-specification:Sans'/>
    <path inkscape:connector-curvature='0' d='m 193,257 0,1.5 0,12 0,1.5 3,0 0,-1.5 0,-12 0,-1.5 -3,0 z' id='path9283' style='font-size:medium;font-style:normal;font-variant:normal;font-weight:normal;font-stretch:normal;text-indent:0;text-align:start;text-decoration:none;line-height:normal;letter-spacing:normal;word-spacing:normal;text-transform:none;direction:ltr;block-progression:tb;writing-mode:lr-tb;text-anchor:start;baseline-shift:baseline;opacity:0.35;color:#000000;fill:#DBDBDB;fill-opacity:1;fill-rule:evenodd;stroke:none;stroke-width:3;marker:none;visibility:visible;display:inline;overflow:visible;enable-background:accumulate;font-family:Sans;-inkscape-font-specification:Sans'/>

    <path inkscape:connector-curvature='0' d='m 188.84821,261.96875 c 1.64243,-0.092 3.0955,1.17008 3.1875,2.8125 -1e-4,1.40136 -0.37771,1.92177 -1.59375,2.84375 -0.19093,0.14364 -0.3256,0.2506 -0.375,0.3125 -0.0494,0.0621 -0.0312,0.0332 -0.0312,0.0312 0.007,0.52831 -0.47163,1 -1,1 -0.52837,0 -1.007,-0.47169 -1,-1 0,-0.50239 0.22424,-0.94342 0.46875,-1.25 0.24451,-0.30663 0.4913,-0.51638 0.71875,-0.6875 0.20405,-0.16056 0.46083,-0.38454 0.6875,-0.65625 0.0935,-0.1121 0.129,-0.30766 0.125,-0.4375 l 0,-0.0312 c -0.0316,-0.56324 -0.49926,-0.9691 -1.0625,-0.9375 -0.56324,0.0316 -0.9691,0.43676 -0.9375,1 l -2,0 c -0.092,-1.64243 1.17007,-2.9079 2.8125,-3 z m 0.1875,8 c 0.55228,0 1,0.44772 1,1 0,0.55228 -0.44772,1 -1,1 -0.55228,0 -1,-0.44772 -1,-1 0,-0.55228 0.44772,-1 1,-1 z' id='path19592-2-4-0' sodipodi:nodetypes='cccccsccccccsccccsssss' style='color:#90A4AE;fill:#DBDBDB;fill-opacity:1;stroke:none;stroke-width:2;marker:none;visibility:visible;display:inline;overflow:visible'/>
    <path inkscape:connector-curvature='0' d='m 189.0002,260 0,1.03125 c 1.18009,6.5e-4 2.26171,0.53152 3,1.375 l 0,-0.90625 0,-1.5 -3,0 z m -4,3 0,1.5 0,6 0,1.5 2.40625,0 c -0.18795,-0.29798 -0.3125,-0.65775 -0.3125,-1.03125 0,-0.64943 0.37518,-1.1473 0.875,-1.5 -0.50106,-0.34778 -0.88395,-0.82431 -0.875,-1.5 0,-0.78136 0.34393,-1.41296 0.6875,-1.84375 0.0779,-0.0977 0.14017,-0.13497 0.21875,-0.21875 l -1.96875,0 a 0.93759375,0.93759375 0 0 1 -0.9375,-0.875 c -0.0416,-0.74179 0.13259,-1.43751 0.46875,-2.03125 l -0.5625,0 z m 7,4.5 c -0.28537,0.30743 -0.61426,0.58254 -1,0.875 -0.0908,0.0683 -0.16921,0.14353 -0.21875,0.1875 -0.001,0.004 -0.0299,-0.004 -0.0312,0 -0.008,0.0112 -0.0311,0.0291 -0.0312,0.0312 -0.0111,0.0116 -0.005,0.0372 -0.0312,0.0625 -0.13961,0.34068 -0.29695,0.60649 -0.59375,0.8125 0.49982,0.3527 0.875,0.85057 0.875,1.5 0,0.3735 -0.12455,0.73327 -0.3125,1.03125 l 1.34375,0 0,-1.5 0,-3 z' id='path9345' style='font-size:medium;font-style:normal;font-variant:normal;font-weight:normal;font-stretch:normal;text-indent:0;text-align:start;text-decoration:none;line-height:normal;letter-spacing:normal;word-spacing:normal;text-transform:none;direction:ltr;block-progression:tb;writing-mode:lr-tb;text-anchor:start;baseline-shift:baseline;opacity:0.35;color:#000000;fill:#DBDBDB;fill-opacity:1;fill-rule:evenodd;stroke:none;stroke-width:3;marker:none;visibility:visible;display:inline;overflow:visible;enable-background:accumulate;font-family:Sans;-inkscape-font-specification:Sans'/>
  </g>
  <g inkscape:groupmode='layer' id='layer10' inkscape:label='devices' style='display:inline' transform='translate(-181.0002,-257)'/>
  <g inkscape:groupmode='layer' id='layer11' inkscape:label='apps' transform='translate(-181.0002,-257)'/>
  <g inkscape:groupmode='layer' id='layer13' inkscape:label='places' style='display:inline' transform='translate(-181.0002,-257)'/>
  <g inkscape:groupmode='layer' id='layer14' inkscape:label='mimetypes' transform='translate(-181.0002,-257)'/>
  <g inkscape:groupmode='layer' id='layer15' inkscape:label='emblems' style='display:inline' transform='translate(-181.0002,-257)'/>
  <g inkscape:groupmode='layer' id='g71291' inkscape:label='emotes' style='display:inline' transform='translate(-181.0002,-257)'/>
  <g inkscape:groupmode='layer' id='g4953' inkscape:label='categories' style='display:inline' transform='translate(-181.0002,-257)'/>
  <g inkscape:groupmode='layer' id='layer12' inkscape:label='actions' style='display:inline' transform='translate(-181.0002,-257)'/>
</svg>
