<svg viewBox="0 0 24 24" xmlns="http://www.w3.org/2000/svg">
 <path d="m8.426 3.875c-2.444 0-4.426 1.984-4.426 4.432 0 .818.221 1.584.607 2.242-.101.496-.154 1.01-.154 1.537 0 4.221 3.418 7.641 7.633 7.641.477 0 .943-.043 1.396-.127.623.335 1.335.525 2.092.525 2.444 0 4.426-1.984 4.426-4.432 0-.707-.167-1.376-.461-1.969.115-.528.178-1.076.178-1.639 0-4.22-3.416-7.643-7.631-7.643-.445 0-.883.038-1.307.111-.682-.43-1.488-.68-2.354-.68m.928 3.385l3.146 1.572-1.574 3.145-.426-1.277c-.294.338-.485.761-.502 1.227-.027.742.355 1.435.998 1.807l-1 1.732c-1.282-.74-2.053-2.134-1.998-3.613.048-1.309.737-2.5 1.818-3.203l-.463-1.389m4.646 1.271c1.282.74 2.053 2.134 1.998 3.613-.048 1.309-.737 2.5-1.818 3.203l.463 1.389-3.146-1.572 1.574-3.145.426 1.277c.294-.338.485-.761.502-1.227.027-.742-.355-1.435-.998-1.807l1-1.732" fill="#dbdbdb"/>
</svg>
