<svg height="512" viewBox="0 0 512 512" width="512" xmlns="http://www.w3.org/2000/svg">
 <text x="729.64" y="231.36">
  
 </text>
 <text x="1310.91" y="151.36">
  
 </text>
 <text x="239.33" y="-29.9">
  
 </text>
 <text x="1337.38" y="-246.37">
  
 </text>
 <text x="1918.65" y="-326.37">
  
 </text>
 <text x="1529.53" y="-798.77">
  
 </text>
 <text x="2110.79" y="-878.78">
  
 </text>
 <text x="277.99" y="535.94">
  
 </text>
 <path d="m366.64 152.95c4.682 12.534-88.1 84.57-91.67 97.46-3.579 12.892 38.786 122.44 28.312 130.77-10.474 8.326-107.65-57.651-121.02-57.07-13.367.58-104.47 74.72-115.62 67.34-11.155-7.388 21.564-120.2 16.882-132.73-4.682-12.534-103.35-76.26-99.77-89.15 3.579-12.892 120.98-16.634 131.45-24.96 10.474-8.326 40.592-121.86 53.96-122.44 13.367-.58 53.2 109.92 64.36 117.3 11.155 7.388 128.44.95 133.12 13.484" fill="#dbdbdb" transform="matrix(.8597 0 0 .8597 105.72 80.29)"/>
</svg>
