<svg xmlns="http://www.w3.org/2000/svg" width="48" height="48">
<defs>
  <path
      d="M 11.53125 3.53125 C 10.297753 3.53125 9.3125 4.5747803 9.3125 5.84375 L 9.3125 43.25 C 9.3125 44.51897 10.297753 45.53125 11.53125 45.53125 L 39.03125 45.53125 C 40.264743 45.53125 41.28125 44.51897 41.28125 43.25 L 41.3125 14.65625 L 30.46875 3.53125 L 11.53125 3.53125 z M 25.875 14.75 C 26.207437 14.790875 26.451315 14.886935 26.3125 15.28125 L 20.78125 22.125 L 20.78125 30.125 L 27.65625 30.125 L 35.3125 24.875 L 35.3125 15.53125 L 28.4375 15.53125 C 27.869644 15.293134 28.202608 15.050616 28.4375 14.8125 L 35.65625 14.8125 L 36.03125 14.8125 L 36.03125 15.15625 L 36.03125 25.125 L 36.0625 25.1875 C 34.347085 27.89611 32.683598 30.688515 30.8125 33.28125 L 21.34375 33.40625 L 12.59375 37.40625 C 11.733939 37.674822 12.09911 37.19124 12.125 36.90625 L 16.84375 30.6875 L 16.84375 20.5 L 16.84375 20.28125 L 17 20.21875 C 17 20.21875 19.16517 18.873132 21.34375 17.53125 C 22.433041 16.860312 23.533979 16.202774 24.375 15.6875 C 24.795511 15.429863 25.146431 15.188878 25.40625 15.03125 C 25.53616 14.952443 25.64058 14.8904 25.71875 14.84375 C 25.79691 14.79711 25.81662 14.77922 25.875 14.75 z M 28.46875 15.8125 L 33.90625 21 L 31.6875 21.34375 L 33.46875 24.90625 L 32.125 25.625 L 30.15625 21.6875 L 28.46875 23.21875 L 28.46875 15.8125 z M 24.46875 16.4375 C 23.663071 16.931536 22.712349 17.513003 21.71875 18.125 C 19.630741 19.411098 17.729242 20.584519 17.5625 20.6875 L 17.5625 30.125 L 20.0625 30.125 L 20.0625 22 L 20.0625 21.90625 L 20.125 21.78125 L 24.46875 16.4375 z M 34.34375 26.375 L 27.96875 30.75 L 27.875 30.84375 L 27.78125 30.84375 L 20.78125 30.84375 L 20.78125 31.96875 L 29.9375 31.9375 L 30.40625 31.9375 L 34.34375 26.375 z M 17.5625 30.84375 L 17.5625 30.90625 L 17.46875 31 L 13.8125 35.84375 L 20.0625 31.96875 L 20.0625 30.84375 L 17.5625 30.84375 z M 24.3125 39.5 C 24.574216 39.500004 24.832028 39.554692 25.0625 39.625 C 25.294918 39.693364 25.515621 39.798832 25.71875 39.9375 L 25.71875 40.5625 C 25.519528 40.376957 25.289059 40.216801 25.0625 40.125 C 24.837888 40.033207 24.597653 40.000004 24.34375 40 C 23.843748 40.000004 23.453123 40.162113 23.1875 40.46875 C 22.921874 40.773441 22.812499 41.203128 22.8125 41.78125 C 22.812499 42.357423 22.921874 42.787111 23.1875 43.09375 C 23.453123 43.398438 23.843748 43.5625 24.34375 43.5625 C 24.597653 43.5625 24.837888 43.529297 25.0625 43.4375 C 25.289059 43.345704 25.519528 43.185548 25.71875 43 L 25.71875 43.625 C 25.511715 43.765625 25.263668 43.867188 25.03125 43.9375 C 24.800778 44.007812 24.57031 44.0625 24.3125 44.0625 C 23.650389 44.0625 23.130858 43.841797 22.75 43.4375 C 22.36914 43.031251 22.1875 42.482423 22.1875 41.78125 C 22.1875 41.078128 22.36914 40.5293 22.75 40.125 C 23.130858 39.718754 23.650389 39.500004 24.3125 39.5 z M 26.625 39.59375 L 27.21875 39.59375 L 27.21875 41.375 L 29.375 41.375 L 29.375 39.59375 L 29.96875 39.59375 L 29.96875 43.96875 L 29.375 43.96875 L 29.375 41.875 L 27.21875 41.875 L 27.21875 43.96875 L 26.625 43.96875 L 26.625 39.59375 z M 31.125 39.59375 L 33.90625 39.59375 L 33.90625 40.09375 L 31.71875 40.09375 L 31.71875 41.375 L 33.8125 41.375 L 33.8125 41.875 L 31.71875 41.875 L 31.71875 43.46875 L 33.96875 43.46875 L 33.96875 43.96875 L 31.125 43.96875 L 31.125 39.59375 z M 34.9375 39.59375 L 35.8125 39.59375 L 36.9375 42.5625 L 38.0625 39.59375 L 38.9375 39.59375 L 38.9375 43.96875 L 38.34375 43.96875 L 38.34375 40.125 L 37.21875 43.125 L 36.625 43.125 L 35.5 40.125 L 35.5 43.96875 L 34.9375 43.96875 L 34.9375 39.59375 z "
     id="path-main" />
</defs>

<use id="1" style="fill:#DBDBDB" xlink:href="#path-main" />



</svg>
