<?xml version="1.0" encoding="UTF-8" standalone="no"?>
<svg
   xmlns:dc="http://purl.org/dc/elements/1.1/"
   xmlns:cc="http://creativecommons.org/ns#"
   xmlns:rdf="http://www.w3.org/1999/02/22-rdf-syntax-ns#"
   xmlns:svg="http://www.w3.org/2000/svg"
   xmlns="http://www.w3.org/2000/svg"
   xmlns:sodipodi="http://sodipodi.sourceforge.net/DTD/sodipodi-0.dtd"
   xmlns:inkscape="http://www.inkscape.org/namespaces/inkscape"
   viewBox="0 0 512 512"
   id="svg2"
   version="1.1"
   inkscape:version="0.91 r"
   sodipodi:docname="application-x-ms-dos-executable.svg">
  <metadata
     id="metadata446">
    <rdf:RDF>
      <cc:Work
         rdf:about="">
        <dc:format>image/svg+xml</dc:format>
        <dc:type
           rdf:resource="http://purl.org/dc/dcmitype/StillImage" />
      </cc:Work>
    </rdf:RDF>
  </metadata>
  <defs
     id="defs444" />
  <sodipodi:namedview
     pagecolor="#ffffff"
     bordercolor="#666666"
     borderopacity="1"
     objecttolerance="10"
     gridtolerance="10"
     guidetolerance="10"
     inkscape:pageopacity="0"
     inkscape:pageshadow="2"
     inkscape:window-width="1920"
     inkscape:window-height="1028"
     id="namedview442"
     showgrid="false"
     inkscape:zoom="0.4609375"
     inkscape:cx="-696.40678"
     inkscape:cy="342.77966"
     inkscape:window-x="0"
     inkscape:window-y="0"
     inkscape:window-maximized="1"
     inkscape:current-layer="svg2" />
  <text
     font-size="129.23"
     y="39.41"
     x="-210.55"
     font-family="Gentium Book Basic"
     line-height="125%"
     word-spacing="0"
     letter-spacing="0"
     id="text4"
     style="fill:#DBDBDB;fill-opacity:1;">
    <tspan
       y="39.41"
       x="-210.55"
       id="tspan6"
       style="fill:#DBDBDB;fill-opacity:1;" />
  </text>
  <text
     transform="scale(4.0128.2492)"
     font-size="46.954"
     y="-191"
     x="144.61"
     font-family="Arial"
     text-anchor="middle"
     id="text8"
     style="fill:#DBDBDB;fill-opacity:1;" />
  <text
     font-size="129.23"
     y="-40.586"
     x="370.72"
     font-family="Gentium Book Basic"
     line-height="125%"
     word-spacing="0"
     letter-spacing="0"
     id="text10"
     style="fill:#DBDBDB;fill-opacity:1;">
    <tspan
       y="-40.586"
       x="370.72"
       id="tspan12"
       style="fill:#DBDBDB;fill-opacity:1;" />
  </text>
  <text
     transform="scale(4.0128.2492)"
     font-size="46.954"
     y="-512.03"
     x="289.46"
     font-family="Arial"
     text-anchor="middle"
     id="text14"
     style="fill:#DBDBDB;fill-opacity:1;" />
  <text
     font-size="129.23"
     y="-221.85"
     x="-700.86"
     font-family="Gentium Book Basic"
     line-height="125%"
     word-spacing="0"
     letter-spacing="0"
     id="text16"
     style="fill:#DBDBDB;fill-opacity:1;">
    <tspan
       y="-221.85"
       x="-700.86"
       id="tspan18"
       style="fill:#DBDBDB;fill-opacity:1;" />
  </text>
  <text
     transform="scale(4.0128.2492)"
     font-size="46.954"
     y="-1239.38"
     x="22.422"
     font-family="Arial"
     text-anchor="middle"
     id="text20"
     style="fill:#DBDBDB;fill-opacity:1;" />
  <text
     font-size="129.23"
     y="-438.32"
     x="397.19"
     font-family="Gentium Book Basic"
     line-height="125%"
     word-spacing="0"
     letter-spacing="0"
     id="text22"
     style="fill:#DBDBDB;fill-opacity:1;">
    <tspan
       y="-438.32"
       x="397.19"
       id="tspan24"
       style="fill:#DBDBDB;fill-opacity:1;" />
  </text>
  <text
     transform="scale(4.0128.2492)"
     font-size="46.954"
     y="-2108.05"
     x="296.06"
     font-family="Arial"
     text-anchor="middle"
     id="text26"
     style="fill:#DBDBDB;fill-opacity:1;" />
  <text
     font-size="129.23"
     y="-518.33"
     x="978.46"
     font-family="Gentium Book Basic"
     line-height="125%"
     word-spacing="0"
     letter-spacing="0"
     id="text28"
     style="fill:#DBDBDB;fill-opacity:1;">
    <tspan
       y="-518.33"
       x="978.46"
       id="tspan30"
       style="fill:#DBDBDB;fill-opacity:1;" />
  </text>
  <text
     transform="scale(4.0128.2492)"
     font-size="46.954"
     y="-2429.09"
     x="440.91"
     font-family="Arial"
     text-anchor="middle"
     id="text32"
     style="fill:#DBDBDB;fill-opacity:1;" />
  <text
     font-size="129.23"
     y="-990.73"
     x="589.34"
     font-family="Gentium Book Basic"
     line-height="125%"
     word-spacing="0"
     letter-spacing="0"
     id="text34"
     style="fill:#DBDBDB;fill-opacity:1;">
    <tspan
       y="-990.73"
       x="589.34"
       id="tspan36"
       style="fill:#DBDBDB;fill-opacity:1;" />
  </text>
  <text
     transform="scale(4.0128.2492)"
     font-size="46.954"
     y="-4324.74"
     x="343.94"
     font-family="Arial"
     text-anchor="middle"
     id="text38"
     style="fill:#DBDBDB;fill-opacity:1;" />
  <text
     font-size="129.23"
     y="-1070.73"
     x="1170.6"
     font-family="Gentium Book Basic"
     line-height="125%"
     word-spacing="0"
     letter-spacing="0"
     id="text40"
     style="fill:#DBDBDB;fill-opacity:1;">
    <tspan
       y="-1070.73"
       x="1170.6"
       id="tspan42"
       style="fill:#DBDBDB;fill-opacity:1;" />
  </text>
  <text
     transform="scale(4.0128.2492)"
     font-size="46.954"
     y="-4645.77"
     x="488.79"
     font-family="Arial"
     text-anchor="middle"
     id="text44"
     style="fill:#DBDBDB;fill-opacity:1;" />
  <g
     font-family="Gentium Book Basic"
     line-height="125%"
     word-spacing="0"
     letter-spacing="0"
     id="g46">
    <text
       y="343.99"
       x="-662.2"
       font-size="208.33"
       id="text48"
       style="fill:#DBDBDB;fill-opacity:1;">
      <tspan
         y="343.99"
         x="-662.2"
         id="tspan50"
         style="fill:#DBDBDB;fill-opacity:1;" />
    </text>
    <text
       y="209.67"
       x="91.81"
       font-size="129.23"
       id="text52"
       style="fill:#DBDBDB;fill-opacity:1;">
      <tspan
         y="209.67"
         x="91.81"
         id="tspan54"
         style="fill:#DBDBDB;fill-opacity:1;" />
    </text>
  </g>
  <text
     transform="scale(4.0128.2492)"
     font-size="46.954"
     y="492.19"
     x="219.96"
     font-family="Arial"
     text-anchor="middle"
     id="text56"
     style="fill:#DBDBDB;fill-opacity:1;" />
  <text
     font-size="129.23"
     y="129.67"
     x="673.08"
     font-family="Gentium Book Basic"
     line-height="125%"
     word-spacing="0"
     letter-spacing="0"
     id="text58"
     style="fill:#DBDBDB;fill-opacity:1;">
    <tspan
       y="129.67"
       x="673.08"
       id="tspan60"
       style="fill:#DBDBDB;fill-opacity:1;" />
  </text>
  <text
     transform="scale(4.0128.2492)"
     font-size="46.954"
     y="171.16"
     x="364.81"
     font-family="Arial"
     text-anchor="middle"
     id="text62"
     style="fill:#DBDBDB;fill-opacity:1;" />
  <text
     font-size="129.23"
     y="-51.596"
     x="-398.5"
     font-family="Gentium Book Basic"
     line-height="125%"
     word-spacing="0"
     letter-spacing="0"
     id="text64"
     style="fill:#DBDBDB;fill-opacity:1;">
    <tspan
       y="-51.596"
       x="-398.5"
       id="tspan66"
       style="fill:#DBDBDB;fill-opacity:1;" />
  </text>
  <text
     transform="scale(4.0128.2492)"
     font-size="46.954"
     y="-556.2"
     x="97.77"
     font-family="Arial"
     text-anchor="middle"
     id="text68"
     style="fill:#DBDBDB;fill-opacity:1;" />
  <text
     font-size="129.23"
     y="-268.06"
     x="699.55"
     font-family="Gentium Book Basic"
     line-height="125%"
     word-spacing="0"
     letter-spacing="0"
     id="text70"
     style="fill:#DBDBDB;fill-opacity:1;">
    <tspan
       y="-268.06"
       x="699.55"
       id="tspan72"
       style="fill:#DBDBDB;fill-opacity:1;" />
  </text>
  <text
     transform="scale(4.0128.2492)"
     font-size="46.954"
     y="-1424.86"
     x="371.41"
     font-family="Arial"
     text-anchor="middle"
     id="text74"
     style="fill:#DBDBDB;fill-opacity:1;" />
  <text
     font-size="129.23"
     y="-348.07"
     x="1280.82"
     font-family="Gentium Book Basic"
     line-height="125%"
     word-spacing="0"
     letter-spacing="0"
     id="text76"
     style="fill:#DBDBDB;fill-opacity:1;">
    <tspan
       y="-348.07"
       x="1280.82"
       id="tspan78"
       style="fill:#DBDBDB;fill-opacity:1;" />
  </text>
  <text
     transform="scale(4.0128.2492)"
     font-size="46.954"
     y="-1745.9"
     x="516.26"
     font-family="Arial"
     text-anchor="middle"
     id="text80"
     style="fill:#DBDBDB;fill-opacity:1;" />
  <text
     font-size="129.23"
     y="-820.47"
     x="891.7"
     font-family="Gentium Book Basic"
     line-height="125%"
     word-spacing="0"
     letter-spacing="0"
     id="text82"
     style="fill:#DBDBDB;fill-opacity:1;">
    <tspan
       y="-820.47"
       x="891.7"
       id="tspan84"
       style="fill:#DBDBDB;fill-opacity:1;" />
  </text>
  <text
     transform="scale(4.0128.2492)"
     font-size="46.954"
     y="-3641.55"
     x="419.29"
     font-family="Arial"
     text-anchor="middle"
     id="text86"
     style="fill:#DBDBDB;fill-opacity:1;" />
  <text
     font-size="129.23"
     y="-900.47"
     x="1472.96"
     font-family="Gentium Book Basic"
     line-height="125%"
     word-spacing="0"
     letter-spacing="0"
     id="text88"
     style="fill:#DBDBDB;fill-opacity:1;">
    <tspan
       y="-900.47"
       x="1472.96"
       id="tspan90"
       style="fill:#DBDBDB;fill-opacity:1;" />
  </text>
  <text
     transform="scale(4.0128.2492)"
     font-size="46.954"
     y="-3962.58"
     x="564.14"
     font-family="Arial"
     text-anchor="middle"
     id="text92"
     style="fill:#DBDBDB;fill-opacity:1;" />
  <g
     font-family="Gentium Book Basic"
     line-height="125%"
     word-spacing="0"
     letter-spacing="0"
     id="g94">
    <text
       y="514.25"
       x="-359.84"
       font-size="208.33"
       id="text96"
       style="fill:#DBDBDB;fill-opacity:1;">
      <tspan
         y="514.25"
         x="-359.84"
         id="tspan98"
         style="fill:#DBDBDB;fill-opacity:1;" />
    </text>
    <text
       y="179.29"
       x="78.79"
       font-size="129.23"
       id="text100"
       style="fill:#DBDBDB;fill-opacity:1;">
      <tspan
         y="179.29"
         x="78.79"
         id="tspan102"
         style="fill:#DBDBDB;fill-opacity:1;" />
    </text>
  </g>
  <text
     transform="scale(4.0128.2492)"
     font-size="46.954"
     y="370.31"
     x="216.72"
     font-family="Arial"
     text-anchor="middle"
     id="text104"
     style="fill:#DBDBDB;fill-opacity:1;" />
  <text
     font-size="129.23"
     y="99.29"
     x="660.06"
     font-family="Gentium Book Basic"
     line-height="125%"
     word-spacing="0"
     letter-spacing="0"
     id="text106"
     style="fill:#DBDBDB;fill-opacity:1;">
    <tspan
       y="99.29"
       x="660.06"
       id="tspan108"
       style="fill:#DBDBDB;fill-opacity:1;" />
  </text>
  <text
     transform="scale(4.0128.2492)"
     font-size="46.954"
     y="49.28"
     x="361.57"
     font-family="Arial"
     text-anchor="middle"
     id="text110"
     style="fill:#DBDBDB;fill-opacity:1;" />
  <text
     font-size="129.23"
     y="-81.969"
     x="-411.52"
     font-family="Gentium Book Basic"
     line-height="125%"
     word-spacing="0"
     letter-spacing="0"
     id="text112"
     style="fill:#DBDBDB;fill-opacity:1;">
    <tspan
       y="-81.969"
       x="-411.52"
       id="tspan114"
       style="fill:#DBDBDB;fill-opacity:1;" />
  </text>
  <text
     transform="scale(4.0128.2492)"
     font-size="46.954"
     y="-678.08"
     x="94.53"
     font-family="Arial"
     text-anchor="middle"
     id="text116"
     style="fill:#DBDBDB;fill-opacity:1;" />
  <text
     font-size="129.23"
     y="-298.44"
     x="686.53"
     font-family="Gentium Book Basic"
     line-height="125%"
     word-spacing="0"
     letter-spacing="0"
     id="text118"
     style="fill:#DBDBDB;fill-opacity:1;">
    <tspan
       y="-298.44"
       x="686.53"
       id="tspan120"
       style="fill:#DBDBDB;fill-opacity:1;" />
  </text>
  <text
     transform="scale(4.0128.2492)"
     font-size="46.954"
     y="-1546.74"
     x="368.17"
     font-family="Arial"
     text-anchor="middle"
     id="text122"
     style="fill:#DBDBDB;fill-opacity:1;" />
  <text
     font-size="129.23"
     y="-378.45"
     x="1267.8"
     font-family="Gentium Book Basic"
     line-height="125%"
     word-spacing="0"
     letter-spacing="0"
     id="text124"
     style="fill:#DBDBDB;fill-opacity:1;">
    <tspan
       y="-378.45"
       x="1267.8"
       id="tspan126"
       style="fill:#DBDBDB;fill-opacity:1;" />
  </text>
  <text
     transform="scale(4.0128.2492)"
     font-size="46.954"
     y="-1867.78"
     x="513.01"
     font-family="Arial"
     text-anchor="middle"
     id="text128"
     style="fill:#DBDBDB;fill-opacity:1;" />
  <text
     font-size="129.23"
     y="-850.85"
     x="878.68"
     font-family="Gentium Book Basic"
     line-height="125%"
     word-spacing="0"
     letter-spacing="0"
     id="text130"
     style="fill:#DBDBDB;fill-opacity:1;">
    <tspan
       y="-850.85"
       x="878.68"
       id="tspan132"
       style="fill:#DBDBDB;fill-opacity:1;" />
  </text>
  <text
     transform="scale(4.0128.2492)"
     font-size="46.954"
     y="-3763.43"
     x="416.05"
     font-family="Arial"
     text-anchor="middle"
     id="text134"
     style="fill:#DBDBDB;fill-opacity:1;" />
  <text
     font-size="129.23"
     y="-930.85"
     x="1459.94"
     font-family="Gentium Book Basic"
     line-height="125%"
     word-spacing="0"
     letter-spacing="0"
     id="text136"
     style="fill:#DBDBDB;fill-opacity:1;">
    <tspan
       y="-930.85"
       x="1459.94"
       id="tspan138"
       style="fill:#DBDBDB;fill-opacity:1;" />
  </text>
  <text
     transform="scale(4.0128.2492)"
     font-size="46.954"
     y="-4084.46"
     x="560.89"
     font-family="Arial"
     text-anchor="middle"
     id="text140"
     style="fill:#DBDBDB;fill-opacity:1;" />
  <g
     font-family="Gentium Book Basic"
     line-height="125%"
     word-spacing="0"
     letter-spacing="0"
     id="g142">
    <text
       y="483.87"
       x="-372.86"
       font-size="208.33"
       id="text144"
       style="fill:#DBDBDB;fill-opacity:1;">
      <tspan
         y="483.87"
         x="-372.86"
         id="tspan146"
         style="fill:#DBDBDB;fill-opacity:1;" />
    </text>
    <text
       y="244.98"
       x="39.5"
       font-size="129.23"
       id="text148"
       style="fill:#DBDBDB;fill-opacity:1;">
      <tspan
         y="244.98"
         x="39.5"
         id="tspan150"
         style="fill:#DBDBDB;fill-opacity:1;" />
    </text>
  </g>
  <text
     transform="scale(4.0128.2492)"
     font-size="46.954"
     y="633.89"
     x="206.92"
     font-family="Arial"
     text-anchor="middle"
     id="text152"
     style="fill:#DBDBDB;fill-opacity:1;" />
  <text
     font-size="129.23"
     y="164.98"
     x="620.77"
     font-family="Gentium Book Basic"
     line-height="125%"
     word-spacing="0"
     letter-spacing="0"
     id="text154"
     style="fill:#DBDBDB;fill-opacity:1;">
    <tspan
       y="164.98"
       x="620.77"
       id="tspan156"
       style="fill:#DBDBDB;fill-opacity:1;" />
  </text>
  <text
     transform="scale(4.0128.2492)"
     font-size="46.954"
     y="312.87"
     x="351.77"
     font-family="Arial"
     text-anchor="middle"
     id="text158"
     style="fill:#DBDBDB;fill-opacity:1;" />
  <text
     font-size="129.23"
     y="-16.283"
     x="-450.81"
     font-family="Gentium Book Basic"
     line-height="125%"
     word-spacing="0"
     letter-spacing="0"
     id="text160"
     style="fill:#DBDBDB;fill-opacity:1;">
    <tspan
       y="-16.283"
       x="-450.81"
       id="tspan162"
       style="fill:#DBDBDB;fill-opacity:1;" />
  </text>
  <text
     transform="scale(4.0128.2492)"
     font-size="46.954"
     y="-414.49"
     x="84.74"
     font-family="Arial"
     text-anchor="middle"
     id="text164"
     style="fill:#DBDBDB;fill-opacity:1;" />
  <text
     font-size="129.23"
     y="-232.75"
     x="647.24"
     font-family="Gentium Book Basic"
     line-height="125%"
     word-spacing="0"
     letter-spacing="0"
     id="text166"
     style="fill:#DBDBDB;fill-opacity:1;">
    <tspan
       y="-232.75"
       x="647.24"
       id="tspan168"
       style="fill:#DBDBDB;fill-opacity:1;" />
  </text>
  <text
     transform="scale(4.0128.2492)"
     font-size="46.954"
     y="-1283.16"
     x="358.37"
     font-family="Arial"
     text-anchor="middle"
     id="text170"
     style="fill:#DBDBDB;fill-opacity:1;" />
  <text
     font-size="129.23"
     y="-312.76"
     x="1228.51"
     font-family="Gentium Book Basic"
     line-height="125%"
     word-spacing="0"
     letter-spacing="0"
     id="text172"
     style="fill:#DBDBDB;fill-opacity:1;">
    <tspan
       y="-312.76"
       x="1228.51"
       id="tspan174"
       style="fill:#DBDBDB;fill-opacity:1;" />
  </text>
  <text
     transform="scale(4.0128.2492)"
     font-size="46.954"
     y="-1604.19"
     x="503.22"
     font-family="Arial"
     text-anchor="middle"
     id="text176"
     style="fill:#DBDBDB;fill-opacity:1;" />
  <text
     font-size="129.23"
     y="-785.16"
     x="839.39"
     font-family="Gentium Book Basic"
     line-height="125%"
     word-spacing="0"
     letter-spacing="0"
     id="text178"
     style="fill:#DBDBDB;fill-opacity:1;">
    <tspan
       y="-785.16"
       x="839.39"
       id="tspan180"
       style="fill:#DBDBDB;fill-opacity:1;" />
  </text>
  <text
     transform="scale(4.0128.2492)"
     font-size="46.954"
     y="-3499.84"
     x="406.25"
     font-family="Arial"
     text-anchor="middle"
     id="text182"
     style="fill:#DBDBDB;fill-opacity:1;" />
  <text
     font-size="129.23"
     y="-865.16"
     x="1420.65"
     font-family="Gentium Book Basic"
     line-height="125%"
     word-spacing="0"
     letter-spacing="0"
     id="text184"
     style="fill:#DBDBDB;fill-opacity:1;">
    <tspan
       y="-865.16"
       x="1420.65"
       id="tspan186"
       style="fill:#DBDBDB;fill-opacity:1;" />
  </text>
  <text
     transform="scale(4.0128.2492)"
     font-size="46.954"
     y="-3820.87"
     x="551.1"
     font-family="Arial"
     text-anchor="middle"
     id="text188"
     style="fill:#DBDBDB;fill-opacity:1;" />
  <g
     font-family="Gentium Book Basic"
     transform="translate(-690.14 13.618)"
     line-height="125%"
     word-spacing="0"
     letter-spacing="0"
     id="g190">
    <text
       y="535.94"
       x="277.99"
       font-size="208.33"
       id="text192"
       style="fill:#DBDBDB;fill-opacity:1;">
      <tspan
         y="535.94"
         x="277.99"
         id="tspan194"
         style="fill:#DBDBDB;fill-opacity:1;" />
    </text>
    <text
       y="135.65"
       x="148.44"
       font-size="129.23"
       id="text196"
       style="fill:#DBDBDB;fill-opacity:1;">
      <tspan
         y="135.65"
         x="148.44"
         id="tspan198"
         style="fill:#DBDBDB;fill-opacity:1;" />
    </text>
  </g>
  <text
     transform="scale(4.0128.2492)"
     font-size="46.954"
     y="249.85"
     x="62.09"
     font-family="Arial"
     text-anchor="middle"
     id="text200"
     style="fill:#DBDBDB;fill-opacity:1;" />
  <text
     font-size="129.23"
     y="69.27"
     x="39.57"
     font-family="Gentium Book Basic"
     line-height="125%"
     word-spacing="0"
     letter-spacing="0"
     id="text202"
     style="fill:#DBDBDB;fill-opacity:1;">
    <tspan
       y="69.27"
       x="39.57"
       id="tspan204"
       style="fill:#DBDBDB;fill-opacity:1;" />
  </text>
  <text
     transform="scale(4.0128.2492)"
     font-size="46.954"
     y="-71.18"
     x="206.93"
     font-family="Arial"
     text-anchor="middle"
     id="text206"
     style="fill:#DBDBDB;fill-opacity:1;" />
  <text
     font-size="129.23"
     y="-111.99"
     x="-1032.01"
     font-family="Gentium Book Basic"
     line-height="125%"
     word-spacing="0"
     letter-spacing="0"
     id="text208"
     style="fill:#DBDBDB;fill-opacity:1;">
    <tspan
       y="-111.99"
       x="-1032.01"
       id="tspan210"
       style="fill:#DBDBDB;fill-opacity:1;" />
  </text>
  <text
     transform="scale(4.0128.2492)"
     font-size="46.954"
     y="-798.54"
     x="-60.1"
     font-family="Arial"
     text-anchor="middle"
     id="text212"
     style="fill:#DBDBDB;fill-opacity:1;" />
  <text
     font-size="129.23"
     y="-328.46"
     x="66.04"
     font-family="Gentium Book Basic"
     line-height="125%"
     word-spacing="0"
     letter-spacing="0"
     id="text214"
     style="fill:#DBDBDB;fill-opacity:1;">
    <tspan
       y="-328.46"
       x="66.04"
       id="tspan216"
       style="fill:#DBDBDB;fill-opacity:1;" />
  </text>
  <text
     transform="scale(4.0128.2492)"
     font-size="46.954"
     y="-1667.19"
     x="213.53"
     font-family="Arial"
     text-anchor="middle"
     id="text218"
     style="fill:#DBDBDB;fill-opacity:1;" />
  <text
     font-size="129.23"
     y="-408.47"
     x="647.31"
     font-family="Gentium Book Basic"
     line-height="125%"
     word-spacing="0"
     letter-spacing="0"
     id="text220"
     style="fill:#DBDBDB;fill-opacity:1;">
    <tspan
       y="-408.47"
       x="647.31"
       id="tspan222"
       style="fill:#DBDBDB;fill-opacity:1;" />
  </text>
  <text
     transform="scale(4.0128.2492)"
     font-size="46.954"
     y="-1988.23"
     x="358.38"
     font-family="Arial"
     text-anchor="middle"
     id="text224"
     style="fill:#DBDBDB;fill-opacity:1;" />
  <text
     font-size="129.23"
     y="-880.87"
     x="258.19"
     font-family="Gentium Book Basic"
     line-height="125%"
     word-spacing="0"
     letter-spacing="0"
     id="text226"
     style="fill:#DBDBDB;fill-opacity:1;">
    <tspan
       y="-880.87"
       x="258.19"
       id="tspan228"
       style="fill:#DBDBDB;fill-opacity:1;" />
  </text>
  <text
     transform="scale(4.0128.2492)"
     font-size="46.954"
     y="-3883.87"
     x="261.41"
     font-family="Arial"
     text-anchor="middle"
     id="text230"
     style="fill:#DBDBDB;fill-opacity:1;" />
  <text
     font-size="129.23"
     y="-960.87"
     x="839.45"
     font-family="Gentium Book Basic"
     line-height="125%"
     word-spacing="0"
     letter-spacing="0"
     id="text232"
     style="fill:#DBDBDB;fill-opacity:1;">
    <tspan
       y="-960.87"
       x="839.45"
       id="tspan234"
       style="fill:#DBDBDB;fill-opacity:1;" />
  </text>
  <text
     transform="scale(4.0128.2492)"
     font-size="46.954"
     y="-4204.9"
     x="406.26"
     font-family="Arial"
     text-anchor="middle"
     id="text236"
     style="fill:#DBDBDB;fill-opacity:1;" />
  <g
     font-family="Gentium Book Basic"
     line-height="125%"
     word-spacing="0"
     letter-spacing="0"
     id="g238">
    <text
       y="453.85"
       x="-993.35"
       font-size="208.33"
       id="text240"
       style="fill:#DBDBDB;fill-opacity:1;">
      <tspan
         y="453.85"
         x="-993.35"
         id="tspan242"
         style="fill:#DBDBDB;fill-opacity:1;" />
    </text>
    <text
       font-size="200"
       stroke="#555753"
       y="116.28"
       x="-575.74"
       fill="#555753"
       id="text244">
      <tspan
         y="116.28"
         x="-575.74"
         id="tspan246" />
    </text>
  </g>
  <g
     fill="#555753"
     id="g248">
    <text
       transform="scale(4.0128.2492)"
       font-size="72.67"
       y="-73.74"
       x="161.54"
       font-family="Arial"
       text-anchor="middle"
       id="text250" />
    <text
       font-size="200"
       stroke="#555753"
       y="169.43"
       x="169.64"
       font-family="Gentium Book Basic"
       line-height="125%"
       word-spacing="0"
       letter-spacing="0"
       id="text252">
      <tspan
         y="169.43"
         x="169.64"
         id="tspan254" />
    </text>
    <text
       transform="scale(4.0128.2492)"
       font-size="72.67"
       y="139.51"
       x="347.29"
       font-family="Arial"
       text-anchor="middle"
       id="text256" />
    <text
       font-size="200"
       stroke="#555753"
       y="45.61"
       x="1069.25"
       font-family="Gentium Book Basic"
       line-height="125%"
       word-spacing="0"
       letter-spacing="0"
       id="text258">
      <tspan
         y="45.61"
         x="1069.25"
         id="tspan260" />
    </text>
    <text
       transform="scale(4.0128.2492)"
       font-size="72.67"
       y="-357.35"
       x="571.47"
       font-family="Arial"
       text-anchor="middle"
       id="text262" />
    <text
       font-size="200"
       stroke="#555753"
       y="-7.03"
       x="197.1"
       font-family="Gentium Book Basic"
       line-height="125%"
       word-spacing="0"
       letter-spacing="0"
       id="text264">
      <tspan
         y="-7.03"
         x="197.1"
         id="tspan266" />
    </text>
    <text
       transform="scale(4.0128.2492)"
       font-size="72.67"
       y="-568.58"
       x="354.13"
       font-family="Arial"
       text-anchor="middle"
       id="text268" />
    <text
       font-size="200"
       stroke="#555753"
       y="-130.85"
       x="1096.72"
       font-family="Gentium Book Basic"
       line-height="125%"
       word-spacing="0"
       letter-spacing="0"
       id="text270">
      <tspan
         y="-130.85"
         x="1096.72"
         id="tspan272" />
    </text>
    <text
       transform="scale(4.0128.2492)"
       font-size="72.67"
       y="-1065.43"
       x="578.32"
       font-family="Arial"
       text-anchor="middle"
       id="text274" />
    <text
       font-size="200"
       stroke="#555753"
       y="444.86"
       x="-2812.88"
       font-family="Gentium Book Basic"
       line-height="125%"
       word-spacing="0"
       letter-spacing="0"
       id="text276">
      <tspan
         y="444.86"
         x="-2812.88"
         id="tspan278" />
    </text>
    <text
       transform="scale(4.0128.2492)"
       font-size="72.67"
       y="1244.76"
       x="-395.95"
       font-family="Arial"
       text-anchor="middle"
       id="text280" />
  </g>
  <text
     font-size="208.33"
     y="478.97"
     x="-957.33"
     font-family="Gentium Book Basic"
     line-height="125%"
     word-spacing="0"
     letter-spacing="0"
     id="text282"
     style="fill:#DBDBDB;fill-opacity:1;">
    <tspan
       y="478.97"
       x="-957.33"
       id="tspan284"
       style="fill:#DBDBDB;fill-opacity:1;" />
  </text>
  <text
     transform="scale(4.0128.2492)"
     font-size="75.7"
     y="1359.15"
     x="79.16"
     font-family="Arial"
     text-anchor="middle"
     id="text286"
     style="fill:#DBDBDB;fill-opacity:1;" />
  <g
     transform="translate(.001-.003)"
     fill="#654641"
     id="g288">
    <text
       transform="scale(1.05082.95163)"
       font-size="84.77"
       y="221.3"
       x="681.22"
       font-family="Gentium Book Basic"
       line-height="125%"
       word-spacing="0"
       letter-spacing="0"
       id="text290">
      <tspan
         y="221.3"
         x="681.22"
         id="tspan292" />
    </text>
    <text
       transform="scale(4.21679.23715)"
       font-size="30.8"
       y="659.01"
       x="299.04"
       font-family="Arial"
       text-anchor="middle"
       id="text294" />
    <text
       transform="scale(1.05082.95163)"
       font-size="45.38"
       y="197.8"
       x="949.03"
       font-family="Gentium Book Basic"
       line-height="125%"
       word-spacing="0"
       letter-spacing="0"
       id="text296">
      <tspan
         y="197.8"
         x="949.03"
         id="tspan298" />
    </text>
    <text
       transform="scale(4.21679.23715)"
       font-size="16.488"
       y="671.14"
       x="305.7"
       font-family="Arial"
       text-anchor="middle"
       id="text300" />
    <text
       font-size="132.57"
       y="290.09"
       x="-25.07"
       font-family="Gentium Book Basic"
       line-height="125%"
       word-spacing="0"
       letter-spacing="0"
       id="text302">
      <tspan
         y="290.09"
         x="-25.07"
         id="tspan304" />
    </text>
    <text
       transform="scale(4.0128.2492)"
       font-size="48.17"
       y="805.88"
       x="195.94"
       font-family="Arial"
       text-anchor="middle"
       id="text306" />
  </g>
  <path
     style="fill:#DBDBDB;fill-opacity:1"
     d="m 54.741989,12.666247 c -4.573418,0.0045 -8.248047,3.121791 -8.248047,7 l 0,477.000003 c 0,3.881 3.679813,7 8.257813,7 l 428.529295,0 c 4.578,0 8.25977,-3.119 8.25977,-7 l 0,-477.000003 c 0,-3.880999 -3.68177,-7 -8.25977,-7 l -428.529295,0 -0.0098,0 z m 363.103521,100.158203 0.0742,73.6504 c 0.03,40.51 0.0315,73.73828 -0.0195,73.73828 -0.05,0.051 -36.09156,0.49247 -80.10156,0.98046 l -0.004,0 c -44.01,0.494 -81.4783,0.89549 -83.2793,0.89649 l -3.25586,0 0.0723,-58.13086 0.0742,-58.12891 7.53125,-1.48242 c 4.14,-0.816 41.58675,-8.2429 83.21875,-16.5039 l 75.68946,-15.01954 z m -180.60743,35.85157 0,113.67187 -3.63867,0 c -2,0.009 -22.88139,0.23186 -46.40039,0.50586 l -0.008,0.002 c -23.515,0.276 -45.31441,0.50377 -48.44141,0.50977 l -5.67968,0 0.004,-47.04102 0.002,-47.03906 51.3789,-10.17578 c 28.259,-5.597 51.69508,-10.21069 52.08008,-10.30469 l 0.70312,-0.1289 z m 14.03711,127.46484 3.50977,0 c 1.93,0 39.05953,0.40067 82.51953,0.88867 43.45,0.488 79.3858,0.88672 79.8418,0.88672 l 0.83008,0 0,34.16992 c 0,18.79 -0.0779,51.93239 -0.17188,73.65039 l 0.0137,0.006 c -0.155,35.805 -0.20831,39.4768 -0.57031,39.4668 -0.22,-0.013 -37.62914,-7.41898 -83.11914,-16.45898 -45.49,-9.038 -82.73925,-16.43946 -82.78125,-16.43946 -0.042,-0.01 -0.0723,-26.14484 -0.0723,-58.08984 l 0,-58.08008 z m -116.20312,0.70703 c 33.3644,0.32578 66.72788,0.7411 100.0918,1.11328 -0.06,36.35555 -0.097,72.71171 -0.36914,109.06641 -33.24624,-6.58937 -66.48297,-13.22704 -99.72266,-19.84961 l 0,-90.33008 z"
     id="path330"
     inkscape:connector-curvature="0" />
  <g
     transform="translate(.001-.003)"
     fill="#654641"
     id="g338">
    <text
       transform="scale(1.05082.95163)"
       font-size="84.77"
       y="185.78"
       x="119.84"
       font-family="Gentium Book Basic"
       line-height="125%"
       word-spacing="0"
       letter-spacing="0"
       id="text340">
      <tspan
         y="185.78"
         x="119.84"
         id="tspan342" />
    </text>
    <text
       transform="scale(4.21679.23715)"
       font-size="30.8"
       y="516.46"
       x="159.14"
       font-family="Arial"
       text-anchor="middle"
       id="text344" />
    <text
       transform="scale(1.05082.95163)"
       font-size="45.38"
       y="162.28"
       x="387.65"
       font-family="Gentium Book Basic"
       line-height="125%"
       word-spacing="0"
       letter-spacing="0"
       id="text346">
      <tspan
         y="162.28"
         x="387.65"
         id="tspan348" />
    </text>
    <text
       transform="scale(4.21679.23715)"
       font-size="16.488"
       y="528.59"
       x="165.81"
       font-family="Arial"
       text-anchor="middle"
       id="text350" />
    <text
       font-size="132.57"
       y="256.28"
       x="-614.98"
       font-family="Gentium Book Basic"
       line-height="125%"
       word-spacing="0"
       letter-spacing="0"
       id="text352">
      <tspan
         y="256.28"
         x="-614.98"
         id="tspan354" />
    </text>
    <text
       transform="scale(4.0128.2492)"
       font-size="48.17"
       y="670.22"
       x="48.929"
       font-family="Arial"
       text-anchor="middle"
       id="text356" />
  </g>
  <g
     transform="translate(.001-.003)"
     id="g358">
    <g
       font-family="Gentium Book Basic"
       line-height="125%"
       word-spacing="0"
       letter-spacing="0"
       id="g360">
      <g
         font-size="208.33"
         id="g362">
        <text
           y="236.4"
           x="-352.73"
           id="text364"
           style="fill:#DBDBDB;fill-opacity:1;">
          <tspan
             y="236.4"
             x="-352.73"
             id="tspan366"
             style="fill:#DBDBDB;fill-opacity:1;" />
        </text>
        <text
           y="78.57"
           x="-645.81"
           id="text368"
           style="fill:#DBDBDB;fill-opacity:1;">
          <tspan
             y="78.57"
             x="-645.81"
             id="tspan370"
             style="fill:#DBDBDB;fill-opacity:1;" />
        </text>
      </g>
      <text
         transform="scale(1.05082.95163)"
         font-size="84.77"
         y="181.15"
         x="89.53"
         fill="#654641"
         id="text372">
        <tspan
           y="181.15"
           x="89.53"
           id="tspan374" />
      </text>
    </g>
    <g
       fill="#654641"
       id="g376">
      <text
         transform="scale(4.21679.23715)"
         font-size="30.8"
         y="497.89"
         x="151.59"
         font-family="Arial"
         text-anchor="middle"
         id="text378" />
      <text
         transform="scale(1.05082.95163)"
         font-size="45.38"
         y="157.65"
         x="357.34"
         font-family="Gentium Book Basic"
         line-height="125%"
         word-spacing="0"
         letter-spacing="0"
         id="text380">
        <tspan
           y="157.65"
           x="357.34"
           id="tspan382" />
      </text>
      <text
         transform="scale(4.21679.23715)"
         font-size="16.488"
         y="510.03"
         x="158.26"
         font-family="Arial"
         text-anchor="middle"
         id="text384" />
      <text
         font-size="132.57"
         y="251.88"
         x="-646.83"
         font-family="Gentium Book Basic"
         line-height="125%"
         word-spacing="0"
         letter-spacing="0"
         id="text386">
        <tspan
           y="251.88"
           x="-646.83"
           id="tspan388" />
      </text>
      <text
         transform="scale(4.0128.2492)"
         font-size="48.17"
         y="652.56"
         x="40.993"
         font-family="Arial"
         text-anchor="middle"
         id="text390" />
    </g>
  </g>
  <text
     font-size="129.23"
     y="31.744"
     x="-60.981"
     font-family="Gentium Book Basic"
     line-height="125%"
     word-spacing="0"
     letter-spacing="0"
     id="text396"
     style="fill:#DBDBDB;fill-opacity:1;">
    <tspan
       y="31.744"
       x="-60.981"
       id="tspan398"
       style="fill:#DBDBDB;fill-opacity:1;" />
  </text>
  <text
     transform="scale(4.0128.2492)"
     font-size="46.954"
     y="-221.78"
     x="181.88"
     font-family="Arial"
     text-anchor="middle"
     id="text400"
     style="fill:#DBDBDB;fill-opacity:1;" />
  <text
     font-size="129.23"
     y="-48.26"
     x="520.29"
     font-family="Gentium Book Basic"
     line-height="125%"
     word-spacing="0"
     letter-spacing="0"
     id="text402"
     style="fill:#DBDBDB;fill-opacity:1;">
    <tspan
       y="-48.26"
       x="520.29"
       id="tspan404"
       style="fill:#DBDBDB;fill-opacity:1;" />
  </text>
  <text
     transform="scale(4.0128.2492)"
     font-size="46.954"
     y="-542.81"
     x="326.73"
     font-family="Arial"
     text-anchor="middle"
     id="text406"
     style="fill:#DBDBDB;fill-opacity:1;" />
  <text
     font-size="129.23"
     y="-229.52"
     x="-551.29"
     font-family="Gentium Book Basic"
     line-height="125%"
     word-spacing="0"
     letter-spacing="0"
     id="text408"
     style="fill:#DBDBDB;fill-opacity:1;">
    <tspan
       y="-229.52"
       x="-551.29"
       id="tspan410"
       style="fill:#DBDBDB;fill-opacity:1;" />
  </text>
  <text
     transform="scale(4.0128.2492)"
     font-size="46.954"
     y="-1270.16"
     x="59.695"
     font-family="Arial"
     text-anchor="middle"
     id="text412"
     style="fill:#DBDBDB;fill-opacity:1;" />
  <text
     font-size="129.23"
     y="-445.99"
     x="546.76"
     font-family="Gentium Book Basic"
     line-height="125%"
     word-spacing="0"
     letter-spacing="0"
     id="text414"
     style="fill:#DBDBDB;fill-opacity:1;">
    <tspan
       y="-445.99"
       x="546.76"
       id="tspan416"
       style="fill:#DBDBDB;fill-opacity:1;" />
  </text>
  <text
     transform="scale(4.0128.2492)"
     font-size="46.954"
     y="-2138.83"
     x="333.33"
     font-family="Arial"
     text-anchor="middle"
     id="text418"
     style="fill:#DBDBDB;fill-opacity:1;" />
  <text
     font-size="129.23"
     y="-526"
     x="1128.03"
     font-family="Gentium Book Basic"
     line-height="125%"
     word-spacing="0"
     letter-spacing="0"
     id="text420"
     style="fill:#DBDBDB;fill-opacity:1;">
    <tspan
       y="-526"
       x="1128.03"
       id="tspan422"
       style="fill:#DBDBDB;fill-opacity:1;" />
  </text>
  <text
     transform="scale(4.0128.2492)"
     font-size="46.954"
     y="-2459.87"
     x="478.18"
     font-family="Arial"
     text-anchor="middle"
     id="text424"
     style="fill:#DBDBDB;fill-opacity:1;" />
  <text
     font-size="129.23"
     y="-998.4"
     x="738.91"
     font-family="Gentium Book Basic"
     line-height="125%"
     word-spacing="0"
     letter-spacing="0"
     id="text426"
     style="fill:#DBDBDB;fill-opacity:1;">
    <tspan
       y="-998.4"
       x="738.91"
       id="tspan428"
       style="fill:#DBDBDB;fill-opacity:1;" />
  </text>
  <text
     transform="scale(4.0128.2492)"
     font-size="46.954"
     y="-4355.52"
     x="381.21"
     font-family="Arial"
     text-anchor="middle"
     id="text430"
     style="fill:#DBDBDB;fill-opacity:1;" />
  <text
     font-size="129.23"
     y="-1078.4"
     x="1320.17"
     font-family="Gentium Book Basic"
     line-height="125%"
     word-spacing="0"
     letter-spacing="0"
     id="text432"
     style="fill:#DBDBDB;fill-opacity:1;">
    <tspan
       y="-1078.4"
       x="1320.17"
       id="tspan434"
       style="fill:#DBDBDB;fill-opacity:1;" />
  </text>
  <text
     transform="scale(4.0128.2492)"
     font-size="46.954"
     y="-4676.55"
     x="526.06"
     font-family="Arial"
     text-anchor="middle"
     id="text436"
     style="fill:#DBDBDB;fill-opacity:1;" />
  <text
     font-size="208.33"
     y="336.32"
     x="-512.63"
     font-family="Gentium Book Basic"
     line-height="125%"
     word-spacing="0"
     letter-spacing="0"
     id="text438"
     style="fill:#DBDBDB;fill-opacity:1;">
    <tspan
       y="336.32"
       x="-512.63"
       id="tspan440"
       style="fill:#DBDBDB;fill-opacity:1;" />
  </text>
</svg>
