<?xml version="1.0" encoding="UTF-8" standalone="no"?>
<svg
   xmlns:dc="http://purl.org/dc/elements/1.1/"
   xmlns:cc="http://creativecommons.org/ns#"
   xmlns:rdf="http://www.w3.org/1999/02/22-rdf-syntax-ns#"
   xmlns:svg="http://www.w3.org/2000/svg"
   xmlns="http://www.w3.org/2000/svg"
   xmlns:sodipodi="http://sodipodi.sourceforge.net/DTD/sodipodi-0.dtd"
   xmlns:inkscape="http://www.inkscape.org/namespaces/inkscape"
   viewBox="0 0 512 512"
   id="svg2"
   version="1.1"
   inkscape:version="0.91 r"
   sodipodi:docname="application-postscript.svg">
  <metadata
     id="metadata91">
    <rdf:RDF>
      <cc:Work
         rdf:about="">
        <dc:format>image/svg+xml</dc:format>
        <dc:type
           rdf:resource="http://purl.org/dc/dcmitype/StillImage" />
      </cc:Work>
    </rdf:RDF>
  </metadata>
  <defs
     id="defs89" />
  <sodipodi:namedview
     pagecolor="#ffffff"
     bordercolor="#666666"
     borderopacity="1"
     objecttolerance="10"
     gridtolerance="10"
     guidetolerance="10"
     inkscape:pageopacity="0"
     inkscape:pageshadow="2"
     inkscape:window-width="1680"
     inkscape:window-height="998"
     id="namedview87"
     showgrid="false"
     inkscape:zoom="0.4609375"
     inkscape:cx="256"
     inkscape:cy="256"
     inkscape:window-x="0"
     inkscape:window-y="0"
     inkscape:window-maximized="1"
     inkscape:current-layer="svg2" />
  <text
     font-size="208.33"
     y="456.61"
     x="-477.49"
     font-family="Gentium Book Basic"
     line-height="125%"
     word-spacing="0"
     letter-spacing="0"
     id="text4">
    <tspan
       y="456.61"
       x="-477.49"
       id="tspan6" />
  </text>
  <text
     transform="scale(4.0128.2492)"
     font-size="75.7"
     y="1269.4"
     x="198.74"
     font-family="Arial"
     text-anchor="middle"
     id="text8" />
  <text
     font-size="208.33"
     y="300.98"
     x="228.86"
     font-family="Gentium Book Basic"
     line-height="125%"
     word-spacing="0"
     letter-spacing="0"
     id="text10">
    <tspan
       y="300.98"
       x="228.86"
       id="tspan12" />
  </text>
  <text
     transform="scale(4.0128.2492)"
     font-size="75.7"
     y="644.88"
     x="374.76"
     font-family="Arial"
     text-anchor="middle"
     id="text14" />
  <text
     font-size="208.33"
     y="292.85"
     x="262.23"
     font-family="Gentium Book Basic"
     line-height="125%"
     word-spacing="0"
     letter-spacing="0"
     id="text16">
    <tspan
       y="292.85"
       x="262.23"
       id="tspan18" />
  </text>
  <text
     transform="scale(4.0128.2492)"
     font-size="75.7"
     y="612.28"
     x="383.07"
     font-family="Arial"
     text-anchor="middle"
     id="text20" />
  <path
     style="fill:#DBDBDB;fill-opacity:1"
     d="M 46.058594 6.1601562 C 41.480594 6.1601562 37.808594 9.2791561 37.808594 13.160156 L 37.808594 490.16016 C 37.808594 494.04116 41.480594 497.16016 46.058594 497.16016 L 474.61719 497.16016 C 479.19519 497.16016 482.86719 494.04116 482.86719 490.16016 L 482.86719 142.10156 L 346.89844 6.1601562 L 46.058594 6.1601562 z M 186.31055 192.5293 L 186.32031 192.5293 L 325.68945 192.5293 C 335.32145 192.5293 343.12891 200.35475 343.12891 209.96875 L 343.12891 244.8125 L 325.68945 244.8125 L 325.68945 209.96875 L 186.31055 209.96875 L 186.31055 244.8125 L 168.87109 244.8125 L 168.87109 209.96875 C 168.87109 200.35375 176.69655 192.5293 186.31055 192.5293 z M 134.03906 262.2207 L 134.04492 262.23047 L 377.98438 262.23047 C 387.61638 262.23047 395.42188 270.05397 395.42188 279.66797 L 395.42188 366.78711 C 395.42188 376.41911 387.61638 384.22656 377.98438 384.22656 L 343.14062 384.22656 L 343.14062 453.91602 C 343.14062 463.54802 335.33317 471.35352 325.70117 471.35352 L 186.32227 471.35352 C 176.70727 471.35352 168.88477 463.54802 168.88477 453.91602 L 168.88477 384.22656 L 134.03906 384.22656 C 124.42406 384.22656 116.60156 376.41911 116.60156 366.78711 L 116.60156 279.6582 C 116.60156 270.0432 124.42506 262.2207 134.03906 262.2207 z M 360.57422 279.66797 C 350.94222 279.66797 343.13672 287.49147 343.13672 297.10547 C 343.13672 306.73647 350.94222 314.51172 360.57422 314.51172 C 370.20622 314.51172 377.98047 306.73747 377.98047 297.10547 C 377.98047 287.49047 370.20522 279.66797 360.57422 279.66797 z M 186.33398 331.94727 L 186.33398 453.91797 L 325.70312 453.91797 L 325.70312 331.94727 L 186.33398 331.94727 z M 203.74023 349.35352 L 273.46094 349.35352 L 273.46094 366.79297 L 203.74023 366.79297 L 203.74023 349.35352 z M 203.74023 384.22852 L 308.30078 384.22852 L 308.30078 401.63477 L 203.74023 401.63477 L 203.74023 384.22852 z M 203.74023 419.07227 L 308.30078 419.07227 L 308.30078 436.47852 L 203.74023 436.47852 L 203.74023 419.07227 z "
     id="path30" />
  <text
     font-size="129.23"
     y="190.14"
     x="1462.93"
     font-family="Gentium Book Basic"
     line-height="125%"
     word-spacing="0"
     letter-spacing="0"
     id="text37">
    <tspan
       y="190.14"
       x="1462.93"
       id="tspan39" />
  </text>
  <text
     transform="scale(4.0128.2492)"
     font-size="46.954"
     y="413.84"
     x="561.64"
     font-family="Arial"
     text-anchor="middle"
     id="text41" />
  <text
     font-size="129.23"
     y="110.14"
     x="2044.2"
     font-family="Gentium Book Basic"
     line-height="125%"
     word-spacing="0"
     letter-spacing="0"
     id="text43">
    <tspan
       y="110.14"
       x="2044.2"
       id="tspan45" />
  </text>
  <text
     transform="scale(4.0128.2492)"
     font-size="46.954"
     y="92.81"
     x="706.49"
     font-family="Arial"
     text-anchor="middle"
     id="text47" />
  <text
     font-size="129.23"
     y="-71.12"
     x="972.62"
     font-family="Gentium Book Basic"
     line-height="125%"
     word-spacing="0"
     letter-spacing="0"
     id="text49">
    <tspan
       y="-71.12"
       x="972.62"
       id="tspan51" />
  </text>
  <text
     transform="scale(4.0128.2492)"
     font-size="46.954"
     y="-634.55"
     x="439.46"
     font-family="Arial"
     text-anchor="middle"
     id="text53" />
  <text
     font-size="129.23"
     y="-287.59"
     x="2070.67"
     font-family="Gentium Book Basic"
     line-height="125%"
     word-spacing="0"
     letter-spacing="0"
     id="text55">
    <tspan
       y="-287.59"
       x="2070.67"
       id="tspan57" />
  </text>
  <text
     transform="scale(4.0128.2492)"
     font-size="46.954"
     y="-1503.21"
     x="713.09"
     font-family="Arial"
     text-anchor="middle"
     id="text59" />
  <text
     font-size="129.23"
     y="-367.6"
     x="2651.94"
     font-family="Gentium Book Basic"
     line-height="125%"
     word-spacing="0"
     letter-spacing="0"
     id="text61">
    <tspan
       y="-367.6"
       x="2651.94"
       id="tspan63" />
  </text>
  <text
     transform="scale(4.0128.2492)"
     font-size="46.954"
     y="-1824.25"
     x="857.94"
     font-family="Arial"
     text-anchor="middle"
     id="text65" />
  <text
     font-size="129.23"
     y="-840"
     x="2262.82"
     font-family="Gentium Book Basic"
     line-height="125%"
     word-spacing="0"
     letter-spacing="0"
     id="text67">
    <tspan
       y="-840"
       x="2262.82"
       id="tspan69" />
  </text>
  <text
     transform="scale(4.0128.2492)"
     font-size="46.954"
     y="-3719.9"
     x="760.97"
     font-family="Arial"
     text-anchor="middle"
     id="text71" />
  <text
     font-size="129.23"
     y="-920"
     x="2844.08"
     font-family="Gentium Book Basic"
     line-height="125%"
     word-spacing="0"
     letter-spacing="0"
     id="text73">
    <tspan
       y="-920"
       x="2844.08"
       id="tspan75" />
  </text>
  <text
     transform="scale(4.0128.2492)"
     font-size="46.954"
     y="-4040.93"
     x="905.82"
     font-family="Arial"
     text-anchor="middle"
     id="text77" />
  <text
     font-size="208.33"
     y="494.72"
     x="1011.28"
     font-family="Gentium Book Basic"
     line-height="125%"
     word-spacing="0"
     letter-spacing="0"
     id="text79">
    <tspan
       y="494.72"
       x="1011.28"
       id="tspan81" />
  </text>
</svg>
