<svg xmlns="http://www.w3.org/2000/svg" width="48" height="48">
<defs>
<defs
     id="defs4">
  </defs>
  <path
     id="path-main"
     d="M 9.918796,1.9999997 C 8.5891128,1.9999997 7.514,3.0751149 7.514,4.4047952 l 0,39.2059238 C 7.514,44.940401 8.5891128,46 9.918796,46 l 29.648801,0 c 1.329681,0 2.404795,-1.059599 2.404795,-2.389281 L 42.018942,13.636107 30.33629,1.9999997 l -20.417489,0 z M 26.845453,12.705218 c 0.984274,0.0019 1.9829,0.130544 2.978843,0.387871 0.025,0.0065 0.05258,0.0089 0.07757,0.01551 6.397777,1.696369 10.213997,8.263723 8.517631,14.661496 -1.696362,6.397777 -8.263717,10.213996 -14.661495,8.51763 -1.319815,-0.349948 -2.525118,-0.90865 -3.599436,-1.629055 -0.03272,0.109743 -0.05658,0.198404 -0.09309,0.310296 -0.158742,0.486577 -0.359858,0.983107 -0.682652,1.411848 -0.322793,0.42874 -0.783057,0.783834 -1.396332,0.899859 -1.210258,0.228969 -2.189796,-0.482624 -3.009874,-1.148096 -0.820077,-0.665472 -1.570272,-1.288597 -2.203103,-1.365303 -0.770871,-0.09344 -1.119338,0.05663 -1.427362,0.263752 -0.308024,0.20712 -0.55584,0.562272 -1.070522,0.760225 l -0.35684,-0.930888 c 0.168968,-0.06499 0.429837,-0.346005 0.884344,-0.651622 0.454507,-0.305617 1.129956,-0.551329 2.094499,-0.434415 1.102583,0.133646 1.915708,0.94642 2.699577,1.582511 0.783869,0.63609 1.467594,1.085554 2.203103,0.946403 0.35961,-0.06803 0.578304,-0.229143 0.791255,-0.511989 0.212951,-0.282846 0.383862,-0.692287 0.527504,-1.132581 0.06758,-0.207143 0.12525,-0.422351 0.186177,-0.636107 -3.567709,-2.881689 -5.315606,-7.679273 -4.06488,-12.396333 1.425718,-5.377035 6.289996,-8.931136 11.605078,-8.921016 z m -2.854725,1.923837 c -0.326316,0.02075 -0.656724,0.09314 -0.977433,0.217207 -1.684938,0.651845 -2.513623,2.550605 -1.861777,4.235543 0.651844,1.684939 2.535089,2.529137 4.220028,1.877292 1.684942,-0.651845 2.529141,-2.550601 1.877292,-4.235543 -0.399765,-1.033342 -1.265025,-1.753321 -2.265162,-2.00141 -0.0099,-0.0024 -0.02115,-0.01316 -0.03103,-0.01552 -0.311224,-0.07413 -0.635603,-0.09833 -0.961918,-0.07757 z m 8.51763,2.187588 c -0.736261,-0.0061 -1.479543,0.244065 -2.094499,0.744711 -1.401044,1.140619 -1.606059,3.206857 -0.465444,4.607898 1.140619,1.401038 3.191345,1.606065 4.592383,0.465445 1.401044,-1.14062 1.621581,-3.206857 0.48096,-4.607899 -0.467832,-0.574649 -1.099875,-0.953894 -1.768689,-1.117066 -0.0075,-0.0018 -0.008,0.0018 -0.01552,0 -0.238942,-0.05651 -0.483775,-0.09106 -0.729196,-0.09309 z m -13.141043,5.011283 c -1.803907,0.09927 -3.186718,1.640388 -3.087448,3.444288 0.09927,1.803906 1.640387,3.186719 3.444288,3.087447 1.803906,-0.09927 3.186716,-1.640381 3.087447,-3.444287 -0.07988,-1.451577 -1.086646,-2.62526 -2.42031,-2.978844 -0.02024,-0.0054 -0.04169,-0.01054 -0.06206,-0.01552 -0.305533,-0.07469 -0.631612,-0.111264 -0.961918,-0.09309 z m 7.478138,1.566996 c -0.586076,-0.0077 -1.130717,0.369749 -1.287729,0.961918 -0.185212,0.698515 0.232369,1.428329 0.930888,1.613541 0.698515,0.185211 1.412818,-0.232375 1.598026,-0.930889 0.185212,-0.698519 -0.232372,-1.428325 -0.930889,-1.61354 -0.0191,-0.0051 -0.02743,-0.01134 -0.04654,-0.01551 -0.0027,-5.96e-4 -0.01286,5.46e-4 -0.01552,0 -0.08467,-0.01793 -0.164512,-0.01441 -0.248237,-0.01552 z m 5.880113,1.985896 c -0.995201,0.06846 -1.94671,0.587755 -2.528914,1.489422 -0.98,1.517738 -0.540307,3.550325 0.977433,4.530324 1.517735,0.98 3.550324,0.54031 4.530324,-0.977433 0.980005,-1.517738 0.540308,-3.534808 -0.977433,-4.51481 -0.296429,-0.191406 -0.607189,-0.333059 -0.930888,-0.418899 -0.02084,-0.0055 -0.04116,-0.01042 -0.06206,-0.01552 -0.329179,-0.08031 -0.676729,-0.11591 -1.008462,-0.09309 z m -7.959098,3.087447 c -1.37426,0.07938 -2.60703,1.033548 -2.978843,2.435825 -0.463029,1.746292 0.580926,3.539794 2.327221,4.002821 1.746293,0.463029 3.539799,-0.580933 4.002821,-2.327221 0.463032,-1.746296 -0.580932,-3.539793 -2.327221,-4.002821 -0.01364,-0.0036 -0.01738,0.0034 -0.03103,0 -0.0068,-0.0017 -0.0087,-0.01386 -0.01552,-0.01551 -0.32377,-0.07931 -0.660296,-0.111407 -0.977433,-0.09309 z m 14.196051,10.61213 c 0.608954,4e-6 1.109306,0.211393 1.473907,0.620592 0.364594,0.407267 0.543014,0.942528 0.543018,1.629055 -4e-6,0.684593 -0.178424,1.235366 -0.543018,1.64457 -0.364601,0.407263 -0.864953,0.620592 -1.473907,0.620592 -0.610897,0 -1.091856,-0.213329 -1.458392,-0.620592 -0.364598,-0.407262 -0.543019,-0.958036 -0.543018,-1.64457 -10e-7,-0.686527 0.17842,-1.221788 0.543018,-1.629055 0.366536,-0.409199 0.847495,-0.620588 1.458392,-0.620592 z m -16.476728,0.07757 0.605078,0 1.380818,3.661495 1.380818,-3.661495 0.605078,0 -1.64457,4.344147 -0.667137,0 -1.660085,-4.344147 z m 4.607899,0 0.589563,0 0,4.344147 -0.589563,0 0,-4.344147 z m 1.753173,0 1.210155,0 c 0.841676,4e-6 1.468086,0.176485 1.861778,0.527503 0.393684,0.349087 0.589558,0.899862 0.589562,1.64457 -4e-6,0.748594 -0.209453,1.293548 -0.605077,1.64457 -0.395631,0.351022 -1.008465,0.527504 -1.846263,0.527504 l -1.210155,0 0,-4.344147 z m 4.592384,0 2.746121,0 0,0.496474 -2.156558,0 0,1.287729 2.063469,0 0,0.496474 -2.063469,0 0,1.566996 2.203103,0 0,0.496474 -2.792666,0 0,-4.344147 z m 5.523272,0.403385 c -0.426659,4e-6 -0.756348,0.162909 -1.008462,0.480959 -0.250178,0.318057 -0.372357,0.738896 -0.372356,1.287729 -1e-6,0.546901 0.122178,0.985193 0.372356,1.303244 0.252114,0.318056 0.581803,0.480959 1.008462,0.480959 0.426655,0 0.775738,-0.162903 1.023978,-0.480959 0.250172,-0.318051 0.372351,-0.756343 0.372355,-1.303244 -4e-6,-0.548833 -0.122183,-0.969672 -0.372355,-1.287729 -0.24824,-0.31805 -0.597323,-0.480955 -1.023978,-0.480959 z m -9.526093,0.07757 0,3.382229 0.713681,0 c 0.599257,0 1.041429,-0.131874 1.318759,-0.403386 0.279263,-0.271506 0.418897,-0.702043 0.4189,-1.287729 -3e-6,-0.581802 -0.139637,-1.002641 -0.4189,-1.272214 -0.27733,-0.271505 -0.719502,-0.418896 -1.318759,-0.4189 l -0.713681,0 z" />
</defs>

<use id="1" style="fill:#DBDBDB" xlink:href="#path-main" />



</svg>
