<svg xmlns="http://www.w3.org/2000/svg" width="48" height="48">
<defs>
<defs
     id="defs4">
  </defs>
  <path
     id="path-main"
     d="M 9.4357955,1.9999997 C 8.1061128,1.9999997 7.031,3.0751149 7.031,4.4047952 l 0,39.2059238 C 7.031,44.940401 8.1061128,46 9.4357955,46 l 29.6488015,0 c 1.329681,0 2.404795,-1.059599 2.404795,-2.389281 L 41.535942,13.636107 29.85329,1.9999997 l -20.4174895,0 z m 8.8744715,4.5148096 c 0.0092,-3.425e-4 0.02168,5.91e-5 0.03103,0 l 2.373766,0 c 0.482194,0 0.762516,0.4720638 0.868829,0.8688294 l 0.387871,1.6445698 c 0.460157,0.1447053 0.913267,0.3228416 1.334273,0.5430183 l 1.427363,-0.8843441 c 0.439505,-0.2537493 0.900219,-0.3409634 1.241185,0 l 1.675599,1.6755993 c 0.340962,0.340965 0.205379,0.869942 0,1.22567 l -0.899859,1.442877 c 0.220271,0.421188 0.4138,0.858384 0.558533,1.318759 l 1.64457,0.38787 c 0.490207,0.13135 0.868829,0.402151 0.868829,0.884345 l 0,2.373765 c 0,0.482195 -0.472062,0.762517 -0.868829,0.86883 l -1.64457,0.38787 c -0.143655,0.456824 -0.324953,0.88498 -0.543018,1.303244 l 0.884344,1.442877 c 0.20538,0.35573 0.34096,0.884706 0,1.22567 l -1.675599,1.6756 c -0.340966,0.340965 -0.801676,0.253749 -1.241185,0 l -1.427363,-0.884344 c -0.425257,0.223456 -0.868932,0.412212 -1.334273,0.558533 l -0.387871,1.64457 c -0.106313,0.396765 -0.386636,0.868827 -0.868829,0.868829 l -2.373766,0 c -0.482193,0 -0.737476,-0.378624 -0.868829,-0.868829 l -0.38787,-1.64457 C 16.624373,24.429337 16.1869,24.251234 15.765838,24.031029 l -1.442877,0.884345 c -0.355729,0.205383 -0.884706,0.340963 -1.22567,0 l -1.691115,-1.6756 c -0.340962,-0.340964 -0.253748,-0.786161 0,-1.22567 l 0.899859,-1.442877 C 12.085828,20.150165 11.90773,19.712692 11.763017,19.252468 l -1.660085,-0.38787 C 9.7061677,18.758285 9.234104,18.477964 9.234103,17.995768 l 0,-2.373765 c 0,-0.482194 0.3786229,-0.752995 0.868829,-0.884345 l 1.660085,-0.38787 c 0.14573,-0.463585 0.320719,-0.894932 0.543018,-1.318759 l -0.899859,-1.458392 c -0.253748,-0.439507 -0.340963,-0.884707 0,-1.22567 l 1.691115,-1.6755991 c 0.340965,-0.3409629 0.869942,-0.2053824 1.22567,0 l 1.458392,0.8998589 C 16.198,9.3543998 16.629737,9.1712456 17.084597,9.0282085 l 0.38787,-1.6445698 c 0.128282,-0.4787548 0.37708,-0.8516072 0.8378,-0.8688294 z m 1.132581,6.1283497 c -2.258391,0.04296 -4.06488,1.889363 -4.06488,4.157969 0,2.295505 1.862459,4.15797 4.157969,4.157969 2.295504,0 4.157969,-1.862463 4.157969,-4.157969 0,-2.295508 -1.862466,-4.15797 -4.157969,-4.157969 -0.0269,0 -0.06631,-4.96e-4 -0.09309,0 z m 2.296192,26.437236 c 0.203629,4e-6 0.4092,0.02522 0.620592,0.06206 0.211387,0.03685 0.430533,0.08146 0.651622,0.155148 l 0,0.574048 c -0.223029,-0.10666 -0.422781,-0.180356 -0.620592,-0.232722 -0.197816,-0.05236 -0.389812,-0.07757 -0.574048,-0.07757 -0.319995,4e-6 -0.570171,0.06206 -0.744711,0.186178 -0.172603,0.124122 -0.263753,0.298663 -0.263752,0.527503 -10e-7,0.191999 0.05624,0.335511 0.170663,0.434415 0.116359,0.09697 0.345203,0.172605 0.667137,0.232722 l 0.341326,0.07757 c 0.43829,0.0834 0.769919,0.223028 0.977433,0.434415 0.209446,0.209452 0.310292,0.500356 0.310296,0.853314 -4e-6,0.420841 -0.135758,0.744711 -0.4189,0.961918 -0.281209,0.217208 -0.696229,0.325811 -1.241185,0.325811 -0.205573,0 -0.418901,-0.03103 -0.651622,-0.07757 -0.230784,-0.04652 -0.480959,-0.110544 -0.729196,-0.201692 l 0,-0.605078 c 0.238539,0.133815 0.469322,0.226904 0.698166,0.294782 0.228843,0.06788 0.461564,0.108603 0.682652,0.108603 0.335506,0 0.593439,-0.06981 0.775741,-0.201692 0.182296,-0.131874 0.279263,-0.314174 0.279266,-0.558533 -3e-6,-0.213325 -0.06982,-0.391748 -0.201692,-0.511989 -0.129939,-0.120238 -0.352965,-0.20363 -0.651622,-0.263752 l -0.356841,-0.07757 c -0.438295,-0.08727 -0.75053,-0.217205 -0.946403,-0.403385 -0.195875,-0.186175 -0.294782,-0.444109 -0.294782,-0.77574 0,-0.383988 0.133815,-0.694284 0.403385,-0.915374 0.271508,-0.221082 0.641924,-0.325807 1.117067,-0.325811 z m 4.328631,0 c 0.259871,4e-6 0.50035,0.03879 0.729197,0.108604 0.230779,0.06788 0.449926,0.172606 0.651622,0.310296 l 0,0.620592 c -0.197818,-0.184235 -0.411146,-0.327747 -0.636108,-0.4189 -0.223028,-0.09114 -0.461568,-0.139629 -0.713681,-0.139633 -0.496476,4e-6 -0.868831,0.16097 -1.132581,0.465444 -0.263753,0.302542 -0.403386,0.729199 -0.403385,1.303244 -1e-6,0.572112 0.139632,1.014282 0.403385,1.318759 0.26375,0.302541 0.636105,0.44993 1.132581,0.44993 0.252113,0 0.490653,-0.03297 0.713681,-0.124119 0.224962,-0.09115 0.43829,-0.234658 0.636108,-0.4189 l 0,0.620593 c -0.205575,0.139633 -0.420843,0.240482 -0.651622,0.310296 -0.228847,0.06981 -0.473205,0.108603 -0.729197,0.108603 -0.657441,0 -1.173308,-0.203633 -1.55148,-0.605077 -0.378175,-0.403385 -0.574049,-0.963855 -0.574048,-1.660085 -1e-6,-0.698163 0.195873,-1.24312 0.574048,-1.64457 0.378172,-0.40338 0.894039,-0.605073 1.55148,-0.605077 z m 2.296192,0.07757 1.318759,0 c 0.496472,4e-6 0.872705,0.10279 1.117066,0.310296 0.244355,0.207514 0.356838,0.527507 0.356841,0.946403 -3e-6,0.273452 -0.05818,0.502295 -0.186178,0.682652 -0.12606,0.180362 -0.316117,0.302541 -0.558533,0.372356 0.126055,0.04267 0.254052,0.12412 0.372356,0.263751 0.120236,0.139634 0.236597,0.345209 0.35684,0.589563 l 0.605078,1.179126 -0.636107,0 -0.558534,-1.117067 C 30.407937,42.09415 30.268303,41.906031 30.132552,41.811001 29.998734,41.715975 29.822253,41.67137 29.589533,41.671368 l -0.636107,0 0,1.830748 -0.589563,0 0,-4.344147 z m 4.142455,0 0.589562,0 0,4.344147 -0.589562,0 0,-4.344147 z m 1.753173,0 1.318759,0 c 0.486775,4e-6 0.868826,0.120244 1.117066,0.341326 0.250173,0.21915 0.372352,0.537203 0.372356,0.961918 -4e-6,0.428599 -0.122183,0.742774 -0.372356,0.961918 -0.24824,0.219149 -0.630291,0.341328 -1.117066,0.341326 l -0.729196,0 0,1.737659 -0.589563,0 0,-4.344147 z m 2.994358,0 3.67701,0 0,0.496474 -1.551481,0 0,3.847673 -0.589563,0 0,-3.847673 -1.535966,0 0,-0.496474 z m -8.300423,0.480959 0,1.551481 0.729196,0 c 0.283143,2e-6 0.492593,-0.07175 0.636107,-0.201693 0.145449,-0.131873 0.23272,-0.31999 0.232722,-0.574048 -2e-6,-0.254051 -0.08727,-0.446047 -0.232722,-0.574047 -0.143514,-0.129933 -0.352964,-0.201689 -0.636107,-0.201693 l -0.729196,0 z m 5.895628,0 0,1.629055 0.729196,0 c 0.273446,2e-6 0.486775,-0.06012 0.636107,-0.201693 0.149327,-0.14157 0.232719,-0.343262 0.232722,-0.605077 -3e-6,-0.25987 -0.0834,-0.463502 -0.232722,-0.605078 -0.149332,-0.141569 -0.362661,-0.217203 -0.636107,-0.217207 l -0.729196,0 z" />
</defs>

<use id="1" style="fill:#DBDBDB" xlink:href="#path-main" />



</svg>
