<svg xmlns="http://www.w3.org/2000/svg" width="48" height="48">
 <path d="M 30.90625 2 C 29.510633 2.00466 28.423528 2.00639 28 2.03125 C 26.413288 2.124386 25.594357 3.0681695 25.21875 4.46875 C 24.719428 3.5292486 23.813575 2.8108902 22.6875 2.625 C 22.447655 2.5854069 22.202553 2.5848049 21.96875 2.59375 C 20.33213 2.6563659 18.902151 3.8523379 18.625 5.53125 C 18.308256 7.4500067 19.612493 9.2457556 21.53125 9.5625 C 22.994302 9.8040176 24.397496 9.1260629 25.125 7.9375 C 25.11649 11.795241 25.125 18.5 25.125 18.5 C 25.124999 20.098342 26.401659 21.40625 28 21.40625 L 43.09375 21.40625 C 44.69209 21.40625 45.968749 20.098342 45.96875 18.5 C 45.968751 16.901658 46.163141 4.959408 45.75 3.875 C 45.336859 2.7905911 44.330188 2.03125 43.09375 2.03125 C 42.166421 2.03125 35.093101 1.986016 30.90625 2 z M 29.03125 4.28125 L 42.03125 4.28125 C 42.959317 4.28125 43.71875 5.009431 43.71875 5.9375 L 43.71875 17.5 C 43.71875 18.428066 42.959319 19.15625 42.03125 19.15625 L 29.03125 19.15625 C 28.10318 19.156248 27.34375 18.428069 27.34375 17.5 L 27.34375 5.9375 C 27.34375 5.009431 28.103181 4.28125 29.03125 4.28125 z M 29.59375 6.5 L 29.59375 16.9375 L 41.46875 16.9375 L 41.46875 6.5 L 29.59375 6.5 z M 12.78125 7.25 C 11.448277 7.3009986 10.288231 8.2888314 10.0625 9.65625 C 9.8045221 11.219014 10.874736 12.679522 12.4375 12.9375 C 14.000264 13.195478 15.460772 12.156514 15.71875 10.59375 C 15.976728 9.0309859 14.937764 7.5392279 13.375 7.28125 C 13.179654 7.2490028 12.971675 7.2427145 12.78125 7.25 z M 7.21875 16.46875 C 6.2733974 16.504919 5.4413396 17.186468 5.28125 18.15625 C 5.0982905 19.264572 5.8604282 20.317041 6.96875 20.5 C 8.0770718 20.682959 9.1295405 19.920822 9.3125 18.8125 C 9.4954595 17.704178 8.7333218 16.682959 7.625 16.5 C 7.4864598 16.47713 7.3538004 16.463583 7.21875 16.46875 z M 7.78125 26.59375 C 6.3856332 26.59845 5.3297778 26.60015 4.90625 26.625 C 3.2121389 26.72444 2.334867 27.782815 2 29.34375 C 1.957556 30.128953 2 43.09375 2 43.09375 C 1.9999989 44.692092 3.3079091 46 4.90625 46 L 19.96875 46 C 21.56709 46 22.843749 44.692092 22.84375 43.09375 C 22.843751 41.495408 23.069391 29.553158 22.65625 28.46875 C 22.243109 27.384341 21.205188 26.625 19.96875 26.625 C 19.041421 26.625 11.9681 26.57977 7.78125 26.59375 z M 5.90625 28.875 L 18.90625 28.875 C 19.834317 28.875 20.59375 29.603181 20.59375 30.53125 L 20.59375 42.09375 C 20.59375 43.021816 19.834319 43.75 18.90625 43.75 L 5.90625 43.75 C 4.9781798 43.749998 4.21875 43.021819 4.21875 42.09375 L 4.21875 30.53125 C 4.21875 29.603181 4.9781809 28.875 5.90625 28.875 z M 6.46875 31.09375 L 6.46875 41.53125 L 18.375 41.53125 L 18.375 31.09375 L 6.46875 31.09375 z" fill="#dbdbdb"/>
</svg>
