<svg xmlns="http://www.w3.org/2000/svg" width="48" height="48">
 <path d="M 30.90625 2 C 29.510633 2.00466 28.423528 2.00639 28 2.03125 C 26.305889 2.13069 25.459867 3.1890651 25.125 4.75 C 25.08256 5.535203 25.125 18.5 25.125 18.5 C 25.124999 20.098342 26.401659 21.40625 28 21.40625 L 43.09375 21.40625 C 44.69209 21.40625 45.968749 20.098342 45.96875 18.5 C 45.968751 16.901658 46.163141 4.9594079 45.75 3.875 C 45.336859 2.7905911 44.330188 2.03125 43.09375 2.03125 C 42.166421 2.03125 35.093101 1.986016 30.90625 2 z M 29.03125 4.28125 L 42.03125 4.28125 C 42.959317 4.28125 43.71875 5.009431 43.71875 5.9375 L 43.71875 17.5 C 43.71875 18.428066 42.959319 19.15625 42.03125 19.15625 L 29.03125 19.15625 C 28.10318 19.156248 27.34375 18.428069 27.34375 17.5 L 27.34375 5.9375 C 27.34375 5.009431 28.103181 4.28125 29.03125 4.28125 z M 29.59375 6.5 L 29.59375 16.9375 L 41.46875 16.9375 L 41.46875 6.5 L 29.59375 6.5 z M 41.53125 22.9375 C 41.067967 22.955331 40.606732 23.201487 40.34375 23.625 C 39.922979 24.302621 40.134879 25.204229 40.8125 25.625 C 41.490121 26.045771 42.391729 25.833871 42.8125 25.15625 C 43.233271 24.478629 43.021371 23.577021 42.34375 23.15625 C 42.089642 22.998461 41.80922 22.926802 41.53125 22.9375 z M 7.78125 26.59375 C 6.3856332 26.59845 5.3297778 26.60015 4.90625 26.625 C 3.2121389 26.72444 2.334867 27.782815 2 29.34375 C 1.957556 30.128953 2 43.09375 2 43.09375 C 1.9999989 44.692092 3.3079091 46 4.90625 46 L 19.96875 46 C 20.83977 46 21.599592 45.612163 22.125 45 C 22.945561 44.685215 23.656012 44.074735 24.0625 43.21875 C 24.81238 41.639649 24.268266 39.808355 22.875 38.84375 C 22.916903 34.717284 22.952335 29.245912 22.65625 28.46875 C 22.243109 27.384341 21.205188 26.625 19.96875 26.625 C 19.041421 26.625 11.9681 26.57977 7.78125 26.59375 z M 5.90625 28.875 L 18.90625 28.875 C 19.834317 28.875 20.59375 29.603181 20.59375 30.53125 L 20.59375 42.09375 C 20.59375 43.021816 19.834319 43.75 18.90625 43.75 L 5.90625 43.75 C 4.9781798 43.749998 4.21875 43.021819 4.21875 42.09375 L 4.21875 30.53125 C 4.21875 29.603181 4.9781809 28.875 5.90625 28.875 z M 6.46875 31.09375 L 6.46875 41.53125 L 18.375 41.53125 L 18.375 31.09375 L 6.46875 31.09375 z M 38.625 31.875 C 37.833109 31.840766 37.0489 32.270211 36.6875 33.03125 C 36.205633 34.045969 36.641531 35.268133 37.65625 35.75 C 38.670969 36.231867 39.893133 35.795969 40.375 34.78125 C 40.856867 33.766531 40.420969 32.544367 39.40625 32.0625 C 39.15257 31.942033 38.888964 31.886411 38.625 31.875 z M 30.5625 37.53125 C 29.59838 37.628463 28.695887 38.217299 28.25 39.15625 C 27.570554 40.587032 28.162968 42.320554 29.59375 43 C 31.024532 43.679446 32.758054 43.055782 33.4375 41.625 C 34.116946 40.194218 33.493282 38.491946 32.0625 37.8125 C 31.704804 37.642638 31.340946 37.54734 30.96875 37.53125 C 30.829176 37.525216 30.700231 37.517362 30.5625 37.53125 z" fill="#dbdbdb"/>
</svg>
