<svg xmlns="http://www.w3.org/2000/svg" width="48" height="48">
 <path d="M 30.90625 2 C 29.510633 2.00466 28.423528 2.00639 28 2.03125 C 26.305889 2.13069 25.459867 3.189065 25.125 4.75 C 25.08256 5.535203 25.125 18.5 25.125 18.5 C 25.124999 20.098342 26.401659 21.40625 28 21.40625 L 43.09375 21.40625 C 44.69209 21.40625 45.968749 20.098342 45.96875 18.5 C 45.968751 16.901658 46.163141 4.959408 45.75 3.875 C 45.336859 2.7905911 44.330188 2.03125 43.09375 2.03125 C 42.166421 2.03125 35.093101 1.986016 30.90625 2 z M 29.03125 4.28125 L 42.03125 4.28125 C 42.959317 4.28125 43.71875 5.009431 43.71875 5.9375 L 43.71875 17.5 C 43.71875 18.428066 42.959319 19.15625 42.03125 19.15625 L 29.03125 19.15625 C 28.10318 19.156248 27.34375 18.428069 27.34375 17.5 L 27.34375 5.9375 C 27.34375 5.009431 28.103181 4.28125 29.03125 4.28125 z M 29.59375 6.5 L 29.59375 16.9375 L 41.46875 16.9375 L 41.46875 6.5 L 29.59375 6.5 z M 6.65625 24.65625 C 5.8355217 24.634781 5.0254336 24.868849 4.28125 25.34375 C 3.2220105 26.019705 2.5705932 27.072907 2.375 28.21875 C 2.20407 28.554187 2.0890516 28.928648 2 29.34375 C 1.9792414 29.727779 1.9950444 33.074585 2 36.34375 C 2.0001106 36.416722 1.9998842 36.427088 2 36.5 C 2.0053055 39.83935 2 43.09375 2 43.09375 C 1.9999989 44.692092 3.3079091 46 4.90625 46 L 19.96875 46 C 21.296034 46 22.381981 45.096184 22.71875 43.875 C 23.976903 43.001885 24.331438 41.302887 23.5 40 C 23.326356 39.727894 23.113028 39.506083 22.875 39.3125 C 22.919 35.224306 22.965245 29.279797 22.65625 28.46875 C 22.243109 27.384341 21.205188 26.625 19.96875 26.625 C 19.219752 26.625 14.133573 26.597732 10.125 26.59375 C 9.3305548 25.377014 8.0102668 24.691669 6.65625 24.65625 z M 5.90625 28.875 L 18.90625 28.875 C 19.834317 28.875 20.59375 29.603181 20.59375 30.53125 L 20.59375 42.09375 C 20.59375 43.021816 19.834319 43.75 18.90625 43.75 L 5.90625 43.75 C 4.9781798 43.749998 4.21875 43.021819 4.21875 42.09375 L 4.21875 30.53125 C 4.21875 29.603181 4.9781809 28.875 5.90625 28.875 z M 6.46875 31.09375 L 6.46875 41.53125 L 18.375 41.53125 L 18.375 31.09375 L 6.46875 31.09375 z M 38.59375 32.21875 C 38.406432 32.22916 38.241562 32.255999 38.0625 32.34375 C 37.34625 32.694756 37.023994 33.565 37.375 34.28125 C 37.726006 34.9975 38.59625 35.288506 39.3125 34.9375 C 40.02875 34.586494 40.319756 33.7475 39.96875 33.03125 C 39.705496 32.494063 39.155704 32.187519 38.59375 32.21875 z M 31.125 38.0625 C 30.733374 38.052256 30.323851 38.179642 29.96875 38.40625 C 29.021814 39.010538 28.739462 40.271814 29.34375 41.21875 C 29.948038 42.165686 31.209314 42.416788 32.15625 41.8125 C 33.103186 41.208212 33.385538 39.946936 32.78125 39 C 32.40357 38.408165 31.777709 38.079574 31.125 38.0625 z" fill="#dbdbdb"/>
</svg>
