<svg height="512" viewBox="0 0 512 512" width="512" xmlns="http://www.w3.org/2000/svg">
 <text x="729.64" y="231.36">
  
 </text>
 <text x="1310.91" y="151.36">
  
 </text>
 <text x="239.33" y="-29.9">
  
 </text>
 <text x="1337.38" y="-246.37">
  
 </text>
 <text x="1918.65" y="-326.37">
  
 </text>
 <text x="1529.53" y="-798.77">
  
 </text>
 <text x="2110.79" y="-878.78">
  
 </text>
 <text x="277.99" y="535.94">
  
 </text>
 <path d="m255.62715 52.954627c-9.23817 0-16.67989 8.497049-16.67989 19.053064v8.890811c0 2.113325.31157 4.143124.8631 6.039017-21.42492 6.948515-36.90761 27.084761-36.90761 50.831151 0 14.78664 5.99394 28.17456 15.69747 37.84229l-49.0811 116.68361h-31.41879v-7.57296h-30.50665-2.85179v.2161c-7.869948 1.26879-13.82809 7.71085-13.82809 15.50655 0 7.79438 5.958142 14.23644 13.82809 15.50655v.21611h2.85179 30.50665v-5.41589h23.65491l-28.92629 68.80634h.0239l-4.38574 10.44862c-3.74804 8.91203.24129 19.03981 8.91467 23.10339l-4.86568 45.94293 26.00291-50.44667c1.18791-1.38414 2.20082-2.9698 2.94725-4.74504l39.16014-93.1109h45.39537v15.98914c0 5.47556 4.2757 9.87456 9.58686 9.87456 5.31645 0 9.58685-4.39768 9.58685-9.87456v-15.98914h44.17564l39.16014 93.1109c.74642 1.77524 1.76066 3.36223 2.94725 4.74504l26.00291 50.44667-4.86569-45.94293c8.67338-4.06358 12.66404-14.19136 8.91468-23.10339l-4.38575-10.44862h.0239l-28.95016-68.80634h25.69134v5.41589h30.50665 2.85179v-.21611c7.86995-1.26879 13.82809-7.71085 13.82809-15.50655 0-7.79437-5.95814-14.23643-13.82809-15.50655v-.2161h-2.85179-30.50665v7.57296h-33.44992l-48.33865-114.92029c10.8172-9.76982 17.61457-23.89091 17.61457-39.61622 0-24.19451-16.09255-44.621103-38.15385-51.191765.48524-1.792481.74245-3.700306.74245-5.679725v-8.890811c0-10.556015-7.44172-19.053064-16.67989-19.053064m.67086 58.494275c14.52546 0 26.31446 11.78901 26.31446 26.31446 0 14.52546-11.789 26.29061-26.31446 26.29061-14.52546 0-26.29061-11.76515-26.29061-26.29061 0-14.52545 11.76515-26.31446 26.29061-26.31446m-5.29657 79.4472c1.7421.17103 3.50939.26384 5.29657.26384.92143 0 1.84551-.0252 2.75633-.0716h.0239l13.78036 32.7857c.0212.061.049.10739.0716.16838.10474.28769.19092.57672.31156.86309l28.35223 67.39171h-36.40381v-19.05306c0-5.47555-4.2757-9.87455-9.58685-9.87455-5.31646 0-9.58686 4.39767-9.58686 9.87455v19.05306h-37.62619l28.32703-67.39171c.12065-.28505.23069-.5754.33543-.86309.0225-.061.0504-.10739.0716-.16838l13.87581-32.97661" fill="#dbdbdb" fill-rule="evenodd"/>
</svg>
