<svg height="512" viewBox="0 0 512 512" width="512" xmlns="http://www.w3.org/2000/svg">
 <text x="729.64" y="231.36">
  
 </text>
 <text x="1310.91" y="151.36">
  
 </text>
 <text x="239.33" y="-29.9">
  
 </text>
 <text x="1337.38" y="-246.37">
  
 </text>
 <text x="1918.65" y="-326.38">
  
 </text>
 <text x="1529.53" y="-798.78">
  
 </text>
 <text x="2110.79" y="-878.78">
  
 </text>
 <text x="277.99" y="535.94">
  
 </text>
 <text x="-1771.42" y="413.27">
  
 </text>
 <text x="-1213.24" y="859.18">
  
 </text>
 <text x="875.45" y="621.66">
  
 </text>
 <g fill="#dbdbdb" transform="matrix(1.3204229 0 0 1.3204229 -84.323213 -73.939212)">
  <g transform="matrix(7.6792435 0 0 7.6792435 -16.296028 98.276075)">
   <path d="m14 14h20v4h-20z"/>
   <path d="m14 22h20v4h-20z"/>
   <path d="m14 30h20v4h-20z"/>
  </g>
  <g transform="matrix(7.6792435 0 0 7.6792435 174.01687 96.217927)">
   <path d="m14 14h20v4h-20z"/>
   <path d="m14 22h20v4h-20z"/>
   <path d="m14 30h20v4h-20z"/>
  </g>
  <g fill-rule="evenodd" transform="translate(14.269329 15.85481)">
   <path d="m125.253 133.07004c76.72691-60.451506 157.39666-63.731818 242.5786-1.58549l-1.58548 23.78222c-80.33104-57.434124-160.66208-61.952917-240.99312 3.17096z"/>
   <path d="m380.61849 171.45643l-65.36597-25.62721 41.45966-44.73753z"/>
  </g>
 </g>
</svg>
