<svg height="512" viewBox="0 0 512 512" width="512" xmlns="http://www.w3.org/2000/svg">
 <text x="729.64" y="231.36">
  
 </text>
 <text x="1310.91" y="151.36">
  
 </text>
 <text x="239.33" y="-29.9">
  
 </text>
 <text x="1337.38" y="-246.37">
  
 </text>
 <text x="1918.65" y="-326.38">
  
 </text>
 <text x="1529.53" y="-798.78">
  
 </text>
 <text x="2110.79" y="-878.78">
  
 </text>
 <text x="277.99" y="535.94">
  
 </text>
 <path d="m238.9573 77.179661c-24.42285 0-44.22083 13.706702-44.22083 30.615129.71091 6.30771 4.69831 14.27334 6.8035 17.00812 10.20461 13.60701 10.20461 22.11042 7.65346 27.21272h-82.48942c-15.07606 0-27.212726 12.13666-27.212726 27.21272v68.88765c5.102306 2.55116 13.607016 2.55116 27.212726-7.65345 2.73478-2.10519 10.7004-6.0926 17.00811-6.80351 16.90843 0 30.61513 19.79274 30.61513 44.22084 0 24.42285-13.7067 44.22083-30.61513 44.22083-5.18887-.0879-13.07842-4.72848-17.00811-6.8035-13.60702-10.20461-22.11042-10.20461-27.212726-7.65346v89.29687c0 15.07606 12.136666 27.21272 27.212726 27.21272h109.70608c2.55115-5.1023 2.55115-13.60702-7.65346-27.21272-2.10519-2.73478-6.0926-10.70041-6.80351-17.00812 0-16.90843 19.79274-30.61513 44.22084-30.61513 24.42285 0 44.22084 13.7067 44.22084 30.61513-.0879 5.18887-4.72849 13.07843-6.80351 17.00812-10.20461 13.60701-10.20461 22.11042-7.65346 27.21272h48.4732c15.07606 0 27.21272-12.13666 27.21272-27.21272v-75.68592c5.1023-2.55115 13.60701-2.55115 27.21272 7.65346 3.92969 2.07371 11.81793 6.71563 17.00811 6.80351 16.90843 0 30.61514-19.79274 30.61514-44.22084 0-24.42285-13.70671-44.22084-30.61514-44.22084-6.3077.71091-14.27333 4.69832-17.00811 6.80351-13.60702 10.20461-22.11042 10.20461-27.21272 7.65346v-82.48943c0-15.07606-12.13666-27.21272-27.21272-27.21272h-75.68592c-2.55115-5.1023-2.55115-13.60702 7.65346-27.21272 2.07371-3.92969 6.71562-11.81793 6.8035-17.00812 0-16.908426-19.79274-30.615127-44.22083-30.615127" fill="#dbdbdb"/>
</svg>
