<svg height="512" viewBox="0 0 512 512" width="512" xmlns="http://www.w3.org/2000/svg">
 <path d="m307.26709 109.29172c0 24.56542-19.49158 44.50218-43.50424 44.50218-24.01636 0-43.50423-19.93429-43.50423-44.50218 0-24.565427 19.49158-44.502188 43.50423-44.502188 24.01637 0 43.50424 19.934288 43.50424 44.502188m108.58746 47.32538c-2.01198.33265-3.72223.88666-5.7342 1.22302l-148.41894 24.84366-147.81299-25.92076c-4.68678-.82235-9.19302-1.79433-13.46306.31039-4.270048 2.10473-7.068515 7.09325-7.127873 11.83939-.05565 4.74738 2.911 8.84058 7.127873 11.05042l115.82168 37.5833-.79267 86.27888-40.87024 129.21425c-3.93615 5.88383-2.73663 13.44081 3.16822 17.36212 5.90485 3.92379 14.278 2.72798 18.21415-3.15708l65.96121-139.47819 64.71224 139.24323c3.49963 6.10271 11.29898 8.22351 17.42395 4.73625 6.12374-3.48727 8.25072-11.26065 4.75109-17.36213l-40.11219-129.77073-.0557-85.04225 115.92061-40.06396c4.74614-3.31661 6.80758-9.59616 4.75232-15.00018-2.05526-5.40032-7.70413-8.54751-13.46306-7.89334z" fill="#dbdbdb"/>
</svg>
