<svg height="512" viewBox="0 0 512 512" width="512" xmlns="http://www.w3.org/2000/svg">
 <path d="m298.86898 139.2253c19.15815 12.25112 32.59205 32.98152 35.04116 57.0448 7.80818 3.72308 16.48442 5.8647 25.67222 5.8647 33.563 0 60.767-27.74498 60.767-61.9695 0-34.23043-27.19821-61.975406-60.767-61.975406-33.24273.0044-60.20907 27.254286-60.71483 61.041316m-39.81041 126.88612c33.563 0 60.767-27.74941 60.767-61.97541 0-34.23043-27.20835-61.9695-60.767-61.9695-33.563 0-60.77715 27.74941-60.77715 61.97541 0 34.23043 27.21849 61.9695 60.77715 61.9695m25.77076 4.22412h-51.55747c-42.90151 0-77.805 35.60497-77.805 79.35223v64.31656l.16086 1.00799 4.34319 1.38636c40.93933 13.04186 76.51234 17.39752 105.78866 17.39752 57.18318 0 90.32737-16.62748 92.37651-17.68721l4.05915-2.09875h.43475v-64.32247c.004-43.75022-34.89624-79.35223-77.7992-79.35223m100.54408-63.98253h-51.17053c-.55359 20.88411-9.29214 39.67833-23.10862 53.20053 38.13516 11.56534 66.03042 47.63588 66.03042 90.23178v19.81847c50.5184-1.89332 79.62952-16.49002 81.54533-17.47733l4.05915-2.09875h.43476v-64.32691c0-43.75021-34.89625-79.34631-77.79921-79.34631m-232.94113-4.22412c11.88762 0 22.94776-3.53833 32.31671-9.5656 2.97806-19.81257 13.39187-37.12731 28.26914-48.92174.0623-1.16022.17101-2.31011.17101-3.48068 0-34.23043-27.20835-61.97541-60.75686-61.97541-33.563 0-60.766995 27.74498-60.766995 61.97541 0 34.21565 27.198205 61.96506 60.766995 61.96506m54.57176 57.42465c-13.75416-13.45273-22.46228-32.15384-23.09847-52.90493-1.89698-.14189-3.77512-.2956-5.70832-.2956h-51.55747c-42.901508 0-77.804998 35.59019-77.804998 79.34632v64.32247l.160858.99617 4.343192 1.39227c32.844206 10.46275 62.158208 15.27807 87.617398 16.79597v-19.42089c.0101-42.60034 27.90105-78.65905 66.04636-90.23178" fill="#dbdbdb"/>
</svg>
