<?xml version="1.0" encoding="UTF-8" standalone="no"?>
<svg
   xmlns:dc="http://purl.org/dc/elements/1.1/"
   xmlns:cc="http://creativecommons.org/ns#"
   xmlns:rdf="http://www.w3.org/1999/02/22-rdf-syntax-ns#"
   xmlns:svg="http://www.w3.org/2000/svg"
   xmlns="http://www.w3.org/2000/svg"
   xmlns:sodipodi="http://sodipodi.sourceforge.net/DTD/sodipodi-0.dtd"
   xmlns:inkscape="http://www.inkscape.org/namespaces/inkscape"
   height="100%"
   width="100%"
   version="1.1"
   id="svg2"
   viewBox="0 0 512 512"
   inkscape:version="0.91 r"
   sodipodi:docname="archive-insert-directory.svg">
  <sodipodi:namedview
     pagecolor="#ffffff"
     bordercolor="#666666"
     borderopacity="1"
     objecttolerance="10"
     gridtolerance="10"
     guidetolerance="10"
     inkscape:pageopacity="0"
     inkscape:pageshadow="2"
     inkscape:window-width="1920"
     inkscape:window-height="1028"
     id="namedview8"
     showgrid="false"
     inkscape:zoom="0.4609375"
     inkscape:cx="256"
     inkscape:cy="256"
     inkscape:window-x="0"
     inkscape:window-y="0"
     inkscape:window-maximized="1"
     inkscape:current-layer="svg2" />
  <metadata
     id="metadata508">
    <rdf:RDF>
      <cc:Work
         rdf:about="">
        <dc:format>image/svg+xml</dc:format>
        <dc:type
           rdf:resource="http://purl.org/dc/dcmitype/StillImage" />
        <dc:title />
      </cc:Work>
    </rdf:RDF>
  </metadata>
  <defs
     id="defs506" />
  <path
     id="path1294"
     d="m 140.40855,91.46528 0.0276,0.0552 c -6.0662,0 -11.25579,1.49912 -15.4096,4.50138 -3.45464,2.48817 -5.65306,13.968 -6.43447,17.97786 l -9.66552,0 c -12.52311,0 -22.47923,10.18936 -22.47923,22.50685 l 0,42.41782 -8.36758,0 c -15.17579,0 -28.35835,10.22819 -26.9806,23.14202 L 89.0156,317.72124 77.44459,398.05551 c 1.31606,12.21467 12.43997,22.47924 27.61577,22.47924 l 213.35942,0 0,-0.63516 0,-39.84956 -39.84955,0 -20.57375,0 0,-20.54613 0,-61.05846 0,-20.57375 20.57375,0 39.84955,0 0,-39.84955 0,-20.57375 20.54613,0 61.05847,0 20.57374,0 0,20.57375 0,39.84955 9.00274,0 23.77718,-75.8329 c 0.86366,-6.47748 -1.86709,-12.57429 -7.06964,-16.70754 -5.20253,-4.13325 -12.35069,-6.43447 -19.93858,-6.43447 l -7.06964,0 0,-42.44544 c 0,-12.29692 -9.98374,-22.47924 -22.50685,-22.47924 l -200.49048,0 c -0.76084,-4.00986 -2.95925,-15.5173 -6.43447,-18.00548 -4.1538,-2.98169 -9.99913,-4.50137 -16.04476,-4.50137 l -33.41508,0 z m -19.93858,48.21713 264.75236,0 c 0,9.45917 -0.0617,23.2707 0,39.18678 l -264.75236,0 c -0.0206,-15.66932 0,-34.18987 0,-39.18678 z m 218.71688,98.56068 0,60.39569 -60.39569,0 -0.359,60.80992 60.75469,-0.0276 0,60.45092 61.307,0.41424 -0.13807,-60.86516 60.64422,0.11047 -0.33139,-60.92039 -60.50614,0 -0.11047,-60.36807 -60.86515,0 z"
     style="fill:#DBDBDB;fill-rule:evenodd" />
</svg>
