<?xml version="1.0" encoding="UTF-8" standalone="no"?>
<svg
   xmlns:dc="http://purl.org/dc/elements/1.1/"
   xmlns:cc="http://creativecommons.org/ns#"
   xmlns:rdf="http://www.w3.org/1999/02/22-rdf-syntax-ns#"
   xmlns:svg="http://www.w3.org/2000/svg"
   xmlns="http://www.w3.org/2000/svg"
   xmlns:sodipodi="http://sodipodi.sourceforge.net/DTD/sodipodi-0.dtd"
   xmlns:inkscape="http://www.inkscape.org/namespaces/inkscape"
   height="100%"
   width="100%"
   version="1.1"
   id="svg2"
   viewBox="0 0 512 512"
   inkscape:version="0.91 r13725"
   sodipodi:docname="system-log-out.svg">
  <sodipodi:namedview
     pagecolor="#c3c3bf"
     bordercolor="#666666"
     borderopacity="1"
     objecttolerance="10"
     gridtolerance="10"
     guidetolerance="10"
     inkscape:pageopacity="0"
     inkscape:pageshadow="2"
     inkscape:window-width="1920"
     inkscape:window-height="1019"
     id="namedview8"
     showgrid="false"
     inkscape:zoom="0.89197637"
     inkscape:cx="129.93514"
     inkscape:cy="265.92771"
     inkscape:window-x="0"
     inkscape:window-y="13"
     inkscape:window-maximized="1"
     inkscape:current-layer="svg2" />
  <metadata
     id="metadata100">
    <rdf:RDF>
      <cc:Work
         rdf:about="">
        <dc:format>image/svg+xml</dc:format>
        <dc:type
           rdf:resource="http://purl.org/dc/dcmitype/StillImage" />
        <dc:title />
      </cc:Work>
    </rdf:RDF>
  </metadata>
  <defs
     id="defs98" />
  <path
     style="fill:#DBDBDB"
     id="path147"
     d="m 234.33421,97.108889 c -86.36621,0 -156.648916,70.264331 -156.648916,156.648891 0,86.36621 70.264356,156.6489 156.648916,156.6489 61.67178,0 117.84469,-36.49725 143.04402,-93.0034 0.43514,-0.97125 0.28275,-2.14171 -0.29375,-3.03585 -0.57927,-0.8868 -1.58174,-1.3715 -2.6448,-1.3715 l -57.7629,0 c -0.98043,0 -1.95444,0.39474 -2.54656,1.17505 -18.93483,24.91474 -48.76458,39.84154 -79.79326,39.84154 -55.27326,0 -100.25566,-44.97504 -100.25566,-100.25566 0,-55.27326 44.97506,-100.25567 100.25566,-100.25567 32.37815,0 63.0029,15.85585 81.84042,42.48543 0.58936,0.82988 1.52757,1.3715 2.54655,1.3715 l 56.97159,0 c 1.05021,0 1.96362,-0.49389 2.54656,-1.3715 0.57926,-0.87395 0.70411,-1.96822 0.29375,-2.93671 C 354.25911,135.69276 296.30985,97.108889 234.32595,97.108889 m 169.17971,90.855251 c -0.30661,0.0266 -0.58661,0.0707 -0.88129,0.19646 -1.17504,0.48287 -1.95811,1.66801 -1.95811,2.9367 0,0 0,29.19817 0,34.46111 -6.01204,0 -112.77729,0 -112.77729,0 -1.7332,0 -3.13316,1.40363 -3.13316,3.13316 l 0,52.96172 c 0,1.7332 1.39996,3.13317 3.13316,3.13317 0,0 106.7827,0 112.77729,0 0,5.26294 0,34.4611 0,34.4611 0,1.24758 0.71054,2.3446 1.86081,2.8394 1.15025,0.49481 2.51442,0.26806 3.42599,-0.58844 l 65.49988,-61.68097 c 0.61048,-0.57926 0.96759,-1.40547 0.9786,-2.25095 0.0184,-0.84182 -0.28917,-1.64966 -0.88128,-2.25097 l -65.49988,-66.38116 c -0.67016,-0.67657 -1.62671,-1.06305 -2.54656,-0.97859"
     inkscape:connector-curvature="0" />
</svg>
