<?xml version="1.0" encoding="UTF-8" standalone="no"?>
<svg
   xmlns:dc="http://purl.org/dc/elements/1.1/"
   xmlns:cc="http://creativecommons.org/ns#"
   xmlns:rdf="http://www.w3.org/1999/02/22-rdf-syntax-ns#"
   xmlns:svg="http://www.w3.org/2000/svg"
   xmlns="http://www.w3.org/2000/svg"
   xmlns:sodipodi="http://sodipodi.sourceforge.net/DTD/sodipodi-0.dtd"
   xmlns:inkscape="http://www.inkscape.org/namespaces/inkscape"
   height="100%"
   width="100%"
   version="1.1"
   id="svg2"
   viewBox="0 0 512 512"
   inkscape:version="0.91 r"
   sodipodi:docname="bookmark.svg">
  <sodipodi:namedview
     pagecolor="#ffffff"
     bordercolor="#666666"
     borderopacity="1"
     objecttolerance="10"
     gridtolerance="10"
     guidetolerance="10"
     inkscape:pageopacity="0"
     inkscape:pageshadow="2"
     inkscape:window-width="647"
     inkscape:window-height="480"
     id="namedview8"
     showgrid="false"
     inkscape:zoom="0.4609375"
     inkscape:cx="256"
     inkscape:cy="256"
     inkscape:window-x="0"
     inkscape:window-y="0"
     inkscape:window-maximized="0"
     inkscape:current-layer="svg2" />
  <metadata
     id="metadata508">
    <rdf:RDF>
      <cc:Work
         rdf:about="">
        <dc:format>image/svg+xml</dc:format>
        <dc:type
           rdf:resource="http://purl.org/dc/dcmitype/StillImage" />
        <dc:title />
      </cc:Work>
    </rdf:RDF>
  </metadata>
  <defs
     id="defs506" />
  <path
     id="path3163"
     d="m 256.00144,65.66108 c -0.0442,0 -0.0853,0.0378 -0.16369,0.0982 -0.0692,0.0533 -0.16689,0.13031 -0.2619,0.22917 -0.006,0.006 0.006,0.0262 0,0.0327 -0.20085,0.21067 -0.4778,0.48403 -0.78571,0.88392 -0.006,0.008 0.006,0.0243 0,0.0327 -0.31146,0.4052 -0.70062,0.88934 -1.11309,1.4732 -0.006,0.008 0.006,0.0244 0,0.0327 -0.41481,0.58758 -0.86611,1.24288 -1.37499,1.99701 -0.005,0.008 0.005,0.0243 0,0.0327 -1.02639,1.52151 -2.27196,3.35043 -3.6339,5.46722 -0.005,0.009 0.005,0.0239 0,0.0327 -1.36413,2.12044 -2.87901,4.5274 -4.51782,7.13685 -0.005,0.009 0.005,0.0242 0,0.0327 -1.64028,2.61194 -3.41712,5.41964 -5.2708,8.41363 -0.005,0.008 0.005,0.0244 0,0.0327 -1.85466,2.99566 -3.82074,6.15808 -5.82733,9.4285 -0.005,0.008 0.005,0.0245 0,0.0327 -4.01919,6.55072 -8.28049,13.52069 -12.5386,20.52663 -0.005,0.008 0.005,0.0247 0,0.0327 -8.52085,14.01958 -17.06099,28.06714 -23.57126,38.72888 -0.004,0.006 0.004,0.0263 0,0.0327 -3.24938,5.32133 -6.01299,9.80531 -8.02077,12.99693 -0.004,0.006 0.004,0.027 0,0.0327 -0.99726,1.58496 -1.82485,2.83521 -2.4226,3.73211 -0.004,0.005 0.004,0.0272 0,0.0327 -0.59093,0.88568 -0.97917,1.40882 -1.11309,1.50595 -2.09707,1.52096 -120.75064,28.41778 -128.92166,32.41048 -0.14827,0.0725 -0.25323,0.13934 -0.32738,0.19643 -0.0577,0.0444 -0.11957,0.0634 -0.13095,0.0982 -0.002,0.005 8.3e-4,0.0266 0,0.0327 -0.22271,0.68082 5.89379,8.2024 14.83025,18.75879 0.37222,0.44155 0.63331,0.7597 1.01487,1.2113 1.20065,1.41517 2.34403,2.74553 3.6339,4.25592 2.14885,2.52905 4.23019,5.01805 6.54757,7.72613 l 0.36012,0.32738 c 25.17029,29.24009 59.35477,67.98475 59.87752,69.56794 0.83258,2.54532 -11.85509,131.47664 -9.6904,133.04663 1.72402,1.2504 76.50803,-31.2097 108.55873,-44.62169 0.0747,-0.0302 0.30972,-0.13001 0.39285,-0.16368 3.5149,-1.42404 14.16802,-5.76187 14.47013,-5.76187 0.30211,0 10.95523,4.33783 14.47013,5.76187 0.13834,0.0578 0.25284,0.10509 0.39286,0.16368 32.05069,13.41199 106.8347,45.87209 108.55872,44.62169 2.16469,-1.57 -10.52298,-130.50131 -9.6904,-133.04664 0.52276,-1.58319 34.70724,-40.32785 59.87753,-69.56794 l 0.36012,-0.32738 c 2.20907,-2.5815 4.16255,-4.9453 6.22019,-7.36601 1.29368,-1.52194 2.71742,-3.1826 3.92855,-4.61604 8.00248,-9.4321 13.91365,-16.61878 15.41953,-19.05343 0.14815,-0.23954 0.2983,-0.47586 0.36011,-0.62202 0.0554,-0.13101 0.11544,-0.24215 0.0982,-0.29463 -0.013,-0.0398 -0.0576,-0.0787 -0.13096,-0.13096 -0.0742,-0.0571 -0.17911,-0.12397 -0.32737,-0.19643 -8.17103,-3.9927 -126.82461,-30.88952 -128.92168,-32.41048 -0.0713,-0.0567 -0.2062,-0.20249 -0.39285,-0.45832 -0.18411,-0.25151 -0.42805,-0.60972 -0.72023,-1.04761 -7.82214,-11.73654 -52.44487,-86.93676 -65.80309,-106.72541 -1.0219,-1.51441 -1.86072,-2.68677 -2.48808,-3.50295 -0.47158,-0.61244 -0.8317,-1.01785 -1.04761,-1.17856 -0.0785,-0.0604 -0.11946,-0.0982 -0.16369,-0.0982 z"
     style="fill:#DBDBDB;fill-rule:evenodd" />
</svg>
