<?xml version="1.0" encoding="UTF-8" standalone="no"?>
<svg
   xmlns:dc="http://purl.org/dc/elements/1.1/"
   xmlns:cc="http://creativecommons.org/ns#"
   xmlns:rdf="http://www.w3.org/1999/02/22-rdf-syntax-ns#"
   xmlns:svg="http://www.w3.org/2000/svg"
   xmlns="http://www.w3.org/2000/svg"
   xmlns:sodipodi="http://sodipodi.sourceforge.net/DTD/sodipodi-0.dtd"
   xmlns:inkscape="http://www.inkscape.org/namespaces/inkscape"
   width="48"
   height="48"
   viewBox="0 0 48 48"
   id="svg2"
   version="1.1"
   inkscape:version="0.91 r13725"
   sodipodi:docname="arrow-top-double.svg">
  <metadata
     id="metadata16">
    <rdf:RDF>
      <cc:Work
         rdf:about="">
        <dc:format>image/svg+xml</dc:format>
        <dc:type
           rdf:resource="http://purl.org/dc/dcmitype/StillImage" />
        <dc:title />
      </cc:Work>
    </rdf:RDF>
  </metadata>
  <defs
     id="defs14" />
  <sodipodi:namedview
     pagecolor="#acacb0"
     bordercolor="#666666"
     borderopacity="1"
     objecttolerance="10"
     gridtolerance="10"
     guidetolerance="10"
     inkscape:pageopacity="0"
     inkscape:pageshadow="2"
     inkscape:window-width="1680"
     inkscape:window-height="991"
     id="namedview12"
     showgrid="true"
     inkscape:zoom="12.109271"
     inkscape:cx="14.451478"
     inkscape:cy="43.682952"
     inkscape:window-x="0"
     inkscape:window-y="0"
     inkscape:window-maximized="1"
     inkscape:current-layer="svg2">
    <inkscape:grid
       type="xygrid"
       id="grid4147" />
  </sodipodi:namedview>
  <path
     inkscape:connector-curvature="0"
     id="path8"
     d="M 40,12 C 36,6 30.078125,4 24,4 17.933594,4 12,6 8,12"
     style="fill:#DBDBDB;fill-opacity:1;fill-rule:evenodd" />
  <path
     style="fill:#DBDBDB;fill-opacity:1"
     d="m 24.007176,12 c -0.613281,0 -1.195312,0.261719 -1.625,0.6875 l -7.6875,7.4375 c -0.425781,0.402344 -0.671874,0.976562 -0.6875,1.5625 -0.03125,0.929688 0.496094,1.761719 1.375,2.125 0.875,0.363281 1.902344,0.167969 2.5625,-0.5 l 4.0625,-3.9375 0,16.625 4,0 0,-16.625 4.0625,3.9375 c 0.898438,0.875 2.347657,0.875 3.25,0 0.898438,-0.875 0.898438,-2.3125 0,-3.1875 l -7.6875,-7.4375 C 25.198583,12.261719 24.616552,12 24.007176,12 Z"
     id="path10"
     inkscape:connector-curvature="0" />
</svg>
