<svg xmlns="http://www.w3.org/2000/svg" width="48" height="48">
<defs>
<defs
   id="defs23" />
    <path
   d="M 19,4 L 19,11 L 43,11 L 43,4 L 19,4 z M 5,20 L 5,27 L 43,27 L 43,20 L 5,20 z M 19,36 L 19,43 L 43,43 L 43,36 L 19,36 z"
   id="path-main"
    />

</defs>

<use id="1" style="fill:#DBDBDB" xlink:href="#path-main" />



</svg>
