<svg xmlns="http://www.w3.org/2000/svg" width="48" height="48">
<defs>
  <path
     d="M 28.536179,41.893434 C 45.677256,32.442251 36.025396,12.409146 19.538629,12.56649 l 0,-8.0664906 L 3.461,18.558177 19.538629,33.301549 c 0,0 0,-8.729032 0,-8.729032 10.234617,-0.415164 14.741673,7.26702 5.772326,13.363448 -2.567094,1.744847 -0.788778,6.170696 3.225224,3.957469 z"
     id="path-main"
      />
</defs>

<use id="1" style="fill:#DBDBDB" xlink:href="#path-main" />



</svg>
