<svg xmlns="http://www.w3.org/2000/svg" width="48" height="48">
<defs>
<defs
     id="defs3">
  </defs>
  <path
     d="m 31.410279,2 -25.0364582,0.028646 0,43.9713542 36.1510422,0 0,-32.65625 L 31.410279,2 z m -1.317708,3.6666667 9.052083,9.4531253 0,20.796875 c -0.02375,-0.0261 -0.03216,-0.0608 -0.05729,-0.08594 l -7.16146,-7.13281 C 31.284239,28.056251 30.287363,27.85 29.462363,28.125 c 1.65,-2.016668 2.635416,-4.583333 2.635416,-7.333333 0,-6.325001 -5.133333,-11.458334 -11.458333,-11.458334 -5.052957,0 -9.334622,3.277642 -10.856771,7.820313 l 0,-11.4583335 20.309896,-0.028646 z m -9.453125,6.6171873 c 4.675,0 8.450521,3.746875 8.450521,8.421875 -1e-6,4.675 -3.775521,8.450521 -8.450521,8.450521 -4.675,1e-6 -8.421875,-3.775521 -8.421875,-8.450521 0,-2.045312 0.718495,-3.900331 1.919271,-5.356771 0.171539,-0.208063 0.353775,-0.411068 0.544271,-0.601562 1.523958,-1.523959 3.620833,-2.463542 5.958333,-2.463542 z M 9.7540291,24.401042 C 11.265909,28.961711 15.573637,32.25 20.639446,32.25 c 2.75,-10e-7 5.316667,-0.985417 7.333333,-2.635417 -0.275,0.825001 -0.06875,1.821875 0.572917,2.463542 l 7.132812,7.161458 c 0.916668,0.916668 2.492188,0.916667 3.408855,0 0.02514,-0.02514 0.03354,-0.05984 0.05729,-0.08594 l 0,3.179687 -29.3906249,0 0,-17.932291 z"
     id="path-main"
      />
</defs>

<use id="1" style="fill:#DBDBDB" xlink:href="#path-main" />



</svg>
