<?xml version="1.0" encoding="UTF-8" standalone="no"?>
<svg
   xmlns:dc="http://purl.org/dc/elements/1.1/"
   xmlns:cc="http://creativecommons.org/ns#"
   xmlns:rdf="http://www.w3.org/1999/02/22-rdf-syntax-ns#"
   xmlns:svg="http://www.w3.org/2000/svg"
   xmlns="http://www.w3.org/2000/svg"
   xmlns:sodipodi="http://sodipodi.sourceforge.net/DTD/sodipodi-0.dtd"
   xmlns:inkscape="http://www.inkscape.org/namespaces/inkscape"
   height="100%"
   width="100%"
   version="1.1"
   id="svg2"
   viewBox="0 0 512 512"
   inkscape:version="0.91 r"
   sodipodi:docname="insert-button.svg">
  <sodipodi:namedview
     pagecolor="#ffffff"
     bordercolor="#666666"
     borderopacity="1"
     objecttolerance="10"
     gridtolerance="10"
     guidetolerance="10"
     inkscape:pageopacity="0"
     inkscape:pageshadow="2"
     inkscape:window-width="640"
     inkscape:window-height="480"
     id="namedview8"
     showgrid="false"
     inkscape:zoom="0.4609375"
     inkscape:cx="256"
     inkscape:cy="256"
     inkscape:window-x="0"
     inkscape:window-y="0"
     inkscape:window-maximized="0"
     inkscape:current-layer="svg2" />
  <metadata
     id="metadata102">
    <rdf:RDF>
      <cc:Work
         rdf:about="">
        <dc:format>image/svg+xml</dc:format>
        <dc:type
           rdf:resource="http://purl.org/dc/dcmitype/StillImage" />
        <dc:title />
      </cc:Work>
    </rdf:RDF>
  </metadata>
  <defs
     id="defs100" />
  <path
     d="M 154.95382,69.93453 C 97.19653,69.93453 51,116.13105 51,173.88835 l 0,164.22331 c 0,57.75729 46.19653,103.95381 103.95382,103.95381 l 202.09237,0 C 414.80347,442.06547 461,395.86895 461,338.11166 l 0,-164.22331 C 461,116.13105 414.80347,69.93453 357.04619,69.93453 l -202.09237,0 m 25.44763,77.78508 c 20.93499,0 36.91535,5.23376 47.24329,16.00364 10.42096,10.76989 15.25927,27.00613 15.25927,48.70873 l 0,86.508 c 0,21.60955 -4.83831,37.77601 -15.25927,48.70872 -10.42097,10.83967 -26.40135,16.72472 -47.24329,16.72472 -20.6791,0 -35.93838,-5.792 -46.52218,-16.72472 -10.51401,-10.93271 -16.00363,-27.16896 -16.00363,-48.70872 l 0,-86.508 c 0,-21.53977 5.48962,-37.1247 16.00363,-47.98763 10.51402,-10.83968 25.75003,-16.72474 46.52218,-16.72474 m 85.04256,2.90765 46.52218,0 0,91.60218 c 0.34891,-3.41938 1.41892,-6.93181 2.18654,-10.18837 0.76762,-3.25655 1.07001,-6.46658 2.18654,-9.44399 l 26.88982,-71.96982 50.89528,0 -42.89346,87.95018 42.89346,122.12073 -50.15092,0 -21.8189,-77.78508 -10.18836,18.91126 0,58.87382 -46.52218,0 0,-210.04765 m -85.04256,34.89164 c -4.95461,0 -8.60659,1.20957 -10.90945,4.37308 -2.30285,3.07047 -3.62873,8.42051 -3.62873,15.25928 l 0,101.76727 c 0,6.83876 1.32588,11.46773 3.62873,14.53819 2.30286,3.07046 5.76875,5.09417 10.90945,5.09417 5.04767,0 8.60661,-2.02371 10.90946,-5.09417 2.30284,-3.07046 3.62873,-7.69943 3.62873,-14.53819 l 0,-101.76727 c 0,-6.83877 -1.23284,-12.18881 -3.62873,-15.25928 -2.30285,-3.16351 -5.76876,-4.34982 -10.90946,-4.37308"
     id="path10"
     style="fill:#DBDBDB" />
</svg>
