<?xml version="1.0" encoding="UTF-8" standalone="no"?>
<svg
   xmlns:dc="http://purl.org/dc/elements/1.1/"
   xmlns:cc="http://creativecommons.org/ns#"
   xmlns:rdf="http://www.w3.org/1999/02/22-rdf-syntax-ns#"
   xmlns:svg="http://www.w3.org/2000/svg"
   xmlns="http://www.w3.org/2000/svg"
   xmlns:sodipodi="http://sodipodi.sourceforge.net/DTD/sodipodi-0.dtd"
   xmlns:inkscape="http://www.inkscape.org/namespaces/inkscape"
   height="100%"
   width="100%"
   version="1.1"
   id="svg2"
   viewBox="0 0 512 512"
   inkscape:version="0.91 r"
   sodipodi:docname="mail-reply-custom-all.svg">
  <sodipodi:namedview
     pagecolor="#ffffff"
     bordercolor="#666666"
     borderopacity="1"
     objecttolerance="10"
     gridtolerance="10"
     guidetolerance="10"
     inkscape:pageopacity="0"
     inkscape:pageshadow="2"
     inkscape:window-width="640"
     inkscape:window-height="480"
     id="namedview8"
     showgrid="false"
     inkscape:zoom="0.4609375"
     inkscape:cx="256"
     inkscape:cy="256"
     inkscape:window-x="0"
     inkscape:window-y="0"
     inkscape:window-maximized="0"
     inkscape:current-layer="svg2" />
  <metadata
     id="metadata102">
    <rdf:RDF>
      <cc:Work
         rdf:about="">
        <dc:format>image/svg+xml</dc:format>
        <dc:type
           rdf:resource="http://purl.org/dc/dcmitype/StillImage" />
        <dc:title />
      </cc:Work>
    </rdf:RDF>
  </metadata>
  <defs
     id="defs100" />
  <path
     id="path1484"
     d="m 99.87994,81.08977 177.21734,155.72446 177.97553,-155.72446 -355.19287,0 z m 373.58708,16.81191 0,0.0659 c 0.0122,-0.0109 0.0207,-0.022 0.033,-0.033 l -0.033,-0.033 z m 0,0.0659 c -88.95806,79.53316 -99.83003,83.88712 -196.36974,171.81115 l -47.56782,-42.1946 -6.16437,6.88959 c 25.65417,22.53639 42.22757,55.44217 42.22757,92.06994 0,17.50375 -4.10195,33.98628 -10.7794,49.0842 l 218.65376,0 0,-277.66028 z m -392.77244,-0.033 0,0.033 0,123.48515 c 18.36298,-10.97361 39.30717,-17.66899 62.13815,-17.66899 22.21724,0 42.57794,6.47729 60.62178,16.9108 l 7.68074,-9.23007 L 80.69458,97.93464 Z m 62.13815,124.30933 c -57.51935,0 -104.33275,46.8134 -104.33275,104.33275 0,57.51934 46.8134,104.33275 104.33275,104.33275 57.51934,0 104.33275,-46.81341 104.33275,-104.33275 0,-57.51935 -46.81341,-104.33275 -104.33275,-104.33275 z m -24.55858,42.95278 0,17.63603 -54.45741,45.29327 54.45741,45.26031 0,17.63602 -77.46665,-62.89633 77.46665,-62.9293 z m 21.49288,8.40596 0,0.033 0,33.75569 c 38.56718,3.48601 68.99373,18.3418 87.45491,64.44566 -27.00439,-22.51184 -54.28861,-30.25677 -87.45491,-26.10791 l 0,36.82139 -65.20385,-54.45741 65.20385,-54.49038 z"
     style="fill:#DBDBDB;fill-rule:evenodd" />
</svg>
