<?xml version="1.0" encoding="UTF-8" standalone="no"?>
<svg
   xmlns:dc="http://purl.org/dc/elements/1.1/"
   xmlns:cc="http://creativecommons.org/ns#"
   xmlns:rdf="http://www.w3.org/1999/02/22-rdf-syntax-ns#"
   xmlns:svg="http://www.w3.org/2000/svg"
   xmlns="http://www.w3.org/2000/svg"
   xmlns:sodipodi="http://sodipodi.sourceforge.net/DTD/sodipodi-0.dtd"
   xmlns:inkscape="http://www.inkscape.org/namespaces/inkscape"
   height="100%"
   width="100%"
   version="1.1"
   id="svg2"
   viewBox="0 0 512 512"
   inkscape:version="0.91 r"
   sodipodi:docname="mail-mark-unread-new.svg">
  <sodipodi:namedview
     pagecolor="#ffffff"
     bordercolor="#666666"
     borderopacity="1"
     objecttolerance="10"
     gridtolerance="10"
     guidetolerance="10"
     inkscape:pageopacity="0"
     inkscape:pageshadow="2"
     inkscape:window-width="640"
     inkscape:window-height="480"
     id="namedview8"
     showgrid="false"
     inkscape:zoom="0.4609375"
     inkscape:cx="256"
     inkscape:cy="256"
     inkscape:window-x="0"
     inkscape:window-y="0"
     inkscape:window-maximized="0"
     inkscape:current-layer="svg2" />
  <metadata
     id="metadata102">
    <rdf:RDF>
      <cc:Work
         rdf:about="">
        <dc:format>image/svg+xml</dc:format>
        <dc:type
           rdf:resource="http://purl.org/dc/dcmitype/StillImage" />
        <dc:title />
      </cc:Work>
    </rdf:RDF>
  </metadata>
  <defs
     id="defs100" />
  <path
     id="path10"
     d="m 55.87704,95.1827 168.134,147.11335 168.16513,-147.11335 -336.29913,0 z m -17.37706,15.19715 0,245.70794 L 161.69652,218.37924 38.49998,110.37985 Z m 371.08441,0 -123.22769,107.99939 13.04837,14.48088 c 0.384,-0.39463 0.30096,-1.0379 0.74741,-1.43252 6.38446,-5.63639 12.47728,-4.001 15.19714,-3.64358 2.71987,0.36274 3.69558,0.21724 5.0761,0.7474 2.76106,1.05899 4.9414,1.60866 7.25601,2.89618 4.63456,2.57904 10.16265,6.96461 15.19715,10.1522 0.31622,0.19664 0.43648,-0.19666 0.7474,0 0.0784,-0.39463 -0.0784,-1.06372 0,-1.46367 1.11081,-5.85431 3.04782,-11.51204 4.32869,-16.6608 0.63779,-2.56973 1.06912,-5.22715 2.17992,-7.97227 0.5554,-1.3699 0.58679,-2.84518 2.17992,-5.0761 1.59313,-2.23223 5.28345,-6.44683 13.76463,-7.25602 l 1.46365,0 c 7.36507,-0.18202 11.19084,3.31158 13.04838,5.0761 1.98776,1.88944 3.52349,3.12016 4.32869,4.35984 1.61439,2.4807 1.8112,4.82256 2.92732,7.22488 2.23224,4.81126 4.30296,9.68489 6.50861,15.22828 0.32156,0.80918 0.40003,1.37472 0.71627,2.17992 0.41056,-0.38932 1.04777,-1.07435 1.46365,-1.46366 4.33958,-4.08446 8.99048,-8.1739 13.04838,-11.58472 l 0,-113.79173 z m -41.88558,109.86788 c -3.91837,0.37471 -8.99963,45.9855 -12.61239,47.55338 -3.61277,1.56654 -40.42665,-25.86846 -43.38037,-23.26286 -2.94841,2.60561 19.74913,42.51332 17.75076,45.90286 -1.99972,3.39486 -47.88504,2.8177 -48.73675,6.66432 -0.85303,3.84132 40.97748,22.77006 41.35616,26.68842 0.37471,3.91838 -37.10587,30.45626 -35.53267,34.06902 1.56656,3.61277 46.53599,-5.65775 49.14159,-2.70932 2.61092,2.95372 -12.14034,46.42695 -8.75081,48.42532 3.3922,1.99839 34.33309,-31.93643 38.17972,-31.0794 3.83599,0.84904 17.47596,44.68799 21.39434,44.31463 3.91837,-0.37869 8.99962,-45.9855 12.61238,-47.55336 3.61276,-1.56656 40.42666,25.86844 43.38038,23.26284 2.94841,-2.61092 -19.7856,-42.51332 -17.78191,-45.90286 1.99972,-3.39486 47.91619,-2.82301 48.7679,-6.66432 0.85302,-3.84662 -40.98281,-22.77007 -41.35618,-26.68843 -0.37469,-3.91837 37.10055,-30.45625 35.53268,-34.06901 -1.56656,-3.61276 -46.53599,5.65775 -49.14159,2.70932 -2.61092,-2.95372 12.10922,-46.42695 8.71967,-48.42532 -3.3922,-2.00371 -34.30195,31.93111 -38.14857,31.0794 -3.83599,-0.85436 -17.47596,-44.68799 -21.39434,-44.31463 z m -188.59409,13.32865 -125.37645,139.88848 224.68731,0 c -2.35183,-1.47355 -5.08624,-3.70055 -7.25601,-8.68854 -3.38955,-7.81681 -1.1839,-12.75289 0,-15.22828 1.18388,-2.4754 1.96608,-3.92941 2.89617,-5.07609 1.86285,-2.29868 3.85111,-3.98133 5.79236,-5.79236 3.88249,-3.61276 7.74405,-7.77529 12.33211,-11.58471 0.45176,-0.37337 0.98076,-0.37403 1.43252,-0.7474 -0.31092,-0.1714 -1.12028,0.1714 -1.43252,0 -5.22716,-2.86471 -10.01168,-5.88097 -14.51203,-8.68853 -2.24687,-1.4018 -4.24051,-3.88831 -6.50861,-5.79236 -1.13207,-0.95003 -2.72951,-2.15418 -4.35984,-4.35983 -1.63432,-2.20567 -4.74308,-6.16581 -2.89618,-14.48089 1.84824,-8.31508 7.02166,-11.02466 9.43594,-12.33211 2.41293,-1.30745 3.64905,-1.04852 5.07609,-1.43252 2.85407,-0.76268 5.34141,-1.14211 7.97227,-1.46365 5.26302,-0.63779 10.71748,-0.33758 16.6608,-0.71627 0.78395,-0.0519 1.41192,0.0465 2.17992,0 -0.38931,-0.83576 -0.35277,-1.33353 -0.7474,-2.17992 -0.46239,-0.97527 -1.01131,-1.90495 -1.43252,-2.89617 l -34.069,-38.42885 -44.93747,39.14511 -44.93746,-39.14511 z"
     style="fill:#DBDBDB" />
</svg>
