<?xml version="1.0" encoding="UTF-8" standalone="no"?>
<svg
   xmlns:dc="http://purl.org/dc/elements/1.1/"
   xmlns:cc="http://creativecommons.org/ns#"
   xmlns:rdf="http://www.w3.org/1999/02/22-rdf-syntax-ns#"
   xmlns:svg="http://www.w3.org/2000/svg"
   xmlns="http://www.w3.org/2000/svg"
   xmlns:sodipodi="http://sodipodi.sourceforge.net/DTD/sodipodi-0.dtd"
   xmlns:inkscape="http://www.inkscape.org/namespaces/inkscape"
   height="100%"
   width="100%"
   version="1.1"
   id="svg2"
   viewBox="0 0 512 512"
   inkscape:version="0.91 r"
   sodipodi:docname="mail-folder-sent.svg">
  <sodipodi:namedview
     pagecolor="#ffffff"
     bordercolor="#666666"
     borderopacity="1"
     objecttolerance="10"
     gridtolerance="10"
     guidetolerance="10"
     inkscape:pageopacity="0"
     inkscape:pageshadow="2"
     inkscape:window-width="640"
     inkscape:window-height="480"
     id="namedview8"
     showgrid="false"
     inkscape:zoom="0.4609375"
     inkscape:cx="256"
     inkscape:cy="256"
     inkscape:window-x="0"
     inkscape:window-y="0"
     inkscape:window-maximized="0"
     inkscape:current-layer="svg2" />
  <metadata
     id="metadata102">
    <rdf:RDF>
      <cc:Work
         rdf:about="">
        <dc:format>image/svg+xml</dc:format>
        <dc:type
           rdf:resource="http://purl.org/dc/dcmitype/StillImage" />
        <dc:title />
      </cc:Work>
    </rdf:RDF>
  </metadata>
  <defs
     id="defs100" />
  <path
     style="fill:#DBDBDB"
     id="path8"
     d="m 55.99987,56.0006 0,32.81389 c 13.92621,0 24.99785,11.02724 24.99785,24.99785 0,13.94769 -11.07164,25.78132 -24.99785,25.78132 l 0,6.24911 c 13.92621,0 24.99785,11.81071 24.99785,25.78132 0,13.94769 -11.07164,24.22012 -24.99785,24.22012 l 0,6.24911 c 13.92621,0 24.99785,11.83362 24.99785,25.78131 0,13.97061 -11.07164,24.22012 -24.99785,24.22012 l 0,7.8103 c 13.92621,0 24.99785,10.27243 24.99785,24.22012 0,13.9477 -11.07164,25.78131 -24.99785,25.78131 l 0,5.46566 c 13.92621,0 24.99785,11.07737 24.99785,25.00357 0,13.94769 -11.07164,25.78132 -24.99785,25.78132 l 0,6.2491 c 13.92621,0 24.99785,11.85512 24.99785,25.78133 0,13.9706 -11.07164,24.99784 -24.99785,24.99784 l 0,32.8139 29.68719,0 c 0,-13.9477 11.05588,-25.78133 25.00357,-25.78133 13.94197,0 25.78132,11.83363 25.78132,25.78133 l 6.2491,0 c 0,-13.9477 11.85511,-25.78133 25.78133,-25.78133 13.94196,0 24.99785,11.83363 24.99785,25.78133 l 5.47136,0 c 0,-13.9477 11.07164,-25.78133 24.99787,-25.78133 13.94196,0 25.78131,11.83363 25.78131,25.78133 l 6.24911,0 c 0,-13.9477 11.03297,-25.78133 24.99785,-25.78133 13.92621,0 25.78132,11.83363 25.78132,25.78133 l 5.47136,0 c 0,-13.9477 11.0559,-25.78133 24.99786,-25.78133 13.90329,0 25.78132,11.83363 25.78132,25.78133 l 6.2491,0 c 0,-13.9477 11.83935,-25.78133 25.78133,-25.78133 13.94768,0 25.00357,11.83363 25.00357,25.78133 l 35.9363,0 0,-28.90373 c -13.9033,0 -24.99786,-11.02724 -24.99786,-24.99786 0,-13.90328 11.09456,-24.99784 24.99786,-24.99784 l 0,-6.24911 c -13.9033,0 -24.99786,-11.81071 -24.99786,-25.78132 0,-13.94768 11.09456,-25.78131 24.99786,-25.78131 l 0,-5.47137 c -13.9033,0 -24.99786,-11.05015 -24.99786,-24.99786 0,-13.94769 11.09456,-25.00359 24.99786,-25.00359 l 0,-7.02682 c -13.9033,0 -24.99786,-10.27243 -24.99786,-24.22012 0,-13.92622 11.09456,-25.78133 24.99786,-25.78133 l 0,-6.2491 c -13.9033,0 -24.99786,-11.07738 -24.99786,-25.00358 0,-13.97062 11.09456,-24.99787 24.99786,-24.99787 l 0,-7.03256 c -13.9033,0 -24.99786,-11.09456 -24.99786,-24.99786 0.0172,-13.97061 11.07166,-25.78132 24.99786,-25.78132 l 0,-36.71976 -32.8139,0 c 0,13.9477 -11.03296,24.99786 -24.99784,24.99786 -13.94771,0 -25.78134,-11.05016 -25.78134,-24.99786 l -6.24909,0 c 0,13.9477 -11.83936,24.99786 -25.78132,24.99786 -13.9262,0 -25.00357,-11.05016 -25.00357,-24.99786 l -5.46566,0 c 0,13.9477 -11.05588,24.99786 -24.99784,24.99786 -13.92621,0 -25.78132,-11.05016 -25.78132,-24.99786 l -6.25484,0 c 0,13.9477 -11.03296,24.99786 -24.99786,24.99786 -13.9262,0 -25.7813,-11.05016 -25.7813,-24.99786 l -5.46564,0 c 0,13.9477 -11.07738,24.99786 -25.00358,24.99786 -13.96489,0 -25.78134,-11.05016 -25.78134,-24.99786 l -6.2491,0 c 0,13.9477 -11.83362,24.99786 -25.78131,24.99786 -13.94196,0 -24.99785,-11.05016 -24.99785,-24.99786 m 164.84289,116.40267 c 3.70965,0.22344 7.68712,0.90092 11.7219,1.56121 1.32058,0.23488 2.53516,0.39101 3.90587,0.78345 13.53949,3.75406 26.54187,14.74835 32.03041,29.68719 12.39797,-9.94156 30.20713,-12.37645 43.75234,-8.59376 1.34349,0.38672 1.8806,1.06849 3.12241,1.56119 15.14508,6.0314 24.53522,14.02648 28.90371,25.00358 4.34703,10.89834 3.65379,24.50658 -3.12813,39.05871 -16.35967,35.36481 -101.06277,74.88041 -104.68647,76.57051 -1.6056,0.82787 -3.03218,2.02527 -4.6879,1.5612 -1.68438,-0.44257 -3.73114,-1.59414 -4.6879,-3.1224 -2.27736,-3.3172 -54.21955,-82.31401 -50.00143,-121.10059 1.7345,-15.92712 7.87188,-28.0644 17.18753,-35.15855 4.71655,-3.56928 10.112,-5.93113 16.40982,-7.02685 3.14962,-0.55429 6.44532,-1.00689 10.15497,-0.78345 m -51.56263,47.65245 c -0.0501,0.41395 0.0501,1.90209 0,2.34467 -2.22723,20.37155 10.73075,50.87944 24.22011,76.5562 -6.80914,13.71854 -13.46644,24.0196 -14.06514,24.99786 -0.62162,1.01264 -1.28192,2.03672 -2.34466,2.34466 -1.0857,0.33516 -2.05966,0.49271 -3.12242,0 -2.43346,-1.0069 -58.1426,-25.7584 -69.53364,-48.43449 -4.68362,-9.29275 -6.5456,-17.80344 -3.90588,-25.00359 2.6125,-7.21877 9.04208,-12.18597 18.74874,-16.40409 0.8064,-0.36379 1.46526,-1.27618 2.34468,-1.56119 8.7284,-2.71849 20.62218,-0.72188 28.90373,5.46563 3.10521,-9.39443 10.38413,-17.33077 18.74873,-20.30994" />
</svg>
