<?xml version="1.0" encoding="UTF-8" standalone="no"?>
<svg
   xmlns:dc="http://purl.org/dc/elements/1.1/"
   xmlns:cc="http://creativecommons.org/ns#"
   xmlns:rdf="http://www.w3.org/1999/02/22-rdf-syntax-ns#"
   xmlns:svg="http://www.w3.org/2000/svg"
   xmlns="http://www.w3.org/2000/svg"
   xmlns:sodipodi="http://sodipodi.sourceforge.net/DTD/sodipodi-0.dtd"
   xmlns:inkscape="http://www.inkscape.org/namespaces/inkscape"
   height="100%"
   width="100%"
   version="1.1"
   id="svg2"
   viewBox="0 0 512 512"
   inkscape:version="0.91 r"
   sodipodi:docname="mail-message-new.svg">
  <sodipodi:namedview
     pagecolor="#ffffff"
     bordercolor="#666666"
     borderopacity="1"
     objecttolerance="10"
     gridtolerance="10"
     guidetolerance="10"
     inkscape:pageopacity="0"
     inkscape:pageshadow="2"
     inkscape:window-width="640"
     inkscape:window-height="480"
     id="namedview8"
     showgrid="false"
     inkscape:zoom="0.4609375"
     inkscape:cx="256"
     inkscape:cy="256"
     inkscape:window-x="0"
     inkscape:window-y="0"
     inkscape:window-maximized="0"
     inkscape:current-layer="svg2" />
  <metadata
     id="metadata102">
    <rdf:RDF>
      <cc:Work
         rdf:about="">
        <dc:format>image/svg+xml</dc:format>
        <dc:type
           rdf:resource="http://purl.org/dc/dcmitype/StillImage" />
        <dc:title />
      </cc:Work>
    </rdf:RDF>
  </metadata>
  <defs
     id="defs100" />
  <path
     id="path9486"
     d="m 92.45947,63.49969 0,106.81694 -47.46357,35.60565 0,204.70856 129.79964,-124.60383 -58.62022,-45.99727 0,-152.8142 166.13844,0 0,71.21129 71.21128,0 0,71.21129 c 4.22459,-0.45093 8.27156,-0.76502 12.59108,-0.76502 21.47894,0 41.17599,6.26565 58.62022,16.35246 l 0,-39.30328 -47.49544,-35.60565 0,-35.60565 -71.17943,-71.21129 -213.602,0 z m 0,136.46175 0,0.0319 0,21.48452 -14.08925,-11.12477 14.08925,-10.39162 z m 284.78143,0 14.12113,10.39162 -14.12113,11.12477 0,-21.48452 0,-0.0319 z m -11.12478,46.79417 c -55.60791,0 -100.8561,45.24819 -100.8561,100.8561 0,55.60791 45.24819,100.88798 100.8561,100.88798 55.60791,0 100.88798,-45.28007 100.88798,-100.88798 0,-55.60791 -45.28007,-100.8561 -100.88798,-100.8561 z M 234.85018,261.54614 44.9959,443.24013 l 251.43898,0 c -29.42971,-21.64508 -48.99362,-56.53911 -48.99362,-95.62842 0,-21.47894 6.26566,-41.17599 16.35245,-58.62022 l -28.94353,-27.41348 0,-0.0319 z m 105.31876,8.22404 51.92623,0 0,51.92623 51.92623,0 0,51.92623 -51.92623,0 0,51.92623 -51.92623,0 0,-51.92623 -51.92623,0 0,-51.92623 51.92623,0 0,-51.92623 z"
     style="fill:#DBDBDB" />
</svg>
