<?xml version="1.0" encoding="UTF-8" standalone="no"?>
<svg
   xmlns:dc="http://purl.org/dc/elements/1.1/"
   xmlns:cc="http://creativecommons.org/ns#"
   xmlns:rdf="http://www.w3.org/1999/02/22-rdf-syntax-ns#"
   xmlns:svg="http://www.w3.org/2000/svg"
   xmlns="http://www.w3.org/2000/svg"
   xmlns:sodipodi="http://sodipodi.sourceforge.net/DTD/sodipodi-0.dtd"
   xmlns:inkscape="http://www.inkscape.org/namespaces/inkscape"
   height="100%"
   width="100%"
   version="1.1"
   id="svg2"
   viewBox="0 0 512 512"
   inkscape:version="0.91 r"
   sodipodi:docname="run-build.svg">
  <sodipodi:namedview
     pagecolor="#ffffff"
     bordercolor="#666666"
     borderopacity="1"
     objecttolerance="10"
     gridtolerance="10"
     guidetolerance="10"
     inkscape:pageopacity="0"
     inkscape:pageshadow="2"
     inkscape:window-width="640"
     inkscape:window-height="480"
     id="namedview8"
     showgrid="false"
     inkscape:zoom="0.4609375"
     inkscape:cx="256"
     inkscape:cy="256"
     inkscape:window-x="0"
     inkscape:window-y="0"
     inkscape:window-maximized="0"
     inkscape:current-layer="svg2" />
  <metadata
     id="metadata100">
    <rdf:RDF>
      <cc:Work
         rdf:about="">
        <dc:format>image/svg+xml</dc:format>
        <dc:type
           rdf:resource="http://purl.org/dc/dcmitype/StillImage" />
        <dc:title />
      </cc:Work>
    </rdf:RDF>
  </metadata>
  <defs
     id="defs98" />
  <path
     d="m 206.95088,56 c -5.07337,0.025 -11.29639,1.92439 -20.29352,5.0234 -24.26726,8.32235 -26.29161,10.79656 -25.91673,31.61491 0.34989,18.94397 -2.62417,24.56717 -20.96832,40.01224 -16.64469,14.04552 -22.16792,15.94492 -34.11411,11.74626 -14.49537,-5.09838 -27.79113,2.79911 -36.96321,21.91801 -10.3467,21.56812 -9.64692,27.24131 5.14836,41.23685 13.24577,12.521 15.22015,19.24386 12.8459,43.63608 -1.79942,18.49411 -4.14867,22.94268 -17.31947,32.88952 -14.99522,11.32138 -16.29481,17.5694 -8.39733,40.61204 7.89749,23.01766 12.09615,26.56653 29.94045,25.24195 18.74403,-1.47453 23.24258,0.6248 39.01255,18.44412 17.19452,19.4438 16.69468,18.1942 13.84559,36.16347 -3.49888,22.04297 -1.24961,25.84176 22.01798,37.3131 23.24259,11.44635 27.76614,10.87153 42.26152,-5.19835 11.87121,-13.1458 15.0452,-14.22046 38.28779,-12.89588 20.6934,1.17462 31.21505,5.42327 34.08913,13.7956 2.1743,6.37297 7.54759,11.8962 16.06987,16.59471 5.52324,3.04902 8.04744,2.69913 27.04138,-3.82379 24.69212,-8.47229 28.31597,-12.32107 26.54154,-28.39094 -2.37425,-21.34319 -0.87472,-24.91706 17.14453,-40.73701 19.66873,-17.26949 21.39318,-17.99426 34.13911,-14.47039 19.69372,5.42328 28.79081,1.22461 38.58769,-17.81931 11.52133,-22.36787 11.54632,-33.18942 0.1,-42.06159 -16.81964,-13.04584 -18.794,-17.69435 -17.29448,-41.18686 1.47453,-22.86771 4.77348,-28.49092 21.96799,-37.66299 12.77093,-6.79784 13.7956,-12.34606 6.67287,-35.91355 -8.49729,-28.11603 -12.34606,-31.56493 -33.88919,-30.69021 -19.41881,0.77475 -22.39285,-0.67478 -38.18782,-18.64405 -14.89525,-16.9446 -17.54441,-23.36755 -14.0955,-34.36404 5.19833,-16.59472 -0.1,-28.49092 -16.66969,-37.3381 C 324.13853,57.99936 317.26571,58.57418 301.92061,74.91897 290.42428,87.16506 285.87572,89.2394 272.50499,88.38967 244.81382,86.61524 237.0663,85.09072 234.11724,80.74211 222.02108,62.74785 216.6478,56.04999 206.97589,56.12496 m 45.88535,132.48275 c 10.24676,-0.22493 20.81837,2.02436 30.94014,7.14772 42.0366,21.26822 50.4839,74.92611 16.94459,107.71565 -42.23653,41.31183 -113.86369,9.67192 -112.31418,-49.63417 0.9747,-37.53803 30.99012,-64.47944 64.40446,-65.2292"
     id="path104"
     style="fill:#DBDBDB;fill-opacity:0.969" />
</svg>
