<?xml version="1.0" encoding="UTF-8" standalone="no"?>
<svg
   xmlns:dc="http://purl.org/dc/elements/1.1/"
   xmlns:cc="http://creativecommons.org/ns#"
   xmlns:rdf="http://www.w3.org/1999/02/22-rdf-syntax-ns#"
   xmlns:svg="http://www.w3.org/2000/svg"
   xmlns="http://www.w3.org/2000/svg"
   xmlns:sodipodi="http://sodipodi.sourceforge.net/DTD/sodipodi-0.dtd"
   xmlns:inkscape="http://www.inkscape.org/namespaces/inkscape"
   height="100%"
   width="100%"
   version="1.1"
   id="svg2"
   viewBox="0 0 512 512"
   inkscape:version="0.91 r"
   sodipodi:docname="gnome-session-hebirnate.svg">
  <sodipodi:namedview
     pagecolor="#ffffff"
     bordercolor="#666666"
     borderopacity="1"
     objecttolerance="10"
     gridtolerance="10"
     guidetolerance="10"
     inkscape:pageopacity="0"
     inkscape:pageshadow="2"
     inkscape:window-width="640"
     inkscape:window-height="480"
     id="namedview8"
     showgrid="false"
     inkscape:zoom="0.4609375"
     inkscape:cx="256"
     inkscape:cy="256"
     inkscape:window-x="0"
     inkscape:window-y="0"
     inkscape:window-maximized="0"
     inkscape:current-layer="svg2" />
  <metadata
     id="metadata100">
    <rdf:RDF>
      <cc:Work
         rdf:about="">
        <dc:format>image/svg+xml</dc:format>
        <dc:type
           rdf:resource="http://purl.org/dc/dcmitype/StillImage" />
        <dc:title />
      </cc:Work>
    </rdf:RDF>
  </metadata>
  <defs
     id="defs98" />
  <path
     style="fill:#DBDBDB;fill-rule:evenodd"
     id="path131"
     d="m 256,40.99965 c -118.74001,0 -215,96.26 -215,215 0,118.74 96.25999,215 215,215 118.74,0 215,-96.26 215,-215 0,-118.74 -96.26,-215 -215,-215 m 0,71.875 c 79.02999,0 143.09,64.09 143.09,143.13 0,79.03 -64.06,143.13 -143.09,143.13 -79.03001,0 -143.09001,-64.09 -143.09001,-143.12 0,-79.03 64.06,-143.12 143.09001,-143.12 m 0,49.875 c -19.85201,0 -35.844,15.992 -35.844,35.844 l 0,114.84 c 0,19.852 15.99199,35.844 35.844,35.844 19.85199,0 35.84399,-15.992 35.84399,-35.844 l 0,-114.84 c 0,-19.852 -15.992,-35.844 -35.84399,-35.844" />
</svg>
