<svg xmlns="http://www.w3.org/2000/svg" width="48" height="48">
 <path fill="#dbdbdb" d="m 20.333401,2.0000002 -0.785426,0.3366112 -5.932771,0 c -1.20204,0 -2.173947,0.971909 -2.173947,2.1739469 l 0,1.2342408 -8.1067186,3.4081878 C 2.2263853,9.618709 1.7047031,10.892005 2.1704249,12.000156 l 9.2708321,22.04803 0,5.890695 c 0,1.202038 0.971907,2.173946 2.173947,2.173946 l 1.206189,0 1.079961,2.552635 c 0.465722,1.108151 1.739017,1.629835 2.847169,1.164113 l 8.836043,-3.716748 12.833299,0 c 1.202039,0 2.159922,-0.971907 2.159922,-2.173946 l 0,-4.137512 0.883604,-0.364662 c 1.108155,-0.465722 1.61581,-1.724995 1.150088,-2.833144 L 42.591812,27.792829 42.619863,12.855709 32.058689,2.3225859 21.146878,2.3366114 20.333401,2.0000002 z M 18.243607,17.876826 c 0.0078,-2.97e-4 0.02013,0 0.02805,0 l 3.49234,0 c 0.338091,0 0.617121,0.27903 0.617121,0.61712 l 0,0.659197 14.53038,0 c 0.676182,0 1.220217,0.544033 1.220216,1.220215 l 0,10.154436 c 10e-7,0.676182 -0.544033,1.220216 -1.220216,1.220216 l -19.411242,0 c -0.676182,0 -1.220216,-0.544033 -1.220215,-1.220216 l 0,-10.154436 c 0,-0.660417 0.509926,-1.195623 1.164113,-1.220215 0.0052,-1.95e-4 0.0089,1.29e-4 0.01403,0 0.0105,-2.65e-4 0.03151,0 0.04208,0 l 0.168306,0 0,-0.659197 c 0,-0.330168 0.248003,-0.604771 0.575044,-0.61712 z m 15.301781,2.13187 c -0.142036,0.01241 -0.252457,0.121117 -0.252458,0.266484 l 0,1.528775 c 0,0.153678 0.126833,0.28051 0.280509,0.28051 l 3.057551,0 c 0.153678,0 0.28051,-0.126833 0.280509,-0.28051 l 0,-1.528775 c 0,-0.153677 -0.12683,-0.266484 -0.280509,-0.266484 l -3.057551,0 c -0.006,0 -0.0081,-3.73e-4 -0.01403,0 -0.0023,1.43e-4 -0.01177,-1.97e-4 -0.01403,0 z m -6.451713,1.009833 c -2.397369,0.06053 -4.319844,2.020175 -4.319843,4.432047 0,2.449968 1.982079,4.432045 4.432046,4.432047 2.449966,0 4.432048,-1.982079 4.432047,-4.432047 0,-2.449967 -1.982081,-4.432046 -4.432047,-4.432047 -0.01914,0 -0.03702,-2.41e-4 -0.0561,0 -0.0095,1.21e-4 -0.0186,-1.78e-4 -0.02805,0 -0.0094,1.79e-4 -0.01865,-2.36e-4 -0.02805,0 z m 0.112203,1.570852 c 1.57717,0 2.861195,1.284027 2.861195,2.861195 -1e-6,1.577169 -1.284026,2.861195 -2.861195,2.861195 -1.577167,2e-6 -2.861194,-1.284026 -2.861194,-2.861195 0,-1.577168 1.284026,-2.861195 2.861194,-2.861195 z m 9.8038,13.268089 c 0.255964,5e-6 0.499654,0.02104 0.729324,0.08415 0.231419,0.06312 0.450565,0.157791 0.645171,0.28051 l 0,0.575044 c -0.196358,-0.16655 -0.410248,-0.294532 -0.631146,-0.378688 -0.220902,-0.08415 -0.457583,-0.126226 -0.701273,-0.126229 -0.480372,3e-6 -0.838023,0.138505 -1.079961,0.406738 -0.240185,0.26824 -0.364663,0.660953 -0.364662,1.192165 10e-7,0.529463 0.124475,0.923928 0.364662,1.192164 0.24194,0.268238 0.599587,0.406739 1.079961,0.406739 0.18759,0 0.357647,-0.01052 0.504917,-0.04208 0.147266,-0.03331 0.275246,-0.0859 0.392713,-0.15428 l 0,-1.05191 -0.855554,0 0,-0.448814 1.388521,0 0,1.697081 c -0.205124,0.145514 -0.426026,0.247198 -0.673222,0.322585 -0.2472,0.07363 -0.518945,0.112204 -0.799451,0.112204 -0.613614,0 -1.097494,-0.175318 -1.444623,-0.532968 -0.345376,-0.359401 -0.518943,-0.860811 -0.518942,-1.500724 1e-6,-0.641663 0.173564,-1.143072 0.518942,-1.500725 0.347131,-0.359399 0.831007,-0.532963 1.444623,-0.532968 z m -11.556983,0.07013 0.532968,0 0,3.92713 -0.532968,0 0,-3.92713 z m 1.584878,0 0.799451,0 0.995808,2.664838 1.009833,-2.664838 0.785426,0 0,3.92713 -0.504916,0 0,-3.450264 -1.023859,2.692889 -0.532968,0 -1.009833,-2.692889 0,3.450264 -0.518942,0 0,-3.92713 z m 5.666287,0 0.603095,0 1.500725,3.92713 -0.561019,0 -0.350636,-1.009834 -1.767209,0 -0.364662,1.009834 -0.561019,0 1.500725,-3.92713 z m 6.746248,0 2.482507,0 0,0.448815 -1.949539,0 0,1.164113 1.879412,0 0,0.43479 -1.879412,0 0,1.430597 2.005641,0 0,0.448815 -2.538609,0 0,-3.92713 z m -6.451713,0.518942 -0.715299,1.949539 1.444623,0 -0.729324,-1.949539 z"/>
</svg>
