<svg xmlns="http://www.w3.org/2000/svg" width="48" height="48">
 <path d="M 24,2 C 11.849736,2 2,11.846434 2,24 2,36.153566 11.849736,46 24,46 36.150264,46 46,36.153566 46,24 46,11.846434 36.150264,2 24,2 z m -4.182292,5.60105 4.411459,2.887139 4.497395,-2.829396 2.40625,4.706036 5.29948,-0.202099 -0.286459,5.283464 4.669271,2.454068 -2.893229,4.446195 2.835937,4.446194 -4.726562,2.367454 0.171875,5.283465 -5.270833,-0.288714 -2.492188,4.677165 -4.411458,-2.887139 -4.497396,2.800525 -2.377604,-4.677166 -5.299479,0.173229 0.286458,-5.283465 -4.6979167,-2.454068 2.9218747,-4.417323 -2.8359372,-4.475065 4.7265622,-2.396326 -0.20052,-5.254593 5.299479,0.288714 2.463541,-4.648294 z m 13.692709,9.614173 c -0.317463,0.04574 -0.61024,0.198371 -0.83073,0.433071 l -10.083333,10.133858 -5.84375,-5.889764 c -0.349308,-0.401763 -0.888803,-0.559972 -1.403646,-0.43307 -0.514844,0.126901 -0.90534,0.520472 -1.03125,1.03937 -0.12591,0.518897 0.03106,1.06264 0.429688,1.414698 l 6.846354,6.900262 c 0.554424,0.556376 1.450784,0.556376 2.005208,0 L 34.684896,19.669291 c 0.445142,-0.429006 0.554038,-1.086563 0.286458,-1.645669 -0.26758,-0.559106 -0.850711,-0.892461 -1.460937,-0.808399 z" fill="#dbdbdb"/>
</svg>
