<svg xmlns="http://www.w3.org/2000/svg" width="48" height="48">
 <path fill="#dbdbdb" d="M 24,2 C 11.849736,2 2,11.83327 2,23.985555 2,36.137841 11.849736,46 24,46 36.150264,46 46,36.137842 46,23.985555 46,11.833269 36.150264,2 24,2 z m -4.611979,11.700591 10.971354,14.994091 2.807292,-2.080106 c 1.223452,-0.898326 2.185463,-0.871053 2.864583,0.05778 0.679094,0.928859 0.392721,1.846255 -0.830729,2.744583 l -8.393229,6.153644 c -1.223467,0.898341 -2.185479,0.899959 -2.864584,-0.02889 -0.393882,-0.538729 -0.494418,-1.027354 -0.315104,-1.444517 0.165731,-0.435731 0.552637,-0.864502 1.145833,-1.300066 l 2.807292,-2.080105 -8.335937,-11.382797 -1.947917,2.397899 c -0.344859,0.424535 -0.606596,0.715335 -0.773437,0.83782 -0.352203,0.258629 -0.76851,0.348126 -1.231771,0.260013 -0.44471,-0.101692 -0.789727,-0.37133 -1.088542,-0.780039 -0.298798,-0.408676 -0.440477,-0.762324 -0.372396,-1.097834 0.07305,-0.367662 0.354629,-0.829767 0.802084,-1.386736 l 4.755208,-5.864741 z"/>
</svg>
