<?xml version="1.0" encoding="UTF-8" standalone="no"?>
<svg
   xmlns:dc="http://purl.org/dc/elements/1.1/"
   xmlns:cc="http://creativecommons.org/ns#"
   xmlns:rdf="http://www.w3.org/1999/02/22-rdf-syntax-ns#"
   xmlns:svg="http://www.w3.org/2000/svg"
   xmlns="http://www.w3.org/2000/svg"
   xmlns:sodipodi="http://sodipodi.sourceforge.net/DTD/sodipodi-0.dtd"
   xmlns:inkscape="http://www.inkscape.org/namespaces/inkscape"
   height="512"
   width="512"
   version="1.1"
   viewBox="0 0 512 512"
   id="svg2"
   inkscape:version="0.91 r"
   sodipodi:docname="printer-network.svg">
  <defs
     id="defs376" />
  <sodipodi:namedview
     pagecolor="#ffffff"
     bordercolor="#666666"
     borderopacity="0.75"
     objecttolerance="10"
     gridtolerance="10"
     guidetolerance="10"
     inkscape:pageopacity="0"
     inkscape:pageshadow="2"
     inkscape:window-width="640"
     inkscape:window-height="480"
     id="namedview374"
     showgrid="false"
     inkscape:zoom="0.4609375"
     inkscape:cx="256"
     inkscape:cy="256"
     inkscape:window-x="0"
     inkscape:window-y="0"
     inkscape:window-maximized="0"
     inkscape:current-layer="svg2" />
  <metadata
     id="metadata746">
    <rdf:RDF>
      <cc:Work
         rdf:about="">
        <dc:format>image/svg+xml</dc:format>
        <dc:type
           rdf:resource="http://purl.org/dc/dcmitype/StillImage" />
      </cc:Work>
    </rdf:RDF>
  </metadata>
  <text
     id="text4"
     font-size="129.23"
     line-height="125%"
     y="231.36"
     x="729.64"
     font-family="Gentium Book Basic"
     word-spacing="0"
     letter-spacing="0">
    <tspan
       id="tspan6"
       y="231.36"
       x="729.64" />
  </text>
  <text
     id="text8"
     transform="scale(4.0128 .2492)"
     font-size="46.954"
     y="579.25"
     x="378.91"
     font-family="Arial"
     text-anchor="middle" />
  <text
     id="text10"
     font-size="129.23"
     line-height="125%"
     y="151.36"
     x="1310.91"
     font-family="Gentium Book Basic"
     word-spacing="0"
     letter-spacing="0">
    <tspan
       id="tspan12"
       y="151.36"
       x="1310.91" />
  </text>
  <text
     id="text14"
     transform="scale(4.0128 .2492)"
     font-size="46.954"
     y="258.22"
     x="523.76"
     font-family="Arial"
     text-anchor="middle" />
  <text
     id="text16"
     font-size="129.23"
     line-height="125%"
     y="-29.901"
     x="239.33"
     font-family="Gentium Book Basic"
     word-spacing="0"
     letter-spacing="0">
    <tspan
       id="tspan18"
       y="-29.901"
       x="239.33" />
  </text>
  <text
     id="text20"
     transform="scale(4.0128 .2492)"
     font-size="46.954"
     y="-469.14"
     x="256.72"
     font-family="Arial"
     text-anchor="middle" />
  <text
     id="text22"
     font-size="129.23"
     line-height="125%"
     y="-246.37"
     x="1337.38"
     font-family="Gentium Book Basic"
     word-spacing="0"
     letter-spacing="0">
    <tspan
       id="tspan24"
       y="-246.37"
       x="1337.38" />
  </text>
  <text
     id="text26"
     transform="scale(4.0128 .2492)"
     font-size="46.954"
     y="-1337.81"
     x="530.36"
     font-family="Arial"
     text-anchor="middle" />
  <text
     id="text28"
     font-size="129.23"
     line-height="125%"
     y="-326.38"
     x="1918.65"
     font-family="Gentium Book Basic"
     word-spacing="0"
     letter-spacing="0">
    <tspan
       id="tspan30"
       y="-326.38"
       x="1918.65" />
  </text>
  <text
     id="text32"
     transform="scale(4.0128 .2492)"
     font-size="46.954"
     y="-1658.85"
     x="675.21"
     font-family="Arial"
     text-anchor="middle" />
  <text
     id="text34"
     font-size="129.23"
     line-height="125%"
     y="-798.78"
     x="1529.53"
     font-family="Gentium Book Basic"
     word-spacing="0"
     letter-spacing="0">
    <tspan
       id="tspan36"
       y="-798.78"
       x="1529.53" />
  </text>
  <text
     id="text38"
     transform="scale(4.0128 .2492)"
     font-size="46.954"
     y="-3554.51"
     x="578.24"
     font-family="Arial"
     text-anchor="middle" />
  <text
     id="text40"
     font-size="129.23"
     line-height="125%"
     y="-878.78"
     x="2110.79"
     font-family="Gentium Book Basic"
     word-spacing="0"
     letter-spacing="0">
    <tspan
       id="tspan42"
       y="-878.78"
       x="2110.79" />
  </text>
  <text
     id="text44"
     transform="scale(4.0128 .2492)"
     font-size="46.954"
     y="-3875.54"
     x="723.09"
     font-family="Arial"
     text-anchor="middle" />
  <g
     id="g46"
     font-family="Gentium Book Basic"
     line-height="125%"
     word-spacing="0"
     letter-spacing="0">
    <text
       id="text48"
       y="535.94"
       x="277.99"
       font-size="208.33">
      <tspan
         id="tspan50"
         y="535.94"
         x="277.99" />
    </text>
    <text
       id="text52"
       y="-11.341"
       x="-307.18"
       font-size="200">
      <tspan
         id="tspan54"
         y="-11.341"
         x="-307.18" />
    </text>
  </g>
  <text
     id="text56"
     transform="scale(4.0128 .2492)"
     font-size="72.67"
     y="-585.88"
     x="228.47"
     font-family="Arial"
     text-anchor="middle" />
  <text
     id="text58"
     font-size="200"
     line-height="125%"
     y="41.802"
     x="438.2"
     font-family="Gentium Book Basic"
     word-spacing="0"
     letter-spacing="0">
    <tspan
       id="tspan60"
       y="41.802"
       x="438.2" />
  </text>
  <text
     id="text62"
     transform="scale(4.0128 .2492)"
     font-size="72.67"
     y="-372.63"
     x="414.22"
     font-family="Arial"
     text-anchor="middle" />
  <text
     id="text64"
     font-size="200"
     line-height="125%"
     y="-82.02"
     x="1337.81"
     font-family="Gentium Book Basic"
     word-spacing="0"
     letter-spacing="0">
    <tspan
       id="tspan66"
       y="-82.02"
       x="1337.81" />
  </text>
  <text
     id="text68"
     transform="scale(4.0128 .2492)"
     font-size="72.67"
     y="-869.49"
     x="638.4"
     font-family="Arial"
     text-anchor="middle" />
  <text
     id="text70"
     font-size="200"
     line-height="125%"
     y="-134.65"
     x="465.66"
     font-family="Gentium Book Basic"
     word-spacing="0"
     letter-spacing="0">
    <tspan
       id="tspan72"
       y="-134.65"
       x="465.66" />
  </text>
  <text
     id="text74"
     transform="scale(4.0128 .2492)"
     font-size="72.67"
     y="-1080.71"
     x="421.06"
     font-family="Arial"
     text-anchor="middle" />
  <text
     id="text76"
     font-size="200"
     line-height="125%"
     y="-258.47"
     x="1365.27"
     font-family="Gentium Book Basic"
     word-spacing="0"
     letter-spacing="0">
    <tspan
       id="tspan78"
       y="-258.47"
       x="1365.27" />
  </text>
  <text
     id="text80"
     transform="scale(4.0128 .2492)"
     font-size="72.67"
     y="-1577.57"
     x="645.24"
     font-family="Arial"
     text-anchor="middle" />
  <text
     id="text82"
     font-size="200"
     line-height="125%"
     y="317.23"
     x="-2544.32"
     font-family="Gentium Book Basic"
     word-spacing="0"
     letter-spacing="0">
    <tspan
       id="tspan84"
       y="317.23"
       x="-2544.32" />
  </text>
  <text
     id="text86"
     transform="scale(4.0128 .2492)"
     font-size="72.67"
     y="732.62"
     x="-329.03"
     font-family="Arial"
     text-anchor="middle" />
  <text
     id="text88"
     font-size="200"
     line-height="125%"
     y="81.8"
     x="-616.04"
     font-family="Gentium Book Basic"
     word-spacing="0"
     letter-spacing="0">
    <tspan
       id="tspan90"
       y="81.8"
       x="-616.04" />
  </text>
  <text
     id="text92"
     transform="scale(4.0128 .2492)"
     font-size="72.67"
     y="-212.12"
     x="151.5"
     font-family="Arial"
     text-anchor="middle" />
  <text
     id="text94"
     font-size="200"
     line-height="125%"
     y="134.94"
     x="129.34"
     font-family="Gentium Book Basic"
     word-spacing="0"
     letter-spacing="0">
    <tspan
       id="tspan96"
       y="134.94"
       x="129.34" />
  </text>
  <text
     id="text98"
     transform="scale(4.0128 .2492)"
     font-size="72.67"
     y="1.138"
     x="337.25"
     font-family="Arial"
     text-anchor="middle" />
  <text
     id="text100"
     font-size="200"
     line-height="125%"
     y="11.127"
     x="1028.95"
     font-family="Gentium Book Basic"
     word-spacing="0"
     letter-spacing="0">
    <tspan
       id="tspan102"
       y="11.127"
       x="1028.95" />
  </text>
  <text
     id="text104"
     transform="scale(4.0128 .2492)"
     font-size="72.67"
     y="-495.72"
     x="561.43"
     font-family="Arial"
     text-anchor="middle" />
  <text
     id="text106"
     font-size="200"
     line-height="125%"
     y="-41.51"
     x="156.8"
     font-family="Gentium Book Basic"
     word-spacing="0"
     letter-spacing="0">
    <tspan
       id="tspan108"
       y="-41.51"
       x="156.8" />
  </text>
  <text
     id="text110"
     transform="scale(4.0128 .2492)"
     font-size="72.67"
     y="-706.95"
     x="344.09"
     font-family="Arial"
     text-anchor="middle" />
  <text
     id="text112"
     font-size="200"
     line-height="125%"
     y="-165.33"
     x="1056.42"
     font-family="Gentium Book Basic"
     word-spacing="0"
     letter-spacing="0">
    <tspan
       id="tspan114"
       y="-165.33"
       x="1056.42" />
  </text>
  <text
     id="text116"
     transform="scale(4.0128 .2492)"
     font-size="72.67"
     y="-1203.81"
     x="568.28"
     font-family="Arial"
     text-anchor="middle" />
  <text
     id="text118"
     font-size="200"
     line-height="125%"
     y="410.37"
     x="-2853.18"
     font-family="Gentium Book Basic"
     word-spacing="0"
     letter-spacing="0">
    <tspan
       id="tspan120"
       y="410.37"
       x="-2853.18" />
  </text>
  <text
     id="text122"
     transform="scale(4.0128 .2492)"
     font-size="72.67"
     y="1106.39"
     x="-406"
     font-family="Arial"
     text-anchor="middle" />
  <text
     id="text124"
     font-size="200"
     line-height="125%"
     y="-35.06"
     x="-1330.61"
     font-family="Gentium Book Basic"
     word-spacing="0"
     letter-spacing="0">
    <tspan
       id="tspan126"
       y="-35.06"
       x="-1330.61" />
  </text>
  <text
     id="text128"
     transform="scale(4.0128 .2492)"
     font-size="72.67"
     y="-681.04"
     x="-26.571"
     font-family="Arial"
     text-anchor="middle" />
  <text
     id="text130"
     font-size="200"
     line-height="125%"
     y="18.09"
     x="-585.23"
     font-family="Gentium Book Basic"
     word-spacing="0"
     letter-spacing="0">
    <tspan
       id="tspan132"
       y="18.09"
       x="-585.23" />
  </text>
  <text
     id="text134"
     transform="scale(4.0128 .2492)"
     font-size="72.67"
     y="-467.79"
     x="159.18"
     font-family="Arial"
     text-anchor="middle" />
  <text
     id="text136"
     font-size="200"
     line-height="125%"
     y="-105.73"
     x="314.38"
     font-family="Gentium Book Basic"
     word-spacing="0"
     letter-spacing="0">
    <tspan
       id="tspan138"
       y="-105.73"
       x="314.38" />
  </text>
  <text
     id="text140"
     transform="scale(4.0128 .2492)"
     font-size="72.67"
     y="-964.65"
     x="383.36"
     font-family="Arial"
     text-anchor="middle" />
  <text
     id="text142"
     font-size="200"
     line-height="125%"
     y="-158.37"
     x="-557.77"
     font-family="Gentium Book Basic"
     word-spacing="0"
     letter-spacing="0">
    <tspan
       id="tspan144"
       y="-158.37"
       x="-557.77" />
  </text>
  <text
     id="text146"
     transform="scale(4.0128 .2492)"
     font-size="72.67"
     y="-1175.88"
     x="166.02"
     font-family="Arial"
     text-anchor="middle" />
  <text
     id="text148"
     font-size="200"
     line-height="125%"
     y="-282.18"
     x="341.85"
     font-family="Gentium Book Basic"
     word-spacing="0"
     letter-spacing="0">
    <tspan
       id="tspan150"
       y="-282.18"
       x="341.85" />
  </text>
  <text
     id="text152"
     transform="scale(4.0128 .2492)"
     font-size="72.67"
     y="-1672.73"
     x="390.2"
     font-family="Arial"
     text-anchor="middle" />
  <text
     id="text154"
     font-size="200"
     line-height="125%"
     y="293.52"
     x="-3567.75"
     font-family="Gentium Book Basic"
     word-spacing="0"
     letter-spacing="0">
    <tspan
       id="tspan156"
       y="293.52"
       x="-3567.75" />
  </text>
  <text
     id="text158"
     transform="scale(4.0128 .2492)"
     font-size="72.67"
     y="637.46"
     x="-584.07"
     font-family="Arial"
     text-anchor="middle" />
  <text
     id="text160"
     font-size="129.23"
     line-height="125%"
     y="231.36"
     x="729.64"
     font-family="Gentium Book Basic"
     word-spacing="0"
     letter-spacing="0">
    <tspan
       id="tspan162"
       y="231.36"
       x="729.64" />
  </text>
  <text
     id="text164"
     transform="scale(4.0128 .2492)"
     font-size="46.954"
     y="579.25"
     x="378.91"
     font-family="Arial"
     text-anchor="middle" />
  <text
     id="text166"
     font-size="129.23"
     line-height="125%"
     y="151.36"
     x="1310.91"
     font-family="Gentium Book Basic"
     word-spacing="0"
     letter-spacing="0">
    <tspan
       id="tspan168"
       y="151.36"
       x="1310.91" />
  </text>
  <text
     id="text170"
     transform="scale(4.0128 .2492)"
     font-size="46.954"
     y="258.22"
     x="523.76"
     font-family="Arial"
     text-anchor="middle" />
  <text
     id="text172"
     font-size="129.23"
     line-height="125%"
     y="-29.901"
     x="239.33"
     font-family="Gentium Book Basic"
     word-spacing="0"
     letter-spacing="0">
    <tspan
       id="tspan174"
       y="-29.901"
       x="239.33" />
  </text>
  <text
     id="text176"
     transform="scale(4.0128 .2492)"
     font-size="46.954"
     y="-469.14"
     x="256.72"
     font-family="Arial"
     text-anchor="middle" />
  <text
     id="text178"
     font-size="129.23"
     line-height="125%"
     y="-246.37"
     x="1337.38"
     font-family="Gentium Book Basic"
     word-spacing="0"
     letter-spacing="0">
    <tspan
       id="tspan180"
       y="-246.37"
       x="1337.38" />
  </text>
  <text
     id="text182"
     transform="scale(4.0128 .2492)"
     font-size="46.954"
     y="-1337.8"
     x="530.36"
     font-family="Arial"
     text-anchor="middle" />
  <text
     id="text184"
     font-size="129.23"
     line-height="125%"
     y="-326.38"
     x="1918.65"
     font-family="Gentium Book Basic"
     word-spacing="0"
     letter-spacing="0">
    <tspan
       id="tspan186"
       y="-326.38"
       x="1918.65" />
  </text>
  <text
     id="text188"
     transform="scale(4.0128 .2492)"
     font-size="46.954"
     y="-1658.84"
     x="675.21"
     font-family="Arial"
     text-anchor="middle" />
  <text
     id="text190"
     font-size="129.23"
     line-height="125%"
     y="-798.78"
     x="1529.53"
     font-family="Gentium Book Basic"
     word-spacing="0"
     letter-spacing="0">
    <tspan
       id="tspan192"
       y="-798.78"
       x="1529.53" />
  </text>
  <text
     id="text194"
     transform="scale(4.0128 .2492)"
     font-size="46.954"
     y="-3554.49"
     x="578.24"
     font-family="Arial"
     text-anchor="middle" />
  <text
     id="text196"
     font-size="129.23"
     line-height="125%"
     y="-878.78"
     x="2110.79"
     font-family="Gentium Book Basic"
     word-spacing="0"
     letter-spacing="0">
    <tspan
       id="tspan198"
       y="-878.78"
       x="2110.79" />
  </text>
  <text
     id="text200"
     transform="scale(4.0128 .2492)"
     font-size="46.954"
     y="-3875.52"
     x="723.09"
     font-family="Arial"
     text-anchor="middle" />
  <g
     id="g202"
     font-family="Gentium Book Basic"
     line-height="125%"
     word-spacing="0"
     letter-spacing="0">
    <text
       id="text204"
       y="535.94"
       x="277.99"
       font-size="208.33">
      <tspan
         id="tspan206"
         y="535.94"
         x="277.99" />
    </text>
    <text
       id="text208"
       y="227.12"
       x="104.96"
       font-size="129.23">
      <tspan
         id="tspan210"
         y="227.12"
         x="104.96" />
    </text>
  </g>
  <text
     id="text212"
     transform="scale(4.0128 .2492)"
     font-size="46.954"
     y="562.23"
     x="223.24"
     font-family="Arial"
     text-anchor="middle" />
  <text
     id="text214"
     font-size="129.23"
     line-height="125%"
     y="147.11"
     x="686.23"
     font-family="Gentium Book Basic"
     word-spacing="0"
     letter-spacing="0">
    <tspan
       id="tspan216"
       y="147.11"
       x="686.23" />
  </text>
  <text
     id="text218"
     transform="scale(4.0128 .2492)"
     font-size="46.954"
     y="241.19"
     x="368.09"
     font-family="Arial"
     text-anchor="middle" />
  <text
     id="text220"
     font-size="129.23"
     line-height="125%"
     y="-34.14"
     x="-385.35"
     font-family="Gentium Book Basic"
     word-spacing="0"
     letter-spacing="0">
    <tspan
       id="tspan222"
       y="-34.14"
       x="-385.35" />
  </text>
  <text
     id="text224"
     transform="scale(4.0128 .2492)"
     font-size="46.954"
     y="-486.16"
     x="101.05"
     font-family="Arial"
     text-anchor="middle" />
  <text
     id="text226"
     font-size="129.23"
     line-height="125%"
     y="-250.62"
     x="712.7"
     font-family="Gentium Book Basic"
     word-spacing="0"
     letter-spacing="0">
    <tspan
       id="tspan228"
       y="-250.62"
       x="712.7" />
  </text>
  <text
     id="text230"
     transform="scale(4.0128 .2492)"
     font-size="46.954"
     y="-1354.84"
     x="374.69"
     font-family="Arial"
     text-anchor="middle" />
  <text
     id="text232"
     font-size="129.23"
     line-height="125%"
     y="-330.62"
     x="1293.97"
     font-family="Gentium Book Basic"
     word-spacing="0"
     letter-spacing="0">
    <tspan
       id="tspan234"
       y="-330.62"
       x="1293.97" />
  </text>
  <text
     id="text236"
     transform="scale(4.0128 .2492)"
     font-size="46.954"
     y="-1675.87"
     x="519.54"
     font-family="Arial"
     text-anchor="middle" />
  <text
     id="text238"
     font-size="129.23"
     line-height="125%"
     y="-803.02"
     x="904.85"
     font-family="Gentium Book Basic"
     word-spacing="0"
     letter-spacing="0">
    <tspan
       id="tspan240"
       y="-803.02"
       x="904.85" />
  </text>
  <text
     id="text242"
     transform="scale(4.0128 .2492)"
     font-size="46.954"
     y="-3571.53"
     x="422.57"
     font-family="Arial"
     text-anchor="middle" />
  <text
     id="text244"
     font-size="129.23"
     line-height="125%"
     y="-883.02"
     x="1486.12"
     font-family="Gentium Book Basic"
     word-spacing="0"
     letter-spacing="0">
    <tspan
       id="tspan246"
       y="-883.02"
       x="1486.12" />
  </text>
  <text
     id="text248"
     transform="scale(4.0128 .2492)"
     font-size="46.954"
     y="-3892.57"
     x="567.42"
     font-family="Arial"
     text-anchor="middle" />
  <g
     id="g250"
     font-family="Gentium Book Basic"
     line-height="125%"
     word-spacing="0"
     letter-spacing="0">
    <text
       id="text252"
       y="531.69"
       x="-346.69"
       font-size="208.33">
      <tspan
         id="tspan254"
         y="531.69"
         x="-346.69" />
    </text>
    <text
       id="text256"
       y="-15.584"
       x="-931.86"
       font-size="200">
      <tspan
         id="tspan258"
         y="-15.584"
         x="-931.86" />
    </text>
  </g>
  <text
     id="text260"
     transform="scale(4.0128 .2492)"
     font-size="72.67"
     y="-602.91"
     x="72.797"
     font-family="Arial"
     text-anchor="middle" />
  <text
     id="text262"
     font-size="200"
     line-height="125%"
     y="37.559"
     x="-186.48"
     font-family="Gentium Book Basic"
     word-spacing="0"
     letter-spacing="0">
    <tspan
       id="tspan264"
       y="37.559"
       x="-186.48" />
  </text>
  <text
     id="text266"
     transform="scale(4.0128 .2492)"
     font-size="72.67"
     y="-389.66"
     x="258.55"
     font-family="Arial"
     text-anchor="middle" />
  <text
     id="text268"
     font-size="200"
     line-height="125%"
     y="-86.26"
     x="713.13"
     font-family="Gentium Book Basic"
     word-spacing="0"
     letter-spacing="0">
    <tspan
       id="tspan270"
       y="-86.26"
       x="713.13" />
  </text>
  <text
     id="text272"
     transform="scale(4.0128 .2492)"
     font-size="72.67"
     y="-886.51"
     x="482.73"
     font-family="Arial"
     text-anchor="middle" />
  <text
     id="text274"
     font-size="200"
     line-height="125%"
     y="-138.9"
     x="-159.02"
     font-family="Gentium Book Basic"
     word-spacing="0"
     letter-spacing="0">
    <tspan
       id="tspan276"
       y="-138.9"
       x="-159.02" />
  </text>
  <text
     id="text278"
     transform="scale(4.0128 .2492)"
     font-size="72.67"
     y="-1097.74"
     x="265.39"
     font-family="Arial"
     text-anchor="middle" />
  <text
     id="text280"
     font-size="200"
     line-height="125%"
     y="-262.71"
     x="740.6"
     font-family="Gentium Book Basic"
     word-spacing="0"
     letter-spacing="0">
    <tspan
       id="tspan282"
       y="-262.71"
       x="740.6" />
  </text>
  <text
     id="text284"
     transform="scale(4.0128 .2492)"
     font-size="72.67"
     y="-1594.6"
     x="489.57"
     font-family="Arial"
     text-anchor="middle" />
  <text
     id="text286"
     font-size="200"
     line-height="125%"
     y="312.99"
     x="-3169"
     font-family="Gentium Book Basic"
     word-spacing="0"
     letter-spacing="0">
    <tspan
       id="tspan288"
       y="312.99"
       x="-3169" />
  </text>
  <text
     id="text290"
     transform="scale(4.0128 .2492)"
     font-size="72.67"
     y="715.59"
     x="-484.7"
     font-family="Arial"
     text-anchor="middle" />
  <text
     id="text292"
     font-size="200"
     line-height="125%"
     y="77.56"
     x="-1240.72"
     font-family="Gentium Book Basic"
     word-spacing="0"
     letter-spacing="0">
    <tspan
       id="tspan294"
       y="77.56"
       x="-1240.72" />
  </text>
  <text
     id="text296"
     transform="scale(4.0128 .2492)"
     font-size="72.67"
     y="-229.14"
     x="-4.17"
     font-family="Arial"
     text-anchor="middle" />
  <text
     id="text298"
     font-size="200"
     line-height="125%"
     y="130.7"
     x="-495.34"
     font-family="Gentium Book Basic"
     word-spacing="0"
     letter-spacing="0">
    <tspan
       id="tspan300"
       y="130.7"
       x="-495.34" />
  </text>
  <text
     id="text302"
     transform="scale(4.0128 .2492)"
     font-size="72.67"
     y="-15.889"
     x="181.58"
     font-family="Arial"
     text-anchor="middle" />
  <text
     id="text304"
     font-size="200"
     line-height="125%"
     y="6.884"
     x="404.27"
     font-family="Gentium Book Basic"
     word-spacing="0"
     letter-spacing="0">
    <tspan
       id="tspan306"
       y="6.884"
       x="404.27" />
  </text>
  <text
     id="text308"
     transform="scale(4.0128 .2492)"
     font-size="72.67"
     y="-512.75"
     x="405.76"
     font-family="Arial"
     text-anchor="middle" />
  <text
     id="text310"
     font-size="200"
     line-height="125%"
     y="-45.754"
     x="-467.88"
     font-family="Gentium Book Basic"
     word-spacing="0"
     letter-spacing="0">
    <tspan
       id="tspan312"
       y="-45.754"
       x="-467.88" />
  </text>
  <text
     id="text314"
     transform="scale(4.0128 .2492)"
     font-size="72.67"
     y="-723.97"
     x="188.42"
     font-family="Arial"
     text-anchor="middle" />
  <text
     id="text316"
     font-size="200"
     line-height="125%"
     y="-169.57"
     x="431.74"
     font-family="Gentium Book Basic"
     word-spacing="0"
     letter-spacing="0">
    <tspan
       id="tspan318"
       y="-169.57"
       x="431.74" />
  </text>
  <text
     id="text320"
     transform="scale(4.0128 .2492)"
     font-size="72.67"
     y="-1220.83"
     x="412.61"
     font-family="Arial"
     text-anchor="middle" />
  <text
     id="text322"
     font-size="200"
     line-height="125%"
     y="406.13"
     x="-3477.86"
     font-family="Gentium Book Basic"
     word-spacing="0"
     letter-spacing="0">
    <tspan
       id="tspan324"
       y="406.13"
       x="-3477.86" />
  </text>
  <text
     id="text326"
     transform="scale(4.0128 .2492)"
     font-size="72.67"
     y="1089.36"
     x="-561.67"
     font-family="Arial"
     text-anchor="middle" />
  <text
     id="text328"
     font-size="200"
     line-height="125%"
     y="-39.3"
     x="-1955.29"
     font-family="Gentium Book Basic"
     word-spacing="0"
     letter-spacing="0">
    <tspan
       id="tspan330"
       y="-39.3"
       x="-1955.29" />
  </text>
  <text
     id="text332"
     transform="scale(4.0128 .2492)"
     font-size="72.67"
     y="-698.07"
     x="-182.24"
     font-family="Arial"
     text-anchor="middle" />
  <text
     id="text334"
     font-size="200"
     line-height="125%"
     y="13.844"
     x="-1209.91"
     font-family="Gentium Book Basic"
     word-spacing="0"
     letter-spacing="0">
    <tspan
       id="tspan336"
       y="13.844"
       x="-1209.91" />
  </text>
  <text
     id="text338"
     transform="scale(4.0128 .2492)"
     font-size="72.67"
     y="-484.82"
     x="3.507"
     font-family="Arial"
     text-anchor="middle" />
  <text
     id="text340"
     font-size="200"
     line-height="125%"
     y="-109.97"
     x="-310.3"
     font-family="Gentium Book Basic"
     word-spacing="0"
     letter-spacing="0">
    <tspan
       id="tspan342"
       y="-109.97"
       x="-310.3" />
  </text>
  <text
     id="text344"
     transform="scale(4.0128 .2492)"
     font-size="72.67"
     y="-981.68"
     x="227.69"
     font-family="Arial"
     text-anchor="middle" />
  <text
     id="text346"
     font-size="200"
     line-height="125%"
     y="-162.61"
     x="-1182.45"
     font-family="Gentium Book Basic"
     word-spacing="0"
     letter-spacing="0">
    <tspan
       id="tspan348"
       y="-162.61"
       x="-1182.45" />
  </text>
  <text
     id="text350"
     transform="scale(4.0128 .2492)"
     font-size="72.67"
     y="-1192.9"
     x="10.351"
     font-family="Arial"
     text-anchor="middle" />
  <text
     id="text352"
     font-size="200"
     line-height="125%"
     y="-286.43"
     x="-282.83"
     font-family="Gentium Book Basic"
     word-spacing="0"
     letter-spacing="0">
    <tspan
       id="tspan354"
       y="-286.43"
       x="-282.83" />
  </text>
  <text
     id="text356"
     transform="scale(4.0128 .2492)"
     font-size="72.67"
     y="-1689.76"
     x="234.54"
     font-family="Arial"
     text-anchor="middle" />
  <text
     id="text358"
     font-size="200"
     line-height="125%"
     y="289.27"
     x="-4192.43"
     font-family="Gentium Book Basic"
     word-spacing="0"
     letter-spacing="0">
    <tspan
       id="tspan360"
       y="289.27"
       x="-4192.43" />
  </text>
  <text
     id="text362"
     transform="scale(4.0128 .2492)"
     font-size="72.67"
     y="620.43"
     x="-739.74"
     font-family="Arial"
     text-anchor="middle" />
  <text
     id="text364"
     font-size="129.23"
     line-height="125%"
     y="231.36"
     x="729.64"
     font-family="Gentium Book Basic"
     word-spacing="0"
     letter-spacing="0">
    <tspan
       id="tspan366"
       y="231.36"
       x="729.64" />
  </text>
  <text
     id="text368"
     transform="scale(4.0128 .2492)"
     font-size="46.954"
     y="579.25"
     x="378.91"
     font-family="Arial"
     text-anchor="middle" />
  <text
     id="text370"
     font-size="129.23"
     line-height="125%"
     y="151.36"
     x="1310.91"
     font-family="Gentium Book Basic"
     word-spacing="0"
     letter-spacing="0">
    <tspan
       id="tspan372"
       y="151.36"
       x="1310.91" />
  </text>
  <text
     id="text374"
     transform="scale(4.0128 .2492)"
     font-size="46.954"
     y="258.22"
     x="523.76"
     font-family="Arial"
     text-anchor="middle" />
  <text
     id="text376"
     font-size="129.23"
     line-height="125%"
     y="-29.901"
     x="239.33"
     font-family="Gentium Book Basic"
     word-spacing="0"
     letter-spacing="0">
    <tspan
       id="tspan378"
       y="-29.901"
       x="239.33" />
  </text>
  <text
     id="text380"
     transform="scale(4.0128 .2492)"
     font-size="46.954"
     y="-469.14"
     x="256.72"
     font-family="Arial"
     text-anchor="middle" />
  <text
     id="text382"
     font-size="129.23"
     line-height="125%"
     y="-246.37"
     x="1337.38"
     font-family="Gentium Book Basic"
     word-spacing="0"
     letter-spacing="0">
    <tspan
       id="tspan384"
       y="-246.37"
       x="1337.38" />
  </text>
  <text
     id="text386"
     transform="scale(4.0128 .2492)"
     font-size="46.954"
     y="-1337.8"
     x="530.36"
     font-family="Arial"
     text-anchor="middle" />
  <text
     id="text388"
     font-size="129.23"
     line-height="125%"
     y="-326.38"
     x="1918.65"
     font-family="Gentium Book Basic"
     word-spacing="0"
     letter-spacing="0">
    <tspan
       id="tspan390"
       y="-326.38"
       x="1918.65" />
  </text>
  <text
     id="text392"
     transform="scale(4.0128 .2492)"
     font-size="46.954"
     y="-1658.84"
     x="675.21"
     font-family="Arial"
     text-anchor="middle" />
  <text
     id="text394"
     font-size="129.23"
     line-height="125%"
     y="-798.78"
     x="1529.53"
     font-family="Gentium Book Basic"
     word-spacing="0"
     letter-spacing="0">
    <tspan
       id="tspan396"
       y="-798.78"
       x="1529.53" />
  </text>
  <text
     id="text398"
     transform="scale(4.0128 .2492)"
     font-size="46.954"
     y="-3554.49"
     x="578.24"
     font-family="Arial"
     text-anchor="middle" />
  <text
     id="text400"
     font-size="129.23"
     line-height="125%"
     y="-878.78"
     x="2110.79"
     font-family="Gentium Book Basic"
     word-spacing="0"
     letter-spacing="0">
    <tspan
       id="tspan402"
       y="-878.78"
       x="2110.79" />
  </text>
  <text
     id="text404"
     transform="scale(4.0128 .2492)"
     font-size="46.954"
     y="-3875.52"
     x="723.09"
     font-family="Arial"
     text-anchor="middle" />
  <g
     id="g406"
     font-family="Gentium Book Basic"
     line-height="125%"
     word-spacing="0"
     letter-spacing="0">
    <text
       id="text408"
       y="535.94"
       x="277.99"
       font-size="208.33">
      <tspan
         id="tspan410"
         y="535.94"
         x="277.99" />
    </text>
    <text
       id="text412"
       y="-11.341"
       x="-307.18"
       font-size="200">
      <tspan
         id="tspan414"
         y="-11.341"
         x="-307.18" />
    </text>
  </g>
  <text
     id="text416"
     transform="scale(4.0128 .2492)"
     font-size="72.67"
     y="-585.88"
     x="228.47"
     font-family="Arial"
     text-anchor="middle" />
  <text
     id="text418"
     font-size="200"
     line-height="125%"
     y="41.802"
     x="438.2"
     font-family="Gentium Book Basic"
     word-spacing="0"
     letter-spacing="0">
    <tspan
       id="tspan420"
       y="41.802"
       x="438.2" />
  </text>
  <text
     id="text422"
     transform="scale(4.0128 .2492)"
     font-size="72.67"
     y="-372.63"
     x="414.22"
     font-family="Arial"
     text-anchor="middle" />
  <text
     id="text424"
     font-size="200"
     line-height="125%"
     y="-82.02"
     x="1337.81"
     font-family="Gentium Book Basic"
     word-spacing="0"
     letter-spacing="0">
    <tspan
       id="tspan426"
       y="-82.02"
       x="1337.81" />
  </text>
  <text
     id="text428"
     transform="scale(4.0128 .2492)"
     font-size="72.67"
     y="-869.49"
     x="638.4"
     font-family="Arial"
     text-anchor="middle" />
  <text
     id="text430"
     font-size="200"
     line-height="125%"
     y="-134.65"
     x="465.66"
     font-family="Gentium Book Basic"
     word-spacing="0"
     letter-spacing="0">
    <tspan
       id="tspan432"
       y="-134.65"
       x="465.66" />
  </text>
  <text
     id="text434"
     transform="scale(4.0128 .2492)"
     font-size="72.67"
     y="-1080.7"
     x="421.06"
     font-family="Arial"
     text-anchor="middle" />
  <text
     id="text436"
     font-size="200"
     line-height="125%"
     y="-258.47"
     x="1365.27"
     font-family="Gentium Book Basic"
     word-spacing="0"
     letter-spacing="0">
    <tspan
       id="tspan438"
       y="-258.47"
       x="1365.27" />
  </text>
  <text
     id="text440"
     transform="scale(4.0128 .2492)"
     font-size="72.67"
     y="-1577.56"
     x="645.24"
     font-family="Arial"
     text-anchor="middle" />
  <text
     id="text442"
     font-size="200"
     line-height="125%"
     y="317.23"
     x="-2544.32"
     font-family="Gentium Book Basic"
     word-spacing="0"
     letter-spacing="0">
    <tspan
       id="tspan444"
       y="317.23"
       x="-2544.32" />
  </text>
  <text
     id="text446"
     transform="scale(4.0128 .2492)"
     font-size="72.67"
     y="732.62"
     x="-329.03"
     font-family="Arial"
     text-anchor="middle" />
  <text
     id="text448"
     font-size="200"
     line-height="125%"
     y="81.8"
     x="-616.04"
     font-family="Gentium Book Basic"
     word-spacing="0"
     letter-spacing="0">
    <tspan
       id="tspan450"
       y="81.8"
       x="-616.04" />
  </text>
  <text
     id="text452"
     transform="scale(4.0128 .2492)"
     font-size="72.67"
     y="-212.12"
     x="151.5"
     font-family="Arial"
     text-anchor="middle" />
  <text
     id="text454"
     font-size="200"
     line-height="125%"
     y="134.94"
     x="129.34"
     font-family="Gentium Book Basic"
     word-spacing="0"
     letter-spacing="0">
    <tspan
       id="tspan456"
       y="134.94"
       x="129.34" />
  </text>
  <text
     id="text458"
     transform="scale(4.0128 .2492)"
     font-size="72.67"
     y="1.138"
     x="337.25"
     font-family="Arial"
     text-anchor="middle" />
  <text
     id="text460"
     font-size="200"
     line-height="125%"
     y="11.127"
     x="1028.95"
     font-family="Gentium Book Basic"
     word-spacing="0"
     letter-spacing="0">
    <tspan
       id="tspan462"
       y="11.127"
       x="1028.95" />
  </text>
  <text
     id="text464"
     transform="scale(4.0128 .2492)"
     font-size="72.67"
     y="-495.72"
     x="561.43"
     font-family="Arial"
     text-anchor="middle" />
  <text
     id="text466"
     font-size="200"
     line-height="125%"
     y="-41.51"
     x="156.8"
     font-family="Gentium Book Basic"
     word-spacing="0"
     letter-spacing="0">
    <tspan
       id="tspan468"
       y="-41.51"
       x="156.8" />
  </text>
  <text
     id="text470"
     transform="scale(4.0128 .2492)"
     font-size="72.67"
     y="-706.95"
     x="344.09"
     font-family="Arial"
     text-anchor="middle" />
  <text
     id="text472"
     font-size="200"
     line-height="125%"
     y="-165.33"
     x="1056.42"
     font-family="Gentium Book Basic"
     word-spacing="0"
     letter-spacing="0">
    <tspan
       id="tspan474"
       y="-165.33"
       x="1056.42" />
  </text>
  <text
     id="text476"
     transform="scale(4.0128 .2492)"
     font-size="72.67"
     y="-1203.8"
     x="568.28"
     font-family="Arial"
     text-anchor="middle" />
  <text
     id="text478"
     font-size="200"
     line-height="125%"
     y="410.37"
     x="-2853.18"
     font-family="Gentium Book Basic"
     word-spacing="0"
     letter-spacing="0">
    <tspan
       id="tspan480"
       y="410.37"
       x="-2853.18" />
  </text>
  <text
     id="text482"
     transform="scale(4.0128 .2492)"
     font-size="72.67"
     y="1106.38"
     x="-406"
     font-family="Arial"
     text-anchor="middle" />
  <text
     id="text484"
     font-size="200"
     line-height="125%"
     y="-35.06"
     x="-1330.61"
     font-family="Gentium Book Basic"
     word-spacing="0"
     letter-spacing="0">
    <tspan
       id="tspan486"
       y="-35.06"
       x="-1330.61" />
  </text>
  <text
     id="text488"
     transform="scale(4.0128 .2492)"
     font-size="72.67"
     y="-681.04"
     x="-26.571"
     font-family="Arial"
     text-anchor="middle" />
  <text
     id="text490"
     font-size="200"
     line-height="125%"
     y="18.09"
     x="-585.23"
     font-family="Gentium Book Basic"
     word-spacing="0"
     letter-spacing="0">
    <tspan
       id="tspan492"
       y="18.09"
       x="-585.23" />
  </text>
  <text
     id="text494"
     transform="scale(4.0128 .2492)"
     font-size="72.67"
     y="-467.79"
     x="159.18"
     font-family="Arial"
     text-anchor="middle" />
  <text
     id="text496"
     font-size="200"
     line-height="125%"
     y="-105.73"
     x="314.38"
     font-family="Gentium Book Basic"
     word-spacing="0"
     letter-spacing="0">
    <tspan
       id="tspan498"
       y="-105.73"
       x="314.38" />
  </text>
  <text
     id="text500"
     transform="scale(4.0128 .2492)"
     font-size="72.67"
     y="-964.65"
     x="383.36"
     font-family="Arial"
     text-anchor="middle" />
  <text
     id="text502"
     font-size="200"
     line-height="125%"
     y="-158.37"
     x="-557.77"
     font-family="Gentium Book Basic"
     word-spacing="0"
     letter-spacing="0">
    <tspan
       id="tspan504"
       y="-158.37"
       x="-557.77" />
  </text>
  <text
     id="text506"
     transform="scale(4.0128 .2492)"
     font-size="72.67"
     y="-1175.87"
     x="166.02"
     font-family="Arial"
     text-anchor="middle" />
  <text
     id="text508"
     font-size="200"
     line-height="125%"
     y="-282.18"
     x="341.85"
     font-family="Gentium Book Basic"
     word-spacing="0"
     letter-spacing="0">
    <tspan
       id="tspan510"
       y="-282.18"
       x="341.85" />
  </text>
  <text
     id="text512"
     transform="scale(4.0128 .2492)"
     font-size="72.67"
     y="-1672.72"
     x="390.2"
     font-family="Arial"
     text-anchor="middle" />
  <text
     id="text514"
     font-size="200"
     line-height="125%"
     y="293.52"
     x="-3567.75"
     font-family="Gentium Book Basic"
     word-spacing="0"
     letter-spacing="0">
    <tspan
       id="tspan516"
       y="293.52"
       x="-3567.75" />
  </text>
  <text
     id="text518"
     transform="scale(4.0128 .2492)"
     font-size="72.67"
     y="637.46"
     x="-584.07"
     font-family="Arial"
     text-anchor="middle" />
  <text
     id="text536"
     font-size="129.23"
     line-height="125%"
     y="231.36"
     x="729.64"
     font-family="Gentium Book Basic"
     word-spacing="0"
     letter-spacing="0">
    <tspan
       id="tspan538"
       y="231.36"
       x="729.64" />
  </text>
  <text
     id="text540"
     transform="scale(4.0128 .2492)"
     font-size="46.954"
     y="579.25"
     x="378.91"
     font-family="Arial"
     text-anchor="middle" />
  <text
     id="text542"
     font-size="129.23"
     line-height="125%"
     y="151.36"
     x="1310.91"
     font-family="Gentium Book Basic"
     word-spacing="0"
     letter-spacing="0">
    <tspan
       id="tspan544"
       y="151.36"
       x="1310.91" />
  </text>
  <text
     id="text546"
     transform="scale(4.0128 .2492)"
     font-size="46.954"
     y="258.22"
     x="523.76"
     font-family="Arial"
     text-anchor="middle" />
  <text
     id="text548"
     font-size="129.23"
     line-height="125%"
     y="-29.901"
     x="239.33"
     font-family="Gentium Book Basic"
     word-spacing="0"
     letter-spacing="0">
    <tspan
       id="tspan550"
       y="-29.901"
       x="239.33" />
  </text>
  <text
     id="text552"
     transform="scale(4.0128 .2492)"
     font-size="46.954"
     y="-469.14"
     x="256.72"
     font-family="Arial"
     text-anchor="middle" />
  <text
     id="text554"
     font-size="129.23"
     line-height="125%"
     y="-246.37"
     x="1337.38"
     font-family="Gentium Book Basic"
     word-spacing="0"
     letter-spacing="0">
    <tspan
       id="tspan556"
       y="-246.37"
       x="1337.38" />
  </text>
  <text
     id="text558"
     transform="scale(4.0128 .2492)"
     font-size="46.954"
     y="-1337.79"
     x="530.36"
     font-family="Arial"
     text-anchor="middle" />
  <text
     id="text560"
     font-size="129.23"
     line-height="125%"
     y="-326.38"
     x="1918.65"
     font-family="Gentium Book Basic"
     word-spacing="0"
     letter-spacing="0">
    <tspan
       id="tspan562"
       y="-326.38"
       x="1918.65" />
  </text>
  <text
     id="text564"
     transform="scale(4.0128 .2492)"
     font-size="46.954"
     y="-1658.83"
     x="675.21"
     font-family="Arial"
     text-anchor="middle" />
  <text
     id="text566"
     font-size="129.23"
     line-height="125%"
     y="-798.78"
     x="1529.53"
     font-family="Gentium Book Basic"
     word-spacing="0"
     letter-spacing="0">
    <tspan
       id="tspan568"
       y="-798.78"
       x="1529.53" />
  </text>
  <text
     id="text570"
     transform="scale(4.0128 .2492)"
     font-size="46.954"
     y="-3554.47"
     x="578.24"
     font-family="Arial"
     text-anchor="middle" />
  <text
     id="text572"
     font-size="129.23"
     line-height="125%"
     y="-878.78"
     x="2110.79"
     font-family="Gentium Book Basic"
     word-spacing="0"
     letter-spacing="0">
    <tspan
       id="tspan574"
       y="-878.78"
       x="2110.79" />
  </text>
  <text
     id="text576"
     transform="scale(4.0128 .2492)"
     font-size="46.954"
     y="-3875.5"
     x="723.09"
     font-family="Arial"
     text-anchor="middle" />
  <g
     id="g578"
     font-family="Gentium Book Basic"
     line-height="125%"
     word-spacing="0"
     letter-spacing="0">
    <text
       id="text580"
       y="535.94"
       x="277.99"
       font-size="208.33">
      <tspan
         id="tspan582"
         y="535.94"
         x="277.99" />
    </text>
    <text
       id="text584"
       y="227.12"
       x="104.96"
       font-size="129.23">
      <tspan
         id="tspan586"
         y="227.12"
         x="104.96" />
    </text>
  </g>
  <text
     id="text588"
     transform="scale(4.0128 .2492)"
     font-size="46.954"
     y="562.23"
     x="223.24"
     font-family="Arial"
     text-anchor="middle" />
  <text
     id="text590"
     font-size="129.23"
     line-height="125%"
     y="147.11"
     x="686.23"
     font-family="Gentium Book Basic"
     word-spacing="0"
     letter-spacing="0">
    <tspan
       id="tspan592"
       y="147.11"
       x="686.23" />
  </text>
  <text
     id="text594"
     transform="scale(4.0128 .2492)"
     font-size="46.954"
     y="241.19"
     x="368.09"
     font-family="Arial"
     text-anchor="middle" />
  <text
     id="text596"
     font-size="129.23"
     line-height="125%"
     y="-34.14"
     x="-385.35"
     font-family="Gentium Book Basic"
     word-spacing="0"
     letter-spacing="0">
    <tspan
       id="tspan598"
       y="-34.14"
       x="-385.35" />
  </text>
  <text
     id="text600"
     transform="scale(4.0128 .2492)"
     font-size="46.954"
     y="-486.16"
     x="101.05"
     font-family="Arial"
     text-anchor="middle" />
  <text
     id="text602"
     font-size="129.23"
     line-height="125%"
     y="-250.62"
     x="712.7"
     font-family="Gentium Book Basic"
     word-spacing="0"
     letter-spacing="0">
    <tspan
       id="tspan604"
       y="-250.62"
       x="712.7" />
  </text>
  <text
     id="text606"
     transform="scale(4.0128 .2492)"
     font-size="46.954"
     y="-1354.83"
     x="374.69"
     font-family="Arial"
     text-anchor="middle" />
  <text
     id="text608"
     font-size="129.23"
     line-height="125%"
     y="-330.62"
     x="1293.97"
     font-family="Gentium Book Basic"
     word-spacing="0"
     letter-spacing="0">
    <tspan
       id="tspan610"
       y="-330.62"
       x="1293.97" />
  </text>
  <text
     id="text612"
     transform="scale(4.0128 .2492)"
     font-size="46.954"
     y="-1675.86"
     x="519.54"
     font-family="Arial"
     text-anchor="middle" />
  <text
     id="text614"
     font-size="129.23"
     line-height="125%"
     y="-803.02"
     x="904.85"
     font-family="Gentium Book Basic"
     word-spacing="0"
     letter-spacing="0">
    <tspan
       id="tspan616"
       y="-803.02"
       x="904.85" />
  </text>
  <text
     id="text618"
     transform="scale(4.0128 .2492)"
     font-size="46.954"
     y="-3571.51"
     x="422.57"
     font-family="Arial"
     text-anchor="middle" />
  <text
     id="text620"
     font-size="129.23"
     line-height="125%"
     y="-883.02"
     x="1486.12"
     font-family="Gentium Book Basic"
     word-spacing="0"
     letter-spacing="0">
    <tspan
       id="tspan622"
       y="-883.02"
       x="1486.12" />
  </text>
  <text
     id="text624"
     transform="scale(4.0128 .2492)"
     font-size="46.954"
     y="-3892.55"
     x="567.42"
     font-family="Arial"
     text-anchor="middle" />
  <g
     id="g626"
     font-family="Gentium Book Basic"
     line-height="125%"
     word-spacing="0"
     letter-spacing="0">
    <text
       id="text628"
       y="531.69"
       x="-346.69"
       font-size="208.33">
      <tspan
         id="tspan630"
         y="531.69"
         x="-346.69" />
    </text>
    <text
       id="text632"
       y="-15.584"
       x="-931.86"
       font-size="200">
      <tspan
         id="tspan634"
         y="-15.584"
         x="-931.86" />
    </text>
  </g>
  <text
     id="text636"
     transform="scale(4.0128 .2492)"
     font-size="72.67"
     y="-602.91"
     x="72.797"
     font-family="Arial"
     text-anchor="middle" />
  <text
     id="text638"
     font-size="200"
     line-height="125%"
     y="37.559"
     x="-186.48"
     font-family="Gentium Book Basic"
     word-spacing="0"
     letter-spacing="0">
    <tspan
       id="tspan640"
       y="37.559"
       x="-186.48" />
  </text>
  <text
     id="text642"
     transform="scale(4.0128 .2492)"
     font-size="72.67"
     y="-389.66"
     x="258.55"
     font-family="Arial"
     text-anchor="middle" />
  <text
     id="text644"
     font-size="200"
     line-height="125%"
     y="-86.26"
     x="713.13"
     font-family="Gentium Book Basic"
     word-spacing="0"
     letter-spacing="0">
    <tspan
       id="tspan646"
       y="-86.26"
       x="713.13" />
  </text>
  <text
     id="text648"
     transform="scale(4.0128 .2492)"
     font-size="72.67"
     y="-886.51"
     x="482.73"
     font-family="Arial"
     text-anchor="middle" />
  <text
     id="text650"
     font-size="200"
     line-height="125%"
     y="-138.9"
     x="-159.02"
     font-family="Gentium Book Basic"
     word-spacing="0"
     letter-spacing="0">
    <tspan
       id="tspan652"
       y="-138.9"
       x="-159.02" />
  </text>
  <text
     id="text654"
     transform="scale(4.0128 .2492)"
     font-size="72.67"
     y="-1097.73"
     x="265.39"
     font-family="Arial"
     text-anchor="middle" />
  <text
     id="text656"
     font-size="200"
     line-height="125%"
     y="-262.71"
     x="740.6"
     font-family="Gentium Book Basic"
     word-spacing="0"
     letter-spacing="0">
    <tspan
       id="tspan658"
       y="-262.71"
       x="740.6" />
  </text>
  <text
     id="text660"
     transform="scale(4.0128 .2492)"
     font-size="72.67"
     y="-1594.59"
     x="489.57"
     font-family="Arial"
     text-anchor="middle" />
  <text
     id="text662"
     font-size="200"
     line-height="125%"
     y="312.99"
     x="-3169"
     font-family="Gentium Book Basic"
     word-spacing="0"
     letter-spacing="0">
    <tspan
       id="tspan664"
       y="312.99"
       x="-3169" />
  </text>
  <text
     id="text666"
     transform="scale(4.0128 .2492)"
     font-size="72.67"
     y="715.59"
     x="-484.7"
     font-family="Arial"
     text-anchor="middle" />
  <text
     id="text668"
     font-size="200"
     line-height="125%"
     y="77.56"
     x="-1240.72"
     font-family="Gentium Book Basic"
     word-spacing="0"
     letter-spacing="0">
    <tspan
       id="tspan670"
       y="77.56"
       x="-1240.72" />
  </text>
  <text
     id="text672"
     transform="scale(4.0128 .2492)"
     font-size="72.67"
     y="-229.14"
     x="-4.17"
     font-family="Arial"
     text-anchor="middle" />
  <text
     id="text674"
     font-size="200"
     line-height="125%"
     y="130.7"
     x="-495.34"
     font-family="Gentium Book Basic"
     word-spacing="0"
     letter-spacing="0">
    <tspan
       id="tspan676"
       y="130.7"
       x="-495.34" />
  </text>
  <text
     id="text678"
     transform="scale(4.0128 .2492)"
     font-size="72.67"
     y="-15.889"
     x="181.58"
     font-family="Arial"
     text-anchor="middle" />
  <text
     id="text680"
     font-size="200"
     line-height="125%"
     y="6.884"
     x="404.27"
     font-family="Gentium Book Basic"
     word-spacing="0"
     letter-spacing="0">
    <tspan
       id="tspan682"
       y="6.884"
       x="404.27" />
  </text>
  <text
     id="text684"
     transform="scale(4.0128 .2492)"
     font-size="72.67"
     y="-512.75"
     x="405.76"
     font-family="Arial"
     text-anchor="middle" />
  <text
     id="text686"
     font-size="200"
     line-height="125%"
     y="-45.754"
     x="-467.88"
     font-family="Gentium Book Basic"
     word-spacing="0"
     letter-spacing="0">
    <tspan
       id="tspan688"
       y="-45.754"
       x="-467.88" />
  </text>
  <text
     id="text690"
     transform="scale(4.0128 .2492)"
     font-size="72.67"
     y="-723.97"
     x="188.42"
     font-family="Arial"
     text-anchor="middle" />
  <text
     id="text692"
     font-size="200"
     line-height="125%"
     y="-169.57"
     x="431.74"
     font-family="Gentium Book Basic"
     word-spacing="0"
     letter-spacing="0">
    <tspan
       id="tspan694"
       y="-169.57"
       x="431.74" />
  </text>
  <text
     id="text696"
     transform="scale(4.0128 .2492)"
     font-size="72.67"
     y="-1220.82"
     x="412.61"
     font-family="Arial"
     text-anchor="middle" />
  <text
     id="text698"
     font-size="200"
     line-height="125%"
     y="406.13"
     x="-3477.86"
     font-family="Gentium Book Basic"
     word-spacing="0"
     letter-spacing="0">
    <tspan
       id="tspan700"
       y="406.13"
       x="-3477.86" />
  </text>
  <text
     id="text702"
     transform="scale(4.0128 .2492)"
     font-size="72.67"
     y="1089.35"
     x="-561.67"
     font-family="Arial"
     text-anchor="middle" />
  <text
     id="text704"
     font-size="200"
     line-height="125%"
     y="-39.3"
     x="-1955.29"
     font-family="Gentium Book Basic"
     word-spacing="0"
     letter-spacing="0">
    <tspan
       id="tspan706"
       y="-39.3"
       x="-1955.29" />
  </text>
  <text
     id="text708"
     transform="scale(4.0128 .2492)"
     font-size="72.67"
     y="-698.07"
     x="-182.24"
     font-family="Arial"
     text-anchor="middle" />
  <text
     id="text710"
     font-size="200"
     line-height="125%"
     y="13.844"
     x="-1209.91"
     font-family="Gentium Book Basic"
     word-spacing="0"
     letter-spacing="0">
    <tspan
       id="tspan712"
       y="13.844"
       x="-1209.91" />
  </text>
  <text
     id="text714"
     transform="scale(4.0128 .2492)"
     font-size="72.67"
     y="-484.82"
     x="3.507"
     font-family="Arial"
     text-anchor="middle" />
  <text
     id="text716"
     font-size="200"
     line-height="125%"
     y="-109.97"
     x="-310.3"
     font-family="Gentium Book Basic"
     word-spacing="0"
     letter-spacing="0">
    <tspan
       id="tspan718"
       y="-109.97"
       x="-310.3" />
  </text>
  <text
     id="text720"
     transform="scale(4.0128 .2492)"
     font-size="72.67"
     y="-981.67"
     x="227.69"
     font-family="Arial"
     text-anchor="middle" />
  <text
     id="text722"
     font-size="200"
     line-height="125%"
     y="-162.61"
     x="-1182.45"
     font-family="Gentium Book Basic"
     word-spacing="0"
     letter-spacing="0">
    <tspan
       id="tspan724"
       y="-162.61"
       x="-1182.45" />
  </text>
  <text
     id="text726"
     transform="scale(4.0128 .2492)"
     font-size="72.67"
     y="-1192.89"
     x="10.351"
     font-family="Arial"
     text-anchor="middle" />
  <text
     id="text728"
     font-size="200"
     line-height="125%"
     y="-286.43"
     x="-282.83"
     font-family="Gentium Book Basic"
     word-spacing="0"
     letter-spacing="0">
    <tspan
       id="tspan730"
       y="-286.43"
       x="-282.83" />
  </text>
  <text
     id="text732"
     transform="scale(4.0128 .2492)"
     font-size="72.67"
     y="-1689.75"
     x="234.54"
     font-family="Arial"
     text-anchor="middle" />
  <text
     id="text734"
     font-size="200"
     line-height="125%"
     y="289.27"
     x="-4192.43"
     font-family="Gentium Book Basic"
     word-spacing="0"
     letter-spacing="0">
    <tspan
       id="tspan736"
       y="289.27"
       x="-4192.43" />
  </text>
  <text
     id="text738"
     transform="scale(4.0128 .2492)"
     font-size="72.67"
     y="620.43"
     x="-739.74"
     font-family="Arial"
     text-anchor="middle" />
  <path
     id="path740"
     d="m 427.8021,170.20315 -42.94873,0 0,-104.940438 -257.69795,0 0,104.940438 -42.948727,0 c -13.424272,0 -24.310969,10.88111 -24.310969,24.31097 l 0,126.4176 c 0,13.42987 10.886697,24.31097 24.310969,24.31097 l 8.912252,0 0,-56.72792 34.035075,0 0,62.0001 257.69796,0 0,-62.0001 34.03507,0 0,56.72792 8.91226,0 c 13.42427,0 24.31097,-10.8811 24.31097,-24.31097 l 0,-126.4176 c 0,-13.42986 -10.8867,-24.31097 -24.31097,-24.31097 m -306.31151,51.05332 -32.418354,0 0,-6.48647 32.418354,0 0,6.48647 m 248.78291,114.66595 -228.52144,0 0,-47.41184 228.52144,0 0,47.40625 m 0,-134.92742 -228.52144,0 0,-121.149618 228.52144,0 0,121.149618 m -37.19587,-88.31206 -154.37843,0 0,-10.0455 154.37843,0 0,10.0455 m 0,35.26893 -154.37843,0 0,-10.0455 154.37843,0 0,10.0455 m 0,32.98986 -154.37843,0 0,-10.04549 154.37843,0 0,10.04549 m -38.64072,242.70447 67.81304,0 0,17.01824 -67.81304,0 c -2.64936,3.66662 -6.93362,6.07844 -11.80615,6.07844 l -53.49028,0 c -4.86695,0 -9.15539,-2.41182 -11.80615,-6.07844 l -59.30323,0 0,-17.01824 59.30323,0 c 2.64936,-3.66663 6.93361,-6.07844 11.80615,-6.07844 l 12.15548,0 0,-12.15549 c 0,-4.86694 2.41182,-9.15539 6.07844,-11.80615 l 0,-31.34659 17.01824,0 0,31.34659 c 3.66663,2.64937 6.07844,6.93362 6.07844,11.80615 l 0,12.15549 12.15549,0 c 4.87253,0 9.15539,2.41181 11.80615,6.07844"
     inkscape:connector-curvature="0"
     style="fill:#BFBFBF" />
</svg>
