<?xml version='1.0' encoding='UTF-8' standalone='no'?>
<!-- Created with Inkscape (http://www.inkscape.org/) -->

<svg xmlns:cc='http://creativecommons.org/ns#' xmlns:dc='http://purl.org/dc/elements/1.1/' sodipodi:docname='modem-symbolic.svg' inkscape:export-filename='/home/sam/dev/RESOURCES/gnome-icon-theme-symbolic/src/gnome-stencils.png' inkscape:export-xdpi='90' inkscape:export-ydpi='90' height='16' id='svg7384' xmlns:inkscape='http://www.inkscape.org/namespaces/inkscape' xmlns:osb='http://www.openswatchbook.org/uri/2009/osb' xmlns:rdf='http://www.w3.org/1999/02/22-rdf-syntax-ns#' xmlns:sodipodi='http://sodipodi.sourceforge.net/DTD/sodipodi-0.dtd' xmlns:svg='http://www.w3.org/2000/svg' version='1.1' inkscape:version='0.91 r13725' width='16' xmlns='http://www.w3.org/2000/svg'>
  <metadata id='metadata90'>
    <rdf:RDF>
      <cc:Work rdf:about=''>
        <dc:format>image/svg+xml</dc:format>
        <dc:type rdf:resource='http://purl.org/dc/dcmitype/StillImage'/>
        <dc:title>Gnome Symbolic Icon Theme</dc:title>
      </cc:Work>
    </rdf:RDF>
  </metadata>
  <sodipodi:namedview inkscape:bbox-nodes='true' inkscape:bbox-paths='true' bordercolor='#666666' borderopacity='1' inkscape:current-layer='layer10' inkscape:cx='9.54878' inkscape:cy='4.80213' gridtolerance='10' inkscape:guide-bbox='true' guidetolerance='10' id='namedview88' inkscape:object-nodes='true' inkscape:object-paths='false' objecttolerance='10' pagecolor='#3a3b39' inkscape:pageopacity='1' inkscape:pageshadow='2' showborder='false' showgrid='false' showguides='true' inkscape:snap-bbox='true' inkscape:snap-bbox-midpoints='false' inkscape:snap-global='false' inkscape:snap-grids='true' inkscape:snap-nodes='false' inkscape:snap-others='false' inkscape:snap-to-guides='true' inkscape:window-height='1376' inkscape:window-maximized='1' inkscape:window-width='2560' inkscape:window-x='0' inkscape:window-y='27' inkscape:zoom='1'>
    <inkscape:grid dotted='false' empspacing='2' enabled='true' id='grid4866' originx='159.9998' originy='350' snapvisiblegridlinesonly='true' spacingx='1px' spacingy='1px' type='xygrid' visible='true'/>
  </sodipodi:namedview>
  <title id='title9167'>Gnome Symbolic Icon Theme</title>
  <defs id='defs7386'>
    <linearGradient gradientTransform='matrix(-2.7365795,0.28202934,-0.18908311,-0.99988321,239.54008,-879.45557)' id='linearGradient19282' osb:paint='solid'>
      <stop id='stop19284' offset='0' style='stop-color:#666666;stop-opacity:1;'/>
    </linearGradient>
  </defs>
  <g inkscape:groupmode='layer' id='layer9' inkscape:label='status' style='display:inline' transform='translate(-81.0004,-567)'/>
  <g inkscape:groupmode='layer' id='layer10' inkscape:label='devices' style='display:inline' transform='translate(-81.0004,-567)'>

    <path inkscape:connector-curvature='0' d='m 92.10532,577 c -0.78136,0.64834 -1.68021,1.51805 -3.06472,2.0098 l -7.0404,-0.01 0,3 14,0 0,-3 -2,-2 z m -0.60512,1.79687 c 0.38953,0 0.70313,0.3136 0.70313,0.70313 0,0.38953 -0.3136,0.70313 -0.70313,0.70313 -0.38953,0 -0.70313,-0.3136 -0.70313,-0.70313 0,-0.38953 0.3136,-0.70313 0.70313,-0.70313 z m 2,0.0234 c 0.37655,0 0.67969,0.30314 0.67969,0.67969 0,0.37655 -0.30314,0.67969 -0.67969,0.67969 -0.37655,0 -0.67969,-0.30314 -0.67969,-0.67969 0,-0.37655 0.30314,-0.67969 0.67969,-0.67969 z' id='path26971' sodipodi:nodetypes='ccccccccssssssssss' style='color:#000000;display:inline;overflow:visible;visibility:visible;fill:#545C70;fill-opacity:1;fill-rule:nonzero;stroke:none;stroke-width:2;marker:none;enable-background:new'/>
    <path inkscape:connector-curvature='0' d='m 92.446603,570.05447 c 0.327975,0 0.594959,0.26223 0.594959,0.59496 l 0,0.0383 c -0.01051,4.06126 -3.306079,7.35062 -7.36981,7.35062 l -0.01916,0 c -0.334607,0 -0.594989,-0.27391 -0.594989,-0.61415 l 0,-0.61415 0,-1.22831 c 0,-0.34023 0.273912,-0.61414 0.614151,-0.61414 l 1.228301,0 c 0.34024,0 0.614151,0.27391 0.614151,0.61414 l 0,0.28789 c 1.570298,-0.55512 2.803519,-1.78834 3.358638,-3.35864 l -0.287883,0 c -0.340246,0 -0.61415,-0.27391 -0.61415,-0.61415 l 0,-1.2283 c 0,-0.34025 0.273904,-0.61415 0.61415,-0.61415 l 0.614151,0 0.614151,0 0.594958,0 0.01916,0 0.01916,0 z' id='rect5922-4' style='display:inline;opacity:1;fill:#545C70;fill-opacity:1;stroke:none;enable-background:new'/>
  </g>
  <g inkscape:groupmode='layer' id='layer11' inkscape:label='apps' transform='translate(-81.0004,-567)'/>
  <g inkscape:groupmode='layer' id='layer13' inkscape:label='places' style='display:inline' transform='translate(-81.0004,-567)'/>
  <g inkscape:groupmode='layer' id='layer14' inkscape:label='mimetypes' transform='translate(-81.0004,-567)'/>
  <g inkscape:groupmode='layer' id='layer15' inkscape:label='emblems' style='display:inline' transform='translate(-81.0004,-567)'/>
  <g inkscape:groupmode='layer' id='g71291' inkscape:label='emotes' style='display:inline' transform='translate(-81.0004,-567)'/>
  <g inkscape:groupmode='layer' id='g4953' inkscape:label='categories' style='display:inline' transform='translate(-81.0004,-567)'/>
  <g inkscape:groupmode='layer' id='layer12' inkscape:label='actions' style='display:inline' transform='translate(-81.0004,-567)'/>
</svg>
